#VRML V2.0 utf8
#Generated by NISTMonte
WorldInfo {
 title "NISTMonte Trajectory"
 info ["See http://www.cstl.nist.gov/div837/Division/home.html for more information"]
}
Viewpoint {
 fieldOfView 0.785398
 position 0 5 20000
 orientation -1 -0 -0 1.5708
 description "Y-Axis"
}
Viewpoint {
 fieldOfView 0.785398
 position 0 0 19995
 orientation 1 0 0 3.1415926
 description "Gun"
}
Viewpoint {
 fieldOfView 0.785398
 position -5 0 20000
 orientation 0 -1 0 1.5708
 description "X-Axis"
}




#Prototype for a trajectory segment
PROTO Segment [
 field SFRotation rot 1 0 0 0
 field SFVec3f offset 0 0 0
 field SFFloat length 0.1
 field SFColor color 1 1 1
]
{
 Transform {
  rotation IS rot
  translation IS offset
  children [
   Shape {
    geometry Cylinder {
     radius 0.001
     height IS length
    }
    appearance Appearance {
     material Material {
      emissiveColor IS color
     }
    }
   }
  ]
 }
}
Segment { rot -1 0 -0 1.5708 offset 0.01221 0.00848 20000.02009 length 0.04018 color 0 0 1 }
Segment { rot -0.99764 0 0.06859 1.64791 offset 0.01237 0.00866 20000.04256 length 0.0048 color 0 0 1 }
Segment { rot -0.99996 0 0.00842 1.63307 offset 0.01267 0.00984 20000.06084 length 0.03184 color 0 0 1 }
Segment { rot -0.99875 0 0.04993 1.54466 offset 0.01289 0.01078 20000.07846 length 0.00347 color 0 0 1 }
Segment { rot -0.98668 0 -0.16268 1.34342 offset 0.01288 0.0106 20000.08077 length 0.0012 color 0 0 1 }
Segment { rot -0.95335 0 -0.30188 1.32587 offset 0.01073 0.00876 20000.08786 length 0.01409 color 0 0 1 }
Segment { rot -0.96428 0 -0.26488 1.29109 offset 0.00862 0.00701 20000.09452 length 0.00031 color 0 0 1 }
Segment { rot -0.96221 0 -0.27229 1.27788 offset 0.00801 0.00633 20000.09669 length 0.0044 color 0 0 1 }
Segment { rot -0.93071 0 -0.36575 1.23221 offset 0.00704 0.00531 20000.09974 length 0.00233 color 0 0 1 }
Segment { rot -0.92516 0 -0.37959 1.14017 offset 0.00574 0.00384 20000.10295 length 0.0052 color 0 0 1 }
Segment { rot -0.82142 0 -0.57032 1.05748 offset 0.00288 0.00082 20000.10795 length 0.00788 color 0 0 1 }
Segment { rot -0.86916 0 -0.49452 1.06519 offset -0.00024 -0.00242 20000.11282 length 0.00538 color 0 0 1 }
Segment { rot -0.84947 0 -0.52763 1.02477 offset -0.0081 -0.01144 20000.12565 length 0.02972 color 0 0 1 }
Segment { rot -0.88372 0 -0.46802 1.03636 offset -0.01549 -0.02002 20000.13773 length 0.0034 color 0 0 1 }
Segment { rot -0.92895 0 -0.37022 1.04922 offset -0.01807 -0.02383 20000.14377 length 0.01181 color 0 0 1 }
Segment { rot -0.9319 0 -0.36272 1.05278 offset -0.02137 -0.02898 20000.15215 length 0.00893 color 0 0 1 }
Segment { rot -0.83245 0 -0.5541 0.92571 offset -0.02433 -0.0333 20000.15809 length 0.00701 color 0 0 1 }
Segment { rot -0.90283 0 -0.42999 1.00816 offset -0.0262 -0.03587 20000.16109 length 0.00175 color 0 0 1 }
Segment { rot -0.87698 0 -0.48052 1.03594 offset -0.02961 -0.04016 20000.16742 length 0.015 color 0 0 1 }
Segment { rot -0.87999 0 -0.475 1.02869 offset -0.03603 -0.04819 20000.17922 length 0.01631 color 0 0 1 }
Segment { rot -0.89114 0 -0.45372 1.06762 offset -0.04002 -0.05321 20000.18669 length 0.00339 color 0 0 1 }
Segment { rot -0.91758 0 -0.39756 0.92566 offset -0.04142 -0.05539 20000.18968 length 0.00454 color 0 0 1 }
Segment { rot -0.93049 0 -0.36633 0.94268 offset -0.04237 -0.05722 20000.19193 length 0.00157 color 0 0 1 }
Segment { rot -0.86558 0 -0.50078 1.70318 offset -0.04599 -0.05678 20000.19837 length 0.01365 color 0 0 1 }
Segment { rot -0.85379 0 -0.52061 1.69979 offset -0.05153 -0.05534 20000.20777 length 0.00835 color 0 0 1 }
Segment { rot -0.83258 0 -0.55391 1.95264 offset -0.05372 -0.05478 20000.21135 length 0.00013 color 0 0 1 }
Segment { rot -0.90929 0 -0.41616 2.02994 offset -0.05411 -0.05433 20000.21218 length 0.00191 color 0 0 1 }
Segment { rot -0.90461 0 -0.42624 2.02996 offset -0.05529 -0.05296 20000.21469 length 0.00429 color 0 0 1 }
Segment { rot -0.94667 0 -0.32221 1.77315 offset -0.05838 -0.05057 20000.2231 length 0.01438 color 0 0 1 }
Segment { rot -0.81148 0 -0.58438 1.77164 offset -0.06246 -0.04849 20000.23228 length 0.00633 color 0 0 1 }
Segment { rot -0.82371 0 -0.56702 1.73372 offset -0.06514 -0.04761 20000.23607 length 0.00313 color 0 0 1 }
Segment { rot -0.88695 0 -0.46186 1.82397 offset -0.06981 -0.04523 20000.24462 length 0.01695 color 0 0 1 }
Segment { rot -0.87716 0 -0.48019 1.82331 offset -0.07604 -0.04179 20000.25636 length 0.01052 color 0 0 1 }
Segment { rot -0.88239 0 -0.47051 1.79814 offset -0.07864 -0.0404 20000.26111 length 0.00066 color 0 0 1 }
Segment { rot -0.94832 0 -0.31733 1.81789 offset -0.07937 -0.03987 20000.26313 length 0.00378 color 0 0 1 }
Segment { rot -0.90168 0 -0.4324 1.6975 offset -0.08228 -0.03872 20000.26972 length 0.01085 color 0 0 1 }
Segment { rot -0.92042 0 -0.39094 1.67359 offset -0.08562 -0.03777 20000.27695 length 0.00519 color 0 0 1 }
Segment { rot -0.9312 0 -0.36452 1.27895 offset -0.08666 -0.03753 20000.27941 length 0.0002 color 0 0 1 }
Segment { rot -0.94328 0 -0.33199 1.26188 offset -0.0874 -0.03823 20000.2815 length 0.00445 color 0 0 1 }
Segment { rot -0.94011 0 -0.34087 1.13814 offset -0.08828 -0.03916 20000.28401 length 0.00121 color 0 0 1 }
Segment { rot -0.9418 0 -0.33617 1.13164 offset -0.08875 -0.03981 20000.28532 length 0.00186 color 0 0 1 }
Segment { rot -0.95229 0 -0.30518 1.09798 offset -0.09041 -0.04251 20000.2904 length 0.01012 color 0 0 1 }
Segment { rot -0.97132 0 -0.23778 1.19053 offset -0.09184 -0.0449 20000.29491 length 0.00047 color 0 0 1 }
Segment { rot -0.97939 0 -0.20197 0.97333 offset -0.09269 -0.04767 20000.29897 length 0.00952 color 0 0 1 }
Segment { rot -0.98963 0 -0.14367 0.96863 offset -0.0936 -0.05092 20000.30366 length 0.00203 color 0 0 1 }
Segment { rot -0.98573 0 -0.16833 0.96532 offset -0.09441 -0.05433 20000.30852 length 0.00994 color 0 0 1 }
Segment { rot -0.96294 0 -0.26973 0.98709 offset -0.0953 -0.05764 20000.31325 length 0.00176 color 0 0 1 }
Segment { rot -0.8329 0 -0.55343 0.9212 offset -0.09783 -0.06133 20000.31747 length 0.01058 color 0 0 1 }
Segment { rot -0.89028 0 -0.45541 1.02475 offset -0.10187 -0.06681 20000.32432 length 0.00879 color 0 0 1 }
Segment { rot -0.90864 0 -0.41759 1.04072 offset -0.10664 -0.07339 20000.33433 length 0.017 color 0 0 1 }
Segment { rot -0.91892 0 -0.39445 1.0492 offset -0.11104 -0.07963 20000.34409 length 0.00779 color 0 0 1 }
Segment { rot -0.56802 0 -0.82301 1.24549 offset -0.119 -0.08428 20000.35177 length 0.01701 color 0 0 1 }
Segment { rot -0.62352 0 -0.7818 1.27646 offset -0.12852 -0.08812 20000.35865 length 0.00773 color 0 0 1 }
Segment { rot -0.51546 0 -0.85691 1.30903 offset -0.13708 -0.09102 20000.36437 length 0.0137 color 0 0 1 }
Segment { rot -0.39535 0 -0.91853 1.34452 offset -0.14724 -0.09392 20000.36971 length 0.01004 color 0 0 1 }
Segment { rot -0.39768 0 -0.91752 1.39611 offset -0.15215 -0.09512 20000.37183 length 0.00091 color 0 0 1 }
Segment { rot -0.33597 0 -0.94187 1.41447 offset -0.15711 -0.09596 20000.37363 length 0.00977 color 0 0 1 }
Segment { rot -0.35276 0 -0.93571 1.3696 offset -0.168 -0.09811 20000.37764 length 0.01385 color 0 0 1 }
Segment { rot -0.39992 0 -0.91655 1.38104 offset -0.17897 -0.10046 20000.38205 length 0.01027 color 0 0 1 }
Segment { rot -0.38156 0 -0.92434 1.38486 offset -0.18705 -0.10213 20000.38549 length 0.00761 color 0 0 1 }
Segment { rot -0.37218 0 -0.92816 1.32755 offset -0.19114 -0.103 20000.38718 length 0.00141 color 0 0 1 }
Segment { rot -0.42806 0 -0.90375 1.02045 offset -0.19424 -0.10484 20000.3886 length 0.00639 color 0 0 1 }
Segment { rot -0.36749 0 -0.93003 1.0222 offset -0.20899 -0.11459 20000.39462 length 0.03098 color 0 0 1 }
Segment { rot -0.34827 0 -0.9374 1.00001 offset -0.22388 -0.12445 20000.40044 length 0.0066 color 0 0 1 }
Segment { rot -0.35736 0 -0.93397 0.98763 offset -0.24119 -0.13662 20000.40704 length 0.03773 color 0 0 1 }
Segment { rot -0.5614 0 -0.82755 1.23579 offset -0.25683 -0.1474 20000.4133 length 0.00239 color 0 0 1 }
Segment { rot -0.59336 0 -0.80494 1.21475 offset -0.2596 -0.14864 20000.41528 length 0.00487 color 0 0 1 }
Segment { rot -0.64531 0 -0.76392 1.09029 offset -0.26807 -0.15401 20000.42224 length 0.01957 color 0 0 1 }
Segment { rot -0.54766 0 -0.8367 0.9319 offset -0.27874 -0.16213 20000.43048 length 0.01203 color 0 0 1 }
Segment { rot -0.55419 0 -0.83239 0.94294 offset -0.2867 -0.16913 20000.43574 length 0.01163 color 0 0 1 }
Segment { rot -0.51406 0 -0.85776 0.95708 offset -0.29383 -0.17519 20000.44027 length 0.00917 color 0 0 1 }
Segment { rot -0.53931 0 -0.84211 0.9756 offset -0.29901 -0.17941 20000.44346 length 0.00564 color 0 0 1 }
Segment { rot -0.48792 0 -0.87289 0.94406 offset -0.30485 -0.1842 20000.44688 length 0.01094 color 0 0 1 }
Segment { rot -0.41988 0 -0.90758 1.17187 offset -0.31311 -0.18945 20000.45108 length 0.01051 color 0 0 1 }
Segment { rot -0.41111 0 -0.91158 1.19356 offset -0.31963 -0.19241 20000.45407 length 0.005 color 0 0 1 }
Segment { rot -0.46859 0 -0.88342 1.21717 offset -0.32758 -0.19577 20000.45812 length 0.01408 color 0 0 1 }
Segment { rot -0.49025 0 -0.87158 1.20292 offset -0.33422 -0.19857 20000.46167 length 0.00199 color 0 0 1 }
Segment { rot -0.51687 0 -0.85606 1.10743 offset -0.33974 -0.20167 20000.46496 length 0.01229 color 0 0 1 }
Segment { rot 0.99983 0 -0.01843 2.41251 offset -0.34449 -0.20147 20000.46517 length 0.00789 color 0 0 1 }
Segment { rot 0.97145 0 0.23725 2.79279 offset -0.34448 -0.19789 20000.46232 length 0.00137 color 0 0 1 }
Segment { rot 0.90547 0 0.42441 2.77712 offset -0.34342 -0.19101 20000.45994 length 0.01334 color 0 0 1 }
Segment { rot 0.79685 0 0.60418 2.72976 offset -0.3423 -0.18438 20000.45764 length 0.00088 color 0 0 1 }
Segment { rot -0.42661 0 0.90444 2.49633 offset -0.34191 -0.18356 20000.45764 length 0.00106 color 0 0 1 }
Segment { rot -0.53671 0 0.84377 2.492 offset -0.33989 -0.18043 20000.45888 length 0.00677 color 0 0 1 }
Segment { rot -0.57641 0 0.81716 2.49109 offset -0.3356 -0.17362 20000.46178 length 0.01035 color 0 0 1 }
Segment { rot -0.55236 0 0.83361 2.54517 offset -0.33184 -0.16738 20000.46438 length 0.00513 color 0 0 1 }
Segment { rot -0.49057 0 0.8714 2.52476 offset -0.33062 -0.16523 20000.46519 length 0.00007 color 0 0 1 }
Segment { rot -0.39341 0 0.91936 2.42663 offset -0.33029 -0.1648 20000.46534 length 0.00105 color 0 0 1 }
Segment { rot -0.41575 0 0.90948 2.47907 offset -0.32996 -0.16438 20000.46548 length 0.00006 color 0 0 1 }
Segment { rot -0.24412 0 0.96974 2.42492 offset -0.32978 -0.16418 20000.46553 length 0.00049 color 0 0 1 }
Segment { rot -0.29 0 0.95703 2.39929 offset -0.32952 -0.16387 20000.4656 length 0.00032 color 0 0 1 }
Segment { rot -0.26915 0 0.9631 2.42341 offset -0.32864 -0.16283 20000.46585 length 0.00247 color 0 0 1 }
Segment { rot -0.80293 0 0.59608 2.77 offset -0.32664 -0.15667 20000.4677 length 0.01122 color 0 0 1 }
Segment { rot -0.81184 0 0.58388 2.71624 offset -0.32464 -0.14845 20000.47044 length 0.00659 color 0 0 1 }
Segment { rot -0.76649 0 0.64226 2.71323 offset -0.32375 -0.14514 20000.47165 length 0.00068 color 0 0 1 }
Segment { rot -0.73451 0 0.6786 2.67004 offset -0.32186 -0.13964 20000.4737 length 0.01167 color 0 0 1 }
Segment { rot -0.77128 0 0.6365 2.70349 offset -0.31812 -0.12791 20000.47801 length 0.01443 color 0 0 1 }
Segment { rot -0.78575 0 0.61854 2.67251 offset -0.31481 -0.11705 20000.48209 length 0.00969 color 0 0 1 }
Segment { rot -0.79573 0 0.60565 2.68412 offset -0.31184 -0.10731 20000.48594 length 0.01208 color 0 0 1 }
Segment { rot -0.83467 0 0.55075 2.73545 offset -0.30948 -0.09872 20000.4892 length 0.00689 color 0 0 1 }
Segment { rot -0.8343 0 0.55132 2.7225 offset -0.30758 -0.0909 20000.49206 length 0.01019 color 0 0 1 }
Segment { rot -0.70412 0 0.71008 2.758 offset -0.30594 -0.0845 20000.49429 length 0.00376 color 0 0 1 }
Segment { rot -0.7441 0 0.66807 2.81378 offset -0.30516 -0.08153 20000.49509 length 0.00258 color 0 0 1 }
Segment { rot -0.68487 0 0.72866 2.82337 offset -0.3042 -0.07745 20000.49605 length 0.00603 color 0 0 1 }
Segment { rot -0.70012 0 0.71402 2.62706 offset -0.30259 -0.0723 20000.4976 length 0.00526 color 0 0 1 }
Segment { rot 0.27642 0 0.96104 1.45463 offset -0.2924 -0.07113 20000.49584 length 0.0194 color 0 0 1 }
Segment { rot 0.34657 0 0.93802 1.52619 offset -0.28295 -0.07226 20000.49311 length 0.00043 color 0 0 1 }
Segment { rot 0.35268 0 0.93574 1.56689 offset -0.28096 -0.07228 20000.49236 length 0.00382 color 0 0 1 }
Segment { rot 0.38109 0 0.92454 1.57194 offset -0.27209 -0.07228 20000.48877 length 0.01532 color 0 0 1 }
Segment { rot 0.38469 0 0.92305 1.56227 offset -0.26406 -0.07228 20000.48545 length 0.00205 color 0 0 1 }
Segment { rot 0.44207 0 0.89698 1.69935 offset -0.26301 -0.07227 20000.48501 length 0.00023 color 0 0 1 }
Segment { rot 0.51705 0 0.85596 1.65509 offset -0.26246 -0.07221 20000.48469 length 0.00107 color 0 0 1 }
Segment { rot 0.53434 0 0.84527 1.91875 offset -0.26 -0.07131 20000.48315 length 0.00504 color 0 0 1 }
Segment { rot 0.53533 0 0.84464 1.9001 offset -0.25759 -0.07028 20000.48162 length 0.00104 color 0 0 1 }
Segment { rot 0.52384 0 0.85182 1.87983 offset -0.2532 -0.06863 20000.47891 length 0.0098 color 0 0 1 }
Segment { rot 0.47669 0 0.87907 1.94285 offset -0.24164 -0.06377 20000.47236 length 0.01851 color 0 0 1 }
Segment { rot 0.48403 0 0.87505 1.92924 offset -0.23342 -0.06013 20000.46789 length 0.00158 color 0 0 1 }
Segment { rot 0.48463 0 0.87472 1.92656 offset -0.23108 -0.05914 20000.4666 length 0.00411 color 0 0 1 }
Segment { rot 0.45072 0 0.89266 1.89037 offset -0.2278 -0.05783 20000.46486 length 0.00377 color 0 0 1 }
Segment { rot 0.39545 0 0.91849 1.91906 offset -0.22066 -0.05505 20000.46166 length 0.01285 color 0 0 1 }
Segment { rot 0.40876 0 0.91264 2.10465 offset -0.21262 -0.05124 20000.45816 length 0.00634 color 0 0 1 }
Segment { rot 0.33623 0 0.94178 2.17437 offset -0.20966 -0.04928 20000.45687 length 0.00122 color 0 0 1 }
Segment { rot 0.284 0 0.95882 2.16527 offset -0.20252 -0.04423 20000.45473 length 0.01678 color 0 0 1 }
Segment { rot 0.30196 0 0.95332 2.15066 offset -0.19066 -0.03597 20000.45111 length 0.01302 color 0 0 1 }
Segment { rot -0.79416 0 0.6077 1.60031 offset -0.18368 -0.03231 20000.4518 length 0.00588 color 0 0 1 }
Segment { rot -0.5432 0 0.83961 1.61115 offset -0.17712 -0.032 20000.45723 length 0.01139 color 0 0 1 }
Segment { rot -0.58096 0 0.81393 1.62827 offset -0.17202 -0.03174 20000.46055 length 0.00078 color 0 0 1 }
Segment { rot -0.56131 0 0.8276 1.63997 offset -0.17098 -0.03166 20000.46127 length 0.00177 color 0 0 1 }
Segment { rot -0.55733 0 0.83029 1.58039 offset -0.16979 -0.03159 20000.46207 length 0.00109 color 0 0 1 }
Segment { rot -0.56021 0 0.82835 1.54173 offset -0.16824 -0.03163 20000.46311 length 0.00266 color 0 0 1 }
Segment { rot -0.4987 0 0.86678 1.63362 offset -0.16347 -0.0314 20000.46597 length 0.00848 color 0 0 1 }
Segment { rot -0.52673 0 0.85003 1.60216 offset -0.15806 -0.03107 20000.46916 length 0.00409 color 0 0 1 }
Segment { rot -0.51867 0 0.85498 1.63805 offset -0.15587 -0.03097 20000.47051 length 0.00106 color 0 0 1 }
Segment { rot -0.55668 0 0.83073 1.67185 offset -0.155 -0.03088 20000.47106 length 0.00101 color 0 0 1 }
Segment { rot -0.52065 0 0.85377 1.65376 offset -0.14703 -0.0301 20000.47595 length 0.01775 color 0 0 1 }
Segment { rot -0.52055 0 0.85383 1.5913 offset -0.13869 -0.02934 20000.48103 length 0.00184 color 0 0 1 }
Segment { rot -0.52008 0 0.85412 1.6203 offset -0.13783 -0.02932 20000.48156 length 0.00019 color 0 0 1 }
Segment { rot -0.54694 0 0.83717 1.57774 offset -0.1329 -0.02927 20000.48478 length 0.01159 color 0 0 1 }
Segment { rot -0.53367 0 0.84569 1.62066 offset -0.12578 -0.0291 20000.48938 length 0.00537 color 0 0 1 }
Segment { rot -0.55145 0 0.83421 1.62228 offset -0.11996 -0.02875 20000.49315 length 0.00852 color 0 0 1 }
Segment { rot -0.51586 0 0.85667 1.67122 offset -0.1147 -0.02833 20000.49654 length 0.00403 color 0 0 1 }
Segment { rot -0.56238 0 0.82688 1.65088 offset -0.10272 -0.02713 20000.50455 length 0.02489 color 0 0 1 }
Segment { rot -0.65329 0 0.75711 1.56422 offset -0.09203 -0.02614 20000.5119 length 0.00116 color 0 0 1 }
Segment { rot -0.68919 0 0.72458 1.6405 offset -0.08598 -0.0256 20000.51762 length 0.01553 color 0 0 1 }
Segment { rot -0.68362 0 0.72984 1.70384 offset -0.07731 -0.0245 20000.52582 length 0.00845 color 0 0 1 }
Segment { rot -0.68856 0 0.72518 1.73177 offset -0.06803 -0.02254 20000.53459 length 0.01738 color 0 0 1 }
Segment { rot -0.69538 0 0.71864 1.75153 offset -0.0581 -0.02021 20000.54408 length 0.01049 color 0 0 1 }
Segment { rot -0.69175 0 0.72214 1.76085 offset -0.05393 -0.01914 20000.54811 length 0.00129 color 0 0 1 }
Segment { rot -0.69767 0 0.71642 1.76605 offset -0.0504 -0.01817 20000.55154 length 0.00875 color 0 0 1 }
Segment { rot -0.68282 0 0.73059 1.78133 offset -0.04417 -0.0164 20000.55749 length 0.00885 color 0 0 1 }
Segment { rot -0.7506 0 0.66075 1.73512 offset -0.03534 -0.01405 20000.56688 length 0.01738 color 0 0 1 }
Segment { rot -0.7352 0 0.67785 1.78939 offset -0.02315 -0.01049 20000.5804 length 0.01973 color 0 0 1 }
Segment { rot -0.79709 0 0.60387 1.42504 offset -0.01595 -0.00852 20000.58836 length 0.00224 color 0 0 1 }
Segment { rot -0.82005 0 0.57229 1.41639 offset -0.01255 -0.00942 20000.59315 length 0.00965 color 0 0 1 }
Segment { rot -0.95673 0 0.29098 1.65129 offset -0.00832 -0.00975 20000.60201 length 0.01038 color 0 0 1 }
Segment { rot -0.98368 0 0.17991 1.66395 offset -0.00418 -0.00796 20000.62136 length 0.02942 color 0 0 1 }
Segment { rot -0.98545 0 0.16995 1.6797 offset -0.00138 -0.00649 20000.63671 length 0.00193 color 0 0 1 }
Segment { rot -0.98605 0 0.16647 1.88827 offset -0.00075 -0.00546 20000.64043 length 0.00593 color 0 0 1 }
Segment { rot -0.98407 0 0.17779 1.91058 offset 0.00098 -0.00201 20000.65022 length 0.01512 color 0 0 1 }
Segment { rot -0.98793 0 0.1549 1.88771 offset 0.00252 0.00107 20000.65892 length 0.00359 color 0 0 1 }
Segment { rot -0.98702 0 0.16062 1.86881 offset 0.00283 0.00171 20000.66089 length 0.00059 color 0 0 1 }
Segment { rot -0.96631 0 0.25737 1.87402 offset 0.00417 0.00338 20000.66605 length 0.01058 color 0 0 1 }
Segment { rot -0.99844 0 -0.05585 1.4982 offset 0.00519 0.00459 20000.67603 length 0.01024 color 0 0 1 }
Segment { rot -0.99805 0 -0.06236 1.49441 offset 0.00444 0.00366 20000.68844 length 0.01468 color 0 0 1 }
Segment { rot -0.99476 0 -0.10222 1.48434 offset 0.00358 0.00275 20000.69968 length 0.00794 color 0 0 1 }
Segment { rot -0.99427 0 -0.1069 1.45055 offset 0.00294 0.00214 20000.70584 length 0.00451 color 0 0 1 }
Segment { rot -0.8099 0 -0.58656 1.29105 offset 0.00021 0.00065 20000.71149 length 0.00882 color 0 0 1 }
Segment { rot -0.80641 0 -0.59136 1.28911 offset -0.00363 -0.00123 20000.71678 length 0.00479 color 0 0 1 }
Segment { rot -0.81548 0 -0.57878 1.34369 offset -0.00513 -0.00195 20000.71883 length 0.00049 color 0 0 1 }
Segment { rot -0.84544 0 -0.53407 1.24972 offset -0.00843 -0.00398 20000.72404 length 0.01249 color 0 0 1 }
Segment { rot -0.76631 0 -0.64247 1.33476 offset -0.01291 -0.00644 20000.73062 length 0.00421 color 0 0 1 }
Segment { rot -0.82098 0 -0.57095 1.34285 offset -0.01582 -0.00758 20000.73447 length 0.00572 color 0 0 1 }
Segment { rot -0.81863 0 -0.57432 1.37367 offset -0.01745 -0.00824 20000.73681 length 0.00012 color 0 0 1 }
Segment { rot -0.77898 0 -0.62705 1.40614 offset -0.01827 -0.00846 20000.73784 length 0.00255 color 0 0 1 }
Segment { rot -0.83234 0 -0.55426 1.37983 offset -0.02058 -0.0092 20000.7411 length 0.00559 color 0 0 1 }
Segment { rot -0.84192 0 -0.53961 1.39269 offset -0.02522 -0.01077 20000.74826 length 0.01176 color 0 0 1 }
Segment { rot -0.85334 0 -0.52135 1.39037 offset -0.03046 -0.01255 20000.75659 length 0.00825 color 0 0 1 }
Segment { rot -0.93944 0 -0.34273 1.42097 offset -0.033 -0.01348 20000.76122 length 0.00251 color 0 0 1 }
Segment { rot -0.93194 0 -0.36262 1.46645 offset -0.03396 -0.01382 20000.76375 length 0.00295 color 0 0 1 }
Segment { rot -0.94532 0 -0.32615 1.58793 offset -0.03559 -0.01392 20000.76832 length 0.00677 color 0 0 1 }
Segment { rot -0.91504 0 -0.40337 1.57563 offset -0.03887 -0.01383 20000.77644 length 0.01076 color 0 0 1 }
Segment { rot -0.92503 0 -0.37988 1.59113 offset -0.04367 -0.01366 20000.78777 length 0.01385 color 0 0 1 }
Segment { rot -0.98343 0 -0.18127 1.3884 offset -0.0471 -0.01434 20000.79853 length 0.00902 color 0 0 1 }
Segment { rot -0.99904 0 0.04384 1.59515 offset -0.0479 -0.01516 20000.80302 length 0.00026 color 0 0 1 }
Segment { rot -0.99905 0 -0.04355 1.682 offset -0.04792 -0.01507 20000.8039 length 0.0015 color 0 0 1 }
Segment { rot -0.99865 0 -0.05195 1.72995 offset -0.04832 -0.01386 20000.81163 length 0.01418 color 0 0 1 }
Segment { rot -0.99641 0 -0.08464 1.75681 offset -0.04902 -0.012 20000.82255 length 0.00803 color 0 0 1 }
Segment { rot -0.99687 0 -0.07904 1.72045 offset -0.04944 -0.01108 20000.82764 length 0.00234 color 0 0 1 }
Segment { rot -0.99876 0 -0.04969 1.67997 offset -0.04957 -0.01082 20000.82961 length 0.00163 color 0 0 1 }
Segment { rot -0.9979 0 -0.06483 1.69377 offset -0.04974 -0.01048 20000.8324 length 0.004 color 0 0 1 }
Segment { rot -0.99758 0 -0.0696 1.71194 offset -0.05071 -0.00852 20000.84642 length 0.02437 color 0 0 1 }
Segment { rot -0.99584 0 -0.09109 1.70377 offset -0.0517 -0.0066 20000.86002 length 0.00317 color 0 0 1 }
Segment { rot -0.99999 0 -0.00522 1.71475 offset -0.05184 -0.00626 20000.86246 length 0.00178 color 0 0 1 }
Segment { rot -0.996 0 0.08933 1.72585 offset -0.05054 -0.00385 20000.8779 length 0.02958 color 0 0 1 }
Segment { rot -0.99442 0 0.10546 1.70665 offset -0.04896 -0.00121 20000.89504 length 0.00525 color 0 0 1 }
Segment { rot -0.98832 0 0.15236 1.58511 offset -0.04842 -0.00083 20000.89937 length 0.00354 color 0 0 1 }
Segment { rot -0.98405 0 0.17792 1.53109 offset -0.04815 -0.0008 20000.90113 length 0.00001 color 0 0 1 }
Segment { rot -0.99121 0 0.13227 1.59861 offset -0.04791 -0.00075 20000.90287 length 0.0035 color 0 0 1 }
Segment { rot -0.98228 0 0.1874 1.67583 offset -0.04547 0.00054 20000.91621 length 0.02376 color 0 0 1 }
Segment { rot -0.97046 0 0.24127 1.64619 offset -0.04317 0.00181 20000.92815 length 0.00071 color 0 0 1 }
Segment { rot -0.96473 0 0.26323 1.51905 offset -0.04019 0.00127 20000.93911 length 0.02204 color 0 0 1 }
Segment { rot -0.93568 0 0.35286 1.3926 offset -0.03722 0.00066 20000.94991 length 0.00039 color 0 0 1 }
Segment { rot -0.92525 0 0.37936 1.38185 offset -0.0359 -0 20000.95315 length 0.00674 color 0 0 1 }
Segment { rot -0.94795 0 0.31843 1.42228 offset -0.03382 -0.00103 20000.95868 length 0.00526 color 0 0 1 }
Segment { rot -0.93865 0 0.34488 1.39839 offset -0.03196 -0.00193 20000.96394 length 0.00605 color 0 0 1 }
Segment { rot -0.94628 0 0.32334 1.45652 offset -0.03082 -0.00249 20000.96706 length 0.00069 color 0 0 1 }
Segment { rot -0.94273 0 0.33356 1.46361 offset -0.02639 -0.00393 20000.97961 length 0.02609 color 0 0 1 }
Segment { rot -0.94692 0 0.32147 1.46543 offset -0.02054 -0.00582 20000.9963 length 0.00948 color 0 0 1 }
Segment { rot -0.94578 0 0.32482 1.44894 offset -0.01713 -0.00704 20001.0063 length 0.01178 color 0 0 1 }
Segment { rot -0.9446 0 0.32824 1.44039 offset -0.01516 -0.00778 20001.01204 length 0.00046 color 0 0 1 }
Segment { rot -0.95783 0 0.28735 1.43549 offset -0.01402 -0.00831 20001.01578 length 0.00743 color 0 0 1 }
Segment { rot -0.93265 0 0.36078 1.40766 offset -0.01114 -0.00964 20001.02402 length 0.01023 color 0 0 1 }
Segment { rot -0.9142 0 0.40526 1.39205 offset -0.00773 -0.01118 20001.03231 length 0.00797 color 0 0 1 }
Segment { rot -0.9075 0 0.42006 1.41201 offset -0.00562 -0.01209 20001.03702 length 0.00249 color 0 0 1 }
Segment { rot -0.88786 0 0.46011 1.47414 offset -0.00416 -0.01249 20001.03997 length 0.00415 color 0 0 1 }
Segment { rot -0.88424 0 0.46704 1.48451 offset -0.00287 -0.01275 20001.04244 length 0.00144 color 0 0 1 }
Segment { rot -0.87322 0 0.48733 1.49505 offset -0.0017 -0.01294 20001.04458 length 0.00346 color 0 0 1 }
Segment { rot -0.88751 0 0.46079 1.55843 offset -0.00042 -0.01309 20001.04692 length 0.00189 color 0 0 1 }
Segment { rot -0.96579 0 0.25932 1.48094 offset 0.0007 -0.01333 20001.05031 length 0.00531 color 0 0 1 }
Segment { rot -0.91812 0 0.39631 0.64327 offset 0.00234 -0.0168 20001.05509 length 0.00807 color 0 0 1 }
Segment { rot -0.95096 0 0.3093 0.69975 offset 0.0034 -0.02042 20001.05762 length 0.00101 color 0 0 1 }
Segment { rot -0.96719 0 0.25405 0.65737 offset 0.00355 -0.02102 20001.05809 length 0.00053 color 0 0 1 }
Segment { rot -0.99659 0 0.0825 0.52675 offset 0.00386 -0.02698 20001.06158 length 0.0133 color 0 0 1 }
Segment { rot -0.99894 0 0.0461 0.49321 offset 0.00414 -0.03276 20001.06493 length 0.00008 color 0 0 1 }
Segment { rot -0.99995 0 0.0097 0.45982 offset 0.00415 -0.03367 20001.06538 length 0.00194 color 0 0 1 }
Segment { rot -0.99987 0 -0.01585 0.55606 offset 0.00415 -0.03494 20001.06606 length 0.00094 color 0 0 1 }
Segment { rot -0.99399 0 0.10945 0.57935 offset 0.0046 -0.04178 20001.07049 length 0.0154 color 0 0 1 }
Segment { rot -0.99395 0 0.10986 0.58048 offset 0.00529 -0.05129 20001.07668 length 0.00734 color 0 0 1 }
Segment { rot -0.98893 0 0.14836 0.57615 offset 0.00628 -0.06238 20001.08384 length 0.01912 color 0 0 1 }
Segment { rot -0.99709 0 -0.0763 0.75752 offset 0.00686 -0.07313 20001.09156 length 0.00752 color 0 0 1 }
Segment { rot -0.99538 0 -0.09598 0.78133 offset 0.00594 -0.08344 20001.10163 length 0.02136 color 0 0 1 }
Segment { rot -0.99151 0 -0.13006 0.84951 offset 0.00492 -0.09305 20001.1114 length 0.00614 color 0 0 1 }
Segment { rot -0.99252 0 -0.12208 1.01264 offset 0.00456 -0.09537 20001.11415 length 0.00111 color 0 0 1 }
Segment { rot -0.94842 0 -0.31702 1.06518 offset 0.00388 -0.09675 20001.11648 length 0.00448 color 0 0 1 }
Segment { rot -0.94648 0 -0.32276 1.06601 offset 0.0024 -0.0993 20001.12085 length 0.00607 color 0 0 1 }
Segment { rot -0.92924 0 -0.36948 1.03449 offset 0.00097 -0.10169 20001.12481 length 0.00361 color 0 0 1 }
Segment { rot -0.93316 0 -0.35946 0.97256 offset -0.00072 -0.10473 20001.12914 length 0.00749 color 0 0 1 }
Segment { rot -0.91607 0 -0.40101 1.00782 offset -0.00224 -0.10749 20001.13298 length 0.00245 color 0 0 1 }
Segment { rot -0.93861 0 -0.34498 1.01703 offset -0.0043 -0.11107 20001.13837 length 0.01114 color 0 0 1 }
Segment { rot -0.95215 0 -0.30563 1.01142 offset -0.00673 -0.11564 20001.14532 length 0.00619 color 0 0 1 }
Segment { rot -0.97758 0 -0.21055 1.10501 offset -0.00784 -0.11802 20001.14923 length 0.00324 color 0 0 1 }
Segment { rot -0.97413 0 -0.22597 1.05435 offset -0.00866 -0.12004 20001.15287 length 0.00524 color 0 0 1 }
Segment { rot -0.97987 0 -0.19965 1.06569 offset -0.0093 -0.12169 20001.15572 length 0.00146 color 0 0 1 }
Segment { rot -0.98881 0 -0.1492 1.10408 offset -0.00956 -0.12249 20001.15723 length 0.002 color 0 0 1 }
Segment { rot -0.98091 0 -0.19447 1.15701 offset -0.00992 -0.12345 20001.15924 length 0.00252 color 0 0 1 }
Segment { rot -0.92409 0 -0.38217 1.07613 offset -0.01019 -0.12402 20001.16048 length 0.00026 color 0 0 1 }
Segment { rot -0.92831 0 -0.37181 1.04089 offset -0.01085 -0.12506 20001.16214 length 0.00388 color 0 0 1 }
Segment { rot -0.92747 0 -0.3739 1.03083 offset -0.0116 -0.12624 20001.164 length 0.00077 color 0 0 1 }
Segment { rot -0.92875 0 -0.37071 1.02442 offset -0.01199 -0.12686 20001.16496 length 0.00165 color 0 0 1 }
Segment { rot -0.93151 0 -0.36372 1.04889 offset -0.01258 -0.12782 20001.16647 length 0.00212 color 0 0 1 }
Segment { rot -0.86554 0 -0.50084 0.85788 offset -0.01296 -0.12842 20001.1674 length 0.00021 color 0 0 1 }
Segment { rot -0.88856 0 -0.45876 0.93473 offset -0.01361 -0.12948 20001.16866 length 0.00334 color 0 0 1 }
Segment { rot -0.84453 0 -0.53551 1.01721 offset -0.01648 -0.13307 20001.17341 length 0.00989 color 0 0 1 }
Segment { rot -0.82606 0 -0.56358 1.07094 offset -0.02082 -0.13769 20001.18001 length 0.00843 color 0 0 1 }
Segment { rot -0.89539 0 -0.44528 1.06246 offset -0.02441 -0.14159 20001.1861 length 0.00774 color 0 0 1 }
Segment { rot -0.8957 0 -0.44466 1.04382 offset -0.02661 -0.14439 20001.19053 length 0.00364 color 0 0 1 }
Segment { rot -0.92207 0 -0.38702 1.09783 offset -0.0287 -0.14715 20001.19526 length 0.00807 color 0 0 1 }
Segment { rot -0.99324 0 -0.11606 0.95057 offset -0.03037 -0.15067 20001.20091 length 0.00578 color 0 0 1 }
Segment { rot -0.99251 0 -0.12218 0.8888 offset -0.0311 -0.15542 20001.20699 length 0.00974 color 0 0 1 }
Segment { rot -1 0 -0.00173 0.66082 offset -0.03157 -0.16489 20001.21573 length 0.01623 color 0 0 1 }
Segment { rot -0.99982 0 0.01875 0.73094 offset -0.03156 -0.17251 20001.22179 length 0.00325 color 0 0 1 }
Segment { rot -0.99665 0 0.0818 0.74727 offset -0.03147 -0.17457 20001.22366 length 0.00232 color 0 0 1 }
Segment { rot -0.98212 0 -0.18827 1.02874 offset -0.03153 -0.17581 20001.22508 length 0.0015 color 0 0 1 }
Segment { rot -0.94384 0 -0.3304 1.27161 offset -0.03181 -0.17634 20001.22615 length 0.00097 color 0 0 1 }
Segment { rot -0.94975 0 -0.313 1.23114 offset -0.0322 -0.17676 20001.22732 length 0.00163 color 0 0 1 }
Segment { rot -0.97482 0 -0.22301 1.20493 offset -0.03291 -0.17784 20001.23011 length 0.00453 color 0 0 1 }
Segment { rot -0.97831 0 -0.20714 1.23404 offset -0.03518 -0.18168 20001.24064 length 0.01834 color 0 0 1 }
Segment { rot -0.99249 0 -0.12233 1.3111 offset -0.03711 -0.18502 20001.25028 length 0.00243 color 0 0 1 }
Segment { rot -0.98573 0 -0.16833 1.36105 offset -0.03948 -0.18815 20001.26448 length 0.02704 color 0 0 1 }
Segment { rot -0.97853 0 -0.20612 1.38618 offset -0.04452 -0.19351 20001.29085 length 0.02773 color 0 0 1 }
Segment { rot -0.9715 0 -0.23703 1.38204 offset -0.04749 -0.19618 20001.30484 length 0.00136 color 0 0 1 }
Segment { rot -0.97465 0 -0.22372 1.28132 offset -0.04778 -0.19649 20001.30608 length 0.00126 color 0 0 1 }
Segment { rot -0.9772 0 -0.21233 1.31025 offset -0.04821 -0.19703 20001.308 length 0.00282 color 0 0 1 }
Segment { rot -0.961 0 -0.27654 1.43167 offset -0.04874 -0.19752 20001.31019 length 0.00179 color 0 0 1 }
Segment { rot -0.95962 0 -0.28129 1.42995 offset -0.05179 -0.19906 20001.3206 length 0.02012 color 0 0 1 }
Segment { rot -0.99765 0 0.06856 0.91592 offset -0.05439 -0.20269 20001.33304 length 0.0073 color 0 0 1 }
Segment { rot -0.99695 0 0.07799 0.95254 offset -0.05414 -0.20537 20001.33656 length 0.00156 color 0 0 1 }
Segment { rot -0.99758 0 0.06946 0.94944 offset -0.05391 -0.20773 20001.33986 length 0.00657 color 0 0 1 }
Segment { rot -0.99874 0 0.05017 0.99024 offset -0.0536 -0.2112 20001.3449 length 0.0057 color 0 0 1 }
Segment { rot -0.95692 0 0.29035 0.95459 offset -0.05173 -0.21704 20001.35306 length 0.01478 color 0 0 1 }
Segment { rot -0.89213 0 -0.45178 0.70253 offset -0.05561 -0.23601 20001.36993 length 0.03853 color 0 0 1 }
Segment { rot -0.86978 0 -0.49345 0.80662 offset -0.0616 -0.25143 20001.38169 length 0.00207 color 0 0 1 }
Segment { rot -0.82934 0 -0.55875 0.83502 offset -0.06668 -0.25978 20001.38933 length 0.02275 color 0 0 1 }
Segment { rot -0.80914 0 -0.58762 0.85708 offset -0.07187 -0.26812 20001.39698 length 0.00214 color 0 0 1 }
Segment { rot -0.81565 0 -0.57854 0.87842 offset -0.07273 -0.26937 20001.39817 length 0.00171 color 0 0 1 }
Segment { rot -0.82219 0 -0.56921 0.79726 offset -0.07312 -0.26995 20001.39874 length 0.00009 color 0 0 1 }
Segment { rot -0.84581 0 -0.53348 0.79864 offset -0.07367 -0.27095 20001.39961 length 0.00278 color 0 0 1 }
Segment { rot -0.8011 0 -0.59852 0.92433 offset -0.0746 -0.27242 20001.40098 length 0.00166 color 0 0 1 }
Segment { rot -0.78951 0 -0.61373 0.99868 offset -0.07526 -0.27319 20001.40185 length 0.00103 color 0 0 1 }
Segment { rot -0.82174 0 -0.56986 0.97016 offset -0.07789 -0.27631 20001.40559 length 0.01004 color 0 0 1 }
Segment { rot -0.82063 0 -0.57147 0.97359 offset -0.08107 -0.28013 20001.41018 length 0.00349 color 0 0 1 }
Segment { rot -0.85558 0 -0.51767 1.01606 offset -0.08233 -0.28163 20001.41208 length 0.00198 color 0 0 1 }
Segment { rot -0.92583 0 -0.37794 0.66499 offset -0.0855 -0.29137 20001.4195 length 0.02344 color 0 0 1 }
Segment { rot -0.94449 0 -0.32855 0.63461 offset -0.08859 -0.30208 20001.42723 length 0.0037 color 0 0 1 }
Segment { rot -0.95063 0 -0.31032 0.65453 offset -0.08938 -0.30535 20001.42956 length 0.00448 color 0 0 1 }
Segment { rot -0.91112 0 -0.41213 0.98004 offset -0.09121 -0.30943 20001.43398 length 0.00825 color 0 0 1 }
Segment { rot -0.90937 0 -0.41599 0.95991 offset -0.09295 -0.31227 20001.43781 length 0.00191 color 0 0 1 }
Segment { rot -0.91603 0 -0.40111 0.93968 offset -0.09444 -0.31494 20001.44118 length 0.00718 color 0 0 1 }
Segment { rot -0.92293 0 -0.38497 0.95328 offset -0.09593 -0.31766 20001.44462 length 0.00208 color 0 0 1 }
Segment { rot -0.89746 0 -0.44109 1.00678 offset -0.0971 -0.31947 20001.44712 length 0.00454 color 0 0 1 }
Segment { rot -0.90271 0 -0.43025 0.99295 offset -0.09919 -0.32257 20001.45145 length 0.00692 color 0 0 1 }
Segment { rot -0.91797 0 -0.39664 1.01884 offset -0.10158 -0.32624 20001.45672 length 0.00678 color 0 0 1 }
Segment { rot -0.9161 0 -0.40095 1.15964 offset -0.10279 -0.32809 20001.45951 length 0.00035 color 0 0 1 }
Segment { rot -0.99381 0 -0.11107 1.25138 offset -0.10384 -0.33108 20001.46845 length 0.01863 color 0 0 1 }
Segment { rot -0.99941 0 -0.03439 1.33064 offset -0.10488 -0.33446 20001.4791 length 0.00385 color 0 0 1 }
Segment { rot -0.99504 0 -0.09943 1.35198 offset -0.10512 -0.33531 20001.48269 length 0.00355 color 0 0 1 }
Segment { rot -0.98905 0 0.14761 1.28759 offset -0.10513 -0.33601 20001.48551 length 0.0023 color 0 0 1 }
Segment { rot -0.98088 0 0.19462 1.22597 offset -0.10421 -0.33773 20001.49041 length 0.00825 color 0 0 1 }
Segment { rot -0.96372 0 0.26692 1.11244 offset -0.10322 -0.33955 20001.49505 length 0.00193 color 0 0 1 }
Segment { rot -0.94972 0 0.3131 1.11225 offset -0.10296 -0.34003 20001.49598 length 0.00024 color 0 0 1 }
Segment { rot -0.95307 0 0.30275 1.09931 offset -0.10266 -0.34054 20001.49694 length 0.00201 color 0 0 1 }
Segment { rot -0.97259 0 0.23253 1.0875 offset -0.10162 -0.34272 20001.50099 length 0.00744 color 0 0 1 }
Segment { rot -0.9544 0 0.29853 1.14743 offset -0.09975 -0.34611 20001.50772 length 0.00809 color 0 0 1 }
Segment { rot -0.96683 0 0.25541 1.12054 offset -0.09847 -0.34812 20001.51194 length 0.0016 color 0 0 1 }
Segment { rot -0.9566 0 0.29141 1.17309 offset -0.09803 -0.34884 20001.51346 length 0.00188 color 0 0 1 }
Segment { rot -0.96821 0 0.25012 1.12552 offset -0.09708 -0.35053 20001.51698 length 0.00615 color 0 0 1 }
Segment { rot -0.98738 0 0.1584 1.09508 offset -0.09611 -0.35274 20001.52137 length 0.00387 color 0 0 1 }
Segment { rot -0.99288 0 0.11915 1.10304 offset -0.09558 -0.35472 20001.52521 length 0.00484 color 0 0 1 }
Segment { rot -0.99867 0 0.05149 1.05933 offset -0.0953 -0.35612 20001.52791 length 0.00129 color 0 0 1 }
Segment { rot -0.9994 0 0.03468 1.12145 offset -0.09518 -0.35769 20001.53107 length 0.00577 color 0 0 1 }
Segment { rot -0.99997 0 0.00799 1.08955 offset -0.09507 -0.35992 20001.53554 length 0.00423 color 0 0 1 }
Segment { rot -0.99953 0 0.03069 1.05782 offset -0.09502 -0.36163 20001.53872 length 0.003 color 0 0 1 }
Segment { rot -0.99942 0 0.03397 1.06067 offset -0.09495 -0.36289 20001.54096 length 0.00215 color 0 0 1 }
Segment { rot -0.6684 0 -0.74381 1.09447 offset -0.09531 -0.36369 20001.54225 length 0.0012 color 0 0 1 }
Segment { rot -0.64063 0 -0.76785 1.07892 offset -0.09603 -0.36419 20001.54288 length 0.00096 color 0 0 1 }
Segment { rot -0.45678 0 -0.88958 0.73043 offset -0.09638 -0.36445 20001.54316 length 0.00008 color 0 0 1 }
Segment { rot -0.44632 0 -0.89487 0.75013 offset -0.09684 -0.365 20001.54339 length 0.00142 color 0 0 1 }
Segment { rot 0.52152 0 0.85324 0.36914 offset -0.09714 -0.36592 20001.54353 length 0.00086 color 0 0 1 }
Segment { rot 0.46181 0 0.88698 0.30896 offset -0.09691 -0.36667 20001.54339 length 0.00073 color 0 0 1 }
Segment { rot 0.48473 0 0.87466 0.32332 offset -0.09527 -0.37228 20001.54249 length 0.01109 color 0 0 1 }
Segment { rot 0.44486 0 0.8956 0.37203 offset -0.09233 -0.38152 20001.54094 length 0.00856 color 0 0 1 }
Segment { rot 0.37969 0 0.92511 0.32853 offset -0.0906 -0.38658 20001.54011 length 0.00227 color 0 0 1 }
Segment { rot 0.12274 0 0.99244 0.34114 offset -0.08871 -0.39208 20001.53978 length 0.00938 color 0 0 1 }
Segment { rot 0.15629 0 0.98771 0.34014 offset -0.08643 -0.39854 20001.53947 length 0.00434 color 0 0 1 }
Segment { rot 0.08202 0 0.99663 0.32884 offset -0.08563 -0.40085 20001.53935 length 0.00056 color 0 0 1 }
Segment { rot -0.12973 0 0.99155 0.28807 offset -0.08457 -0.40441 20001.53947 length 0.00688 color 0 0 1 }
Segment { rot -0.19818 0 0.98017 0.27682 offset -0.08131 -0.41593 20001.54006 length 0.0171 color 0 0 1 }
Segment { rot -0.12388 0 0.9923 0.29433 offset -0.07815 -0.42706 20001.54063 length 0.00607 color 0 0 1 }
Segment { rot -0.22288 0 0.97485 0.41201 offset -0.07696 -0.4307 20001.54082 length 0.00161 color 0 0 1 }
Segment { rot -0.34351 0 0.93915 0.54882 offset -0.07228 -0.43904 20001.54248 length 0.01781 color 0 0 1 }
Segment { rot 0.01542 0 0.99988 0.60756 offset -0.06649 -0.4487 20001.54406 length 0.00502 color 0 0 1 }
Segment { rot -0.04954 0 0.99877 0.63997 offset -0.06293 -0.45361 20001.54414 length 0.00712 color 0 0 1 }
Segment { rot -0.18418 0 0.98289 0.64758 offset -0.05963 -0.45805 20001.54447 length 0.00396 color 0 0 1 }
Segment { rot -0.13861 0 0.99035 0.57402 offset -0.05811 -0.46017 20001.54473 length 0.00131 color 0 0 1 }
Segment { rot -0.12463 0 0.9922 0.63179 offset -0.05763 -0.46089 20001.5448 length 0.00041 color 0 0 1 }
Segment { rot -0.06312 0 0.99801 0.67547 offset -0.05713 -0.46153 20001.54484 length 0.00121 color 0 0 1 }
Segment { rot -0.05896 0 0.99826 0.68425 offset -0.05647 -0.46236 20001.54488 length 0.00091 color 0 0 1 }
Segment { rot -0.02936 0 0.99957 0.68695 offset -0.05406 -0.46529 20001.54496 length 0.00668 color 0 0 1 }
Segment { rot 0.09697 0 0.99529 0.67803 offset -0.05132 -0.46866 20001.54496 length 0.002 color 0 0 1 }
Segment { rot 0.3205 0 0.94725 0.65493 offset -0.0476 -0.47369 20001.54385 length 0.01071 color 0 0 1 }
Segment { rot 0.5237 0 0.8519 0.49491 offset -0.04398 -0.4791 20001.54248 length 0.00266 color 0 0 1 }
Segment { rot 0.52722 0 0.84973 0.48067 offset -0.0429 -0.48149 20001.54181 length 0.00275 color 0 0 1 }
Segment { rot 0.55592 0 0.83124 0.35652 offset -0.03943 -0.49218 20001.53952 length 0.0202 color 0 0 1 }
Segment { rot 0.54853 0 0.83613 0.40006 offset -0.03627 -0.50228 20001.53741 length 0.00138 color 0 0 1 }
Segment { rot 0.57994 0 0.81466 0.44956 offset -0.03569 -0.50382 20001.53701 length 0.00202 color 0 0 1 }
Segment { rot 0.58618 0 0.81018 0.46018 offset -0.03225 -0.51242 20001.53452 length 0.01715 color 0 0 1 }
Segment { rot 0.65036 0 0.75963 0.43069 offset -0.02791 -0.52368 20001.53122 length 0.00787 color 0 0 1 }
Segment { rot 0.66527 0 0.7466 0.44329 offset -0.02552 -0.53048 20001.52913 length 0.00713 color 0 0 1 }
Segment { rot 0.83916 0 0.54388 0.89942 offset -0.02415 -0.53403 20001.52776 length 0.00108 color 0 0 1 }
Segment { rot 0.81712 0 0.57647 0.93439 offset -0.02324 -0.53525 20001.52643 length 0.00295 color 0 0 1 }
Segment { rot -0.26566 0 0.96407 1.24891 offset -0.02155 -0.53647 20001.52574 length 0.00219 color 0 0 1 }
Segment { rot 0.46952 0 0.88292 0.73158 offset -0.01943 -0.53823 20001.52542 length 0.00379 color 0 0 1 }
Segment { rot 0.4442 0 0.89593 0.73192 offset -0.01777 -0.54032 20001.52456 length 0.00182 color 0 0 1 }
Segment { rot 0.46136 0 0.88721 0.75198 offset -0.01722 -0.541 20001.52429 length 0.00001 color 0 0 1 }
Segment { rot 0.44937 0 0.89335 0.82852 offset -0.0162 -0.54204 20001.52377 length 0.00309 color 0 0 1 }
Segment { rot 0.40221 0 0.91555 0.81602 offset -0.01511 -0.54317 20001.52323 length 0.00023 color 0 0 1 }
Segment { rot 0.4929 0 0.87009 0.79359 offset -0.01477 -0.54354 20001.52305 length 0.00084 color 0 0 1 }
Segment { rot 0.22353 0 0.9747 1.06143 offset -0.013 -0.5447 20001.52255 length 0.00355 color 0 0 1 }
Segment { rot 0.21284 0 0.97709 1.004 offset -0.00257 -0.55138 20001.52026 length 0.02164 color 0 0 1 }
Segment { rot 0.22189 0 0.97507 1.00949 offset 0.00642 -0.55723 20001.5183 length 0.00018 color 0 0 1 }
Segment { rot 0.18806 0 0.98216 1.04899 offset 0.01331 -0.56127 20001.51698 length 0.01601 color 0 0 1 }
Segment { rot 0.44694 0 0.89456 1.1674 offset 0.02055 -0.56546 20001.51547 length 0.00101 color 0 0 1 }
Segment { rot 0.39086 0 0.92045 1.13465 offset 0.02285 -0.56661 20001.51446 length 0.00453 color 0 0 1 }
Segment { rot 0.4668 0 0.88436 1.16718 offset 0.02562 -0.568 20001.51319 length 0.00217 color 0 0 1 }
Segment { rot 0.06788 0 0.99769 1.47498 offset 0.02886 -0.56865 20001.51256 length 0.00475 color 0 0 1 }
Segment { rot 0.30962 0 0.95086 1.55647 offset 0.03231 -0.56889 20001.51205 length 0.00229 color 0 0 1 }
Segment { rot 0.28221 0 0.95935 1.64567 offset 0.03416 -0.56885 20001.51147 length 0.00158 color 0 0 1 }
Segment { rot 0.22537 0 0.97427 1.81674 offset 0.03804 -0.56798 20001.51053 length 0.00664 color 0 0 1 }
Segment { rot 0.28003 0 0.95999 1.95193 offset 0.04258 -0.56659 20001.50939 length 0.00315 color 0 0 1 }
Segment { rot 0.35956 0 0.93312 1.97403 offset 0.04466 -0.5657 20001.50872 length 0.00156 color 0 0 1 }
Segment { rot 0.36006 0 0.93293 2.0268 offset 0.04683 -0.5646 20001.50789 length 0.00359 color 0 0 1 }
Segment { rot 0.3726 0 0.92799 1.99436 offset 0.05054 -0.56274 20001.50642 length 0.00521 color 0 0 1 }
Segment { rot 0.35643 0 0.93432 1.98726 offset 0.05486 -0.56067 20001.50473 length 0.00497 color 0 0 1 }
Segment { rot 0.27927 0 0.96021 2.04387 offset 0.06306 -0.55642 20001.50215 length 0.01422 color 0 0 1 }
Segment { rot 0.28156 0 0.95954 1.95228 offset 0.06994 -0.55285 20001.50015 length 0.00179 color 0 0 1 }
Segment { rot 0.27232 0 0.96221 2.00008 offset 0.07166 -0.55208 20001.49965 length 0.00212 color 0 0 1 }
Segment { rot 0.4547 0 0.89065 2.45398 offset 0.07274 -0.55143 20001.49931 length 0.00054 color 0 0 1 }
Segment { rot 0.49947 0 0.86633 2.37729 offset 0.07609 -0.54737 20001.49739 length 0.01067 color 0 0 1 }
Segment { rot 0.46214 0 0.88681 2.39058 offset 0.0793 -0.5435 20001.49554 length 0.00004 color 0 0 1 }
Segment { rot 0.59519 0 0.80359 2.40213 offset 0.07982 -0.54279 20001.49515 length 0.00188 color 0 0 1 }
Segment { rot 0.66454 0 0.74725 2.46466 offset 0.08034 -0.54207 20001.49477 length 0.00005 color 0 0 1 }
Segment { rot 0.65726 0 0.75366 2.4515 offset 0.08037 -0.54204 20001.49475 length 0.00005 color 0 0 1 }
Segment { rot 0.87061 0 0.49198 2.52894 offset 0.08114 -0.53982 20001.49339 length 0.00539 color 0 0 1 }
Segment { rot 0.83324 0 0.55292 2.5583 offset 0.08422 -0.53125 20001.48854 length 0.01525 color 0 0 1 }
Segment { rot 0.85911 0 0.5118 2.3705 offset 0.08677 -0.52443 20001.48466 length 0.00127 color 0 0 1 }
Segment { rot 0.94062 0 0.33947 2.71333 offset 0.08719 -0.52276 20001.48376 length 0.00267 color 0 0 1 }
Segment { rot 0.92472 0 0.38064 2.73524 offset 0.08745 -0.52109 20001.48306 length 0.00098 color 0 0 1 }
Segment { rot 0.87093 0 0.4914 2.84906 offset 0.0884 -0.51472 20001.48133 length 0.01237 color 0 0 1 }
Segment { rot 0.96197 0 0.27314 2.58701 offset 0.08999 -0.50459 20001.47726 length 0.00991 color 0 0 1 }
Segment { rot 0.97982 0 0.19986 2.66302 offset 0.0908 -0.49943 20001.47427 length 0.00214 color 0 0 1 }
Segment { rot 0.97289 0 0.23127 2.72207 offset 0.09094 -0.49808 20001.47362 length 0.00086 color 0 0 1 }
Segment { rot 0.9541 0 0.2995 2.68531 offset 0.09148 -0.49429 20001.47185 length 0.00758 color 0 0 1 }
Segment { rot 0.8985 0 0.43898 2.69914 offset 0.09233 -0.48921 20001.46955 length 0.00371 color 0 0 1 }
Segment { rot 0.91061 0 0.41327 2.68092 offset 0.0933 -0.48447 20001.46745 length 0.00685 color 0 0 1 }
Segment { rot 0.88385 0 0.46777 2.73001 offset 0.094 -0.48106 20001.46593 length 0.00076 color 0 0 1 }
Segment { rot 0.84647 0 0.53244 2.70429 offset 0.09472 -0.47812 20001.46477 length 0.00572 color 0 0 1 }
Segment { rot 0.86596 0 0.50011 2.71934 offset 0.09561 -0.47443 20001.46332 length 0.00241 color 0 0 1 }
Segment { rot 0.86683 0 0.4986 2.7084 offset 0.09602 -0.47261 20001.4626 length 0.00159 color 0 0 1 }
Segment { rot 0.95581 0 0.29399 2.76027 offset 0.09633 -0.47069 20001.46185 length 0.00258 color 0 0 1 }
Segment { rot 0.89649 0 0.44307 2.71565 offset 0.09698 -0.46695 20001.46036 length 0.00558 color 0 0 1 }
Segment { rot 0.94827 0 0.31748 2.70981 offset 0.09769 -0.46307 20001.45874 length 0.00294 color 0 0 1 }
Segment { rot 0.90496 0 0.42549 2.73657 offset 0.09805 -0.46084 20001.45781 length 0.00193 color 0 0 1 }
Segment { rot 0.88651 0 0.46272 2.73571 offset 0.09829 -0.45955 20001.45731 length 0.00088 color 0 0 1 }
Segment { rot 0.97133 0 0.23774 2.80469 offset 0.09845 -0.45822 20001.45684 length 0.00196 color 0 0 1 }
Segment { rot 0.95067 0 0.31019 2.82515 offset 0.09881 -0.45453 20001.45567 length 0.00582 color 0 0 1 }
Segment { rot 0.99911 0 -0.04225 2.50493 offset 0.09903 -0.45004 20001.45353 length 0.00429 color 0 0 1 }
Segment { rot 0.99956 0 -0.02983 2.38564 offset 0.09896 -0.44773 20001.45171 length 0.00161 color 0 0 1 }
Segment { rot 0.99943 0 -0.03363 2.38665 offset 0.09889 -0.44522 20001.44935 length 0.00528 color 0 0 1 }
Segment { rot 0.9967 0 -0.08118 2.34552 offset 0.09876 -0.44256 20001.44678 length 0.00213 color 0 0 1 }
Segment { rot 0.99688 0 -0.07894 2.35023 offset 0.09853 -0.43965 20001.44385 length 0.00614 color 0 0 1 }
Segment { rot 0.98928 0 -0.14603 2.3347 offset 0.09823 -0.43666 20001.4408 length 0.00243 color 0 0 1 }
Segment { rot 0.9841 0 -0.17762 2.40277 offset 0.09802 -0.43532 20001.43949 length 0.00134 color 0 0 1 }
Segment { rot 0.90489 0 -0.42565 1.98588 offset 0.0965 -0.43333 20001.43599 length 0.00738 color 0 0 1 }
Segment { rot 0.92142 0 -0.38857 1.97824 offset 0.09443 -0.43114 20001.43143 length 0.00356 color 0 0 1 }
Segment { rot 0.93547 0 -0.3534 1.99414 offset 0.09349 -0.43005 20001.42912 length 0.00187 color 0 0 1 }
Segment { rot 0.89511 0 -0.44585 1.9194 offset 0.0923 -0.42894 20001.42653 length 0.00427 color 0 0 1 }
Segment { rot 0.89159 0 -0.45285 1.95477 offset 0.09123 -0.42805 20001.42439 length 0.00084 color 0 0 1 }
Segment { rot 0.88962 0 -0.45671 2.05999 offset 0.09095 -0.42777 20001.42384 length 0.00053 color 0 0 1 }
Segment { rot 0.87242 0 -0.48876 2.1531 offset 0.09021 -0.42679 20001.4225 length 0.00311 color 0 0 1 }
Segment { rot 0.78667 0 -0.61737 2.20273 offset 0.08885 -0.42509 20001.42045 length 0.00289 color 0 0 1 }
Segment { rot -0.03155 0 -0.9995 1.16689 offset 0.08694 -0.42475 20001.41957 length 0.00261 color 0 0 1 }
Segment { rot -0.06832 0 -0.99766 1.29906 offset 0.07834 -0.42733 20001.42012 length 0.0154 color 0 0 1 }
Segment { rot 0.00612 0 -0.99998 1.35276 offset 0.07079 -0.42943 20001.42063 length 0.00031 color 0 0 1 }
Segment { rot 0.03217 0 -0.99948 1.38081 offset 0.06893 -0.42979 20001.42057 length 0.00348 color 0 0 1 }
Segment { rot 0.03883 0 -0.99925 1.50602 offset 0.06588 -0.4302 20001.42046 length 0.00269 color 0 0 1 }
Segment { rot -0.00505 0 -0.99999 1.43551 offset 0.06424 -0.43033 20001.42041 length 0.00061 color 0 0 1 }
Segment { rot 0.03299 0 -0.99946 1.41586 offset 0.06147 -0.43076 20001.42033 length 0.005 color 0 0 1 }
Segment { rot -0.07448 0 -0.99722 1.36862 offset 0.05366 -0.43224 20001.42065 length 0.01093 color 0 0 1 }
Segment { rot -0.01724 0 -0.99985 1.13434 offset 0.04577 -0.43453 20001.42109 length 0.00563 color 0 0 1 }
Segment { rot 0.02585 0 -0.99967 1.08049 offset 0.04253 -0.43609 20001.42112 length 0.00156 color 0 0 1 }
Segment { rot 0.09446 0 -0.99553 1.05029 offset 0.03803 -0.43865 20001.42074 length 0.00883 color 0 0 1 }
Segment { rot 0.07135 0 -0.99745 0.99059 offset 0.03309 -0.44158 20001.4203 length 0.00269 color 0 0 1 }
Segment { rot 0.15738 0 -0.98754 0.92963 offset 0.0275 -0.4457 20001.4195 length 0.0113 color 0 0 1 }
Segment { rot -0.08188 0 -0.99664 0.92314 offset 0.02201 -0.44986 20001.41888 length 0.00258 color 0 0 1 }
Segment { rot -0.91891 0 -0.39448 0.82323 offset 0.01986 -0.45328 20001.42158 length 0.00777 color 0 0 1 }
Segment { rot -0.93039 0 -0.36658 0.83762 offset 0.01825 -0.45711 20001.42542 length 0.00356 color 0 0 1 }
Segment { rot -0.58974 0 0.8076 1.33389 offset 0.01797 -0.45836 20001.42681 length 0.00053 color 0 0 1 }
Segment { rot -0.49164 0 0.8708 1.37725 offset 0.01955 -0.45873 20001.42773 length 0.0032 color 0 0 1 }
Segment { rot -0.53208 0 0.84669 1.48215 offset 0.0211 -0.45906 20001.42862 length 0.00045 color 0 0 1 }
Segment { rot -0.49742 0 0.86751 1.74808 offset 0.02378 -0.45856 20001.43017 length 0.00583 color 0 0 1 }
Segment { rot -0.99979 0 0.02059 2.41601 offset 0.02632 -0.45523 20001.43409 length 0.00754 color 0 0 1 }
Segment { rot -0.99824 0 0.05936 2.42692 offset 0.02647 -0.4504 20001.43834 length 0.00532 color 0 0 1 }
Segment { rot -0.99794 0 -0.06415 2.4391 offset 0.02651 -0.44711 20001.44116 length 0.00336 color 0 0 1 }
Segment { rot -0.99997 0 -0.0081 2.41467 offset 0.02644 -0.44572 20001.44233 length 0.00028 color 0 0 1 }
Segment { rot -0.97595 0 0.21801 2.5304 offset 0.0265 -0.44518 20001.44273 length 0.00106 color 0 0 1 }
Segment { rot -0.92232 0 0.38643 2.65138 offset 0.02684 -0.44343 20001.44367 length 0.00299 color 0 0 1 }
Segment { rot -0.9579 0 0.28709 2.6458 offset 0.02794 -0.43678 20001.44708 length 0.01211 color 0 0 1 }
Segment { rot -0.96988 0 0.2436 2.6446 offset 0.02899 -0.42977 20001.45073 length 0.00384 color 0 0 1 }
Segment { rot -0.89463 0 0.4468 2.37292 offset 0.03051 -0.42507 20001.45422 length 0.00837 color 0 0 1 }
Segment { rot -0.98693 0 0.16115 2.28379 offset 0.03184 -0.42191 20001.45699 length 0.00046 color 0 0 1 }
Segment { rot -0.88028 0 0.47445 1.43923 offset 0.03211 -0.42183 20001.45761 length 0.00103 color 0 0 1 }
Segment { rot -0.78116 0 0.62433 1.47589 offset 0.03431 -0.4222 20001.46051 length 0.0063 color 0 0 1 }
Segment { rot -0.82837 0 0.56018 1.55925 offset 0.03707 -0.42251 20001.46415 length 0.00287 color 0 0 1 }
Segment { rot -0.84579 0 0.53352 1.60079 offset 0.03874 -0.42248 20001.46671 length 0.00325 color 0 0 1 }
Segment { rot -0.786 0 0.61823 1.5753 offset 0.0405 -0.42243 20001.46921 length 0.00287 color 0 0 1 }
Segment { rot -0.80055 0 0.59927 1.44828 offset 0.04145 -0.42243 20001.47043 length 0.00023 color 0 0 1 }
Segment { rot -0.80159 0 0.59787 1.51853 offset 0.04212 -0.4225 20001.47133 length 0.002 color 0 0 1 }
Segment { rot -0.79265 0 0.60967 1.56616 offset 0.04312 -0.42256 20001.47265 length 0.00131 color 0 0 1 }
Segment { rot -0.85085 0 0.5254 1.47939 offset 0.04446 -0.42272 20001.47469 length 0.00359 color 0 0 1 }
Segment { rot -0.62557 0 0.78017 1.39199 offset 0.04648 -0.42314 20001.47708 length 0.00281 color 0 0 1 }
Segment { rot -0.76185 0 0.64775 1.98245 offset 0.04759 -0.42336 20001.47799 length 0.00013 color 0 0 1 }
Segment { rot -0.7981 0 0.60253 1.89539 offset 0.04771 -0.42329 20001.47814 length 0.00027 color 0 0 1 }
Segment { rot -0.77608 0 0.63064 1.87197 offset 0.04954 -0.42238 20001.48039 length 0.00582 color 0 0 1 }
Segment { rot -0.77076 0 0.63713 1.8364 offset 0.05283 -0.42086 20001.48441 length 0.00501 color 0 0 1 }
Segment { rot -0.78293 0 0.6221 1.91863 offset 0.05451 -0.42013 20001.48645 length 0.00048 color 0 0 1 }
Segment { rot -0.77866 0 0.62745 1.90054 offset 0.05781 -0.41832 20001.49055 length 0.01065 color 0 0 1 }
Segment { rot -0.77249 0 0.63503 1.89355 offset 0.06157 -0.41628 20001.4952 length 0.00198 color 0 0 1 }
Segment { rot -0.80456 0 0.59387 1.87448 offset 0.06334 -0.41535 20001.49752 length 0.00416 color 0 0 1 }
Segment { rot -0.82092 0 0.57104 1.86505 offset 0.06471 -0.41462 20001.49939 length 0.00069 color 0 0 1 }
Segment { rot -0.81498 0 0.57948 1.90834 offset 0.06525 -0.41431 20001.50016 length 0.00129 color 0 0 1 }
Segment { rot -0.53655 0 0.84387 1.83782 offset 0.06717 -0.41359 20001.50165 length 0.00386 color 0 0 1 }
Segment { rot -0.52804 0 0.84922 1.89465 offset 0.06925 -0.41288 20001.50296 length 0.00125 color 0 0 1 }
Segment { rot -0.56887 0 0.82242 1.84333 offset 0.07035 -0.41248 20001.50369 length 0.00149 color 0 0 1 }
Segment { rot -0.62317 0 0.78209 1.87008 offset 0.0711 -0.41221 20001.50422 length 0.00043 color 0 0 1 }
Segment { rot -0.599 0 0.80075 1.85979 offset 0.07367 -0.41125 20001.50616 length 0.00629 color 0 0 1 }
Segment { rot -0.55756 0 0.83013 1.91675 offset 0.07701 -0.40996 20001.50858 length 0.00236 color 0 0 1 }
Segment { rot -0.6093 0 0.79294 1.72569 offset 0.08033 -0.40908 20001.51105 length 0.00614 color 0 0 1 }
Segment { rot -0.62899 0 0.77741 1.7863 offset 0.08502 -0.40797 20001.51474 length 0.00602 color 0 0 1 }
Segment { rot -0.62619 0 0.77967 1.78436 offset 0.08749 -0.40727 20001.51674 length 0.00047 color 0 0 1 }
Segment { rot -0.44862 0 0.89372 2.00001 offset 0.0879 -0.40711 20001.517 length 0.00057 color 0 0 1 }
Segment { rot -0.44209 0 0.89697 2.02265 offset 0.08847 -0.4068 20001.51728 length 0.00083 color 0 0 1 }
Segment { rot -0.41774 0 0.90857 2.08635 offset 0.08946 -0.40621 20001.51775 length 0.00165 color 0 0 1 }
Segment { rot -0.37466 0 0.92716 2.10868 offset 0.09082 -0.40535 20001.51833 length 0.00178 color 0 0 1 }
Segment { rot -0.36684 0 0.93028 2.13733 offset 0.09155 -0.40488 20001.51863 length 0.00006 color 0 0 1 }
Segment { rot -0.29146 0 0.95658 2.1772 offset 0.09225 -0.40437 20001.51884 length 0.00171 color 0 0 1 }
Segment { rot -0.40049 0 0.9163 2.13095 offset 0.09354 -0.40346 20001.51932 length 0.0016 color 0 0 1 }
Segment { rot -0.0769 0 0.99704 1.87458 offset 0.09905 -0.4015 20001.51997 length 0.01027 color 0 0 1 }
Segment { rot 0.00252 0 1 1.94082 offset 0.10546 -0.39937 20001.52034 length 0.00326 color 0 0 1 }
Segment { rot 0.04034 0 0.99919 1.93568 offset 0.10763 -0.39854 20001.52031 length 0.00139 color 0 0 1 }
Segment { rot 0.05201 0 0.99865 1.93482 offset 0.11016 -0.39757 20001.52019 length 0.00405 color 0 0 1 }
Segment { rot -0.23551 0 0.97187 1.80006 offset 0.11246 -0.39675 20001.52019 length 0.00086 color 0 0 1 }
Segment { rot -0.75488 0 0.65587 1.65162 offset 0.11323 -0.39661 20001.52071 length 0.00113 color 0 0 1 }
Segment { rot 0.4143 0 0.91014 0.97259 offset 0.11436 -0.39713 20001.52079 length 0.00201 color 0 0 1 }
Segment { rot 0.40691 0 0.91347 1.04293 offset 0.11614 -0.39835 20001.51999 length 0.00261 color 0 0 1 }
Segment { rot 0.5136 0 0.85803 0.82925 offset 0.11827 -0.40017 20001.51888 length 0.00345 color 0 0 1 }
Segment { rot 0.58459 0 0.81133 0.88746 offset 0.11956 -0.40154 20001.51808 length 0.00064 color 0 0 1 }
Segment { rot 0.75118 0 0.66009 0.73796 offset 0.12147 -0.4046 20001.51598 length 0.00773 color 0 0 1 }
Segment { rot 0.69639 0 0.71767 0.71368 offset 0.12398 -0.40873 20001.51326 length 0.00335 color 0 0 1 }
Segment { rot 0.65275 0 0.75757 0.70524 offset 0.12482 -0.41008 20001.51245 length 0.00022 color 0 0 1 }
Segment { rot 0.68912 0 0.72464 0.7024 offset 0.12588 -0.4118 20001.51145 length 0.0043 color 0 0 1 }
Segment { rot 0.74301 0 0.66928 0.6996 offset 0.12712 -0.41385 20001.51024 length 0.00107 color 0 0 1 }
Segment { rot 0.78086 0 0.62471 0.75132 offset 0.12753 -0.41457 20001.50975 length 0.00086 color 0 0 1 }
Segment { rot 0.92662 0 0.376 0.96244 offset 0.13128 -0.4215 20001.50072 length 0.02315 color 0 0 1 }
Segment { rot 0.77814 0 0.62809 0.74608 offset 0.13496 -0.42829 20001.4918 length 0.00048 color 0 0 1 }
Segment { rot 0.73865 0 -0.67409 0.3691 offset 0.13434 -0.43122 20001.49088 length 0.00591 color 0 0 1 }
Segment { rot 0.65154 0 0.75861 0.37703 offset 0.13376 -0.43444 20001.48997 length 0.001 color 0 0 1 }
Segment { rot 0.84107 0 0.54093 0.32176 offset 0.13426 -0.43689 20001.4893 length 0.00419 color 0 0 1 }
Segment { rot 0.73149 0 0.68186 0.21916 offset 0.13477 -0.43991 20001.48857 length 0.00212 color 0 0 1 }
Segment { rot 0.9397 0 0.34201 0.22744 offset 0.13504 -0.44232 20001.4881 length 0.00283 color 0 0 1 }
Segment { rot -0.93332 0 0.35904 0.18533 offset 0.13522 -0.44472 20001.48798 length 0.00207 color 0 0 1 }
Segment { rot -0.98264 0 0.1855 0.16524 offset 0.13534 -0.44746 20001.48844 length 0.0035 color 0 0 1 }
Segment { rot -0.96263 0 0.27081 0.16733 offset 0.1354 -0.44941 20001.48876 length 0.00046 color 0 0 1 }
Segment { rot -0.99822 0 0.05963 0.19564 offset 0.13542 -0.4498 20001.48883 length 0.00034 color 0 0 1 }
Segment { rot -0.82365 0 -0.5671 0.45539 offset 0.13539 -0.45006 20001.4889 length 0.0002 color 0 0 1 }
Segment { rot -0.85557 0 -0.51769 0.47955 offset 0.13517 -0.45089 20001.48927 length 0.00166 color 0 0 1 }
Segment { rot -0.23561 0 -0.97185 1.48603 offset 0.13357 -0.45175 20001.48993 length 0.00289 color 0 0 1 }
Segment { rot -0.23482 0 -0.97204 1.4845 offset 0.13209 -0.45188 20001.49029 length 0.00017 color 0 0 1 }
Segment { rot -0.29059 0 -0.95685 1.52613 offset 0.13067 -0.45195 20001.49072 length 0.00278 color 0 0 1 }
Segment { rot -0.01694 0 -0.99986 1.59077 offset 0.12772 -0.45198 20001.49115 length 0.00324 color 0 0 1 }
Segment { rot 0.12223 0 -0.9925 1.68599 offset 0.12378 -0.45167 20001.49089 length 0.00471 color 0 0 1 }
Segment { rot 0.12416 0 -0.99226 1.70997 offset 0.1208 -0.45131 20001.49052 length 0.00134 color 0 0 1 }
Segment { rot 0.21903 0 -0.97572 1.55695 offset 0.11848 -0.45124 20001.49007 length 0.00341 color 0 0 1 }
Segment { rot 0.16271 0 -0.98667 1.57239 offset 0.1158 -0.45126 20001.48953 length 0.00206 color 0 0 1 }
Segment { rot 0.106 0 -0.99437 1.39937 offset 0.11389 -0.45142 20001.48926 length 0.00181 color 0 0 1 }
Segment { rot 0.06645 0 -0.99779 1.32306 offset 0.11255 -0.45169 20001.48914 length 0.00095 color 0 0 1 }
Segment { rot 0.09426 0 -0.99555 1.25889 offset 0.11179 -0.4519 20001.48908 length 0.00064 color 0 0 1 }
Segment { rot -0.09955 0 0.99503 1.05265 offset 0.11574 -0.45444 20001.48948 length 0.00985 color 0 0 1 }
Segment { rot -0.34429 0 0.93886 1.23136 offset 0.12044 -0.45704 20001.49006 length 0.001 color 0 0 1 }
Segment { rot -0.34027 0 0.94033 1.3452 offset 0.12247 -0.4576 20001.4908 length 0.00347 color 0 0 1 }
Segment { rot -0.23669 0 0.97158 1.29251 offset 0.12413 -0.45801 20001.49139 length 0.00015 color 0 0 1 }
Segment { rot -0.21766 0 0.97602 1.26503 offset 0.12445 -0.45811 20001.49147 length 0.00054 color 0 0 1 }
Segment { rot -0.20396 0 0.97898 1.27873 offset 0.12724 -0.45897 20001.49205 length 0.00542 color 0 0 1 }
Segment { rot -0.50762 0 0.86158 1.36304 offset 0.13242 -0.46039 20001.49414 length 0.00626 color 0 0 1 }
Segment { rot -0.54685 0 0.83723 1.32151 offset 0.13519 -0.46108 20001.49578 length 0.00034 color 0 0 1 }
Segment { rot -0.23632 0 0.97168 1.22892 offset 0.13539 -0.46115 20001.49588 length 0.00013 color 0 0 1 }
Segment { rot -0.35101 0 0.93637 1.2214 offset 0.13783 -0.46209 20001.49679 length 0.0054 color 0 0 1 }
Segment { rot -0.48609 0 0.87391 1.03321 offset 0.14034 -0.46311 20001.49776 length 0.00037 color 0 0 1 }
Segment { rot -0.50562 0 0.86276 1.0588 offset 0.14124 -0.4637 20001.49828 length 0.00201 color 0 0 1 }
Segment { rot -0.54169 0 0.84058 1.05911 offset 0.14213 -0.46428 20001.4988 length 0.00035 color 0 0 1 }
Segment { rot -0.67195 0 -0.7406 0.2082 offset 0.14201 -0.46595 20001.49911 length 0.00323 color 0 0 1 }
Segment { rot -0.3844 0 -0.92317 0.19581 offset 0.14169 -0.46793 20001.49937 length 0.00083 color 0 0 1 }
Segment { rot -0.79496 0 0.60666 0.17948 offset 0.14162 -0.46843 20001.49941 length 0.00018 color 0 0 1 }
Segment { rot -0.90161 0 0.43255 0.28645 offset 0.14197 -0.4712 20001.50014 length 0.00559 color 0 0 1 }
Segment { rot -0.87806 0 0.47855 0.40295 offset 0.14258 -0.4752 20001.50134 length 0.00287 color 0 0 1 }
Segment { rot -0.91743 0 0.3979 0.48677 offset 0.14308 -0.4776 20001.50236 length 0.00244 color 0 0 1 }
Segment { rot -0.992 0 0.12624 0.47383 offset 0.14333 -0.47912 20001.50311 length 0.001 color 0 0 1 }
Segment { rot -0.99998 0 -0.00681 0.5786 offset 0.14336 -0.48029 20001.50381 length 0.00173 color 0 0 1 }
Segment { rot -0.98988 0 -0.14192 0.53902 offset 0.1433 -0.48164 20001.50465 length 0.00146 color 0 0 1 }
Segment { rot -0.90454 0 -0.42639 0.57823 offset 0.14321 -0.48242 20001.50511 length 0.00035 color 0 0 1 }
Segment { rot -0.86154 0 -0.50769 0.48258 offset 0.14307 -0.48294 20001.50537 length 0.00085 color 0 0 1 }
Segment { rot -0.7553 0 -0.65538 0.58771 offset 0.1427 -0.48393 20001.50585 length 0.00147 color 0 0 1 }
Segment { rot -0.64576 0 -0.76354 0.3809 offset 0.14228 -0.48505 20001.50629 length 0.00111 color 0 0 1 }
Segment { rot -0.61973 0 -0.78481 0.46375 offset 0.14162 -0.48685 20001.50682 length 0.00286 color 0 0 1 }
Segment { rot -0.92301 0 0.38477 0.62981 offset 0.14157 -0.48975 20001.5083 length 0.00401 color 0 0 1 }
Segment { rot -0.89661 0 0.44281 0.66122 offset 0.14251 -0.49278 20001.51038 length 0.00359 color 0 0 1 }
Segment { rot -0.90658 0 0.42204 0.65709 offset 0.1434 -0.49541 20001.51222 length 0.00306 color 0 0 1 }
Segment { rot -0.65407 0 0.75643 0.79579 offset 0.14517 -0.49842 20001.51426 length 0.00512 color 0 0 1 }
Segment { rot -0.69955 0 0.71458 0.72485 offset 0.14789 -0.50231 20001.51676 length 0.00561 color 0 0 1 }
Segment { rot -0.76419 0 0.645 0.6001 offset 0.14965 -0.50539 20001.51857 length 0.00238 color 0 0 1 }
Segment { rot -0.58752 0 0.80921 0.58504 offset 0.15042 -0.507 20001.51933 length 0.00151 color 0 0 1 }
Segment { rot 0.9373 0 0.34853 2.66232 offset 0.15079 -0.50748 20001.5195 length 0.00035 color 0 0 1 }
Segment { rot 0.75404 0 0.65683 2.75022 offset 0.15104 -0.5065 20001.51917 length 0.00178 color 0 0 1 }
Segment { rot 0.74011 0 0.67248 2.59296 offset 0.15133 -0.50551 20001.51884 length 0.00038 color 0 0 1 }
Segment { rot 0.78141 0 0.62402 2.43554 offset 0.15152 -0.50511 20001.51861 length 0.00063 color 0 0 1 }
Segment { rot 0.78595 0 0.6183 2.48368 offset 0.15165 -0.50486 20001.51844 length 0.00002 color 0 0 1 }
Segment { rot 0.83651 0 0.54795 2.44293 offset 0.15192 -0.50429 20001.51804 length 0.00148 color 0 0 1 }
Segment { rot -0.99609 0 -0.08831 2.88569 offset 0.15217 -0.50342 20001.51772 length 0.00063 color 0 0 1 }
Segment { rot -0.90838 0 0.41815 2.97553 offset 0.15234 -0.50061 20001.51818 length 0.00508 color 0 0 1 }
Segment { rot -0.83266 0 0.55379 0.61957 offset 0.15291 -0.4991 20001.51916 length 0.00245 color 0 0 1 }
Segment { rot -0.82595 0 0.56374 0.61581 offset 0.15342 -0.50038 20001.51991 length 0.00068 color 0 0 1 }
Segment { rot 0.85877 0 0.51236 0.53761 offset 0.1538 -0.50156 20001.51961 length 0.0021 color 0 0 1 }
Segment { rot 0.95706 0 -0.2899 0.4048 offset 0.15404 -0.50278 20001.51902 length 0.0007 color 0 0 1 }
Segment { rot 0.71304 0 -0.70112 0.26687 offset 0.15393 -0.50344 20001.51882 length 0.0007 color 0 0 1 }
Segment { rot 0.28431 0 -0.95873 0.18444 offset 0.15369 -0.50478 20001.5187 length 0.00205 color 0 0 1 }
Segment { rot -0.82735 0 -0.56168 0.38706 offset 0.15327 -0.50684 20001.519 length 0.00227 color 0 0 1 }
Segment { rot -0.89156 0 -0.45289 0.42651 offset 0.15278 -0.50909 20001.51984 length 0.00263 color 0 0 1 }
Segment { rot -1 0 0.00224 0.69449 offset 0.15254 -0.512 20001.52176 length 0.00447 color 0 0 1 }
Segment { rot -0.26922 0 0.96308 1.98494 offset 0.15388 -0.5131 20001.52356 length 0.00305 color 0 0 1 }
Segment { rot -0.26775 0 0.96349 2.01051 offset 0.15644 -0.5119 20001.52427 length 0.00278 color 0 0 1 }
Segment { rot -0.26529 0 0.96417 1.94362 offset 0.1578 -0.51125 20001.52465 length 0.00034 color 0 0 1 }
Segment { rot 0.06153 0 0.99811 1.9402 offset 0.16112 -0.50996 20001.5245 length 0.00679 color 0 0 1 }
Segment { rot -0.14959 0 0.98875 2.03464 offset 0.16595 -0.50788 20001.52456 length 0.00379 color 0 0 1 }
Segment { rot -0.13916 0 0.99027 1.95296 offset 0.16813 -0.50683 20001.52488 length 0.00109 color 0 0 1 }
Segment { rot -0.11418 0 0.99346 1.8838 offset 0.16907 -0.50649 20001.52501 length 0.00093 color 0 0 1 }
Segment { rot 0.42158 0 -0.90679 1.08702 offset 0.16921 -0.50652 20001.52492 length 0.00075 color 0 0 1 }
Segment { rot 0.40183 0 -0.91571 1.00231 offset 0.16782 -0.50745 20001.5243 length 0.00281 color 0 0 1 }
Segment { rot 0.2429 0 -0.97005 1.16357 offset 0.16644 -0.50833 20001.52375 length 0.00066 color 0 0 1 }
Segment { rot 0.23858 0 -0.97112 1.03816 offset 0.16601 -0.50855 20001.52364 length 0.00034 color 0 0 1 }
Segment { rot 0.2512 0 -0.96794 0.97227 offset 0.16453 -0.50958 20001.52326 length 0.00334 color 0 0 1 }
Segment { rot 0.21569 0 -0.97646 0.89526 offset 0.16243 -0.51115 20001.52275 length 0.00202 color 0 0 1 }
Segment { rot 0.95576 0 -0.29413 1.19742 offset 0.1616 -0.51186 20001.52238 length 0.00044 color 0 0 1 }
Segment { rot 0.45723 0 -0.88935 0.73481 offset 0.16006 -0.51378 20001.52142 length 0.00496 color 0 0 1 }
Segment { rot 0.45041 0 -0.89282 0.7065 offset 0.1583 -0.51599 20001.52052 length 0.00097 color 0 0 1 }
Segment { rot 0.5411 0 -0.84096 0.77598 offset 0.15772 -0.51672 20001.52019 length 0.001 color 0 0 1 }
Segment { rot 0.49499 0 -0.8689 0.70944 offset 0.15696 -0.5177 20001.51973 length 0.00166 color 0 0 1 }
Segment { rot 0.59466 0 -0.80398 0.73285 offset 0.15647 -0.51836 20001.51945 length 0.00007 color 0 0 1 }
Segment { rot 0.53093 0 -0.84742 0.88667 offset 0.1563 -0.51853 20001.51934 length 0.00047 color 0 0 1 }
Segment { rot 0.43582 0 -0.90003 0.76761 offset 0.15614 -0.51869 20001.51924 length 0.00001 color 0 0 1 }
Segment { rot 0.52482 0 -0.85121 0.80285 offset 0.1558 -0.51907 20001.51903 length 0.0011 color 0 0 1 }
Segment { rot -0.28361 0 0.95894 1.40076 offset 0.15596 -0.51954 20001.51897 length 0.00105 color 0 0 1 }
Segment { rot -0.32871 0 0.94443 1.23417 offset 0.15657 -0.51967 20001.51916 length 0.00026 color 0 0 1 }
Segment { rot -0.51813 0 0.8553 1.16993 offset 0.15699 -0.51987 20001.51938 length 0.00078 color 0 0 1 }
Segment { rot -0.49314 0 0.86995 1.175 offset 0.15731 -0.52003 20001.51957 length 0.00002 color 0 0 1 }
Segment { rot -0.57016 0 0.82153 1.16499 offset 0.15895 -0.52088 20001.52071 length 0.00432 color 0 0 1 }
Segment { rot -0.80879 0 0.58809 1.36056 offset 0.16091 -0.52185 20001.52229 length 0.00115 color 0 0 1 }
Segment { rot -0.6741 0 0.73864 1.40654 offset 0.1615 -0.52203 20001.52299 length 0.00072 color 0 0 1 }
Segment { rot -0.7485 0 0.66313 1.31057 offset 0.16253 -0.5224 20001.5241 length 0.0024 color 0 0 1 }
Segment { rot -0.95793 0 0.28702 2.08454 offset 0.16365 -0.52203 20001.52612 length 0.00278 color 0 0 1 }
Segment { rot -0.97809 0 0.20818 2.14081 offset 0.16431 -0.52038 20001.52876 length 0.00359 color 0 0 1 }
Segment { rot -0.97168 0 0.23628 2.06623 offset 0.16475 -0.51912 20001.53075 length 0.0012 color 0 0 1 }
Segment { rot -0.98455 0 0.17509 2.03923 offset 0.16507 -0.51826 20001.53239 length 0.00257 color 0 0 1 }
Segment { rot -0.92461 0 0.38092 2.02834 offset 0.16536 -0.51757 20001.53373 length 0.0005 color 0 0 1 }
Segment { rot -0.94933 0 0.31428 2.17251 offset 0.16571 -0.51687 20001.53474 length 0.00206 color 0 0 1 }
Segment { rot -0.94754 0 0.31965 2.03333 offset 0.1661 -0.5161 20001.53591 length 0.00085 color 0 0 1 }
Segment { rot -0.93735 0 0.3484 2.02893 offset 0.16641 -0.51564 20001.53678 length 0.00123 color 0 0 1 }
Segment { rot -0.99957 0 -0.02918 2.11539 offset 0.16659 -0.51506 20001.53781 length 0.00119 color 0 0 1 }
Segment { rot -0.99968 0 -0.02546 2.11606 offset 0.16656 -0.51447 20001.53878 length 0.00107 color 0 0 1 }
Segment { rot -0.9997 0 -0.02431 2.18623 offset 0.16652 -0.51332 20001.54046 length 0.00302 color 0 0 1 }
Segment { rot -0.91202 0 0.41015 2.06433 offset 0.16653 -0.5124 20001.54178 length 0.00022 color 0 0 1 }
Segment { rot -0.85482 0 0.51893 1.51135 offset 0.16757 -0.51246 20001.54352 length 0.00387 color 0 0 1 }
Segment { rot 0.85302 0 -0.52188 1.88565 offset 0.16804 -0.51224 20001.5443 length 0.00215 color 0 0 1 }
Segment { rot 0.84065 0 -0.54158 1.89171 offset 0.16748 -0.51189 20001.54338 length 0.00012 color 0 0 1 }
Segment { rot 0.93241 0 -0.3614 2.21789 offset 0.16735 -0.51168 20001.5431 length 0.00063 color 0 0 1 }
Segment { rot 0.90561 0 -0.42412 2.16627 offset 0.16712 -0.51127 20001.54257 length 0.00079 color 0 0 1 }
Segment { rot 0.77338 0 -0.63395 2.44701 offset 0.16677 -0.51064 20001.54201 length 0.00106 color 0 0 1 }
Segment { rot 0.87227 0 -0.48903 2.587 offset 0.16649 -0.51002 20001.54163 length 0.0005 color 0 0 1 }
Segment { rot 0.71125 0 -0.70294 2.72499 offset 0.1664 -0.50972 20001.54149 length 0.00019 color 0 0 1 }
Segment { rot 0.46072 0 -0.88754 2.74959 offset 0.16636 -0.50961 20001.54145 length 0.00006 color 0 0 1 }
Segment { rot 0.54395 0 -0.83912 2.67083 offset 0.16615 -0.5091 20001.54132 length 0.00108 color 0 0 1 }
Segment { rot 0.47796 0 0.87838 0.2217 offset 0.166 -0.50893 20001.54115 length 0.00064 color 0 0 1 }
Segment { rot -0.99536 0 0.09623 0.59871 offset 0.16607 -0.50929 20001.54115 length 0.00012 color 0 0 1 }
Segment { rot -0.99991 0 0.01375 0.94975 offset 0.16608 -0.50966 20001.54162 length 0.00108 color 0 0 1 }
Segment { rot -0.99604 0 0.08889 1.20541 offset 0.16609 -0.51001 20001.54215 length 0.0002 color 0 0 1 }
Segment { rot 0.98103 0 0.19385 2.54335 offset 0.16616 -0.5096 20001.54195 length 0.00106 color 0 0 1 }
Segment { rot 0.94864 0 0.31637 2.38608 offset 0.16624 -0.5091 20001.5416 length 0.00019 color 0 0 1 }
Segment { rot 0.91329 0 0.40731 2.63164 offset 0.16633 -0.5087 20001.54137 length 0.00074 color 0 0 1 }
Segment { rot 0.05788 0 0.99832 2.64085 offset 0.16655 -0.50812 20001.5412 length 0.00061 color 0 0 1 }
Segment { rot 0.20726 0 0.97829 2.756 offset 0.1667 -0.50783 20001.54119 length 0.00003 color 0 0 1 }
Segment { rot 0.18944 0 0.98189 2.74078 offset 0.167 -0.50711 20001.54113 length 0.00154 color 0 0 1 }
Segment { rot 0.15089 0 0.98855 2.80645 offset 0.16732 -0.50633 20001.54107 length 0.00015 color 0 0 1 }
Segment { rot 0.37041 0 0.92887 2.0256 offset 0.16739 -0.50623 20001.54105 length 0.00011 color 0 0 1 }
Segment { rot 0.45444 0 0.89078 1.81077 offset 0.16749 -0.50619 20001.541 length 0.00013 color 0 0 1 }
Segment { rot 0.49879 0 0.86672 1.95982 offset 0.16819 -0.50588 20001.5406 length 0.00159 color 0 0 1 }
Segment { rot -0.58712 0 0.8095 1.45346 offset 0.16926 -0.50564 20001.54055 length 0.00107 color 0 0 1 }
Segment { rot 0.6086 0 -0.79347 1.31396 offset 0.16954 -0.50575 20001.54075 length 0.00038 color 0 0 1 }
Segment { rot 0.44232 0 -0.89686 1.16781 offset 0.16938 -0.5058 20001.54063 length 0.00003 color 0 0 1 }
Segment { rot 0.56327 0 -0.82627 1.62551 offset 0.16896 -0.50578 20001.54035 length 0.00099 color 0 0 1 }
Segment { rot 0.77675 0 -0.62981 1.54006 offset 0.16842 -0.50576 20001.53991 length 0.00042 color 0 0 1 }
Segment { rot 0.77983 0 -0.62599 1.74286 offset 0.16827 -0.50576 20001.53972 length 0.00007 color 0 0 1 }
Segment { rot -0.97118 0 -0.23836 1.19165 offset 0.16825 -0.50576 20001.5397 length 0.00002 color 0 0 1 }
Segment { rot -0.97003 0 -0.243 1.31793 offset 0.16821 -0.50579 20001.53983 length 0.00026 color 0 0 1 }
Segment { rot -0.95523 0 -0.29585 1.47747 offset 0.16815 -0.50584 20001.54005 length 0.00021 color 0 0 1 }
Segment { rot -0.96985 0 -0.24369 1.35529 offset 0.16802 -0.50594 20001.54056 length 0.00086 color 0 0 1 }