#VRML V2.0 utf8
#Generated by NISTMonte
WorldInfo {
 title "NISTMonte Trajectory"
 info ["See http://www.cstl.nist.gov/div837/Division/home.html for more information"]
}
Viewpoint {
 fieldOfView 0.785398
 position 0 5 31000
 orientation -1 -0 -0 1.5708
 description "Y-Axis"
}
Viewpoint {
 fieldOfView 0.785398
 position 0 0 30995
 orientation 1 0 0 3.1415926
 description "Gun"
}
Viewpoint {
 fieldOfView 0.785398
 position -5 0 31000
 orientation 0 -1 0 1.5708
 description "X-Axis"
}




#Prototype for a trajectory segment
PROTO Segment [
 field SFRotation rot 1 0 0 0
 field SFVec3f offset 0 0 0
 field SFFloat length 0.1
 field SFColor color 1 1 1
]
{
 Transform {
  rotation IS rot
  translation IS offset
  children [
   Shape {
    geometry Cylinder {
     radius 0.001
     height IS length
    }
    appearance Appearance {
     material Material {
      emissiveColor IS color
     }
    }
   }
  ]
 }
}
Segment { rot -1 0 -0 1.5708 offset 0.00564 0.00219 31000.00266 length 0.00532 color 0 0 1 }
Segment { rot -1 0 -0.0014 1.6005 offset 0.00564 0.00223 31000.00655 length 0.00247 color 0 0 1 }
Segment { rot -0.99962 0 -0.02773 1.64001 offset 0.00563 0.00228 31000.00797 length 0.00038 color 0 0 1 }
Segment { rot -1 0 -0.00143 1.62574 offset 0.00563 0.00234 31000.0091 length 0.00188 color 0 0 1 }
Segment { rot -0.99875 0 0.05008 1.58145 offset 0.00563 0.00239 31000.01014 length 0.0002 color 0 0 1 }
Segment { rot -0.99869 0 0.05116 1.51764 offset 0.00599 0.00202 31000.0172 length 0.01397 color 0 0 1 }
Segment { rot -0.99794 0 0.06418 1.51254 offset 0.00646 0.00155 31000.02594 length 0.00356 color 0 0 1 }
Segment { rot -0.98971 0 -0.14308 2.09243 offset 0.00617 0.00308 31000.03052 length 0.00654 color 0 0 1 }
Segment { rot -0.96996 0 -0.24326 2.14062 offset 0.00531 0.0059 31000.03513 length 0.00441 color 0 0 1 }
Segment { rot -0.98844 0 -0.15158 2.12248 offset 0.00433 0.00925 31000.0404 length 0.00825 color 0 0 1 }
Segment { rot -0.94266 0 -0.33376 2.08336 offset 0.00309 0.0126 31000.04587 length 0.00487 color 0 0 1 }
Segment { rot -0.89605 0 -0.44396 2.12911 offset 0.00226 0.01396 31000.04811 length 0.00063 color 0 0 1 }
Segment { rot -0.90911 0 -0.41655 2.08727 offset 0.00008 0.01695 31000.05286 length 0.0114 color 0 0 1 }
Segment { rot -0.04868 0 0.99881 1.77942 offset -0.00126 0.01992 31000.0574 length 0.0015 color 0 0 1 }
Segment { rot -0.04096 0 0.99916 1.84622 offset 0.00278 0.02101 31000.05757 length 0.00687 color 0 0 1 }
Segment { rot -0.12703 0 0.9919 1.84514 offset 0.00684 0.02216 31000.05781 length 0.0016 color 0 0 1 }
Segment { rot -0.18041 0 0.98359 1.82811 offset 0.00844 0.0226 31000.05806 length 0.00177 color 0 0 1 }
Segment { rot -0.22633 0 0.97405 1.8611 offset 0.01107 0.02337 31000.05863 length 0.00382 color 0 0 1 }
Segment { rot -0.24415 0 0.96974 1.8138 offset 0.01715 0.02501 31000.06012 length 0.00913 color 0 0 1 }
Segment { rot -0.28851 0 0.95748 1.80808 offset 0.02214 0.02629 31000.06142 length 0.0015 color 0 0 1 }
Segment { rot -0.03491 0 0.99939 1.9315 offset 0.02427 0.02701 31000.06168 length 0.00307 color 0 0 1 }
Segment { rot -0.17838 0 0.98396 1.93549 offset 0.02652 0.02786 31000.06187 length 0.00177 color 0 0 1 }
Segment { rot -0.23172 0 0.97278 1.99984 offset 0.02892 0.02892 31000.0624 length 0.00357 color 0 0 1 }
Segment { rot -0.28453 0 0.95867 2.10101 offset 0.03226 0.03075 31000.0633 length 0.00428 color 0 0 1 }
Segment { rot -0.31659 0 0.94856 2.11595 offset 0.0348 0.03232 31000.06408 length 0.00188 color 0 0 1 }
Segment { rot -0.33795 0 0.94116 2.14691 offset 0.03581 0.03298 31000.06442 length 0.00064 color 0 0 1 }
Segment { rot -0.30869 0 0.95116 2.14418 offset 0.03678 0.03364 31000.06475 length 0.0018 color 0 0 1 }
Segment { rot -0.2869 0 0.95796 2.11486 offset 0.04551 0.03919 31000.06738 length 0.01954 color 0 0 1 }
Segment { rot -0.2386 0 0.97112 2.0667 offset 0.05536 0.04527 31000.07023 length 0.00432 color 0 0 1 }
Segment { rot -0.2172 0 0.97613 2.07392 offset 0.05837 0.04696 31000.07094 length 0.00272 color 0 0 1 }
Segment { rot -0.2534 0 0.96736 1.98977 offset 0.05962 0.04765 31000.07122 length 0.00019 color 0 0 1 }
Segment { rot -0.70024 0 0.71391 1.63447 offset 0.06147 0.04785 31000.07298 length 0.00495 color 0 0 1 }
Segment { rot -0.73239 0 0.68088 1.63438 offset 0.06664 0.04832 31000.07837 length 0.01004 color 0 0 1 }
Segment { rot -0.7418 0 0.67062 1.66663 offset 0.07212 0.04894 31000.08432 length 0.00618 color 0 0 1 }
Segment { rot -0.71671 0 0.69737 1.71012 offset 0.08062 0.05053 31000.09323 length 0.01866 color 0 0 1 }
Segment { rot -0.724 0 0.6898 1.68395 offset 0.0872 0.05185 31000.09999 length 0.00039 color 0 0 1 }
Segment { rot -0.71679 0 0.69729 1.66838 offset 0.08832 0.05201 31000.10115 length 0.00284 color 0 0 1 }
Segment { rot -0.86602 0 0.5 1.53796 offset 0.09151 0.052 31000.10598 length 0.00884 color 0 0 1 }
Segment { rot -0.85339 0 0.52127 1.52914 offset 0.09547 0.05172 31000.11266 length 0.00669 color 0 0 1 }
Segment { rot -0.84869 0 0.52889 1.52084 offset 0.09837 0.05147 31000.11738 length 0.00441 color 0 0 1 }
Segment { rot -0.75763 0 0.65269 1.59071 offset 0.09999 0.05137 31000.11977 length 0.00138 color 0 0 1 }
Segment { rot -0.81409 0 0.58074 1.68009 offset 0.10258 0.05179 31000.1233 length 0.00742 color 0 0 1 }
Segment { rot -0.89569 0 0.44468 1.78494 offset 0.10636 0.053 31000.12961 length 0.00757 color 0 0 1 }
Segment { rot -0.8592 0 0.51164 1.79667 offset 0.10803 0.05381 31000.13296 length 0.00008 color 0 0 1 }
Segment { rot -0.78173 0 0.62362 1.86956 offset 0.11072 0.05514 31000.13634 length 0.00894 color 0 0 1 }
Segment { rot -0.78682 0 0.61719 1.777 offset 0.11429 0.05676 31000.14084 length 0.00301 color 0 0 1 }
Segment { rot -0.94006 0 0.341 1.68315 offset 0.11614 0.05738 31000.14458 length 0.00554 color 0 0 1 }
Segment { rot -0.94312 0 0.33244 1.79382 offset 0.11812 0.0584 31000.15013 length 0.00644 color 0 0 1 }
Segment { rot -0.91345 0 0.40696 1.82991 offset 0.12119 0.06043 31000.15764 length 0.01029 color 0 0 1 }
Segment { rot -0.91371 0 0.40637 1.80759 offset 0.12407 0.06226 31000.1641 length 0.00433 color 0 0 1 }
Segment { rot -0.97825 0 0.20744 2.30233 offset 0.125 0.0631 31000.16639 length 0.00099 color 0 0 1 }
Segment { rot -0.97821 0 0.20761 2.34224 offset 0.12587 0.06716 31000.1705 length 0.0107 color 0 0 1 }
Segment { rot -0.98181 0 0.18985 2.38931 offset 0.12734 0.07468 31000.17774 length 0.01039 color 0 0 1 }
Segment { rot -0.96917 0 0.2464 2.38654 offset 0.13021 0.08795 31000.18986 length 0.026 color 0 0 1 }
Segment { rot -0.97291 0 0.23118 2.38569 offset 0.13275 0.09898 31000.19993 length 0.0043 color 0 0 1 }
Segment { rot -0.97317 0 0.2301 2.3708 offset 0.13323 0.10118 31000.20196 length 0.00177 color 0 0 1 }
Segment { rot -0.98698 0 0.16083 2.35512 offset 0.13338 0.10184 31000.20259 length 0.00008 color 0 0 1 }
Segment { rot -0.98647 0 0.16391 2.37825 offset 0.13385 0.10488 31000.20546 length 0.00835 color 0 0 1 }
Segment { rot -0.97286 0 0.23139 2.31625 offset 0.13439 0.10814 31000.20857 length 0.00072 color 0 0 1 }
Segment { rot -0.95256 0 0.30435 2.29095 offset 0.13468 0.10904 31000.20954 length 0.00199 color 0 0 1 }
Segment { rot -0.90105 0 0.43371 1.84167 offset 0.135 0.10976 31000.21044 length 0.00044 color 0 0 1 }
Segment { rot -0.9108 0 0.41284 1.91742 offset 0.1355 0.11017 31000.21153 length 0.0021 color 0 0 1 }
Segment { rot -0.89312 0 0.44983 1.87957 offset 0.13689 0.11123 31000.2144 length 0.00463 color 0 0 1 }
Segment { rot -0.88572 0 0.46422 1.90646 offset 0.139 0.11277 31000.21848 length 0.00507 color 0 0 1 }
Segment { rot -0.8835 0 0.46844 1.89894 offset 0.14084 0.11413 31000.22198 length 0.00329 color 0 0 1 }
Segment { rot -0.8085 0 0.58849 1.79558 offset 0.1435 0.11542 31000.22601 length 0.00674 color 0 0 1 }
Segment { rot -0.7565 0 0.65399 1.82682 offset 0.14777 0.1171 31000.23137 length 0.00739 color 0 0 1 }
Segment { rot -0.97557 0 0.2197 1.82914 offset 0.15083 0.11891 31000.23728 length 0.00681 color 0 0 1 }
Segment { rot -0.96698 0 0.25486 1.85929 offset 0.15254 0.12093 31000.24425 length 0.00812 color 0 0 1 }
Segment { rot -0.98747 0 -0.15781 2.38718 offset 0.15323 0.12414 31000.24992 length 0.00565 color 0 0 1 }
Segment { rot -0.99624 0 -0.08664 2.36687 offset 0.15291 0.12637 31000.252 length 0.00049 color 0 0 1 }
Segment { rot -0.97235 0 -0.23354 2.35082 offset 0.15287 0.12664 31000.25226 length 0.00026 color 0 0 1 }
Segment { rot -0.89648 0 -0.44308 1.60258 offset 0.15272 0.12674 31000.25262 length 0.0006 color 0 0 1 }
Segment { rot -0.86751 0 -0.49742 1.612 offset 0.15164 0.12683 31000.25453 length 0.0038 color 0 0 1 }
Segment { rot -0.95566 0 -0.29447 1.56165 offset 0.1507 0.12691 31000.25619 length 0.00002 color 0 0 1 }
Segment { rot -0.45604 0 -0.88996 1.77882 offset 0.1493 0.12724 31000.25692 length 0.00321 color 0 0 1 }
Segment { rot -0.46379 0 -0.88594 1.77454 offset 0.14757 0.12765 31000.25781 length 0.00077 color 0 0 1 }
Segment { rot -0.67504 0 -0.73778 1.93836 offset 0.14633 0.1282 31000.25881 length 0.00263 color 0 0 1 }
Segment { rot -0.87386 0 -0.48618 1.84768 offset 0.14511 0.12886 31000.26021 length 0.00135 color 0 0 1 }
Segment { rot -0.84276 0 -0.53829 1.79162 offset 0.1442 0.12929 31000.2617 length 0.00227 color 0 0 1 }
Segment { rot -0.86955 0 -0.49385 1.799 offset 0.14305 0.1298 31000.26362 length 0.00232 color 0 0 1 }
Segment { rot -0.87758 0 -0.47943 1.80774 offset 0.14245 0.13008 31000.26467 length 0.00017 color 0 0 1 }
Segment { rot -0.85526 0 -0.51821 1.78574 offset 0.13821 0.13187 31000.27167 length 0.01658 color 0 0 1 }
Segment { rot -0.87515 0 -0.48384 1.83453 offset 0.13347 0.13394 31000.27958 length 0.00235 color 0 0 1 }
Segment { rot -0.29599 0 -0.95519 2.09486 offset 0.13078 0.13554 31000.28124 length 0.00517 color 0 0 1 }
Segment { rot 0.25998 0 -0.96561 2.11666 offset 0.12832 0.13704 31000.28181 length 0.00079 color 0 0 1 }
Segment { rot 0.25327 0 -0.96739 2.14109 offset 0.12723 0.13775 31000.28152 length 0.00188 color 0 0 1 }
Segment { rot 0.37673 0 -0.92632 2.26737 offset 0.12228 0.14204 31000.27962 length 0.01177 color 0 0 1 }
Segment { rot -0.49723 0 -0.86762 2.77957 offset 0.11778 0.14677 31000.2781 length 0.00205 color 0 0 1 }
Segment { rot -0.6915 0 -0.72237 2.777 offset 0.11736 0.14813 31000.27839 length 0.00086 color 0 0 1 }
Segment { rot -0.65922 0 -0.75195 2.71872 offset 0.11679 0.1499 31000.2789 length 0.00299 color 0 0 1 }
Segment { rot -0.8142 0 -0.58058 2.69945 offset 0.11569 0.15358 31000.2802 length 0.00513 color 0 0 1 }
Segment { rot -0.78288 0 -0.62217 2.69564 offset 0.11464 0.15727 31000.2816 length 0.00304 color 0 0 1 }
Segment { rot -0.7643 0 -0.64486 2.65703 offset 0.11386 0.15975 31000.28256 length 0.0025 color 0 0 1 }
Segment { rot -0.81997 0 -0.57241 2.62096 offset 0.11322 0.16164 31000.28338 length 0.00182 color 0 0 1 }
Segment { rot -0.87019 0 -0.49272 2.5561 offset 0.1129 0.16262 31000.28386 length 0.00045 color 0 0 1 }
Segment { rot -0.77548 0 -0.63138 2.55518 offset 0.11248 0.16367 31000.28441 length 0.00208 color 0 0 1 }
Segment { rot -0.98438 0 -0.17606 2.58955 offset 0.11198 0.1658 31000.28562 length 0.00298 color 0 0 1 }
Segment { rot -0.99249 0 -0.12234 2.56353 offset 0.11174 0.1684 31000.28725 length 0.00316 color 0 0 1 }
Segment { rot -0.99611 0 -0.08807 2.5508 offset 0.11159 0.17043 31000.28858 length 0.00171 color 0 0 1 }
Segment { rot -0.99993 0 -0.01222 2.5448 offset 0.11155 0.17129 31000.28916 length 0.00034 color 0 0 1 }
Segment { rot -0.99996 0 0.00912 2.53308 offset 0.11154 0.17148 31000.28929 length 0.00013 color 0 0 1 }
Segment { rot -0.99997 0 -0.0078 2.46843 offset 0.11154 0.17264 31000.29021 length 0.00282 color 0 0 1 }
Segment { rot -0.99577 0 0.09183 2.45804 offset 0.11153 0.17379 31000.29112 length 0.00012 color 0 0 1 }
Segment { rot -0.99542 0 0.09561 2.82858 offset 0.11157 0.1748 31000.29147 length 0.00203 color 0 0 1 }
Segment { rot -0.92753 0 0.37376 2.84255 offset 0.11207 0.17983 31000.29294 length 0.0085 color 0 0 1 }
Segment { rot -0.92323 0 0.38425 2.80374 offset 0.11268 0.18499 31000.29446 length 0.00234 color 0 0 1 }
Segment { rot -0.87093 0 0.49141 2.85455 offset 0.11302 0.18737 31000.29515 length 0.00265 color 0 0 1 }
Segment { rot -0.61429 0 0.78908 2.95565 offset 0.11355 0.19099 31000.29574 length 0.00478 color 0 0 1 }
Segment { rot -0.78913 0 0.61423 2.99496 offset 0.11392 0.1936 31000.29605 length 0.00055 color 0 0 1 }
Segment { rot -0.99981 0 0.01945 3.04102 offset 0.11395 0.1948 31000.29617 length 0.00186 color 0 0 1 }
Segment { rot -0.69096 0 0.7229 3.00308 offset 0.11404 0.19666 31000.29636 length 0.00188 color 0 0 1 }
Segment { rot 0.01552 0 0.99988 1.12425 offset 0.11434 0.19749 31000.29644 length 0.00045 color 0 0 1 }
Segment { rot 0.09189 0 0.99577 1.12295 offset 0.11772 0.19586 31000.29615 length 0.00708 color 0 0 1 }
Segment { rot 0.03642 0 0.99934 1.17247 offset 0.12169 0.194 31000.29582 length 0.00173 color 0 0 1 }
Segment { rot 0.08385 0 0.99648 1.26039 offset 0.12484 0.1929 31000.2956 length 0.00496 color 0 0 1 }
Segment { rot 0.07128 0 0.99746 1.2773 offset 0.12888 0.19164 31000.29528 length 0.00353 color 0 0 1 }
Segment { rot -0.03538 0 0.99937 1.25782 offset 0.13268 0.19044 31000.29523 length 0.00444 color 0 0 1 }
Segment { rot 0.0586 0 0.99828 1.27845 offset 0.13597 0.1894 31000.29524 length 0.00247 color 0 0 1 }
Segment { rot 0.0908 0 0.99587 1.19489 offset 0.14029 0.1878 31000.29488 length 0.00678 color 0 0 1 }
Segment { rot 0.18145 0 0.9834 1.21713 offset 0.14699 0.18522 31000.29394 length 0.00772 color 0 0 1 }
Segment { rot 0.88655 0 0.46263 0.58014 offset 0.15077 0.18317 31000.29287 length 0.0017 color 0 0 1 }
Segment { rot 0.82757 0 0.56137 0.53207 offset 0.15158 0.18067 31000.29158 length 0.00417 color 0 0 1 }
Segment { rot 0.91384 0 0.40607 0.44257 offset 0.15221 0.17868 31000.29062 length 0.00044 color 0 0 1 }
Segment { rot 0.9236 0 0.38336 0.44693 offset 0.1524 0.17763 31000.29016 length 0.00189 color 0 0 1 }
Segment { rot 0.91206 0 0.41006 0.58043 offset 0.15272 0.17618 31000.28942 length 0.00143 color 0 0 1 }
Segment { rot 0.95869 0 0.28446 0.61693 offset 0.15316 0.17418 31000.28812 length 0.00342 color 0 0 1 }
Segment { rot 0.5043 0 0.86353 1.77469 offset 0.15346 0.17279 31000.28716 length 0.00005 color 0 0 1 }
Segment { rot 0.48916 0 0.87219 1.78425 offset 0.15565 0.17333 31000.28593 length 0.00509 color 0 0 1 }
Segment { rot 0.48134 0 0.87654 1.90391 offset 0.16641 0.17726 31000.28 length 0.02073 color 0 0 1 }
Segment { rot 0.47477 0 0.88011 1.95961 offset 0.17718 0.18167 31000.2741 length 0.00537 color 0 0 1 }
Segment { rot 0.51701 0 0.85598 1.98827 offset 0.18041 0.18323 31000.27229 length 0.00267 color 0 0 1 }
Segment { rot 0.42825 0 0.90366 2.02711 offset 0.18416 0.18524 31000.27038 length 0.00669 color 0 0 1 }
Segment { rot 0.48664 0 0.8736 2.00584 offset 0.18819 0.18741 31000.26836 length 0.00332 color 0 0 1 }
Segment { rot 0.99985 0 0.0173 2.50164 offset 0.18956 0.19239 31000.26444 length 0.01067 color 0 0 1 }
Segment { rot 0.94876 0 0.31599 2.46532 offset 0.18965 0.19681 31000.26115 length 0.00035 color 0 0 1 }
Segment { rot 0.94103 0 0.33833 2.42028 offset 0.18978 0.19726 31000.26079 length 0.00083 color 0 0 1 }
Segment { rot 0.21941 0 0.97563 2.50512 offset 0.19041 0.19831 31000.26041 length 0.00185 color 0 0 1 }
Segment { rot 0.31523 0 0.94902 2.36034 offset 0.19269 0.20092 31000.25971 length 0.00523 color 0 0 1 }
Segment { rot 0.39047 0 0.92061 2.44786 offset 0.19493 0.20341 31000.25892 length 0.00167 color 0 0 1 }
Segment { rot 0.36008 0 0.93292 2.29338 offset 0.19548 0.20411 31000.25869 length 0.00016 color 0 0 1 }
Segment { rot 0.31067 0 0.95052 2.28665 offset 0.19801 0.20642 31000.25786 length 0.00689 color 0 0 1 }
Segment { rot 0.46391 0 0.88588 2.18312 offset 0.20071 0.20887 31000.25693 length 0.00065 color 0 0 1 }
Segment { rot 0.41973 0 0.90765 2.20972 offset 0.20137 0.2094 31000.25662 length 0.00115 color 0 0 1 }
Segment { rot 0.52658 0 0.85013 2.23535 offset 0.20261 0.2105 31000.25591 length 0.00245 color 0 0 1 }
Segment { rot 0.2935 0 0.95596 1.26541 offset 0.20592 0.21043 31000.25464 length 0.00547 color 0 0 1 }
Segment { rot 0.31303 0 0.94974 1.25747 offset 0.20973 0.20916 31000.25344 length 0.00292 color 0 0 1 }
Segment { rot 0.34586 0 0.93829 1.45388 offset 0.21312 0.20845 31000.25224 length 0.00443 color 0 0 1 }
Segment { rot 0.32508 0 0.94569 1.41383 offset 0.21601 0.20805 31000.2512 length 0.00177 color 0 0 1 }
Segment { rot 0.23458 0 0.9721 1.35269 offset 0.21998 0.2072 31000.25016 length 0.00663 color 0 0 1 }
Segment { rot 0.25576 0 0.96674 1.35761 offset 0.2253 0.206 31000.24882 length 0.00459 color 0 0 1 }
Segment { rot -0.12182 0 0.99255 1.08268 offset 0.22747 0.20551 31000.24825 length 0 color 0 0 1 }
Segment { rot -0.27937 0 0.96018 1.73941 offset 0.22764 0.20554 31000.2483 length 0.00036 color 0 0 1 }
Segment { rot -0.23117 0 0.97291 1.70103 offset 0.22966 0.20582 31000.24879 length 0.00384 color 0 0 1 }
Segment { rot 0.05966 0 0.99822 1.56367 offset 0.23339 0.20606 31000.24912 length 0.00375 color 0 0 1 }
Segment { rot 0.24037 0 0.97068 1.59905 offset 0.23871 0.20614 31000.24815 length 0.00712 color 0 0 1 }
Segment { rot 0.12385 0 0.9923 1.68626 offset 0.2423 0.20626 31000.24728 length 0.00025 color 0 0 1 }
Segment { rot 0.16958 0 0.98552 1.70753 offset 0.24299 0.20635 31000.24717 length 0.00115 color 0 0 1 }
Segment { rot 0.04644 0 0.99892 1.60832 offset 0.24466 0.20647 31000.24702 length 0.00222 color 0 0 1 }
Segment { rot -0.07728 0 0.99701 1.56852 offset 0.24617 0.20651 31000.247 length 0.00081 color 0 0 1 }
Segment { rot -0.01483 0 0.99989 1.49384 offset 0.25458 0.2059 31000.24715 length 0.01604 color 0 0 1 }
Segment { rot -0.04345 0 0.99906 1.56976 offset 0.26371 0.20528 31000.24731 length 0.00227 color 0 0 1 }
Segment { rot -0.14351 0 0.98965 1.48353 offset 0.26588 0.20518 31000.24751 length 0.00212 color 0 0 1 }
Segment { rot -0.17917 0 0.98382 1.3303 offset 0.26724 0.20501 31000.24772 length 0.00066 color 0 0 1 }
Segment { rot -0.2003 0 0.97973 1.37044 offset 0.27034 0.20436 31000.24835 length 0.0058 color 0 0 1 }
Segment { rot -0.01429 0 0.9999 1.22654 offset 0.27717 0.20233 31000.24898 length 0.00859 color 0 0 1 }
Segment { rot 0.01547 0 0.99988 1.17978 offset 0.28372 0.19985 31000.249 length 0.00543 color 0 0 1 }
Segment { rot -0.05665 0 0.99839 1.01703 offset 0.28984 0.19658 31000.24916 length 0.0085 color 0 0 1 }
Segment { rot -0.624 0 0.78142 1.02711 offset 0.29408 0.19386 31000.24987 length 0.00187 color 0 0 1 }
Segment { rot -0.65334 0 0.75706 1.08731 offset 0.29487 0.19325 31000.25051 length 0.0005 color 0 0 1 }
Segment { rot -0.78155 0 0.62385 0.92269 offset 0.29588 0.19212 31000.25171 length 0.00337 color 0 0 1 }
Segment { rot -0.78736 0 0.6165 0.89551 offset 0.29682 0.19096 31000.2529 length 0.00045 color 0 0 1 }
Segment { rot -0.4452 0 0.89543 0.89059 offset 0.2974 0.1904 31000.25327 length 0.00135 color 0 0 1 }
Segment { rot -0.40086 0 0.91614 0.91742 offset 0.29864 0.18933 31000.25384 length 0.00211 color 0 0 1 }
Segment { rot -0.87324 0 0.4873 0.47512 offset 0.29967 0.18764 31000.25465 length 0.00237 color 0 0 1 }
Segment { rot -0.96877 0 0.24796 0.28114 offset 0.29998 0.18592 31000.2553 length 0.00138 color 0 0 1 }
Segment { rot -0.99883 0 -0.0483 0.4824 offset 0.29999 0.18359 31000.25636 length 0.00378 color 0 0 1 }
Segment { rot -0.70517 0 0.70904 1.01415 offset 0.30008 0.1818 31000.25737 length 0.00044 color 0 0 1 }
Segment { rot -0.72741 0 0.6862 1.02105 offset 0.3003 0.1816 31000.2576 length 0.00033 color 0 0 1 }
Segment { rot -0.8907 0 0.4546 1.50574 offset 0.30052 0.18149 31000.25794 length 0.00052 color 0 0 1 }
Segment { rot -0.90656 0 0.42207 1.54856 offset 0.30171 0.18142 31000.26047 length 0.00506 color 0 0 1 }
Segment { rot -0.9101 0 0.41438 1.53827 offset 0.30375 0.18129 31000.26491 length 0.00472 color 0 0 1 }
Segment { rot -0.934 0 0.35727 1.57205 offset 0.30478 0.18121 31000.26718 length 0.00028 color 0 0 1 }
Segment { rot -0.92685 0 0.37542 1.51926 offset 0.30536 0.18114 31000.26864 length 0.00285 color 0 0 1 }
Segment { rot -0.88132 0 0.47252 1.48065 offset 0.3079 0.18068 31000.27369 length 0.00851 color 0 0 1 }
Segment { rot -0.88129 0 0.47257 1.55787 offset 0.31042 0.18028 31000.27839 length 0.00218 color 0 0 1 }
Segment { rot -0.88511 0 0.46537 1.66273 offset 0.31187 0.18046 31000.28113 length 0.00404 color 0 0 1 }
Segment { rot -0.5155 0 0.85689 1.69104 offset 0.31381 0.18078 31000.28351 length 0.00236 color 0 0 1 }
Segment { rot -0.47916 0 0.87773 1.72731 offset 0.31695 0.18131 31000.28528 length 0.00493 color 0 0 1 }
Segment { rot -0.5464 0 0.83753 1.85281 offset 0.32181 0.18264 31000.28823 length 0.00677 color 0 0 1 }
Segment { rot -0.54269 0 0.83993 1.78212 offset 0.32654 0.18409 31000.2913 length 0.00488 color 0 0 1 }
Segment { rot -0.44526 0 0.8954 1.90085 offset 0.32944 0.18494 31000.29304 length 0.00211 color 0 0 1 }
Segment { rot -0.76603 0 -0.64281 1.67127 offset 0.33026 0.1853 31000.29357 length 0.00023 color 0 0 1 }
Segment { rot -0.69993 0 -0.71421 1.79376 offset 0.32921 0.18562 31000.29461 length 0.00281 color 0 0 1 }
Segment { rot -0.62598 0 -0.77984 1.80684 offset 0.32797 0.18601 31000.29578 length 0.00068 color 0 0 1 }
Segment { rot -0.53395 0 -0.84551 1.73345 offset 0.32743 0.18614 31000.29616 length 0.00069 color 0 0 1 }
Segment { rot -0.52736 0 -0.84964 1.72655 offset 0.32671 0.18628 31000.29661 length 0.00103 color 0 0 1 }
Segment { rot -0.24721 0 -0.96896 1.41145 offset 0.32589 0.18629 31000.29698 length 0.00081 color 0 0 1 }
Segment { rot -0.15705 0 -0.98759 1.42923 offset 0.32419 0.18604 31000.29729 length 0.00268 color 0 0 1 }
Segment { rot -0.11909 0 -0.99288 1.48705 offset 0.32033 0.18563 31000.2978 length 0.00518 color 0 0 1 }
Segment { rot -0.06897 0 -0.99762 1.49844 offset 0.31703 0.18536 31000.29816 length 0.00147 color 0 0 1 }
Segment { rot -0.06905 0 -0.99761 1.69249 offset 0.31618 0.18533 31000.29822 length 0.00024 color 0 0 1 }
Segment { rot 0.02172 0 -0.99976 1.58219 offset 0.31551 0.18535 31000.29822 length 0.0011 color 0 0 1 }
Segment { rot 0.0824 0 -0.9966 1.56513 offset 0.31457 0.18535 31000.29817 length 0.00078 color 0 0 1 }
Segment { rot 0.27619 0 -0.9611 1.45336 offset 0.31233 0.18512 31000.29761 length 0.00387 color 0 0 1 }
Segment { rot 0.8912 0 -0.4536 1.90991 offset 0.30994 0.18532 31000.296 length 0.00256 color 0 0 1 }
Segment { rot 0.9314 0 -0.36399 1.82234 offset 0.30937 0.18576 31000.29487 length 0.00012 color 0 0 1 }
Segment { rot 0.93235 0 -0.36155 1.84258 offset 0.30886 0.18615 31000.29356 length 0.0028 color 0 0 1 }
Segment { rot 0.95538 0 -0.29537 1.84097 offset 0.30825 0.18664 31000.29191 length 0.00085 color 0 0 1 }
Segment { rot 0.94819 0 -0.31772 1.93786 offset 0.30794 0.18698 31000.29096 length 0.00126 color 0 0 1 }
Segment { rot 0.97056 0 -0.24087 2.19559 offset 0.30764 0.18755 31000.28994 length 0.00117 color 0 0 1 }
Segment { rot 0.92789 0 -0.37285 2.27753 offset 0.30741 0.18816 31000.28919 length 0.00083 color 0 0 1 }
Segment { rot 0.945 0 -0.32706 2.07282 offset 0.30654 0.18968 31000.28674 length 0.00521 color 0 0 1 }
Segment { rot -0.9987 0 -0.05104 0.85679 offset 0.30576 0.19023 31000.28539 length 0.00215 color 0 0 1 }
Segment { rot -0.99999 0 -0.00536 0.87268 offset 0.30571 0.18919 31000.28662 length 0.00107 color 0 0 1 }
Segment { rot -0.99978 0 -0.02091 0.96286 offset 0.3057 0.18864 31000.28732 length 0.00071 color 0 0 1 }
Segment { rot -0.99987 0 0.01606 0.97132 offset 0.3057 0.18829 31000.28782 length 0.00052 color 0 0 1 }
Segment { rot -0.97383 0 0.22726 0.88557 offset 0.30588 0.18751 31000.28879 length 0.002 color 0 0 1 }
Segment { rot -0.96492 0 0.26255 0.87832 offset 0.3063 0.1861 31000.29044 length 0.00243 color 0 0 1 }
Segment { rot -0.99186 0 0.12736 0.87349 offset 0.30661 0.18493 31000.29182 length 0.00124 color 0 0 1 }
Segment { rot -0.89755 0 -0.4409 0.37385 offset 0.30578 0.17939 31000.2941 length 0.01104 color 0 0 1 }
Segment { rot -0.52423 0 0.85158 0.14974 offset 0.30493 0.17392 31000.29593 length 0.00067 color 0 0 1 }
Segment { rot -0.56169 0 0.82735 0.16883 offset 0.30525 0.17162 31000.29615 length 0.00398 color 0 0 1 }
Segment { rot -0.9985 0 0.0547 0.23596 offset 0.30553 0.16965 31000.29634 length 0.00003 color 0 0 1 }
Segment { rot -0.99299 0 -0.11823 0.3478 offset 0.30548 0.16838 31000.29679 length 0.00267 color 0 0 1 }
Segment { rot -0.96943 0 -0.24536 0.32888 offset 0.30531 0.16578 31000.29769 length 0.00283 color 0 0 1 }
Segment { rot -0.94582 0 -0.3247 0.28785 offset 0.30498 0.16219 31000.29876 length 0.0047 color 0 0 1 }
Segment { rot -0.96491 0 0.2626 0.21402 offset 0.30494 0.1568 31000.30005 length 0.00641 color 0 0 1 }
Segment { rot -0.53085 0 -0.84747 0.31056 offset 0.305 0.15321 31000.30079 length 0.00097 color 0 0 1 }
Segment { rot -0.81173 0 -0.58404 0.42352 offset 0.30444 0.15109 31000.30147 length 0.00362 color 0 0 1 }
Segment { rot -0.68253 0 -0.73085 0.44309 offset 0.30373 0.14866 31000.30233 length 0.00174 color 0 0 1 }
Segment { rot -0.64401 0 -0.76502 0.48213 offset 0.30302 0.14678 31000.30295 length 0.00246 color 0 0 1 }
Segment { rot -0.61121 0 -0.79147 0.50061 offset 0.30187 0.14404 31000.30387 length 0.00374 color 0 0 1 }
Segment { rot -0.53714 0 -0.84349 0.42715 offset 0.30092 0.14177 31000.30457 length 0.0014 color 0 0 1 }
Segment { rot -0.85369 0 -0.52078 0.54031 offset 0.30042 0.14032 31000.30514 length 0.00188 color 0 0 1 }
Segment { rot -0.89651 0 -0.44302 0.62043 offset 0.29951 0.13745 31000.30688 length 0.0051 color 0 0 1 }
Segment { rot -0.8315 0 -0.55553 0.72827 offset 0.29838 0.13442 31000.30892 length 0.00256 color 0 0 1 }
Segment { rot -0.82616 0 -0.56344 0.6926 offset 0.29782 0.13327 31000.30976 length 0.0005 color 0 0 1 }
Segment { rot -0.78973 0 -0.61345 0.76732 offset 0.29752 0.13272 31000.31016 length 0.00101 color 0 0 1 }
Segment { rot -0.60171 0 -0.79871 0.47999 offset 0.29728 0.1323 31000.31046 length 0.00014 color 0 0 1 }
Segment { rot -0.7875 0 -0.61631 0.43732 offset 0.29712 0.13178 31000.31065 length 0.00102 color 0 0 1 }
Segment { rot -0.91384 0 -0.40607 1.0716 offset 0.29625 0.13033 31000.31247 length 0.00412 color 0 0 1 }
Segment { rot -0.91505 0 -0.40333 1.14441 offset 0.29516 0.12894 31000.31494 length 0.00196 color 0 0 1 }
Segment { rot -0.92459 0 -0.38097 1.06958 offset 0.29473 0.12844 31000.31591 length 0.0004 color 0 0 1 }
Segment { rot -0.88756 0 -0.46069 1.09087 offset 0.2945 0.12816 31000.31639 length 0.00079 color 0 0 1 }
Segment { rot -0.86261 0 -0.50587 1.08267 offset 0.29293 0.1265 31000.3191 length 0.00631 color 0 0 1 }
Segment { rot -0.88551 0 -0.46463 1.19762 offset 0.29129 0.12482 31000.32195 length 0.00108 color 0 0 1 }
Segment { rot -0.7969 0 -0.60411 1.2937 offset 0.29084 0.12452 31000.32268 length 0.00076 color 0 0 1 }
Segment { rot -0.83822 0 -0.54533 1.3536 offset 0.29013 0.12422 31000.32373 length 0.00185 color 0 0 1 }
Segment { rot -0.78938 0 -0.6139 1.38953 offset 0.28915 0.12388 31000.3251 length 0.00159 color 0 0 1 }
Segment { rot -0.76094 0 -0.64882 1.20219 offset 0.28843 0.12359 31000.326 length 0.0008 color 0 0 1 }
Segment { rot -0.80987 0 -0.58661 1.18618 offset 0.288 0.12332 31000.32655 length 0.00069 color 0 0 1 }
Segment { rot -0.82249 0 -0.56878 1.16197 offset 0.28774 0.12313 31000.32691 length 0.00027 color 0 0 1 }
Segment { rot 0.83404 0 0.5517 1.65977 offset 0.28787 0.12311 31000.32671 length 0.00071 color 0 0 1 }
Segment { rot 0.87559 0 0.48305 1.5686 offset 0.28814 0.12314 31000.32628 length 0.0003 color 0 0 1 }
Segment { rot -0.60131 0 0.79901 1.55694 offset 0.28823 0.12314 31000.32617 length 0.00005 color 0 0 1 }
Segment { rot -0.51663 0 0.85621 0.41648 offset 0.28849 0.12252 31000.32633 length 0.00136 color 0 0 1 }
Segment { rot -0.02865 0 -0.99959 2.86231 offset 0.28861 0.12231 31000.32647 length 0.00087 color 0 0 1 }
Segment { rot -0.05136 0 -0.99868 2.51647 offset 0.28839 0.12287 31000.32648 length 0.00033 color 0 0 1 }
Segment { rot -0.69962 0 -0.71452 1.53279 offset 0.28715 0.12294 31000.3276 length 0.00319 color 0 0 1 }
Segment { rot -0.67407 0 -0.73867 1.64031 offset 0.28587 0.1229 31000.32885 length 0.0004 color 0 0 1 }
Segment { rot -0.38341 0 -0.92358 2.09599 offset 0.28505 0.12333 31000.32926 length 0.00169 color 0 0 1 }
Segment { rot -0.28167 0 -0.95951 2.05917 offset 0.28286 0.12459 31000.32999 length 0.00356 color 0 0 1 }
Segment { rot 0.22778 0 0.97371 1.1144 offset 0.2817 0.12525 31000.33035 length 0.00081 color 0 0 1 }
Segment { rot -0.26789 0 0.96345 1.03968 offset 0.28248 0.12481 31000.33039 length 0.00104 color 0 0 1 }
Segment { rot -0.44215 0 0.89694 1.40417 offset 0.28334 0.12447 31000.33072 length 0.00097 color 0 0 1 }
Segment { rot -0.12421 0 0.99226 1.53466 offset 0.28417 0.12438 31000.33098 length 0.0008 color 0 0 1 }
Segment { rot -0.18666 0 0.98242 1.30145 offset 0.28493 0.12426 31000.3311 length 0.00077 color 0 0 1 }
Segment { rot -0.19552 0 0.9807 0.94727 offset 0.28672 0.12311 31000.33145 length 0.00359 color 0 0 1 }
Segment { rot -0.22336 0 0.97474 1.14567 offset 0.28838 0.12195 31000.33179 length 0.00051 color 0 0 1 }
Segment { rot 0.93334 0 -0.35899 1.97619 offset 0.28784 0.12277 31000.32984 length 0.00467 color 0 0 1 }
Segment { rot 0.8833 0 -0.46881 1.74801 offset 0.28691 0.12375 31000.32754 length 0.00069 color 0 0 1 }