#VRML V2.0 utf8
#Generated by NISTMonte
WorldInfo {
 title "NISTMonte Trajectory"
 info ["See http://www.cstl.nist.gov/div837/Division/home.html for more information"]
}
Viewpoint {
 fieldOfView 0.785398
 position 0 5 31000
 orientation -1 -0 -0 1.5708
 description "Y-Axis"
}
Viewpoint {
 fieldOfView 0.785398
 position 0 0 30995
 orientation 1 0 0 3.1415926
 description "Gun"
}
Viewpoint {
 fieldOfView 0.785398
 position -5 0 31000
 orientation 0 -1 0 1.5708
 description "X-Axis"
}




#Prototype for a trajectory segment
PROTO Segment [
 field SFRotation rot 1 0 0 0
 field SFVec3f offset 0 0 0
 field SFFloat length 0.1
 field SFColor color 1 1 1
]
{
 Transform {
  rotation IS rot
  translation IS offset
  children [
   Shape {
    geometry Cylinder {
     radius 0.001
     height IS length
    }
    appearance Appearance {
     material Material {
      emissiveColor IS color
     }
    }
   }
  ]
 }
}
Segment { rot -1 0 -0 1.5708 offset 0.03101 0.00572 31000.00233 length 0.00465 color 0 0 1 }
Segment { rot -0.99725 0 0.07409 1.02674 offset 0.03128 0.00355 31000.00822 length 0.00838 color 0 0 1 }
Segment { rot -0.99309 0 0.11733 0.99729 offset 0.0316 0.00106 31000.0123 length 0.00119 color 0 0 1 }
Segment { rot -0.99178 0 0.12793 1.00303 offset 0.03168 0.00067 31000.0129 length 0.00025 color 0 0 1 }
Segment { rot -0.99972 0 -0.02385 1.16629 offset 0.03164 -0.0003 31000.01512 length 0.0046 color 0 0 1 }
Segment { rot -0.99895 0 -0.04582 1.13234 offset 0.03158 -0.00132 31000.01746 length 0.00051 color 0 0 1 }
Segment { rot -0.99555 0 -0.09426 1.14771 offset 0.03136 -0.00243 31000.01992 length 0.00492 color 0 0 1 }
Segment { rot -0.97974 0 -0.20029 1.45783 offset 0.03043 -0.00385 31000.02565 length 0.0072 color 0 0 1 }
Segment { rot -0.99544 0 -0.09535 1.24265 offset 0.02971 -0.00426 31000.02918 length 0.00005 color 0 0 1 }
Segment { rot -0.97418 0 -0.22578 1.12558 offset 0.02885 -0.00609 31000.03292 length 0.00844 color 0 0 1 }
Segment { rot -0.32379 0 -0.94613 1.32164 offset 0.02621 -0.00838 31000.03723 length 0.00388 color 0 0 1 }
Segment { rot -0.34898 0 -0.93713 1.39792 offset 0.02249 -0.00922 31000.03857 length 0.00422 color 0 0 1 }
Segment { rot -0.31653 0 -0.94858 1.34209 offset 0.02024 -0.00966 31000.03939 length 0.00067 color 0 0 1 }
Segment { rot -0.28683 0 -0.95798 1.34529 offset 0.01789 -0.01023 31000.04011 length 0.00437 color 0 0 1 }
Segment { rot -0.2598 0 -0.96566 1.37587 offset 0.01495 -0.0109 31000.04096 length 0.00188 color 0 0 1 }
Segment { rot -0.28834 0 -0.95753 1.40207 offset 0.01126 -0.01158 31000.04204 length 0.00594 color 0 0 1 }
Segment { rot -0.19896 0 -0.98001 1.40565 offset -0.00461 -0.0143 31000.04554 length 0.02703 color 0 0 1 }
Segment { rot -0.19833 0 -0.98014 1.35849 offset -0.02015 -0.01706 31000.04869 length 0.00516 color 0 0 1 }
Segment { rot -0.3394 0 -0.94064 1.26644 offset -0.02308 -0.01776 31000.04936 length 0.00102 color 0 0 1 }
Segment { rot -0.34955 0 -0.93692 1.29028 offset -0.02526 -0.01845 31000.05017 length 0.00383 color 0 0 1 }
Segment { rot -0.43812 0 -0.89892 1.37467 offset -0.02942 -0.01951 31000.052 length 0.00552 color 0 0 1 }
Segment { rot -0.04339 0 -0.99906 1.96414 offset -0.03191 -0.02003 31000.05319 length 0.0001 color 0 0 1 }
Segment { rot -0.14927 0 -0.9888 1.99469 offset -0.03376 -0.01919 31000.05346 length 0.004 color 0 0 1 }
Segment { rot 0.29851 0 -0.95441 1.81872 offset -0.03597 -0.01826 31000.0536 length 0.0009 color 0 0 1 }
Segment { rot 0.35659 0 -0.93426 1.82838 offset -0.0442 -0.01594 31000.05049 length 0.01729 color 0 0 1 }
Segment { rot 0.39612 0 -0.9182 1.8257 offset -0.05446 -0.01305 31000.04646 length 0.0055 color 0 0 1 }
Segment { rot 0.36096 0 -0.93258 1.82074 offset -0.05712 -0.01229 31000.04532 length 0.00049 color 0 0 1 }
Segment { rot -0.47002 0 0.88265 2.65443 offset -0.05702 -0.01155 31000.0454 length 0.00155 color 0 0 1 }
Segment { rot -0.6167 0 0.7872 2.70306 offset -0.05651 -0.01036 31000.04572 length 0.00112 color 0 0 1 }
Segment { rot -0.62216 0 0.78289 2.66448 offset -0.05628 -0.00974 31000.0459 length 0.00025 color 0 0 1 }
Segment { rot -0.60061 0 0.79954 2.69687 offset -0.05615 -0.0094 31000.046 length 0.00051 color 0 0 1 }
Segment { rot -0.66576 0 0.74617 2.68059 offset -0.05534 -0.00722 31000.04671 length 0.00436 color 0 0 1 }
Segment { rot -0.61831 0 0.78594 2.11354 offset -0.05306 -0.00408 31000.04858 length 0.00461 color 0 0 1 }
Segment { rot 0.82534 0 -0.56463 1.27678 offset -0.0517 -0.00299 31000.04953 length 0.00069 color 0 0 1 }
Segment { rot -0.82335 0 0.56753 1.40324 offset -0.05079 -0.00342 31000.05085 length 0.00393 color 0 0 1 }
Segment { rot -0.82165 0 0.57 1.63086 offset -0.04948 -0.00372 31000.05275 length 0.00074 color 0 0 1 }
Segment { rot -0.88157 0 0.47205 2.06494 offset -0.04912 -0.00353 31000.05332 length 0.0007 color 0 0 1 }
Segment { rot -0.81861 0 0.57435 2.03621 offset -0.04863 -0.00306 31000.05409 length 0.00136 color 0 0 1 }
Segment { rot -0.81136 0 0.58455 2.10541 offset -0.04813 -0.00261 31000.05479 length 0.00057 color 0 0 1 }
Segment { rot -0.78706 0 0.61688 2.13316 offset -0.04779 -0.00226 31000.05525 length 0.00078 color 0 0 1 }
Segment { rot -0.63718 0 0.77071 1.94317 offset -0.04689 -0.0017 31000.05608 length 0.00193 color 0 0 1 }
Segment { rot -0.98439 0 -0.17602 2.70524 offset -0.04626 -0.00056 31000.05702 length 0.00174 color 0 0 1 }
Segment { rot -0.21054 0 -0.97758 1.06881 offset -0.0468 -0.00003 31000.05748 length 0.00112 color 0 0 1 }
Segment { rot -0.16008 0 -0.9871 1.00386 offset -0.04788 -0.00069 31000.05768 length 0.00144 color 0 0 1 }
Segment { rot -0.19047 0 -0.98169 0.9082 offset -0.0487 -0.00125 31000.05782 length 0.00057 color 0 0 1 }
Segment { rot -0.38289 0 -0.9238 1.14534 offset -0.04896 -0.00145 31000.05789 length 0.00011 color 0 0 1 }
Segment { rot -0.00888 0 -0.99996 0.91517 offset -0.04904 -0.0015 31000.0579 length 0.00009 color 0 0 1 }
Segment { rot 0.81614 0 -0.57786 1.45945 offset -0.04946 -0.0016 31000.05737 length 0.00132 color 0 0 1 }
Segment { rot 0.68356 0 -0.7299 1.76579 offset -0.0517 -0.00117 31000.0551 length 0.00519 color 0 0 1 }
Segment { rot 0.88344 0 -0.46855 1.72101 offset -0.05361 -0.00065 31000.05325 length 0.00024 color 0 0 1 }
Segment { rot 0.85114 0 -0.52493 1.5824 offset -0.05415 -0.00062 31000.05236 length 0.00184 color 0 0 1 }
Segment { rot 0.86466 0 -0.50237 1.61499 offset -0.05609 -0.00048 31000.04907 length 0.00582 color 0 0 1 }
Segment { rot 0.77306 0 -0.63434 1.62843 offset -0.05804 -0.00031 31000.04596 length 0.00154 color 0 0 1 }
Segment { rot 0.77222 0 -0.63535 1.61457 offset -0.05942 -0.0002 31000.04428 length 0.00281 color 0 0 1 }
Segment { rot 0.61875 0 -0.78559 1.67935 offset -0.06062 -0.0001 31000.04296 length 0.00078 color 0 0 1 }
Segment { rot 0.68438 0 -0.72913 1.6659 offset -0.06201 0.00009 31000.04169 length 0.003 color 0 0 1 }
Segment { rot 0.64768 0 -0.76192 1.83824 offset -0.06428 0.00066 31000.03967 length 0.00322 color 0 0 1 }
Segment { rot 0.4698 0 -0.88277 1.53195 offset -0.06605 0.00106 31000.03835 length 0.00132 color 0 0 1 }
Segment { rot 0.49088 0 -0.87123 1.54487 offset -0.0675 0.00101 31000.03755 length 0.00199 color 0 0 1 }
Segment { rot 0.58591 0 -0.81038 1.34515 offset -0.06891 0.00082 31000.03667 length 0.00139 color 0 0 1 }
Segment { rot 0.64646 0 -0.76295 1.50553 offset -0.06962 0.00066 31000.03614 length 0.00041 color 0 0 1 }
Segment { rot 0.62256 0 -0.78257 1.51621 offset -0.07038 0.0006 31000.03552 length 0.00157 color 0 0 1 }
Segment { rot 0.6024 0 -0.79819 1.5582 offset -0.07325 0.00052 31000.03333 length 0.00566 color 0 0 1 }
Segment { rot -0.37 0 0.92903 2.27282 offset -0.07472 0.00121 31000.03194 length 0.00224 color 0 0 1 }
Segment { rot -0.41999 0 0.90753 2.21345 offset -0.07382 0.00202 31000.0323 length 0.00028 color 0 0 1 }
Segment { rot -0.55745 0 0.83021 1.98555 offset -0.0736 0.00217 31000.03243 length 0.00032 color 0 0 1 }
Segment { rot -0.57699 0 0.81675 2.07863 offset -0.07342 0.00227 31000.03255 length 0.00015 color 0 0 1 }
Segment { rot -0.78828 0 0.61532 2.10643 offset -0.07249 0.00315 31000.03372 length 0.00333 color 0 0 1 }
Segment { rot -0.99774 0 -0.06726 2.236 offset -0.07184 0.00672 31000.0383 length 0.00881 color 0 0 1 }
Segment { rot -0.95319 0 -0.30238 2.12879 offset -0.07217 0.00963 31000.04206 length 0.00073 color 0 0 1 }
Segment { rot -0.98639 0 -0.16442 2.10225 offset -0.07274 0.01155 31000.04524 length 0.00679 color 0 0 1 }
Segment { rot -0.64943 0 -0.76042 1.92254 offset -0.07398 0.01363 31000.04877 length 0.0021 color 0 0 1 }
Segment { rot 0.99544 0 -0.09542 1.32356 offset -0.07483 0.01373 31000.04837 length 0.00216 color 0 0 1 }
Segment { rot 0.98846 0 -0.15149 1.49251 offset -0.07518 0.01333 31000.04569 length 0.00333 color 0 0 1 }
Segment { rot 0.99692 0 0.07849 1.87415 offset -0.07537 0.01345 31000.04327 length 0.00164 color 0 0 1 }
Segment { rot -0.98414 0 0.17738 0.7025 offset -0.0753 0.01368 31000.0425 length 0.00003 color 0 0 1 }
Segment { rot -0.9947 0 0.10282 0.78295 offset -0.07517 0.01237 31000.04379 length 0.00365 color 0 0 1 }
Segment { rot -0.99982 0 0.01904 0.88431 offset -0.07503 0.011 31000.04517 length 0.00026 color 0 0 1 }
Segment { rot -0.99985 0 0.01752 0.85779 offset -0.07501 0.01003 31000.04629 length 0.0027 color 0 0 1 }
Segment { rot -0.9772 0 -0.21233 0.74837 offset -0.07506 0.00882 31000.04761 length 0.0009 color 0 0 1 }
Segment { rot -0.94884 0 -0.31577 0.69989 offset -0.07515 0.00842 31000.04797 length 0.00018 color 0 0 1 }
Segment { rot -0.99959 0 0.02877 0.53413 offset -0.07516 0.00789 31000.0483 length 0.00106 color 0 0 1 }
Segment { rot -0.9772 0 -0.21234 0.58534 offset -0.0752 0.0071 31000.04878 length 0.0008 color 0 0 1 }
Segment { rot -0.99295 0 -0.11852 0.61638 offset -0.0753 0.00612 31000.04945 length 0.00157 color 0 0 1 }
Segment { rot 0.85466 0 -0.51919 0.06137 offset -0.07539 0.00414 31000.04983 length 0.00268 color 0 0 1 }
Segment { rot 0.61383 0 0.78944 0.14105 offset -0.07543 0.00271 31000.04975 length 0.00019 color 0 0 1 }
Segment { rot 0.67386 0 0.73886 0.17138 offset -0.07537 0.00226 31000.0497 length 0.00073 color 0 0 1 }
Segment { rot 0.17912 0 0.98383 0.1953 offset -0.07478 -0.00088 31000.04956 length 0.00566 color 0 0 1 }
Segment { rot -0.57092 0 -0.821 0.93123 offset -0.07717 -0.00631 31000.0515 length 0.00889 color 0 0 1 }
Segment { rot -0.42328 0 -0.906 0.88604 offset -0.08016 -0.00902 31000.05357 length 0.0002 color 0 0 1 }
Segment { rot -0.06803 0 -0.99768 1.04643 offset -0.08058 -0.00929 31000.05362 length 0.00081 color 0 0 1 }
Segment { rot -0.75794 0 -0.65232 0.36987 offset -0.08099 -0.00973 31000.05372 length 0.00051 color 0 0 1 }
Segment { rot -0.82696 0 -0.56227 0.6928 offset -0.08121 -0.01029 31000.05401 length 0.00085 color 0 0 1 }
Segment { rot -0.98566 0 -0.16875 0.50064 offset -0.0814 -0.01102 31000.05445 length 0.00093 color 0 0 1 }
Segment { rot -0.99999 0 -0.00339 0.76085 offset -0.08143 -0.01169 31000.05492 length 0.00072 color 0 0 1 }
Segment { rot -0.99929 0 0.03765 0.65023 offset -0.08141 -0.01266 31000.05571 length 0.00177 color 0 0 1 }
Segment { rot -0.98528 0 -0.17095 0.46136 offset -0.08141 -0.01356 31000.05634 length 0.00043 color 0 0 1 }
Segment { rot -0.96454 0 -0.26393 0.49492 offset -0.08157 -0.01477 31000.05696 length 0.00231 color 0 0 1 }
Segment { rot -0.43469 0 -0.90058 1.86595 offset -0.08182 -0.01575 31000.05754 length 0.00024 color 0 0 1 }
Segment { rot -0.54661 0 -0.83739 1.79529 offset -0.08198 -0.0157 31000.05763 length 0.00013 color 0 0 1 }
Segment { rot -0.10055 0 -0.99493 2.16382 offset -0.08216 -0.0156 31000.05768 length 0.00032 color 0 0 1 }
Segment { rot -0.04038 0 -0.99918 2.05471 offset -0.08324 -0.01501 31000.05773 length 0.00213 color 0 0 1 }
Segment { rot -0.13573 0 -0.99075 1.78887 offset -0.08441 -0.01447 31000.0578 length 0.00048 color 0 0 1 }
Segment { rot -0.06907 0 -0.99761 1.84334 offset -0.08526 -0.01424 31000.05787 length 0.00128 color 0 0 1 }
Segment { rot -0.09488 0 0.99549 2.06281 offset -0.08547 -0.01385 31000.05795 length 0.00093 color 0 0 1 }
Segment { rot -0.01906 0 0.99982 1.98631 offset -0.08416 -0.01324 31000.05801 length 0.00197 color 0 0 1 }
Segment { rot -0.39991 0 -0.91656 1.07195 offset -0.08357 -0.01303 31000.05816 length 0.00078 color 0 0 1 }
Segment { rot 0.38786 0 -0.92172 0.51795 offset -0.0841 -0.01362 31000.05821 length 0.00093 color 0 0 1 }
Segment { rot 0.31969 0 -0.94752 0.67004 offset -0.08454 -0.01432 31000.05805 length 0.00075 color 0 0 1 }
Segment { rot 0.2282 0 -0.97361 0.69884 offset -0.08478 -0.01464 31000.05797 length 0.00007 color 0 0 1 }
Segment { rot 0.26137 0 -0.96524 0.89021 offset -0.08482 -0.01468 31000.05796 length 0.00004 color 0 0 1 }
Segment { rot 0.02701 0 -0.99964 0.71839 offset -0.08487 -0.01474 31000.05795 length 0.00013 color 0 0 1 }
Segment { rot 0.47198 0 -0.88161 0.86171 offset -0.085 -0.01487 31000.0579 length 0.00027 color 0 0 1 }
Segment { rot 0.4772 0 -0.8788 0.90307 offset -0.08553 -0.01535 31000.05762 length 0.00127 color 0 0 1 }
Segment { rot 0.22135 0 -0.97519 1.5223 offset -0.0865 -0.01577 31000.05726 length 0.00109 color 0 0 1 }
Segment { rot 0.14539 0 -0.98937 2.10623 offset -0.08721 -0.01569 31000.05711 length 0.00043 color 0 0 1 }
Segment { rot -0.35145 0 0.93621 1.10714 offset -0.08698 -0.0158 31000.05724 length 0.00099 color 0 0 1 }
Segment { rot 0.16858 0 -0.98569 2.19746 offset -0.08678 -0.01586 31000.05736 length 0.00054 color 0 0 1 }
Segment { rot 0.11529 0 -0.99333 2.21573 offset -0.08756 -0.01528 31000.05726 length 0.00142 color 0 0 1 }
Segment { rot 0.0635 0 -0.99798 2.3093 offset -0.08871 -0.01431 31000.05716 length 0.0016 color 0 0 1 }
Segment { rot 0.32879 0 0.9444 1.45158 offset -0.08914 -0.0138 31000.05706 length 0.00034 color 0 0 1 }
Segment { rot 0.60605 0 0.79542 1.32594 offset -0.08887 -0.01385 31000.05692 length 0.0003 color 0 0 1 }
Segment { rot 0.53483 0 0.84496 1.26547 offset -0.08869 -0.01391 31000.05679 length 0.00016 color 0 0 1 }
Segment { rot 0.57949 0 0.81498 1.28953 offset -0.08858 -0.01395 31000.05672 length 0.00012 color 0 0 1 }
Segment { rot 0.3247 0 0.94582 1.0746 offset -0.08835 -0.01407 31000.05662 length 0.00044 color 0 0 1 }