#VRML V2.0 utf8
#Generated by NISTMonte
WorldInfo {
 title "NISTMonte Trajectory"
 info ["See http://www.cstl.nist.gov/div837/Division/home.html for more information"]
}
Viewpoint {
 fieldOfView 0.785398
 position 0 5 31000
 orientation -1 -0 -0 1.5708
 description "Y-Axis"
}
Viewpoint {
 fieldOfView 0.785398
 position 0 0 30995
 orientation 1 0 0 3.1415926
 description "Gun"
}
Viewpoint {
 fieldOfView 0.785398
 position -5 0 31000
 orientation 0 -1 0 1.5708
 description "X-Axis"
}




#Prototype for a trajectory segment
PROTO Segment [
 field SFRotation rot 1 0 0 0
 field SFVec3f offset 0 0 0
 field SFFloat length 0.1
 field SFColor color 1 1 1
]
{
 Transform {
  rotation IS rot
  translation IS offset
  children [
   Shape {
    geometry Cylinder {
     radius 0.001
     height IS length
    }
    appearance Appearance {
     material Material {
      emissiveColor IS color
     }
    }
   }
  ]
 }
}
Segment { rot -1 0 -0 1.5708 offset -0.00248 -0.00666 31000.01085 length 0.02169 color 0 0 1 }
Segment { rot -0.99945 0 0.03316 1.53138 offset -0.00245 -0.0067 31000.02265 length 0.00193 color 0 0 1 }
Segment { rot -0.99999 0 -0.00342 1.54216 offset -0.00244 -0.00691 31000.0297 length 0.01216 color 0 0 1 }
Segment { rot -0.99288 0 0.11916 1.01153 offset -0.00074 -0.01614 31000.05014 length 0.03414 color 0 0 1 }
Segment { rot -0.9769 0 0.2137 0.99594 offset 0.00142 -0.02652 31000.0665 length 0.00487 color 0 0 1 }
Segment { rot -0.99576 0 0.09196 0.93536 offset 0.00203 -0.02924 31000.07038 length 0.00471 color 0 0 1 }
Segment { rot -0.99816 0 0.06063 0.92018 offset 0.00226 -0.03128 31000.0731 length 0.0021 color 0 0 1 }
Segment { rot -0.99937 0 0.03549 0.96252 offset 0.00241 -0.03396 31000.07688 length 0.00718 color 0 0 1 }
Segment { rot -0.99861 0 0.05268 1.06335 offset 0.00257 -0.03653 31000.08075 length 0.00211 color 0 0 1 }
Segment { rot -0.99979 0 0.02055 1.03284 offset 0.00262 -0.03711 31000.08179 length 0.00028 color 0 0 1 }
Segment { rot -0.99822 0 -0.05967 0.99914 offset 0.0026 -0.03741 31000.08225 length 0.00082 color 0 0 1 }
Segment { rot -0.68612 0 -0.72749 0.97824 offset 0.00133 -0.03879 31000.08378 length 0.00414 color 0 0 1 }
Segment { rot -0.60908 0 -0.79311 0.89038 offset -0.00121 -0.04126 31000.08594 length 0.00418 color 0 0 1 }
Segment { rot -0.61005 0 -0.79237 0.93774 offset -0.00342 -0.04342 31000.08764 length 0.00289 color 0 0 1 }
Segment { rot -0.1737 0 -0.9848 1.15286 offset -0.00942 -0.04657 31000.08925 length 0.0113 color 0 0 1 }
Segment { rot -0.04042 0 -0.99918 1.13585 offset -0.01515 -0.04916 31000.09017 length 0.00142 color 0 0 1 }
Segment { rot -0.00311 0 -1 1.04609 offset -0.01843 -0.05099 31000.09021 length 0.00609 color 0 0 1 }
Segment { rot -0.12648 0 -0.99197 1.15622 offset -0.02213 -0.05298 31000.09035 length 0.00233 color 0 0 1 }
Segment { rot -0.094 0 -0.99557 1.1422 offset -0.02352 -0.05361 31000.09052 length 0.00075 color 0 0 1 }
Segment { rot -0.02817 0 -0.9996 1.14316 offset -0.02709 -0.05523 31000.09064 length 0.0071 color 0 0 1 }
Segment { rot -0.05472 0 -0.9985 1.09023 offset -0.03667 -0.06002 31000.09108 length 0.01435 color 0 0 1 }
Segment { rot -0.02886 0 -0.99958 1.28728 offset -0.04485 -0.06387 31000.09148 length 0.0038 color 0 0 1 }
Segment { rot -0.04952 0 -0.99877 1.26803 offset -0.05354 -0.06655 31000.09187 length 0.0144 color 0 0 1 }
Segment { rot -0.1087 0 -0.99408 1.29682 offset -0.06521 -0.07006 31000.09274 length 0.01005 color 0 0 1 }
Segment { rot -0.08785 0 -0.99613 1.34083 offset -0.07029 -0.07148 31000.09329 length 0.00055 color 0 0 1 }
Segment { rot 0.01698 0 -0.99986 1.44376 offset -0.07852 -0.07256 31000.09318 length 0.01605 color 0 0 1 }
Segment { rot 0.19894 0 -0.98001 1.33352 offset -0.08803 -0.07396 31000.09273 length 0.00326 color 0 0 1 }
Segment { rot 0.19839 0 -0.98012 1.31603 offset -0.09118 -0.07477 31000.09209 length 0.00337 color 0 0 1 }
Segment { rot 0.3136 0 -0.94955 1.32035 offset -0.0985 -0.07673 31000.08987 length 0.01243 color 0 0 1 }
Segment { rot 0.28728 0 -0.95785 1.37758 offset -0.10581 -0.0786 31000.08751 length 0.0034 color 0 0 1 }
Segment { rot 0.26418 0 -0.96447 1.34777 offset -0.10788 -0.07904 31000.0869 length 0.00099 color 0 0 1 }
Segment { rot 0.2823 0 -0.95933 1.30965 offset -0.11259 -0.08033 31000.08552 length 0.00917 color 0 0 1 }
Segment { rot -0.39397 0 -0.91912 0.6807 offset -0.11751 -0.08241 31000.08456 length 0.00232 color 0 0 1 }
Segment { rot -0.43208 0 -0.90184 0.69111 offset -0.11852 -0.08378 31000.08501 length 0.0012 color 0 0 1 }
Segment { rot -0.40223 0 -0.91554 0.66185 offset -0.12085 -0.08702 31000.08605 length 0.00704 color 0 0 1 }
Segment { rot -0.41685 0 -0.90897 0.63094 offset -0.12287 -0.08986 31000.08694 length 0.00016 color 0 0 1 }
Segment { rot -0.3821 0 -0.92412 0.62842 offset -0.12764 -0.09695 31000.08891 length 0.01739 color 0 0 1 }
Segment { rot -0.29036 0 -0.95692 0.63982 offset -0.1333 -0.10531 31000.09115 length 0.00329 color 0 0 1 }
Segment { rot -0.24172 0 -0.97035 0.62611 offset -0.13949 -0.1141 31000.09274 length 0.01846 color 0 0 1 }
Segment { rot -0.36268 0 -0.93191 0.65378 offset -0.14514 -0.12214 31000.0942 length 0.00141 color 0 0 1 }
Segment { rot -0.39073 0 -0.9205 0.63181 offset -0.1495 -0.12858 31000.09604 length 0.01456 color 0 0 1 }
Segment { rot -0.10846 0 -0.9941 0.67493 offset -0.1564 -0.13815 31000.09804 length 0.00949 color 0 0 1 }
Segment { rot -0.09546 0 -0.99543 0.6662 offset -0.16437 -0.14828 31000.09884 length 0.01634 color 0 0 1 }
Segment { rot 0.1032 0 -0.99466 0.70465 offset -0.17192 -0.15769 31000.09906 length 0.00783 color 0 0 1 }
Segment { rot 0.32948 0 -0.94416 0.41369 offset -0.17535 -0.16286 31000.09849 length 0.00479 color 0 0 1 }
Segment { rot 0.3646 0 -0.93116 0.40072 offset -0.17658 -0.16586 31000.09804 length 0.00174 color 0 0 1 }
Segment { rot 0.97372 0 -0.22777 0.45426 offset -0.17691 -0.16681 31000.09785 length 0.00033 color 0 0 1 }
Segment { rot 0.98402 0 -0.17806 0.44325 offset -0.17731 -0.17151 31000.09566 length 0.01006 color 0 0 1 }
Segment { rot 0.99757 0 -0.06966 0.51026 offset -0.1777 -0.17607 31000.09352 length 0.00004 color 0 0 1 }
Segment { rot 0.99732 0 -0.0731 0.46989 offset -0.17782 -0.17923 31000.09192 length 0.00706 color 0 0 1 }
Segment { rot 0.99704 0 0.07694 0.35551 offset -0.17792 -0.18281 31000.09016 length 0.00093 color 0 0 1 }
Segment { rot 0.97969 0 0.20051 0.37863 offset -0.17783 -0.18419 31000.08963 length 0.00204 color 0 0 1 }
Segment { rot 0.97426 0 0.22542 0.37327 offset -0.17703 -0.19334 31000.08614 length 0.01761 color 0 0 1 }
Segment { rot 0.98084 0 0.19482 0.37201 offset -0.17628 -0.20187 31000.08288 length 0.00071 color 0 0 1 }
Segment { rot 0.96757 0 0.25262 0.37687 offset -0.17557 -0.20909 31000.08012 length 0.01482 color 0 0 1 }
Segment { rot 0.99316 0 0.11677 0.36002 offset -0.17463 -0.22158 31000.07538 length 0.01197 color 0 0 1 }
Segment { rot 0.98622 0 0.16543 0.35177 offset -0.17438 -0.22738 31000.07322 length 0.00041 color 0 0 1 }
Segment { rot 0.99105 0 0.13346 0.36278 offset -0.17412 -0.23247 31000.07131 length 0.01047 color 0 0 1 }
Segment { rot 0.99752 0 0.07036 0.39796 offset -0.17378 -0.24031 31000.06823 length 0.0064 color 0 0 1 }
Segment { rot 0.99773 0 0.06739 0.40335 offset -0.17363 -0.24556 31000.06602 length 0.005 color 0 0 1 }
Segment { rot 0.99608 0 0.08841 0.45356 offset -0.17354 -0.24834 31000.0648 length 0.00108 color 0 0 1 }
Segment { rot 0.75675 0 0.65371 1.43893 offset -0.1714 -0.24925 31000.06211 length 0.00655 color 0 0 1 }
Segment { rot 0.74081 0 0.67171 1.43674 offset -0.16721 -0.2501 31000.05738 length 0.0062 color 0 0 1 }
Segment { rot 0.76474 0 0.64433 1.43752 offset -0.16497 -0.25055 31000.05489 length 0.00056 color 0 0 1 }
Segment { rot 0.60296 0 0.79777 1.40954 offset -0.16408 -0.25073 31000.05414 length 0.00182 color 0 0 1 }
Segment { rot 0.59893 0 0.8008 1.40525 offset -0.1619 -0.25119 31000.0525 length 0.00371 color 0 0 1 }
Segment { rot 0.22723 0 0.97384 1.08227 offset -0.15506 -0.25442 31000.05015 length 0.01249 color 0 0 1 }
Segment { rot 0.2281 0 0.97364 1.08186 offset -0.14865 -0.25792 31000.04866 length 0.00241 color 0 0 1 }
Segment { rot 0.22761 0 0.97375 1.08737 offset -0.1454 -0.25968 31000.0479 length 0.00514 color 0 0 1 }
Segment { rot 0.37717 0 0.92614 1.2308 offset -0.142 -0.26133 31000.04689 length 0.00272 color 0 0 1 }
Segment { rot -0.88114 0 0.47286 0.78838 offset -0.13978 -0.26395 31000.04833 length 0.00613 color 0 0 1 }
Segment { rot -0.90158 0 0.43261 0.85878 offset -0.1379 -0.26781 31000.05202 length 0.00521 color 0 0 1 }
Segment { rot -0.87271 0 0.48825 0.81882 offset -0.13575 -0.27199 31000.05611 length 0.00724 color 0 0 1 }
Segment { rot -0.82391 0 0.56672 0.84207 offset -0.13374 -0.2756 31000.05947 length 0.00342 color 0 0 1 }
Segment { rot -0.82263 0 0.56858 0.7938 offset -0.13182 -0.27881 31000.06225 length 0.00592 color 0 0 1 }
Segment { rot -0.90235 0 0.431 0.82185 offset -0.12995 -0.28232 31000.06538 length 0.00421 color 0 0 1 }
Segment { rot -0.91172 0 0.4108 0.79746 offset -0.12894 -0.28458 31000.06754 length 0.00237 color 0 0 1 }
Segment { rot -0.91017 0 0.41423 0.86177 offset -0.12786 -0.28693 31000.06993 length 0.00468 color 0 0 1 }
Segment { rot -0.97116 0 0.23843 1.09412 offset -0.12647 -0.28986 31000.0742 length 0.00615 color 0 0 1 }
Segment { rot -0.93826 0 0.34594 1.32028 offset -0.12579 -0.29129 31000.07694 length 0.00018 color 0 0 1 }
Segment { rot -0.88148 0 0.47223 1.18113 offset -0.12515 -0.29185 31000.07816 length 0.0028 color 0 0 1 }
Segment { rot -0.87795 0 0.47874 1.01722 offset -0.124 -0.29307 31000.08029 length 0.00264 color 0 0 1 }
Segment { rot -0.74986 0 0.6616 0.94588 offset -0.12328 -0.29396 31000.08147 length 0.00067 color 0 0 1 }
Segment { rot -0.71765 0 0.69641 0.94479 offset -0.1229 -0.29437 31000.08188 length 0.0007 color 0 0 1 }
Segment { rot -0.73317 0 0.68005 0.89596 offset -0.12071 -0.29692 31000.08424 length 0.00751 color 0 0 1 }
Segment { rot -0.6252 0 0.78046 0.83817 offset -0.11739 -0.30079 31000.08745 length 0.00457 color 0 0 1 }
Segment { rot -0.70315 0 0.71104 0.74746 offset -0.11387 -0.30565 31000.09068 length 0.00908 color 0 0 1 }
Segment { rot -0.68728 0 0.72639 0.69318 offset -0.11136 -0.30949 31000.09314 length 0.00134 color 0 0 1 }
Segment { rot -0.60323 0 0.79757 0.76164 offset -0.10994 -0.31147 31000.09428 length 0.00403 color 0 0 1 }
Segment { rot -0.99887 0 0.04748 0.40052 offset -0.10882 -0.31383 31000.0955 length 0.00197 color 0 0 1 }
Segment { rot -0.99902 0 0.04435 0.40088 offset -0.10876 -0.31697 31000.09683 length 0.00483 color 0 0 1 }
Segment { rot -0.99233 0 0.12365 0.39982 offset -0.10863 -0.32076 31000.09843 length 0.0034 color 0 0 1 }
Segment { rot -0.99779 0 0.06643 0.3854 offset -0.10853 -0.32294 31000.09933 length 0.00132 color 0 0 1 }
Segment { rot -0.99917 0 0.04078 0.39935 offset -0.10851 -0.3241 31000.09981 length 0.0012 color 0 0 1 }
Segment { rot -0.99386 0 -0.11061 0.40625 offset -0.10865 -0.32789 31000.10143 length 0.00705 color 0 0 1 }
Segment { rot -0.8536 0 -0.52093 0.31263 offset -0.10923 -0.33366 31000.10351 length 0.00533 color 0 0 1 }
Segment { rot 0.94864 0 -0.31636 0.15487 offset -0.10971 -0.33715 31000.10407 length 0.00193 color 0 0 1 }
Segment { rot 0.99937 0 -0.03556 0.11048 offset -0.1098 -0.34979 31000.10263 length 0.0235 color 0 0 1 }
Segment { rot 0.99844 0 0.05577 0.14714 offset -0.10978 -0.36965 31000.10013 length 0.01654 color 0 0 1 }
Segment { rot 0.95956 0 0.2815 0.21278 offset -0.1096 -0.37966 31000.09854 length 0.00374 color 0 0 1 }
Segment { rot 0.45655 0 -0.8897 0.126 offset -0.10962 -0.38265 31000.09809 length 0.00235 color 0 0 1 }
Segment { rot 0.5609 0 -0.82789 0.2185 offset -0.11031 -0.38688 31000.09764 length 0.00628 color 0 0 1 }
Segment { rot 0.45757 0 -0.88917 0.16661 offset -0.11129 -0.39273 31000.09705 length 0.00565 color 0 0 1 }
Segment { rot 0.6347 0 -0.77275 0.17171 offset -0.11195 -0.39733 31000.09663 length 0.00368 color 0 0 1 }
Segment { rot 0.48697 0 -0.87342 0.13521 offset -0.11232 -0.40021 31000.09636 length 0.00215 color 0 0 1 }
Segment { rot 0.60058 0 -0.79956 0.14398 offset -0.11255 -0.40213 31000.09622 length 0.00173 color 0 0 1 }
Segment { rot 0.54587 0 -0.83787 0.13145 offset -0.11287 -0.40503 31000.096 length 0.00412 color 0 0 1 }
Segment { rot -0.34741 0 -0.93771 0.09149 offset -0.11319 -0.40809 31000.09588 length 0.00206 color 0 0 1 }
Segment { rot -0.45768 0 -0.88912 0.08592 offset -0.1133 -0.40946 31000.09593 length 0.00068 color 0 0 1 }
Segment { rot 0.10407 0 -0.99457 0.05203 offset -0.11358 -0.41458 31000.09592 length 0.00959 color 0 0 1 }
Segment { rot -0.75999 0 0.64993 0.24141 offset -0.11314 -0.42366 31000.09669 length 0.00884 color 0 0 1 }
Segment { rot -0.79427 0 0.60756 0.25764 offset -0.11189 -0.43149 31000.09824 length 0.00731 color 0 0 1 }
Segment { rot -0.92033 0 0.39115 0.32168 offset -0.11116 -0.43628 31000.09936 length 0.00266 color 0 0 1 }
Segment { rot -0.80281 0 0.59624 0.35207 offset -0.11076 -0.43858 31000.10006 length 0.00221 color 0 0 1 }
Segment { rot -0.9608 0 -0.27726 0.36702 offset -0.1107 -0.44118 31000.10094 length 0.00333 color 0 0 1 }
Segment { rot -0.95735 0 -0.28893 0.3254 offset -0.11098 -0.44386 31000.10188 length 0.00239 color 0 0 1 }
Segment { rot -0.91157 0 -0.41114 0.27471 offset -0.11146 -0.44823 31000.10307 length 0.00672 color 0 0 1 }
Segment { rot -0.99831 0 -0.05805 0.30558 offset -0.11193 -0.45677 31000.10557 length 0.01113 color 0 0 1 }
Segment { rot -0.99898 0 -0.04512 0.3286 offset -0.11207 -0.4645 31000.10807 length 0.00513 color 0 0 1 }
Segment { rot -0.99847 0 -0.05534 0.30214 offset -0.11217 -0.47041 31000.10998 length 0.00729 color 0 0 1 }
Segment { rot -0.99871 0 -0.0508 0.28293 offset -0.11225 -0.4753 31000.11147 length 0.00293 color 0 0 1 }
Segment { rot -0.99653 0 0.08322 0.19712 offset -0.11226 -0.47711 31000.11196 length 0.00083 color 0 0 1 }
Segment { rot -0.99796 0 0.06381 0.20772 offset -0.11224 -0.47883 31000.11232 length 0.00268 color 0 0 1 }
Segment { rot -0.98844 0 0.15161 0.16103 offset -0.11207 -0.48635 31000.11359 length 0.01258 color 0 0 1 }
Segment { rot -0.99533 0 -0.09648 0.18817 offset -0.11191 -0.49263 31000.1146 length 0.00015 color 0 0 1 }
Segment { rot -0.99903 0 -0.04405 0.15674 offset -0.11193 -0.49449 31000.1149 length 0.00362 color 0 0 1 }
Segment { rot -0.90295 0 0.42975 0.14041 offset -0.11176 -0.49934 31000.11557 length 0.00618 color 0 0 1 }
Segment { rot -0.91805 0 0.39647 0.15216 offset -0.11143 -0.50471 31000.11629 length 0.00468 color 0 0 1 }
Segment { rot -0.9615 0 0.2748 0.23738 offset -0.11085 -0.51363 31000.11815 length 0.01359 color 0 0 1 }
Segment { rot -0.99614 0 -0.08773 0.343 offset -0.11085 -0.53418 31000.12465 length 0.02961 color 0 0 1 }
Segment { rot 0.90807 0 -0.41883 0.20191 offset -0.11164 -0.55227 31000.12883 length 0.00847 color 0 0 1 }
Segment { rot -0.38229 0 -0.92404 0.15058 offset -0.11201 -0.55655 31000.12807 length 0.00026 color 0 0 1 }
Segment { rot -0.96366 0 0.26713 0.17707 offset -0.11182 -0.56115 31000.12885 length 0.00909 color 0 0 1 }
Segment { rot -0.93949 0 0.34259 0.20013 offset -0.11141 -0.56835 31000.13014 length 0.00556 color 0 0 1 }
Segment { rot 0.87402 0 -0.48588 0.4358 offset -0.11123 -0.5711 31000.13064 length 0.00008 color 0 0 1 }
Segment { rot 0.11481 0 -0.99339 0.32616 offset -0.11179 -0.57278 31000.13057 length 0.00346 color 0 0 1 }
Segment { rot 0.57461 0 -0.81842 0.50104 offset -0.11279 -0.57542 31000.13019 length 0.00228 color 0 0 1 }
Segment { rot 0.55261 0 -0.83344 0.46183 offset -0.11457 -0.57963 31000.12899 length 0.00716 color 0 0 1 }
Segment { rot 0.50339 0 -0.86406 0.51176 offset -0.11626 -0.58357 31000.1279 length 0.00169 color 0 0 1 }
Segment { rot 0.54029 0 -0.84148 0.65072 offset -0.11738 -0.58551 31000.1272 length 0.00302 color 0 0 1 }
Segment { rot 0.83329 0 -0.55283 1.13642 offset -0.11964 -0.58796 31000.12446 length 0.00594 color 0 0 1 }
Segment { rot 0.71879 0 -0.69523 1.01291 offset -0.12249 -0.59042 31000.12081 length 0.00459 color 0 0 1 }
Segment { rot 0.68939 0 -0.72439 1.01054 offset -0.12627 -0.59374 31000.1171 length 0.00791 color 0 0 1 }
Segment { rot 0.65144 0 -0.7587 1.02204 offset -0.13017 -0.59703 31000.11353 length 0.00455 color 0 0 1 }
Segment { rot 0.75096 0 -0.66034 0.98608 offset -0.13311 -0.59969 31000.1106 length 0.00534 color 0 0 1 }
Segment { rot 0.71856 0 -0.69546 1.02124 offset -0.13458 -0.60116 31000.10892 length 0 color 0 0 1 }
Segment { rot 0.67499 0 -0.73783 1.07047 offset -0.14458 -0.60857 31000.09977 length 0.03089 color 0 0 1 }
Segment { rot 0.67775 0 -0.73529 1.07234 offset -0.15604 -0.61707 31000.08928 length 0.00453 color 0 0 1 }
Segment { rot 0.70883 0 -0.70538 1.18119 offset -0.15973 -0.61944 31000.0857 length 0.00682 color 0 0 1 }
Segment { rot 0.77119 0 -0.63661 1.11422 offset -0.16335 -0.62181 31000.08177 length 0.00487 color 0 0 1 }
Segment { rot 0.73191 0 -0.6814 1.35348 offset -0.16688 -0.62358 31000.07778 length 0.00645 color 0 0 1 }
Segment { rot 0.70147 0 -0.7127 1.35709 offset -0.16918 -0.62432 31000.07533 length 0.00042 color 0 0 1 }
Segment { rot 0.74341 0 -0.66884 1.39483 offset -0.17037 -0.62465 31000.07402 length 0.00319 color 0 0 1 }
Segment { rot 0.80921 0 -0.58752 1.35158 offset -0.17338 -0.62567 31000.07016 length 0.00681 color 0 0 1 }
Segment { rot 0.82265 0 -0.56854 1.32569 offset -0.17745 -0.62734 31000.0644 length 0.0077 color 0 0 1 }
Segment { rot 0.84361 0 -0.53696 1.34288 offset -0.17999 -0.62845 31000.06068 length 0.00158 color 0 0 1 }
Segment { rot 0.84053 0 -0.54177 1.33576 offset -0.18061 -0.62872 31000.05972 length 0.00077 color 0 0 1 }
Segment { rot 0.85641 0 -0.5163 1.32755 offset -0.18861 -0.63256 31000.04646 length 0.03114 color 0 0 1 }
Segment { rot 0.80216 0 -0.59711 1.28995 offset -0.19651 -0.63636 31000.0334 length 0.00033 color 0 0 1 }
Segment { rot 0.81379 0 -0.58116 1.30006 offset -0.19774 -0.63695 31000.03166 length 0.00409 color 0 0 1 }
Segment { rot 0.89561 0 -0.44485 1.52509 offset -0.19939 -0.63755 31000.02905 length 0.00227 color 0 0 1 }
Segment { rot 0.89302 0 -0.45002 1.5531 offset -0.20038 -0.63762 31000.02707 length 0.00216 color 0 0 1 }
Segment { rot 0.85294 0 -0.52201 1.55343 offset -0.20149 -0.63766 31000.02509 length 0.00238 color 0 0 1 }
Segment { rot 0.84745 0 -0.53087 1.54536 offset -0.20278 -0.63771 31000.02301 length 0.00251 color 0 0 1 }
Segment { rot 0.86534 0 -0.50119 1.51787 offset -0.20415 -0.63782 31000.02073 length 0.00284 color 0 0 1 }
Segment { rot 0.82526 0 -0.56475 0.90049 offset -0.20656 -0.64027 31000.01702 length 0.00766 color 0 0 1 }
Segment { rot 0.83358 0 -0.5524 0.89079 offset -0.20868 -0.64328 31000.01389 length 0.00201 color 0 0 1 }
Segment { rot 0.8255 0 -0.56441 0.89821 offset -0.21041 -0.64574 31000.01135 length 0.00587 color 0 0 1 }
Segment { rot 0.7948 0 -0.60688 0.8549 offset -0.21371 -0.65044 31000.00683 length 0.00876 color 0 0 1 }
Segment { rot 0.77951 0 -0.6264 0.91064 offset -0.21574 -0.65335 31000.00418 length 0.00009 color 0 0 1 }
Segment { rot 0.8002 0 -0.59974 0.84373 offset -0.21584 -0.65349 31000.00404 length 0.00037 color 0 0 1 }
Segment { rot 0.75772 0 -0.65258 0.85746 offset -0.21762 -0.65586 31000.00196 length 0.00686 color 0 0 1 }