#VRML V2.0 utf8
#Generated by NISTMonte
WorldInfo {
 title "NISTMonte Trajectory"
 info ["See http://www.cstl.nist.gov/div837/Division/home.html for more information"]
}
Viewpoint {
 fieldOfView 0.785398
 position 0 5 20000
 orientation -1 -0 -0 1.5708
 description "Y-Axis"
}
Viewpoint {
 fieldOfView 0.785398
 position 0 0 19995
 orientation 1 0 0 3.1415926
 description "Gun"
}
Viewpoint {
 fieldOfView 0.785398
 position -5 0 20000
 orientation 0 -1 0 1.5708
 description "X-Axis"
}




#Prototype for a trajectory segment
PROTO Segment [
 field SFRotation rot 1 0 0 0
 field SFVec3f offset 0 0 0
 field SFFloat length 0.1
 field SFColor color 1 1 1
]
{
 Transform {
  rotation IS rot
  translation IS offset
  children [
   Shape {
    geometry Cylinder {
     radius 0.001
     height IS length
    }
    appearance Appearance {
     material Material {
      emissiveColor IS color
     }
    }
   }
  ]
 }
}
Segment { rot -1 0 -0 1.5708 offset 0.00764 -0.00954 20000.00674 length 0.01348 color 0 0 1 }
Segment { rot -0.99384 0 0.11083 1.61548 offset 0.00901 -0.00898 20000.02578 length 0.02478 color 0 0 1 }
Segment { rot -0.99014 0 0.14009 1.6307 offset 0.01056 -0.00836 20000.03929 length 0.00244 color 0 0 1 }
Segment { rot -0.99261 0 -0.12138 1.72425 offset 0.00999 -0.00734 20000.04654 length 0.01234 color 0 0 1 }
Segment { rot -0.99399 0 -0.10947 1.79481 offset 0.0092 -0.0063 20000.05301 length 0.00086 color 0 0 1 }
Segment { rot -0.99663 0 0.08198 1.99475 offset 0.01079 0.00282 20000.07337 length 0.04389 color 0 0 1 }
Segment { rot -0.98857 0 0.15078 1.93829 offset 0.01388 0.01554 20000.10277 length 0.02052 color 0 0 1 }
Segment { rot -0.99342 0 0.11455 1.92281 offset 0.01581 0.0208 20000.1165 length 0.00916 color 0 0 1 }
Segment { rot -0.89534 0 0.44538 1.94321 offset 0.01664 0.02268 20000.12145 length 0.00162 color 0 0 1 }
Segment { rot -0.96445 0 -0.26426 2.08157 offset 0.01677 0.02342 20000.12291 length 0.00185 color 0 0 1 }
Segment { rot -0.96131 0 -0.27548 2.10649 offset 0.01616 0.02472 20000.12505 length 0.00331 color 0 0 1 }
Segment { rot -0.94476 0 -0.32776 2.01432 offset 0.01544 0.02604 20000.12736 length 0.00221 color 0 0 1 }
Segment { rot -0.93125 0 -0.36438 1.98913 offset 0.01497 0.02668 20000.12866 length 0.00084 color 0 0 1 }
Segment { rot -0.94218 0 -0.33511 2.04199 offset 0.00874 0.03612 20000.14616 length 0.04082 color 0 0 1 }
Segment { rot -0.93306 0 -0.35973 2.04145 offset 0.00232 0.04585 20000.16414 length 0.00204 color 0 0 1 }
Segment { rot -0.94581 0 -0.32471 1.99523 offset 0.00094 0.04777 20000.16805 length 0.0071 color 0 0 1 }
Segment { rot -0.94733 0 -0.32025 1.93388 offset -0.00052 0.04972 20000.1723 length 0.00271 color 0 0 1 }
Segment { rot -0.89746 0 -0.44109 1.9841 offset -0.00197 0.05124 20000.17563 length 0.00519 color 0 0 1 }
Segment { rot -0.88605 0 -0.4636 1.94023 offset -0.01256 0.06025 20000.19601 length 0.04416 color 0 0 1 }
Segment { rot -0.85047 0 -0.52602 1.91377 offset -0.02446 0.06982 20000.21805 length 0.00948 color 0 0 1 }
Segment { rot -0.82308 0 -0.56793 1.8849 offset -0.02786 0.07202 20000.22338 length 0.0039 color 0 0 1 }
Segment { rot -0.87792 0 -0.4788 1.96151 offset -0.0292 0.07287 20000.22544 length 0.00132 color 0 0 1 }
Segment { rot -0.87695 0 -0.48059 1.99147 offset -0.03028 0.07385 20000.2274 length 0.00356 color 0 0 1 }
Segment { rot -0.87553 0 -0.48316 2.01677 offset -0.0333 0.0768 20000.23289 length 0.01031 color 0 0 1 }
Segment { rot -0.86145 0 -0.50784 2.07482 offset -0.04148 0.08546 20000.24702 length 0.02666 color 0 0 1 }
Segment { rot -0.82474 0 -0.56551 2.11344 offset -0.05207 0.09688 20000.26389 length 0.01929 color 0 0 1 }
Segment { rot -0.8416 0 -0.5401 2.19838 offset -0.0599 0.10609 20000.27561 length 0.01443 color 0 0 1 }
Segment { rot -0.85688 0 -0.51552 2.214 offset -0.06484 0.11293 20000.2835 length 0.00868 color 0 0 1 }
Segment { rot -0.82072 0 -0.57133 2.17404 offset -0.0669 0.11586 20000.28686 length 0.00116 color 0 0 1 }
Segment { rot -0.76553 0 -0.64341 2.0968 offset -0.07196 0.1205 20000.29294 length 0.01719 color 0 0 1 }
Segment { rot -0.73048 0 -0.68294 2.18523 offset -0.07833 0.12646 20000.30033 length 0.00569 color 0 0 1 }
Segment { rot -0.87384 0 -0.48622 2.17047 offset -0.08244 0.13165 20000.30658 length 0.0126 color 0 0 1 }
Segment { rot -0.77414 0 -0.63302 2.54686 offset -0.08619 0.13806 20000.31262 length 0.00689 color 0 0 1 }
Segment { rot -0.78486 0 -0.61967 2.5943 offset -0.08797 0.14239 20000.31482 length 0.00346 color 0 0 1 }
Segment { rot -0.78384 0 -0.62096 2.52067 offset -0.09028 0.1478 20000.31773 length 0.00967 color 0 0 1 }
Segment { rot -0.8056 0 -0.59246 2.40692 offset -0.09244 0.15251 20000.3205 length 0.00209 color 0 0 1 }
Segment { rot -0.83587 0 -0.54893 2.44882 offset -0.09427 0.1564 20000.32322 length 0.0081 color 0 0 1 }
Segment { rot -0.7815 0 -0.6239 2.45383 offset -0.09599 0.1601 20000.32576 length 0.0015 color 0 0 1 }
Segment { rot -0.029 0 -0.99958 3.0806 offset -0.09632 0.16121 20000.32613 length 0.00106 color 0 0 1 }
Segment { rot -0.63194 0 -0.77502 3.05228 offset -0.0966 0.16526 20000.32633 length 0.00707 color 0 0 1 }
Segment { rot 0.15013 0 -0.98867 3.1082 offset -0.09685 0.16896 20000.32653 length 0.00037 color 0 0 1 }
Segment { rot -0.71377 0 -0.70038 3.09598 offset -0.09703 0.17471 20000.32671 length 0.01114 color 0 0 1 }
Segment { rot -0.49385 0 -0.86955 2.91843 offset -0.0986 0.1873 20000.32768 length 0.0144 color 0 0 1 }
Segment { rot -0.51877 0 -0.85491 2.9104 offset -0.1006 0.19737 20000.32884 length 0.00626 color 0 0 1 }
Segment { rot -0.95075 0 0.30997 2.8728 offset -0.101 0.20288 20000.32986 length 0.00511 color 0 0 1 }
Segment { rot -0.89766 0 0.44069 2.88299 offset -0.10063 0.20674 20000.33083 length 0.0029 color 0 0 1 }
Segment { rot -0.95073 0 0.31001 3.04768 offset -0.10042 0.20975 20000.33131 length 0.00323 color 0 0 1 }
Segment { rot -0.86556 0 0.50081 3.02195 offset -0.09961 0.22389 20000.33276 length 0.02524 color 0 0 1 }
Segment { rot -0.92552 0 0.37869 2.98436 offset -0.09845 0.24324 20000.33506 length 0.01381 color 0 0 1 }
Segment { rot -0.99318 0 0.11658 3.01668 offset -0.09804 0.25033 20000.3361 length 0.00054 color 0 0 1 }
Segment { rot -0.43715 0 0.89939 2.82794 offset -0.09749 0.25247 20000.33639 length 0.00393 color 0 0 1 }
Segment { rot 0.35208 0 0.93597 2.81999 offset -0.09581 0.25795 20000.33623 length 0.00763 color 0 0 1 }
Segment { rot 0.41475 0 0.90994 2.82995 offset -0.09171 0.27173 20000.33445 length 0.02135 color 0 0 1 }
Segment { rot 0.4396 0 0.89819 2.8309 offset -0.08707 0.28766 20000.33228 length 0.01212 color 0 0 1 }
Segment { rot 0.44746 0 0.8943 2.83412 offset -0.08435 0.29714 20000.33094 length 0.00778 color 0 0 1 }
Segment { rot 0.47551 0 0.87971 2.77213 offset -0.08214 0.30422 20000.32979 length 0.00725 color 0 0 1 }
Segment { rot 0.48641 0 0.87373 2.77804 offset -0.07993 0.3108 20000.32858 length 0.00684 color 0 0 1 }
Segment { rot 0.6589 0 0.75223 2.89031 offset -0.07774 0.31981 20000.327 length 0.01201 color 0 0 1 }
Segment { rot 0.69819 0 0.71591 2.87595 offset -0.07519 0.33296 20000.32463 length 0.01519 color 0 0 1 }
Segment { rot 0.5621 0 0.82707 2.76837 offset -0.06982 0.35248 20000.32055 length 0.0262 color 0 0 1 }
Segment { rot 0.66181 0 0.74967 2.74127 offset -0.06343 0.37236 20000.31571 length 0.01667 color 0 0 1 }
Segment { rot 0.137 0 0.99057 2.70208 offset -0.05697 0.38867 20000.31301 length 0.01908 color 0 0 1 }
Segment { rot 0.23301 0 0.97248 2.68334 offset -0.05266 0.39791 20000.31238 length 0.00135 color 0 0 1 }
Segment { rot 0.10285 0 0.9947 2.71443 offset -0.04614 0.41228 20000.31167 length 0.03026 color 0 0 1 }
Segment { rot 0.1632 0 0.98659 2.62567 offset -0.03984 0.42616 20000.31101 length 0.00026 color 0 0 1 }
Segment { rot 0.17966 0 0.98373 2.4373 offset -0.03958 0.42651 20000.31097 length 0.00061 color 0 0 1 }
Segment { rot 0.19156 0 0.98148 2.40269 offset -0.03162 0.43543 20000.30942 length 0.0235 color 0 0 1 }
Segment { rot 0.13475 0 0.99088 2.39818 offset -0.02349 0.44451 20000.30785 length 0.00108 color 0 0 1 }
Segment { rot 0.11548 0 0.99331 2.4226 offset -0.0193 0.44931 20000.30736 length 0.01169 color 0 0 1 }
Segment { rot 0.02952 0 0.99956 2.40003 offset -0.00882 0.46099 20000.30672 length 0.01974 color 0 0 1 }
Segment { rot 0.07001 0 0.99755 2.42561 offset -0.00173 0.46875 20000.30649 length 0.00128 color 0 0 1 }
Segment { rot 0.02207 0 0.99976 2.36063 offset -0.00029 0.47026 20000.30644 length 0.00291 color 0 0 1 }
Segment { rot 0.07238 0 0.99738 2.55604 offset 0.00176 0.47285 20000.30634 length 0.00373 color 0 0 1 }
Segment { rot 0.14395 0 0.98959 2.5171 offset 0.00414 0.4763 20000.30607 length 0.00468 color 0 0 1 }
Segment { rot 0.10595 0 0.99437 2.46787 offset 0.00838 0.48184 20000.30556 length 0.00932 color 0 0 1 }
Segment { rot 0.11884 0 0.99291 2.39254 offset 0.012 0.48626 20000.30517 length 0.00214 color 0 0 1 }
Segment { rot 0.124 0 0.99228 2.41823 offset 0.01318 0.48757 20000.30503 length 0.00139 color 0 0 1 }
Segment { rot -0.00552 0 0.99998 2.31083 offset 0.01364 0.48809 20000.30497 length 0.00001 color 0 0 1 }
Segment { rot -0.13513 0 0.99083 2.2537 offset 0.01767 0.49141 20000.30552 length 0.0105 color 0 0 1 }
Segment { rot -0.18308 0 0.9831 2.21717 offset 0.02393 0.49642 20000.30648 length 0.00566 color 0 0 1 }
Segment { rot -0.11395 0 0.99349 2.21102 offset 0.02765 0.49925 20000.30707 length 0.00375 color 0 0 1 }
Segment { rot -0.05843 0 0.99829 2.11419 offset 0.03737 0.50535 20000.30772 length 0.01927 color 0 0 1 }
Segment { rot -0.01147 0 0.99993 2.09325 offset 0.04788 0.51164 20000.30823 length 0.00526 color 0 0 1 }
Segment { rot -0.11483 0 0.99339 2.06606 offset 0.06135 0.51904 20000.30955 length 0.0256 color 0 0 1 }
Segment { rot 0.07085 0 0.99749 2.12318 offset 0.07549 0.52695 20000.31063 length 0.00696 color 0 0 1 }
Segment { rot 0.12854 0 0.9917 2.19251 offset 0.07935 0.52943 20000.3103 length 0.00225 color 0 0 1 }
Segment { rot -0.03922 0 0.99923 1.72271 offset 0.08421 0.53069 20000.31034 length 0.00802 color 0 0 1 }
Segment { rot -0.01695 0 0.99986 1.62952 offset 0.10119 0.53206 20000.31072 length 0.02608 color 0 0 1 }
Segment { rot -0.02178 0 0.99976 1.67347 offset 0.11466 0.53287 20000.31095 length 0.0009 color 0 0 1 }
Segment { rot 0.01499 0 0.99989 1.55057 offset 0.11522 0.53291 20000.31096 length 0.00022 color 0 0 1 }
Segment { rot 0.02556 0 0.99967 1.43314 offset 0.11593 0.53283 20000.31094 length 0.00122 color 0 0 1 }
Segment { rot -0.09032 0 0.99591 1.49153 offset 0.12073 0.53241 20000.3113 length 0.00844 color 0 0 1 }
Segment { rot 0.22759 0 0.97376 1.37539 offset 0.12621 0.53181 20000.31138 length 0.0027 color 0 0 1 }
Segment { rot 0.24602 0 0.96927 1.43983 offset 0.13528 0.53049 20000.30911 length 0.0162 color 0 0 1 }
Segment { rot 0.26331 0 0.96471 1.40727 offset 0.1486 0.52849 20000.30562 length 0.01163 color 0 0 1 }
Segment { rot 0.27457 0 0.96157 1.42491 offset 0.15517 0.52739 20000.30381 length 0.00217 color 0 0 1 }
Segment { rot 0.26489 0 0.96428 1.41967 offset 0.16025 0.52659 20000.30241 length 0.0085 color 0 0 1 }
Segment { rot 0.17548 0 0.98448 1.34131 offset 0.16499 0.52578 20000.30117 length 0.00144 color 0 0 1 }
Segment { rot 0.1476 0 0.98905 1.35196 offset 0.16709 0.5253 20000.30084 length 0.00293 color 0 0 1 }
Segment { rot 0.08372 0 0.99649 1.315 offset 0.17721 0.5227 20000.2999 length 0.01806 color 0 0 1 }
Segment { rot -0.07128 0 0.99746 1.18187 offset 0.1875 0.51977 20000.29928 length 0.00342 color 0 0 1 }
Segment { rot 0.0133 0 0.99991 1.08724 offset 0.19148 0.51785 20000.29936 length 0.00543 color 0 0 1 }
Segment { rot 0.02943 0 0.99957 1.0859 offset 0.19921 0.51379 20000.29917 length 0.01203 color 0 0 1 }
Segment { rot 0.01814 0 0.99984 1.09 offset 0.20465 0.51092 20000.29901 length 0.00027 color 0 0 1 }
Segment { rot 0.12991 0 0.99153 0.92954 offset 0.21617 0.50227 20000.29751 length 0.0287 color 0 0 1 }
Segment { rot 0.16164 0 0.98685 0.93148 offset 0.23134 0.49085 20000.2954 length 0.00952 color 0 0 1 }
Segment { rot 0.25811 0 0.96612 1.22941 offset 0.23612 0.48764 20000.29452 length 0.00221 color 0 0 1 }
Segment { rot 0.88454 0 0.46647 1.51928 offset 0.23757 0.48722 20000.29341 length 0.0019 color 0 0 1 }
Segment { rot 0.87447 0 0.48509 1.50279 offset 0.23875 0.48707 20000.29123 length 0.00309 color 0 0 1 }
Segment { rot 0.81717 0 0.57639 1.67294 offset 0.24271 0.48753 20000.28533 length 0.0112 color 0 0 1 }
Segment { rot 0.81039 0 0.58589 1.59674 offset 0.24746 0.48817 20000.27865 length 0.00523 color 0 0 1 }
Segment { rot 0.81754 0 0.57588 1.5225 offset 0.2527 0.48793 20000.27126 length 0.01291 color 0 0 1 }
Segment { rot 0.8618 0 0.50725 1.60357 offset 0.25718 0.48767 20000.26468 length 0.00304 color 0 0 1 }
Segment { rot 0.84541 0 0.53412 1.55161 offset 0.25818 0.48771 20000.26302 length 0.00085 color 0 0 1 }
Segment { rot 0.86952 0 0.4939 1.59191 offset 0.26397 0.48794 20000.25287 length 0.02253 color 0 0 1 }
Segment { rot 0.90972 0 0.41521 1.47107 offset 0.27371 0.48717 20000.23393 length 0.02022 color 0 0 1 }
Segment { rot 0.8371 0 0.54705 1.42718 offset 0.27821 0.48608 20000.22427 length 0.00122 color 0 0 1 }
Segment { rot 0.85634 0 0.51641 1.47234 offset 0.28027 0.48566 20000.2209 length 0.00672 color 0 0 1 }
Segment { rot 0.84818 0 0.52971 1.47947 offset 0.28569 0.48469 20000.21213 length 0.01399 color 0 0 1 }
Segment { rot 0.91534 0 0.40268 1.44664 offset 0.29073 0.48363 20000.20316 length 0.00675 color 0 0 1 }
Segment { rot 0.95285 0 0.30344 1.51467 offset 0.29247 0.48314 20000.19883 length 0.00264 color 0 0 1 }
Segment { rot 0.943 0 0.33278 1.5935 offset 0.29529 0.48323 20000.19074 length 0.01451 color 0 0 1 }
Segment { rot 0.95527 0 0.29573 1.63267 offset 0.29826 0.48351 20000.1821 length 0.00379 color 0 0 1 }
Segment { rot 0.95911 0 0.28303 1.60691 offset 0.29898 0.48365 20000.17975 length 0.00114 color 0 0 1 }
Segment { rot 0.99031 0 0.1389 1.6644 offset 0.29948 0.4839 20000.17678 length 0.00492 color 0 0 1 }
Segment { rot 0.99823 0 0.05954 1.69719 offset 0.29985 0.48419 20000.17386 length 0.001 color 0 0 1 }
Segment { rot 0.99831 0 -0.05819 1.64819 offset 0.29968 0.48452 20000.16999 length 0.00679 color 0 0 1 }
Segment { rot 0.99891 0 -0.04663 1.74133 offset 0.29931 0.48541 20000.16297 length 0.0074 color 0 0 1 }
Segment { rot 0.999 0 -0.04473 1.78151 offset 0.29899 0.48679 20000.15579 length 0.00725 color 0 0 1 }
Segment { rot 0.99442 0 0.10553 1.63263 offset 0.29913 0.48773 20000.14945 length 0.00565 color 0 0 1 }
Segment { rot 0.99155 0 0.12969 1.60355 offset 0.29957 0.48794 20000.14548 length 0.00234 color 0 0 1 }
Segment { rot 0.99425 0 0.10711 1.59004 offset 0.30014 0.48805 20000.1405 length 0.00769 color 0 0 1 }
Segment { rot 0.97578 0 -0.21875 1.519 offset 0.30049 0.48811 20000.13643 length 0.00052 color 0 0 1 }
Segment { rot 0.9847 0 -0.17425 1.49896 offset 0.29948 0.48771 20000.13079 length 0.01096 color 0 0 1 }
Segment { rot 0.98278 0 -0.18481 1.49577 offset 0.29832 0.48723 20000.12431 length 0.00224 color 0 0 1 }
Segment { rot 0.65037 0 -0.75962 1.15559 offset 0.29696 0.48647 20000.12223 length 0.00332 color 0 0 1 }
Segment { rot 0.64278 0 -0.76605 1.14397 offset 0.29515 0.48541 20000.12068 length 0.0019 color 0 0 1 }
Segment { rot 0.56278 0 -0.82661 1.14079 offset 0.29388 0.48469 20000.11972 length 0.00159 color 0 0 1 }
Segment { rot 0.52424 0 -0.85157 1.23605 offset 0.2883 0.48232 20000.11624 length 0.01239 color 0 0 1 }
Segment { rot 0.55581 0 -0.83131 1.22713 offset 0.28059 0.47911 20000.11135 length 0.00696 color 0 0 1 }
Segment { rot 0.50346 0 -0.86402 1.21662 offset 0.27376 0.47618 20000.10714 length 0.01014 color 0 0 1 }
Segment { rot 0.48666 0 -0.87359 1.17214 offset 0.25885 0.46921 20000.09872 length 0.02685 color 0 0 1 }
Segment { rot 0.61855 0 -0.78575 0.81283 offset 0.24739 0.46322 20000.09219 length 0.00227 color 0 0 1 }
Segment { rot 0.68059 0 -0.73266 0.7766 offset 0.23403 0.44477 20000.07987 length 0.04953 color 0 0 1 }
Segment { rot 0.72289 0 -0.69096 0.76295 offset 0.21966 0.42461 20000.06633 length 0.0069 color 0 0 1 }
Segment { rot 0.79305 0 -0.60916 0.76485 offset 0.21437 0.41588 20000.05986 length 0.01729 color 0 0 1 }
Segment { rot 0.88067 0 -0.47374 0.95996 offset 0.21048 0.40929 20000.05467 length 0.00125 color 0 0 1 }
Segment { rot 0.87683 0 -0.4808 1.0357 offset 0.20976 0.40834 20000.05334 length 0.00233 color 0 0 1 }
Segment { rot 0.92484 0 -0.38035 1.12597 offset 0.20813 0.40631 20000.04968 length 0.00666 color 0 0 1 }
Segment { rot 0.92837 0 -0.37166 1.09364 offset 0.20614 0.40369 20000.04477 length 0.00516 color 0 0 1 }
Segment { rot 0.93451 0 -0.35593 1.57395 offset 0.20519 0.40251 20000.0424 length 0.00052 color 0 0 1 }
Segment { rot 0.9384 0 -0.34556 1.55555 offset 0.19734 0.40217 20000.02108 length 0.04493 color 0 0 1 }