#VRML V2.0 utf8
#Generated by NISTMonte
WorldInfo {
 title "NISTMonte Trajectory"
 info ["See http://www.cstl.nist.gov/div837/Division/home.html for more information"]
}
Viewpoint {
 fieldOfView 0.785398
 position 0 5 20000
 orientation -1 -0 -0 1.5708
 description "Y-Axis"
}
Viewpoint {
 fieldOfView 0.785398
 position 0 0 19995
 orientation 1 0 0 3.1415926
 description "Gun"
}
Viewpoint {
 fieldOfView 0.785398
 position -5 0 20000
 orientation 0 -1 0 1.5708
 description "X-Axis"
}




#Prototype for a trajectory segment
PROTO Segment [
 field SFRotation rot 1 0 0 0
 field SFVec3f offset 0 0 0
 field SFFloat length 0.1
 field SFColor color 1 1 1
]
{
 Transform {
  rotation IS rot
  translation IS offset
  children [
   Shape {
    geometry Cylinder {
     radius 0.001
     height IS length
    }
    appearance Appearance {
     material Material {
      emissiveColor IS color
     }
    }
   }
  ]
 }
}
Segment { rot -1 0 -0 1.5708 offset 0.00092 -0.00988 20000.00179 length 0.00358 color 0 0 1 }
Segment { rot -0.94612 0 0.32382 1.57249 offset 0.00155 -0.00988 20000.00542 length 0.00389 color 0 0 1 }
Segment { rot -0.94592 0 0.3244 1.55702 offset 0.00311 -0.00991 20000.00996 length 0.00569 color 0 0 1 }
Segment { rot -0.94455 0 0.32835 1.55048 offset 0.00406 -0.00995 20000.01273 length 0.00018 color 0 0 1 }
Segment { rot -0.91399 0 -0.40575 1.34689 offset -0.00214 -0.01345 20000.02685 length 0.0315 color 0 0 1 }
Segment { rot -0.92058 0 -0.39057 1.27671 offset -0.00955 -0.01786 20000.04366 length 0.00629 color 0 0 1 }
Segment { rot -0.91287 0 -0.40825 1.23865 offset -0.01559 -0.02288 20000.0573 length 0.02519 color 0 0 1 }
Segment { rot -0.92213 0 -0.38688 1.30143 offset -0.02435 -0.02977 20000.07747 length 0.02094 color 0 0 1 }
Segment { rot -0.90711 0 -0.42089 1.27813 offset -0.02873 -0.0329 20000.08779 length 0.00234 color 0 0 1 }
Segment { rot -0.94474 0 -0.32783 1.35026 offset -0.03162 -0.03489 20000.09579 length 0.01515 color 0 0 1 }
Segment { rot -0.92872 0 -0.37078 1.28137 offset -0.04149 -0.04253 20000.12143 length 0.04193 color 0 0 1 }
Segment { rot -0.95101 0 -0.30916 1.24526 offset -0.05254 -0.05244 20000.15115 length 0.02454 color 0 0 1 }
Segment { rot -0.82056 0 -0.57156 1.38204 offset -0.06044 -0.0578 20000.16839 length 0.01535 color 0 0 1 }
Segment { rot -0.91575 0 -0.40176 1.25814 offset -0.06701 -0.06106 20000.17972 length 0.01181 color 0 0 1 }
Segment { rot -0.84215 0 -0.53924 1.22441 offset -0.07127 -0.06422 20000.18801 length 0.00792 color 0 0 1 }
Segment { rot -0.83219 0 -0.55449 1.16337 offset -0.07483 -0.06677 20000.19347 length 0.00609 color 0 0 1 }
Segment { rot -0.6318 0 -0.77513 1.4351 offset -0.07786 -0.06824 20000.197 length 0.00384 color 0 0 1 }
Segment { rot -0.63594 0 -0.77174 1.45968 offset -0.08222 -0.06891 20000.20058 length 0.00753 color 0 0 1 }
Segment { rot -0.59674 0 -0.80243 1.56836 offset -0.08752 -0.06934 20000.20475 length 0.006 color 0 0 1 }
Segment { rot -0.54944 0 -0.83554 1.59612 offset -0.09263 -0.06926 20000.20832 length 0.00647 color 0 0 1 }
Segment { rot -0.56286 0 -0.82655 1.59643 offset -0.09607 -0.06916 20000.2106 length 0.00179 color 0 0 1 }
Segment { rot -0.37995 0 -0.92501 1.4196 offset -0.0986 -0.06943 20000.21184 length 0.00392 color 0 0 1 }
Segment { rot -0.3991 0 -0.91691 1.35998 offset -0.10331 -0.07041 20000.21384 length 0.00651 color 0 0 1 }
Segment { rot -0.49234 0 -0.8704 1.4515 offset -0.11273 -0.07198 20000.21879 length 0.01505 color 0 0 1 }
Segment { rot -0.39144 0 -0.9202 1.46503 offset -0.1257 -0.07363 20000.22522 length 0.01415 color 0 0 1 }
Segment { rot 0.93302 0 -0.35982 2.40717 offset -0.13314 -0.0714 20000.22547 length 0.00802 color 0 0 1 }
Segment { rot 0.96394 0 -0.26611 2.51668 offset -0.13412 -0.06833 20000.2229 length 0.00022 color 0 0 1 }
Segment { rot 0.96351 0 -0.26766 2.45499 offset -0.13591 -0.06017 20000.21646 length 0.02088 color 0 0 1 }
Segment { rot 0.90968 0 -0.4153 2.42436 offset -0.13879 -0.04905 20000.20767 length 0.00809 color 0 0 1 }
Segment { rot 0.97649 0 -0.21557 2.55783 offset -0.14025 -0.04349 20000.20363 length 0.00601 color 0 0 1 }
Segment { rot 0.99965 0 -0.02638 2.48992 offset -0.14066 -0.03819 20000.19988 length 0.00702 color 0 0 1 }
Segment { rot 0.99913 0 -0.04178 2.49001 offset -0.14079 -0.0332 20000.19608 length 0.00553 color 0 0 1 }
Segment { rot 0.9969 0 -0.07865 2.56099 offset -0.14099 -0.02837 20000.19269 length 0.00629 color 0 0 1 }
Segment { rot 0.99887 0 -0.04759 2.51031 offset -0.14131 -0.02043 20000.18709 length 0.01316 color 0 0 1 }
Segment { rot 0.83461 0 0.55084 2.48479 offset -0.14074 -0.01334 20000.18206 length 0.00449 color 0 0 1 }
Segment { rot 0.78405 0 0.6207 2.456 offset -0.13841 -0.00845 20000.17892 length 0.00805 color 0 0 1 }
Segment { rot 0.83425 0 0.55139 2.43976 offset -0.13619 -0.00396 20000.17596 length 0.00359 color 0 0 1 }
Segment { rot 0.81536 0 0.57895 2.60482 offset -0.13455 0.00032 20000.17358 length 0.00678 color 0 0 1 }
Segment { rot 0.83564 0 0.54928 2.58178 offset -0.13314 0.00441 20000.17155 length 0.00276 color 0 0 1 }
Segment { rot 0.90061 0 0.43464 2.55621 offset -0.13096 0.01175 20000.16725 length 0.01481 color 0 0 1 }
Segment { rot 0.90668 0 0.42181 2.56449 offset -0.12911 0.01817 20000.16342 length 0.00059 color 0 0 1 }
Segment { rot 0.86543 0 0.50103 2.57925 offset -0.12858 0.01988 20000.16247 length 0.00347 color 0 0 1 }
Segment { rot 0.93321 0 0.35933 2.47369 offset -0.12736 0.02403 20000.1597 length 0.00682 color 0 0 1 }
Segment { rot 0.9861 0 0.16614 2.19918 offset -0.1239 0.03852 20000.1417 length 0.04019 color 0 0 1 }
Segment { rot 0.99654 0 0.0831 2.32664 offset -0.1209 0.05375 20000.12206 length 0.00997 color 0 0 1 }
Segment { rot 1 0 0.0003 2.27856 offset -0.12059 0.05771 20000.11781 length 0.00166 color 0 0 1 }
Segment { rot 0.99961 0 -0.02807 2.36235 offset -0.12068 0.06148 20000.11399 length 0.00909 color 0 0 1 }
Segment { rot 0.99918 0 -0.04055 2.25165 offset -0.12092 0.06757 20000.10728 length 0.00909 color 0 0 1 }
Segment { rot 0.98859 0 -0.1506 2.20881 offset -0.12144 0.07229 20000.10127 length 0.00624 color 0 0 1 }
Segment { rot 0.98551 0 -0.16962 2.28691 offset -0.1221 0.07561 20000.09713 length 0.00447 color 0 0 1 }
Segment { rot 0.9933 0 -0.1156 2.17414 offset -0.12244 0.07739 20000.09501 length 0.00111 color 0 0 1 }
Segment { rot 0.90618 0 -0.42289 2.40232 offset -0.12308 0.07923 20000.0933 length 0.00412 color 0 0 1 }
Segment { rot 0.92027 0 -0.39128 2.48394 offset -0.12468 0.08411 20000.08966 length 0.00847 color 0 0 1 }
Segment { rot 0.92253 0 -0.38591 2.47371 offset -0.12647 0.09002 20000.08542 length 0.00652 color 0 0 1 }
Segment { rot 0.91634 0 -0.4004 2.42844 offset -0.12726 0.0926 20000.08353 length 0.00007 color 0 0 1 }
Segment { rot 0.86305 0 -0.50511 2.55971 offset -0.12895 0.09769 20000.08064 length 0.01211 color 0 0 1 }
Segment { rot 0.84215 0 -0.53924 2.57522 offset -0.13092 0.1036 20000.07731 length 0.00202 color 0 0 1 }
Segment { rot 0.90376 0 -0.42803 2.66329 offset -0.13223 0.10901 20000.07472 length 0.01028 color 0 0 1 }
Segment { rot 0.9113 0 -0.41174 2.7006 offset -0.13333 0.11405 20000.07238 length 0.00105 color 0 0 1 }
Segment { rot 0.76103 0 -0.64872 2.58838 offset -0.13454 0.11731 20000.07086 length 0.00654 color 0 0 1 }
Segment { rot 0.82497 0 -0.56518 2.60211 offset -0.14063 0.1348 20000.06229 length 0.03428 color 0 0 1 }
Segment { rot 0.96123 0 -0.27574 2.61497 offset -0.14814 0.16529 20000.04621 length 0.03651 color 0 0 1 }
Segment { rot 0.98515 0 -0.17168 2.54872 offset -0.1508 0.18224 20000.03661 length 0.00281 color 0 0 1 }
Segment { rot 0.97332 0 -0.22943 2.5728 offset -0.15136 0.18627 20000.03405 length 0.00681 color 0 0 1 }
Segment { rot 0.96984 0 -0.24375 2.62488 offset -0.1525 0.19436 20000.0294 length 0.012 color 0 0 1 }
Segment { rot -0.4321 0 -0.90182 1.42323 offset -0.15955 0.19853 20000.02955 length 0.01419 color 0 0 1 }
Segment { rot -0.42581 0 -0.90481 1.44348 offset -0.17335 0.19643 20000.0361 length 0.01664 color 0 0 1 }
Segment { rot -0.37695 0 -0.92623 1.45997 offset -0.18253 0.19516 20000.04031 length 0.00372 color 0 0 1 }
Segment { rot -0.5621 0 -0.82707 1.56478 offset -0.18534 0.19495 20000.04175 length 0.00264 color 0 0 1 }
Segment { rot -0.57517 0 -0.81803 1.53906 offset -0.18765 0.1949 20000.04335 length 0.00298 color 0 0 1 }
Segment { rot -0.53772 0 -0.84312 1.58372 offset -0.19324 0.19492 20000.04699 length 0.01037 color 0 0 1 }
Segment { rot -0.40831 0 -0.91285 1.53459 offset -0.19805 0.19497 20000.04998 length 0.00096 color 0 0 1 }
Segment { rot -0.27135 0 -0.96248 1.74684 offset -0.2003 0.19528 20000.05069 length 0.00384 color 0 0 1 }
Segment { rot -0.22226 0 -0.97499 1.44511 offset -0.20755 0.19492 20000.05244 length 0.01123 color 0 0 1 }
Segment { rot -0.19445 0 -0.98091 1.42495 offset -0.21452 0.19398 20000.05398 length 0.00317 color 0 0 1 }
Segment { rot -0.17936 0 -0.98378 1.47236 offset -0.21669 0.19369 20000.0544 length 0.00129 color 0 0 1 }
Segment { rot -0.09574 0 -0.99541 1.48279 offset -0.22047 0.19335 20000.05482 length 0.00635 color 0 0 1 }
Segment { rot -0.12705 0 -0.9919 1.50848 offset -0.22507 0.19297 20000.05531 length 0.00295 color 0 0 1 }
Segment { rot 0.02127 0 -0.99977 1.4182 offset -0.2353 0.19153 20000.05531 length 0.01775 color 0 0 1 }
Segment { rot 0.0397 0 -0.99921 1.48644 offset -0.24924 0.18975 20000.05492 length 0.01038 color 0 0 1 }
Segment { rot -0.00407 0 -0.99999 1.4267 offset -0.25453 0.18929 20000.05471 length 0.00025 color 0 0 1 }
Segment { rot 0.09398 0 -0.99557 1.36432 offset -0.25525 0.18915 20000.05466 length 0.00121 color 0 0 1 }
Segment { rot 0.09004 0 -0.99594 1.41197 offset -0.25623 0.18896 20000.05457 length 0.0008 color 0 0 1 }
Segment { rot 0.1256 0 -0.99208 1.34078 offset -0.26388 0.18719 20000.05361 length 0.01501 color 0 0 1 }
Segment { rot 0.1379 0 -0.99045 1.28593 offset -0.27438 0.18451 20000.05224 length 0.00684 color 0 0 1 }
Segment { rot 0.14802 0 -0.98898 1.25411 offset -0.27972 0.18286 20000.05148 length 0.00444 color 0 0 1 }
Segment { rot 0.16801 0 -0.98579 1.25772 offset -0.28186 0.18215 20000.05115 length 0.00013 color 0 0 1 }
Segment { rot 0.13062 0 -0.99143 1.28772 offset -0.28595 0.18095 20000.05061 length 0.00846 color 0 0 1 }
Segment { rot 0.16667 0 -0.98601 0.80957 offset -0.29546 0.17447 20000.04916 length 0.01535 color 0 0 1 }
Segment { rot 0.17497 0 -0.98457 0.75243 offset -0.3015 0.16856 20000.04813 length 0.00169 color 0 0 1 }
Segment { rot 0.23296 0 -0.97249 0.71604 offset -0.30231 0.16767 20000.04797 length 0.00074 color 0 0 1 }
Segment { rot 0.2229 0 -0.97484 0.65722 offset -0.30352 0.16609 20000.04769 length 0.00328 color 0 0 1 }
Segment { rot 0.34947 0 -0.93695 0.77144 offset -0.30806 0.16088 20000.04614 length 0.01089 color 0 0 1 }
Segment { rot 0.3832 0 -0.92366 0.71886 offset -0.31254 0.15584 20000.04443 length 0.00303 color 0 0 1 }
Segment { rot 0.31627 0 -0.94867 0.73986 offset -0.31603 0.15173 20000.04319 length 0.00805 color 0 0 1 }
Segment { rot 0.5682 0 -0.82289 0.64994 offset -0.31894 0.14823 20000.04211 length 0.00133 color 0 0 1 }
Segment { rot 0.50448 0 -0.86342 0.61818 offset -0.32294 0.14171 20000.03973 length 0.01469 color 0 0 1 }
Segment { rot 0.69181 0 -0.72208 0.5605 offset -0.32715 0.13455 20000.03707 length 0.00278 color 0 0 1 }
Segment { rot 0.60043 0 -0.79967 0.54178 offset -0.32881 0.13103 20000.03571 length 0.00546 color 0 0 1 }
Segment { rot 0.54763 0 -0.83672 0.54392 offset -0.33203 0.12455 20000.0335 length 0.00967 color 0 0 1 }
Segment { rot 0.62241 0 -0.78269 0.61997 offset -0.3361 0.11688 20000.03056 length 0.00868 color 0 0 1 }
Segment { rot 0.61699 0 -0.78697 0.59971 offset -0.33835 0.11284 20000.02877 length 0.00123 color 0 0 1 }
Segment { rot 0.64826 0 -0.76142 0.62497 offset -0.34023 0.10941 20000.02719 length 0.00719 color 0 0 1 }
Segment { rot 0.68615 0 -0.72746 0.68965 offset -0.3469 0.09804 20000.02104 length 0.02192 color 0 0 1 }
Segment { rot 0.6458 0 -0.7635 0.63303 offset -0.35256 0.08855 20000.01577 length 0.00258 color 0 0 1 }
Segment { rot 0.63515 0 -0.77239 0.6327 offset -0.35336 0.08711 20000.01509 length 0.00097 color 0 0 1 }
Segment { rot 0.68663 0 -0.72701 0.47665 offset -0.35501 0.08293 20000.01357 length 0.00853 color 0 0 1 }
Segment { rot 0.65078 0 -0.75926 0.4652 offset -0.35764 0.07597 20000.01118 length 0.00711 color 0 0 1 }
Segment { rot 0.51572 0 -0.85676 0.42586 offset -0.35994 0.06997 20000.00949 length 0.00618 color 0 0 1 }
Segment { rot 0.4553 0 -0.89034 0.62888 offset -0.3638 0.06289 20000.00742 length 0.01055 color 0 0 1 }
Segment { rot 0.09663 0 -0.99532 0.62606 offset -0.36658 0.05861 20000.006 length 0.00005 color 0 0 1 }
Segment { rot 0.15425 0 -0.98803 0.62442 offset -0.36666 0.05849 20000.00599 length 0.00024 color 0 0 1 }
Segment { rot -0.76759 0 -0.64094 0.34938 offset -0.36791 0.05332 20000.0074 length 0.0108 color 0 0 1 }
Segment { rot -0.82215 0 -0.56927 0.35651 offset -0.36938 0.04693 20000.00922 length 0.00282 color 0 0 1 }
Segment { rot -0.9116 0 -0.41109 0.25908 offset -0.36991 0.04329 20000.01018 length 0.00478 color 0 0 1 }
Segment { rot -0.82221 0 -0.56918 0.08035 offset -0.37039 0.03593 20000.01108 length 0.01013 color 0 0 1 }
Segment { rot -0.89804 0 0.43991 0.23652 offset -0.37042 0.0289 20000.01184 length 0.00407 color 0 0 1 }
Segment { rot 0.67709 0 0.7359 0.22462 offset -0.37011 0.02635 20000.01218 length 0.00118 color 0 0 1 }
Segment { rot 0.77286 0 0.63458 0.21049 offset -0.36988 0.0248 20000.01193 length 0.00201 color 0 0 1 }
Segment { rot 0.89417 0 0.44773 0.22107 offset -0.36973 0.02365 20000.01174 length 0.00033 color 0 0 1 }
Segment { rot 0.89735 0 0.44132 0.2701 offset -0.36957 0.02233 20000.01141 length 0.00242 color 0 0 1 }
Segment { rot 0.928 0 0.37258 0.39963 offset -0.36935 0.02067 20000.01093 length 0.00107 color 0 0 1 }
Segment { rot 0.85649 0 0.51617 0.43814 offset -0.36906 0.01928 20000.01038 length 0.00198 color 0 0 1 }
Segment { rot 0.7093 0 0.70491 0.37886 offset -0.36844 0.01696 20000.00962 length 0.00308 color 0 0 1 }
Segment { rot 0.70244 0 0.71175 0.41055 offset -0.36656 0.01077 20000.00776 length 0.01037 color 0 0 1 }
Segment { rot 0.37918 0 0.92532 0.22289 offset -0.36454 0.0034 20000.00608 length 0.00536 color 0 0 1 }
Segment { rot 0.64163 0 0.76701 0.27029 offset -0.36239 -0.00678 20000.00451 length 0.0157 color 0 0 1 }
Segment { rot 0.1358 0 0.99074 0.38932 offset -0.36048 -0.01508 20000.00312 length 0.00158 color 0 0 1 }
Segment { rot 0.35582 0 0.93455 1.8142 offset -0.35766 -0.01514 20000.00212 length 0.00556 color 0 0 1 }
Segment { rot 0.27309 0 0.96199 1.74307 offset -0.35309 -0.0141 20000.00058 length 0.00433 color 0 0 1 }