#VRML V2.0 utf8
#Generated by NISTMonte
WorldInfo {
 title "NISTMonte Trajectory"
 info ["See http://www.cstl.nist.gov/div837/Division/home.html for more information"]
}
Viewpoint {
 fieldOfView 0.785398
 position 0 5 31000
 orientation -1 -0 -0 1.5708
 description "Y-Axis"
}
Viewpoint {
 fieldOfView 0.785398
 position 0 0 30995
 orientation 1 0 0 3.1415926
 description "Gun"
}
Viewpoint {
 fieldOfView 0.785398
 position -5 0 31000
 orientation 0 -1 0 1.5708
 description "X-Axis"
}




#Prototype for a trajectory segment
PROTO Segment [
 field SFRotation rot 1 0 0 0
 field SFVec3f offset 0 0 0
 field SFFloat length 0.1
 field SFColor color 1 1 1
]
{
 Transform {
  rotation IS rot
  translation IS offset
  children [
   Shape {
    geometry Cylinder {
     radius 0.001
     height IS length
    }
    appearance Appearance {
     material Material {
      emissiveColor IS color
     }
    }
   }
  ]
 }
}
Segment { rot -1 0 -0 1.5708 offset 0.00329 0.00221 31000.00021 length 0.00041 color 0 0 1 }
Segment { rot -0.96619 0 0.25784 1.4086 offset 0.00443 0.00149 31000.00467 length 0.00893 color 0 0 1 }
Segment { rot -0.96581 0 0.25924 1.38869 offset 0.00561 0.00074 31000.00909 length 0.00034 color 0 0 1 }
Segment { rot -0.95626 0 0.29253 1.40248 offset 0.00569 0.00069 31000.00937 length 0.00025 color 0 0 1 }
Segment { rot -0.94264 0 0.3338 1.535 offset 0.00687 0.00055 31000.01272 length 0.00685 color 0 0 1 }
Segment { rot -0.90456 0 0.42634 1.565 offset 0.00828 0.00042 31000.01651 length 0.00125 color 0 0 1 }
Segment { rot -0.96401 0 0.26587 1.43983 offset 0.01008 -0.00035 31000.02266 length 0.01169 color 0 0 1 }
Segment { rot -0.96672 0 0.25583 1.45546 offset 0.0119 -0.00123 31000.02928 length 0.00216 color 0 0 1 }
Segment { rot -0.90695 0 0.42123 1.55363 offset 0.01241 -0.00137 31000.03083 length 0.00114 color 0 0 1 }
Segment { rot -0.90173 0 0.43231 1.54194 offset 0.0135 -0.00144 31000.03311 length 0.00392 color 0 0 1 }
Segment { rot -0.90109 0 0.43362 1.53108 offset 0.01485 -0.00154 31000.03592 length 0.00231 color 0 0 1 }
Segment { rot -0.89807 0 0.43984 1.64575 offset 0.01574 -0.00152 31000.03777 length 0.0018 color 0 0 1 }
Segment { rot -0.92367 0 0.38319 1.6655 offset 0.01725 -0.00117 31000.04125 length 0.00582 color 0 0 1 }
Segment { rot -0.89471 0 0.44665 1.71991 offset 0.0188 -0.00075 31000.04482 length 0.00202 color 0 0 1 }
Segment { rot -0.89351 0 0.44905 1.70271 offset 0.02444 0.00093 31000.05603 length 0.0233 color 0 0 1 }
Segment { rot -0.92095 0 0.38969 1.38745 offset 0.02979 0.00239 31000.06674 length 0.00087 color 0 0 1 }
Segment { rot -0.91681 0 0.39933 1.37801 offset 0.03002 0.00228 31000.06729 length 0.00034 color 0 0 1 }
Segment { rot -0.89685 0 0.44233 1.38091 offset 0.03426 0.00043 31000.0759 length 0.0192 color 0 0 1 }
Segment { rot -0.88942 0 0.45708 1.26457 offset 0.04052 -0.00283 31000.08842 length 0.00958 color 0 0 1 }
Segment { rot -0.9019 0 0.43195 1.21588 offset 0.04267 -0.00432 31000.09261 length 0.0003 color 0 0 1 }
Segment { rot -0.93111 0 0.36475 1.31662 offset 0.04318 -0.0047 31000.09388 length 0.00254 color 0 0 1 }
Segment { rot -0.93479 0 0.35519 1.30291 offset 0.04442 -0.00563 31000.09711 length 0.00461 color 0 0 1 }
Segment { rot -0.91681 0 0.39932 1.26905 offset 0.04535 -0.00634 31000.09951 length 0.00073 color 0 0 1 }
Segment { rot -0.92452 0 0.38114 1.34374 offset 0.04764 -0.00776 31000.10506 length 0.01163 color 0 0 1 }
Segment { rot -0.93378 0 0.35784 1.46832 offset 0.05076 -0.00934 31000.11279 length 0.00535 color 0 0 1 }
Segment { rot -0.9027 0 0.43027 1.50283 offset 0.05246 -0.00974 31000.11685 length 0.0035 color 0 0 1 }
Segment { rot -0.91919 0 0.39382 1.5674 offset 0.05333 -0.00986 31000.11871 length 0.00062 color 0 0 1 }
Segment { rot -0.86463 0 0.50242 1.57297 offset 0.05428 -0.00985 31000.12041 length 0.00328 color 0 0 1 }
Segment { rot -0.84453 0 0.53551 1.59114 offset 0.05752 -0.00976 31000.12564 length 0.00901 color 0 0 1 }
Segment { rot -0.84539 0 0.53416 1.62699 offset 0.06385 -0.00925 31000.13564 length 0.01468 color 0 0 1 }
Segment { rot -0.87058 0 0.49202 1.63684 offset 0.06876 -0.00871 31000.14361 length 0.00409 color 0 0 1 }
Segment { rot -0.81453 0 0.58012 1.68109 offset 0.07 -0.00853 31000.14572 length 0.00081 color 0 0 1 }
Segment { rot -0.79225 0 0.61019 1.68081 offset 0.07037 -0.00846 31000.14622 length 0.00046 color 0 0 1 }
Segment { rot -0.7655 0 0.64344 1.67793 offset 0.07076 -0.00839 31000.1467 length 0.00078 color 0 0 1 }
Segment { rot -0.76662 0 0.6421 1.67529 offset 0.07252 -0.0081 31000.1488 length 0.00473 color 0 0 1 }
Segment { rot -0.73543 0 0.6776 1.7434 offset 0.07511 -0.00758 31000.15178 length 0.00323 color 0 0 1 }
Segment { rot -0.76606 0 0.64276 1.78441 offset 0.07638 -0.00724 31000.15317 length 0.00059 color 0 0 1 }
Segment { rot -0.76061 0 0.64921 1.79359 offset 0.07902 -0.00632 31000.15627 length 0.00778 color 0 0 1 }
Segment { rot -0.70122 0 0.71295 1.52452 offset 0.08176 -0.00547 31000.15943 length 0.00077 color 0 0 1 }
Segment { rot -0.71275 0 0.70142 1.54777 offset 0.08929 -0.00573 31000.16707 length 0.02068 color 0 0 1 }
Segment { rot -0.72174 0 0.69216 1.52346 offset 0.09816 -0.00608 31000.17612 length 0.00469 color 0 0 1 }
Segment { rot -0.72401 0 0.68979 1.49837 offset 0.10162 -0.00638 31000.17974 length 0.00535 color 0 0 1 }
Segment { rot -0.8729 0 0.48791 1.63014 offset 0.11042 -0.00573 31000.19414 length 0.02861 color 0 0 1 }
Segment { rot -0.93423 0 0.35667 1.67043 offset 0.11853 -0.00456 31000.20958 length 0.00641 color 0 0 1 }
Segment { rot -0.93422 0 0.35671 1.66353 offset 0.12043 -0.00404 31000.21456 length 0.0043 color 0 0 1 }
Segment { rot -0.91829 0 0.39591 1.69332 offset 0.1213 -0.00381 31000.21681 length 0.00056 color 0 0 1 }
Segment { rot -0.93005 0 0.36743 1.7082 offset 0.12455 -0.0026 31000.22501 length 0.01723 color 0 0 1 }
Segment { rot -0.99877 0 -0.04956 1.58723 offset 0.12758 -0.00138 31000.23503 length 0.00418 color 0 0 1 }
Segment { rot -0.99994 0 0.01137 1.15755 offset 0.12751 -0.00251 31000.23977 length 0.00578 color 0 0 1 }
Segment { rot -0.94285 0 0.33321 1.03071 offset 0.12807 -0.00463 31000.24394 length 0.00375 color 0 0 1 }
Segment { rot -0.99957 0 0.02943 0.90418 offset 0.12877 -0.01004 31000.25109 length 0.01437 color 0 0 1 }
Segment { rot -0.99992 0 0.01253 0.86975 offset 0.12894 -0.01484 31000.25716 length 0.00111 color 0 0 1 }
Segment { rot -0.99988 0 0.01572 0.90425 offset 0.12896 -0.01552 31000.258 length 0.00106 color 0 0 1 }
Segment { rot -0.99999 0 -0.00468 0.99949 offset 0.12895 -0.0171 31000.26035 length 0.00461 color 0 0 1 }
Segment { rot -0.99935 0 0.03616 0.98557 offset 0.12895 -0.0184 31000.26238 length 0.0002 color 0 0 1 }
Segment { rot -0.99952 0 0.03085 1.04032 offset 0.12905 -0.02035 31000.2657 length 0.00751 color 0 0 1 }
Segment { rot -0.99999 0 0.00541 1.10172 offset 0.12918 -0.02506 31000.27447 length 0.01241 color 0 0 1 }
Segment { rot -0.99978 0 -0.02083 1.15329 offset 0.12908 -0.03054 31000.28605 length 0.01323 color 0 0 1 }
Segment { rot -0.9999 0 -0.01413 1.14744 offset 0.12891 -0.03465 31000.29526 length 0.00695 color 0 0 1 }
Segment { rot -0.99957 0 -0.02918 1.23732 offset 0.12878 -0.03708 31000.30131 length 0.0061 color 0 0 1 }
Segment { rot -0.99698 0 0.07765 1.27249 offset 0.12893 -0.03899 31000.30716 length 0.00624 color 0 0 1 }
Segment { rot -0.99958 0 0.02885 1.30724 offset 0.12919 -0.04013 31000.31095 length 0.00169 color 0 0 1 }
Segment { rot -0.99692 0 0.07842 1.25941 offset 0.12935 -0.04093 31000.31355 length 0.00376 color 0 0 1 }
Segment { rot -0.99789 0 0.06489 1.31734 offset 0.12999 -0.04348 31000.32294 length 0.01573 color 0 0 1 }
Segment { rot -0.99712 0 0.0759 1.29206 offset 0.13056 -0.04576 31000.33163 length 0.00228 color 0 0 1 }
Segment { rot -0.99977 0 -0.02121 1.29519 offset 0.13062 -0.04642 31000.33392 length 0.0025 color 0 0 1 }
Segment { rot -0.99958 0 -0.02913 1.29509 offset 0.13059 -0.04685 31000.33545 length 0.00068 color 0 0 1 }
Segment { rot -0.97709 0 -0.21282 1.50602 offset 0.12962 -0.04723 31000.34015 length 0.00896 color 0 0 1 }
Segment { rot -0.97837 0 -0.20687 1.54759 offset 0.12836 -0.04756 31000.34599 length 0.00301 color 0 0 1 }
Segment { rot -0.96361 0 -0.26731 1.50621 offset 0.12685 -0.04788 31000.35177 length 0.00898 color 0 0 1 }
Segment { rot -0.95955 0 -0.28153 1.51123 offset 0.1253 -0.04825 31000.3573 length 0.00254 color 0 0 1 }
Segment { rot -0.99377 0 -0.11147 1.45802 offset 0.12441 -0.04886 31000.36325 length 0.00958 color 0 0 1 }
Segment { rot -0.98554 0 -0.16942 1.5304 offset 0.12322 -0.04956 31000.37183 length 0.00781 color 0 0 1 }
Segment { rot -0.98577 0 -0.16809 1.58247 offset 0.1223 -0.0497 31000.37719 length 0.00309 color 0 0 1 }
Segment { rot -0.98313 0 -0.18291 1.58592 offset 0.12132 -0.04962 31000.38257 length 0.00784 color 0 0 1 }
Segment { rot -0.97792 0 -0.20896 1.48174 offset 0.11996 -0.04984 31000.38944 length 0.0062 color 0 0 1 }
Segment { rot -0.99002 0 -0.14094 1.44293 offset 0.11904 -0.05037 31000.39441 length 0.00397 color 0 0 1 }
Segment { rot -0.27194 0 -0.96232 0.61337 offset 0.11625 -0.05433 31000.39707 length 0.00907 color 0 0 1 }
Segment { rot -0.37811 0 -0.92576 0.55652 offset 0.11332 -0.05877 31000.39795 length 0.00172 color 0 0 1 }
Segment { rot -0.34399 0 -0.93897 0.71268 offset 0.11277 -0.05965 31000.39817 length 0.00041 color 0 0 1 }
Segment { rot 0.79429 0 -0.60754 0.59303 offset 0.1119 -0.06163 31000.39724 length 0.0044 color 0 0 1 }
Segment { rot 0.8174 0 -0.57608 0.58682 offset 0.11035 -0.06555 31000.39512 length 0.00503 color 0 0 1 }
Segment { rot 0.85299 0 -0.52193 0.61614 offset 0.10734 -0.07361 31000.39038 length 0.01462 color 0 0 1 }
Segment { rot 0.80705 0 -0.59048 0.61847 offset 0.10497 -0.07996 31000.38655 length 0.00096 color 0 0 1 }
Segment { rot 0.49618 0 -0.86822 0.69267 offset 0.10077 -0.08596 31000.38402 length 0.01457 color 0 0 1 }
Segment { rot 0.49673 0 -0.86791 0.71025 offset 0.09662 -0.09172 31000.38165 length 0.00039 color 0 0 1 }
Segment { rot 0.54584 0 -0.83789 0.71778 offset 0.09645 -0.09194 31000.38155 length 0.00019 color 0 0 1 }
Segment { rot 0.5467 0 -0.83733 0.71718 offset 0.09504 -0.09387 31000.38063 length 0.00495 color 0 0 1 }
Segment { rot 0.52502 0 -0.85109 0.76576 offset 0.09158 -0.0983 31000.37845 length 0.00711 color 0 0 1 }
Segment { rot 0.59731 0 -0.80201 0.83451 offset 0.08466 -0.10631 31000.37356 length 0.01623 color 0 0 1 }
Segment { rot 0.56585 0 -0.82451 0.82507 offset 0.07969 -0.11193 31000.36986 length 0.00051 color 0 0 1 }
Segment { rot 0.52717 0 -0.84976 0.86201 offset 0.07364 -0.11806 31000.3661 length 0.01828 color 0 0 1 }
Segment { rot 0.42792 0 -0.90381 0.95998 offset 0.06688 -0.12468 31000.36203 length 0.00233 color 0 0 1 }
Segment { rot 0.29287 0 -0.95615 0.97508 offset 0.06559 -0.12564 31000.36149 length 0.00108 color 0 0 1 }
Segment { rot 0.71485 0 -0.69928 0.80113 offset 0.06429 -0.12716 31000.36047 length 0.00349 color 0 0 1 }
Segment { rot 0.68218 0 -0.73119 0.81871 offset 0.06325 -0.12858 31000.35942 length 0.0006 color 0 0 1 }
Segment { rot 0.8234 0 -0.56746 0.79223 offset 0.06274 -0.12939 31000.35877 length 0.00171 color 0 0 1 }
Segment { rot 0.97325 0 -0.22975 0.69523 offset 0.06238 -0.13009 31000.35819 length 0.00024 color 0 0 1 }
Segment { rot 0.99182 0 -0.12762 0.673 offset 0.06205 -0.13322 31000.35571 length 0.00777 color 0 0 1 }
Segment { rot 0.76967 0 -0.63844 0.66221 offset 0.05934 -0.14108 31000.35041 length 0.01224 color 0 0 1 }
Segment { rot 0.84646 0 -0.53245 0.68914 offset 0.05478 -0.15081 31000.3441 length 0.0127 color 0 0 1 }
Segment { rot 0.72326 0 -0.69058 0.05492 offset 0.05262 -0.15597 31000.34067 length 0.00052 color 0 0 1 }
Segment { rot 0.51148 0 0.8593 0.04964 offset 0.0529 -0.16283 31000.34049 length 0.01321 color 0 0 1 }
Segment { rot -0.01914 0 0.99982 0.02908 offset 0.05323 -0.17121 31000.34033 length 0.00357 color 0 0 1 }
Segment { rot 0.83073 0 0.55668 0.01825 offset 0.0533 -0.17479 31000.3403 length 0.00359 color 0 0 1 }
Segment { rot 0.84971 0 0.52725 0.03486 offset 0.05335 -0.17818 31000.34023 length 0.0032 color 0 0 1 }
Segment { rot 0.99676 0 0.0804 0.07282 offset 0.05339 -0.18163 31000.34004 length 0.00371 color 0 0 1 }
Segment { rot 0.62688 0 -0.77912 0.049 offset 0.05337 -0.18436 31000.33988 length 0.00176 color 0 0 1 }
Segment { rot 0.09803 0 -0.99518 0.24605 offset 0.05217 -0.18987 31000.33974 length 0.00955 color 0 0 1 }
Segment { rot -0.36099 0 -0.93257 0.15367 offset 0.05083 -0.19578 31000.3397 length 0.0026 color 0 0 1 }
Segment { rot -0.24313 0 -0.96999 0.22841 offset 0.0504 -0.19818 31000.33983 length 0.00228 color 0 0 1 }
Segment { rot -0.38191 0 -0.9242 0.163 offset 0.04963 -0.20266 31000.34011 length 0.00685 color 0 0 1 }
Segment { rot -0.45806 0 -0.88892 0.17701 offset 0.04895 -0.2071 31000.34041 length 0.00214 color 0 0 1 }
Segment { rot -0.57886 0 -0.81543 0.30167 offset 0.04871 -0.20846 31000.34055 length 0.00064 color 0 0 1 }
Segment { rot -0.55169 0 -0.83405 0.30637 offset 0.04834 -0.20984 31000.34079 length 0.00227 color 0 0 1 }
Segment { rot -0.42703 0 -0.90424 0.37686 offset 0.04554 -0.21797 31000.34217 length 0.01515 color 0 0 1 }
Segment { rot -0.25345 0 -0.96735 0.51878 offset 0.04249 -0.22596 31000.3435 length 0.00219 color 0 0 1 }
Segment { rot -0.25311 0 -0.96744 0.46975 offset 0.04093 -0.22902 31000.34391 length 0.00474 color 0 0 1 }
Segment { rot -0.28174 0 -0.95949 0.48344 offset 0.0397 -0.23151 31000.34424 length 0.00085 color 0 0 1 }
Segment { rot -0.02356 0 -0.99972 0.73735 offset 0.0394 -0.23201 31000.34429 length 0.00033 color 0 0 1 }
Segment { rot -0.01307 0 -0.99991 0.83811 offset 0.03682 -0.23436 31000.34433 length 0.00664 color 0 0 1 }
Segment { rot 0.18001 0 -0.98367 0.92216 offset 0.03042 -0.23961 31000.34364 length 0.01002 color 0 0 1 }
Segment { rot 0.24533 0 -0.96944 0.92795 offset 0.02344 -0.24499 31000.34215 length 0.00786 color 0 0 1 }
Segment { rot 0.42037 0 -0.90735 1.05838 offset 0.01564 -0.2503 31000.33918 length 0.01203 color 0 0 1 }
Segment { rot 0.39511 0 -0.91863 1.05962 offset 0.01036 -0.25356 31000.33675 length 0.00129 color 0 0 1 }
Segment { rot 0.45954 0 -0.88816 1.08215 offset 0.00889 -0.25445 31000.33603 length 0.00243 color 0 0 1 }
Segment { rot 0.63272 0 -0.77438 1.13139 offset 0.00715 -0.2555 31000.3349 length 0.00226 color 0 0 1 }
Segment { rot 0.62789 0 -0.7783 1.13987 offset 0.00575 -0.25634 31000.33376 length 0.00173 color 0 0 1 }
Segment { rot 0.85771 0 -0.51414 1.4022 offset 0.00461 -0.25687 31000.33238 length 0.00209 color 0 0 1 }
Segment { rot 0.90254 0 -0.4306 1.444 offset 0.00336 -0.25726 31000.32998 length 0.00338 color 0 0 1 }
Segment { rot 0.91032 0 -0.41391 1.16813 offset 0.0016 -0.25854 31000.3262 length 0.00542 color 0 0 1 }
Segment { rot 0.89813 0 -0.43972 1.15587 offset 0.00034 -0.25984 31000.32345 length 0.00117 color 0 0 1 }
Segment { rot 0.86611 0 -0.49984 1.03737 offset -0.00046 -0.26073 31000.322 length 0.0026 color 0 0 1 }
Segment { rot 0.85956 0 -0.51103 1.09371 offset -0.00578 -0.26621 31000.31302 length 0.02098 color 0 0 1 }
Segment { rot 0.85103 0 -0.52512 1.13434 offset -0.01076 -0.27122 31000.30466 length 0.00092 color 0 0 1 }
Segment { rot 0.82631 0 -0.56321 1.09452 offset -0.01194 -0.2723 31000.30289 length 0.00383 color 0 0 1 }
Segment { rot 0.88322 0 -0.46896 1.13653 offset -0.01508 -0.27533 31000.29738 length 0.01025 color 0 0 1 }
Segment { rot 0.89932 0 -0.43729 1.12117 offset -0.01831 -0.27865 31000.29111 length 0.00534 color 0 0 1 }
Segment { rot 0.89505 0 -0.44597 1.13107 offset -0.01957 -0.28003 31000.28853 length 0.00103 color 0 0 1 }
Segment { rot 0.89409 0 -0.44788 1.12414 offset -0.02006 -0.28055 31000.28756 length 0.00139 color 0 0 1 }
Segment { rot 0.90935 0 -0.41603 1.15088 offset -0.02079 -0.28134 31000.286 length 0.00241 color 0 0 1 }
Segment { rot 0.88239 0 -0.47052 1.13667 offset -0.02155 -0.28212 31000.28444 length 0.00139 color 0 0 1 }
Segment { rot 0.9041 0 -0.42733 1.14659 offset -0.02401 -0.2847 31000.2793 length 0.01113 color 0 0 1 }
Segment { rot 0.91495 0 -0.40356 1.11661 offset -0.02621 -0.28703 31000.27465 length 0.00018 color 0 0 1 }
Segment { rot 0.92282 0 -0.38523 1.12615 offset -0.02669 -0.28762 31000.27351 length 0.00255 color 0 0 1 }
Segment { rot 0.91293 0 -0.40811 1.19163 offset -0.02805 -0.28907 31000.27038 length 0.00486 color 0 0 1 }
Segment { rot 0.95289 0 -0.30331 0.96095 offset -0.02901 -0.29006 31000.2682 length 0.00033 color 0 0 1 }
Segment { rot 0.98566 0 -0.16875 0.88686 offset -0.02913 -0.29054 31000.2676 length 0.00123 color 0 0 1 }
Segment { rot 0.98859 0 -0.15064 0.86284 offset -0.02928 -0.29127 31000.26673 length 0.00104 color 0 0 1 }
Segment { rot 0.98987 0 -0.14199 1.06297 offset -0.03015 -0.29482 31000.26063 length 0.01322 color 0 0 1 }
Segment { rot 0.89018 0 -0.45561 1.22669 offset -0.03142 -0.29838 31000.25405 length 0.00205 color 0 0 1 }
Segment { rot 0.91049 0 -0.41354 1.28203 offset -0.03194 -0.29879 31000.25301 length 0.00042 color 0 0 1 }
Segment { rot 0.9131 0 -0.40773 1.24519 offset -0.03236 -0.29913 31000.25206 length 0.00177 color 0 0 1 }
Segment { rot 0.92438 0 -0.38148 1.28506 offset -0.03515 -0.3013 31000.24536 length 0.01337 color 0 0 1 }
Segment { rot 0.92422 0 -0.38186 1.289 offset -0.03875 -0.30405 31000.23666 length 0.00625 color 0 0 1 }
Segment { rot 0.93366 0 -0.35816 1.3022 offset -0.04131 -0.30602 31000.23018 length 0.00824 color 0 0 1 }
Segment { rot 0.95039 0 -0.31107 1.30087 offset -0.04312 -0.30745 31000.2253 length 0.00256 color 0 0 1 }
Segment { rot 0.93627 0 -0.35129 1.28409 offset -0.04446 -0.30859 31000.22159 length 0.00566 color 0 0 1 }
Segment { rot 0.89534 0 -0.44539 1.48064 offset -0.04547 -0.3094 31000.21893 length 0.00027 color 0 0 1 }
Segment { rot 0.89112 0 -0.45376 1.4016 offset -0.04606 -0.30962 31000.21776 length 0.00238 color 0 0 1 }
Segment { rot 0.91511 0 -0.4032 1.34985 offset -0.04766 -0.31041 31000.21429 length 0.00545 color 0 0 1 }
Segment { rot 0.92486 0 -0.38031 1.27498 offset -0.04926 -0.31143 31000.21058 length 0.00288 color 0 0 1 }
Segment { rot 0.95096 0 -0.30931 1.34499 offset -0.05235 -0.31375 31000.20142 length 0.01701 color 0 0 1 }
Segment { rot 0.95538 0 -0.29538 1.35 offset -0.05496 -0.31569 31000.19339 length 0.00032 color 0 0 1 }
Segment { rot 0.96021 0 -0.27928 1.36896 offset -0.05596 -0.31643 31000.18997 length 0.00696 color 0 0 1 }
Segment { rot 0.87863 0 -0.4775 1.52156 offset -0.0576 -0.3172 31000.18542 length 0.0029 color 0 0 1 }
Segment { rot 0.77979 0 -0.62604 1.54835 offset -0.05874 -0.31728 31000.1836 length 0.00142 color 0 0 1 }
Segment { rot 0.80984 0 -0.58666 1.53239 offset -0.05959 -0.31733 31000.18248 length 0.0014 color 0 0 1 }
Segment { rot 0.84925 0 -0.528 1.55502 offset -0.06013 -0.31736 31000.1817 length 0.0005 color 0 0 1 }
Segment { rot 0.84869 0 -0.52889 1.52046 offset -0.06136 -0.31746 31000.17972 length 0.00415 color 0 0 1 }
Segment { rot 0.83523 0 -0.5499 1.51721 offset -0.0625 -0.31757 31000.1779 length 0.00015 color 0 0 1 }
Segment { rot 0.85214 0 -0.52332 1.53274 offset -0.06268 -0.31759 31000.17762 length 0.00051 color 0 0 1 }
Segment { rot 0.84362 0 -0.53695 1.48985 offset -0.06325 -0.31766 31000.17671 length 0.00164 color 0 0 1 }
Segment { rot 0.86236 0 -0.50629 1.44949 offset -0.06783 -0.31873 31000.16896 length 0.01649 color 0 0 1 }
Segment { rot 0.84907 0 -0.52827 1.4483 offset -0.07219 -0.31977 31000.16156 length 0.00081 color 0 0 1 }
Segment { rot 0.84974 0 -0.5272 1.35282 offset -0.07296 -0.32006 31000.16033 length 0.00215 color 0 0 1 }
Segment { rot 0.87836 0 -0.478 1.37243 offset -0.07401 -0.3205 31000.15851 length 0.00214 color 0 0 1 }
Segment { rot 0.85126 0 -0.52475 1.24573 offset -0.07592 -0.32161 31000.15532 length 0.00565 color 0 0 1 }
Segment { rot 0.80464 0 -0.59377 1.2617 offset -0.07734 -0.32252 31000.15302 length 0.00005 color 0 0 1 }
Segment { rot 0.8019 0 -0.59746 1.27052 offset -0.07806 -0.3229 31000.15205 length 0.00247 color 0 0 1 }
Segment { rot 0.97459 0 -0.22399 1.45527 offset -0.07925 -0.32352 31000.14896 length 0.00443 color 0 0 1 }
Segment { rot 0.95625 0 0.29256 0.61656 offset -0.0785 -0.32978 31000.14274 length 0.01474 color 0 0 1 }
Segment { rot 0.96489 0 0.26264 0.63979 offset -0.07717 -0.33622 31000.13836 length 0.00106 color 0 0 1 }
Segment { rot 0.92016 0 0.39154 0.77464 offset -0.07601 -0.33945 31000.13553 length 0.00785 color 0 0 1 }
Segment { rot 0.92973 0 0.36824 0.75118 offset -0.07466 -0.34306 31000.13231 length 0.0022 color 0 0 1 }
Segment { rot 0.90322 0 0.42918 0.89059 offset -0.07415 -0.34431 31000.13111 length 0.00142 color 0 0 1 }
Segment { rot 0.94213 0 0.33526 1.24916 offset -0.07385 -0.34482 31000.13045 length 0.00037 color 0 0 1 }
Segment { rot 0.93644 0 0.35083 1.27093 offset -0.07221 -0.34627 31000.12607 length 0.00941 color 0 0 1 }
Segment { rot 0.95757 0 0.28821 1.2778 offset -0.07 -0.34832 31000.11975 length 0.0046 color 0 0 1 }
Segment { rot 0.93074 0 0.36567 1.21152 offset -0.06884 -0.34953 31000.11631 length 0.00307 color 0 0 1 }
Segment { rot 0.90639 0 0.42243 1.13153 offset -0.0653 -0.35342 31000.1085 length 0.01578 color 0 0 1 }
Segment { rot 0.93711 0 0.34903 1.21199 offset -0.06175 -0.35735 31000.10059 length 0.00327 color 0 0 1 }
Segment { rot 0.94403 0 0.32986 1.21903 offset -0.06047 -0.35875 31000.09703 length 0.00478 color 0 0 1 }
Segment { rot 0.96898 0 0.24715 1.04165 offset -0.05957 -0.35996 31000.09427 length 0.00154 color 0 0 1 }
Segment { rot 0.97457 0 0.22409 0.98191 offset -0.05938 -0.36041 31000.09354 length 0.00019 color 0 0 1 }
Segment { rot 0.9691 0 0.24669 1.00105 offset -0.05924 -0.36079 31000.09296 length 0.00124 color 0 0 1 }
Segment { rot 0.98837 0 0.15208 0.95672 offset -0.05905 -0.36141 31000.09207 length 0.00097 color 0 0 1 }
Segment { rot 0.97762 0 0.2104 1.01646 offset -0.05861 -0.3628 31000.08991 length 0.00425 color 0 0 1 }
Segment { rot 0.9688 0 0.24785 1.01137 offset -0.0576 -0.36552 31000.08567 length 0.00604 color 0 0 1 }
Segment { rot 0.8756 0 0.48303 0.78506 offset -0.05661 -0.36784 31000.08256 length 0.00203 color 0 0 1 }
Segment { rot 0.87943 0 0.47602 0.69261 offset -0.05618 -0.36877 31000.08177 length 0.00055 color 0 0 1 }
Segment { rot 0.91114 0 0.4121 0.60727 offset -0.05558 -0.37081 31000.08046 length 0.00445 color 0 0 1 }
Segment { rot 0.88005 0 0.47489 0.63094 offset -0.05476 -0.37348 31000.07876 length 0.00209 color 0 0 1 }
Segment { rot 0.75682 0 0.65363 0.57764 offset -0.05425 -0.37483 31000.07797 length 0.00122 color 0 0 1 }
Segment { rot 0.61669 0 0.7872 0.48404 offset -0.05339 -0.37691 31000.07721 length 0.00354 color 0 0 1 }
Segment { rot 0.56811 0 0.82295 0.48828 offset -0.05227 -0.37955 31000.07638 length 0.00244 color 0 0 1 }
Segment { rot 0.60012 0 0.79991 0.47453 offset -0.05167 -0.38094 31000.07596 length 0.0007 color 0 0 1 }
Segment { rot 0.78201 0 0.62327 0.40058 offset -0.05133 -0.38204 31000.0756 length 0.00171 color 0 0 1 }
Segment { rot 0.82271 0 -0.56845 0.21013 offset -0.05131 -0.38434 31000.07508 length 0.0031 color 0 0 1 }
Segment { rot 0.76598 0 -0.64287 0.24703 offset -0.0516 -0.38653 31000.07468 length 0.00139 color 0 0 1 }
Segment { rot 0.82365 0 -0.5671 0.2363 offset -0.05199 -0.38926 31000.07414 length 0.00422 color 0 0 1 }
Segment { rot 0.94441 0 -0.32878 0.28782 offset -0.05232 -0.39185 31000.07358 length 0.00113 color 0 0 1 }
Segment { rot 0.93656 0 -0.35051 0.33612 offset -0.0526 -0.39422 31000.07283 length 0.00388 color 0 0 1 }
Segment { rot 0.81833 0 -0.57475 0.34639 offset -0.05356 -0.39958 31000.07119 length 0.00749 color 0 0 1 }
Segment { rot 0.75338 0 -0.65758 0.35432 offset -0.05461 -0.40444 31000.06978 length 0.00285 color 0 0 1 }
Segment { rot 0.80954 0 -0.58706 0.46276 offset -0.05613 -0.40984 31000.06776 length 0.0091 color 0 0 1 }
Segment { rot 0.90758 0 -0.41988 0.38778 offset -0.05773 -0.41632 31000.06523 length 0.00519 color 0 0 1 }
Segment { rot 0.791 0 -0.61181 0.38099 offset -0.05826 -0.41917 31000.0642 length 0.00096 color 0 0 1 }
Segment { rot 0.78749 0 -0.61633 0.5071 offset -0.05916 -0.42193 31000.06304 length 0.0053 color 0 0 1 }
Segment { rot 0.73147 0 -0.68188 0.48734 offset -0.06071 -0.42635 31000.06121 length 0.00477 color 0 0 1 }
Segment { rot 0.71861 0 -0.69542 0.48209 offset -0.06199 -0.42988 31000.05986 length 0.0032 color 0 0 1 }
Segment { rot 0.54646 0 -0.83748 0.55455 offset -0.06262 -0.43151 31000.05926 length 0.0005 color 0 0 1 }
Segment { rot 0.54846 0 -0.83618 0.46529 offset -0.06535 -0.43796 31000.05747 length 0.01397 color 0 0 1 }
Segment { rot 0.61974 0 -0.78481 0.62662 offset -0.06917 -0.44631 31000.0548 length 0.0052 color 0 0 1 }
Segment { rot 0.60326 0 -0.79755 0.62953 offset -0.07212 -0.45144 31000.05253 length 0.00747 color 0 0 1 }
Segment { rot 0.65845 0 -0.75262 0.66217 offset -0.07763 -0.46086 31000.04792 length 0.01624 color 0 0 1 }
Segment { rot 0.79861 0 -0.60184 0.78612 offset -0.0836 -0.47095 31000.04168 length 0.01042 color 0 0 1 }
Segment { rot 0.81799 0 -0.57524 0.80403 offset -0.08606 -0.47503 31000.0384 length 0.00116 color 0 0 1 }
Segment { rot 0.79103 0 -0.61178 0.72846 offset -0.08669 -0.47615 31000.03755 length 0.00192 color 0 0 1 }
Segment { rot 0.79579 0 -0.60558 0.76282 offset -0.0874 -0.47741 31000.03663 length 0.00153 color 0 0 1 }
Segment { rot 0.77787 0 -0.62843 0.77933 offset -0.08938 -0.48064 31000.03415 length 0.00752 color 0 0 1 }
Segment { rot 0.83222 0 -0.55444 0.75444 offset -0.09129 -0.4838 31000.03172 length 0.00131 color 0 0 1 }
Segment { rot 0.99877 0 -0.04949 1.12754 offset -0.09166 -0.48542 31000.02894 length 0.00532 color 0 0 1 }
Segment { rot 0.98312 0 0.18298 1.13628 offset -0.09176 -0.48661 31000.02644 length 0.00023 color 0 0 1 }
Segment { rot 0.96161 0 0.27441 1.01195 offset -0.09166 -0.48685 31000.02604 length 0.00074 color 0 0 1 }
Segment { rot 0.95306 0 0.30279 1.02424 offset -0.09145 -0.48729 31000.02535 length 0.00095 color 0 0 1 }
Segment { rot 0.99786 0 0.06532 1.10303 offset -0.09129 -0.48782 31000.02441 length 0.00123 color 0 0 1 }
Segment { rot 0.99835 0 0.05749 1.06137 offset -0.0912 -0.48863 31000.02291 length 0.00219 color 0 0 1 }
Segment { rot 0.99733 0 0.07303 1.10122 offset -0.09101 -0.49012 31000.02007 length 0.00425 color 0 0 1 }
Segment { rot 0.99997 0 -0.00725 1.13796 offset -0.09087 -0.49143 31000.01744 length 0.00162 color 0 0 1 }
Segment { rot 0.99998 0 0.00642 1.15095 offset -0.09086 -0.49267 31000.01467 length 0.00446 color 0 0 1 }
Segment { rot 0.99991 0 -0.01309 1.13813 offset -0.0909 -0.49516 31000.00922 length 0.00753 color 0 0 1 }
Segment { rot 0.99997 0 -0.00824 1.1343 offset -0.09095 -0.49698 31000.00529 length 0.00112 color 0 0 1 }
Segment { rot 0.99999 0 -0.00351 1.11589 offset -0.09095 -0.49732 31000.00457 length 0.00048 color 0 0 1 }
Segment { rot 0.99996 0 -0.00944 1.18457 offset -0.09097 -0.49831 31000.00218 length 0.0047 color 0 0 1 }