#VRML V2.0 utf8
#Generated by NISTMonte
WorldInfo {
 title "NISTMonte Trajectory"
 info ["See http://www.cstl.nist.gov/div837/Division/home.html for more information"]
}
Viewpoint {
 fieldOfView 0.785398
 position 0 5 20000
 orientation -1 -0 -0 1.5708
 description "Y-Axis"
}
Viewpoint {
 fieldOfView 0.785398
 position 0 0 19995
 orientation 1 0 0 3.1415926
 description "Gun"
}
Viewpoint {
 fieldOfView 0.785398
 position -5 0 20000
 orientation 0 -1 0 1.5708
 description "X-Axis"
}




#Prototype for a trajectory segment
PROTO Segment [
 field SFRotation rot 1 0 0 0
 field SFVec3f offset 0 0 0
 field SFFloat length 0.1
 field SFColor color 1 1 1
]
{
 Transform {
  rotation IS rot
  translation IS offset
  children [
   Shape {
    geometry Cylinder {
     radius 0.001
     height IS length
    }
    appearance Appearance {
     material Material {
      emissiveColor IS color
     }
    }
   }
  ]
 }
}
Segment { rot -1 0 -0 1.5708 offset 0.00645 -0.00058 20000.00416 length 0.00832 color 0 0 1 }
Segment { rot -0.99665 0 -0.08184 1.59283 offset 0.00507 -0.00021 20000.02507 length 0.03362 color 0 0 1 }
Segment { rot -0.99853 0 -0.05428 1.55951 offset 0.0029 -0.00001 20000.05644 length 0.02929 color 0 0 1 }
Segment { rot -0.99926 0 0.0384 1.61148 offset 0.00213 -0.00014 20000.07178 length 0.00144 color 0 0 1 }
Segment { rot -0.99497 0 -0.10016 1.59724 offset 0.00013 0.00042 20000.09266 length 0.04054 color 0 0 1 }
Segment { rot -0.9849 0 0.17311 1.59916 offset -0.00146 0.00103 20000.11531 length 0.00505 color 0 0 1 }
Segment { rot -0.94337 0 0.33174 1.73953 offset 0.00129 0.0023 20000.12439 length 0.01419 color 0 0 1 }
Segment { rot -0.44213 0 0.89695 2.52271 offset 0.0061 0.00738 20000.13222 length 0.00956 color 0 0 1 }
Segment { rot -0.26274 0 0.96487 2.53651 offset 0.00986 0.01318 20000.13379 length 0.00462 color 0 0 1 }
Segment { rot -0.25209 0 0.9677 2.5693 offset 0.01412 0.01988 20000.13491 length 0.01143 color 0 0 1 }
Segment { rot -0.35775 0 0.93382 2.64388 offset 0.02055 0.03145 20000.13701 length 0.0154 color 0 0 1 }
Segment { rot -0.3496 0 0.9369 2.6104 offset 0.03678 0.06147 20000.1431 length 0.05393 color 0 0 1 }
Segment { rot -0.30782 0 0.95144 2.60198 offset 0.05638 0.09665 20000.15007 length 0.02781 color 0 0 1 }
Segment { rot -0.21365 0 0.97691 2.55796 offset 0.06377 0.1095 20000.1524 length 0.0022 color 0 0 1 }
Segment { rot -0.29321 0 0.95605 2.5373 offset 0.06625 0.11327 20000.15311 length 0.00695 color 0 0 1 }
Segment { rot -0.37062 0 0.92879 2.42093 offset 0.07194 0.1208 20000.15521 length 0.01242 color 0 0 1 }
Segment { rot -0.40339 0 0.91503 2.25124 offset 0.07601 0.1257 20000.15685 length 0.00074 color 0 0 1 }
Segment { rot -0.44155 0 0.89724 2.14234 offset 0.0803 0.12882 20000.15894 length 0.01068 color 0 0 1 }
Segment { rot -0.2476 0 0.96886 1.92499 offset 0.0859 0.13231 20000.16133 length 0.00345 color 0 0 1 }
Segment { rot -0.23568 0 0.97183 1.93739 offset 0.09201 0.1347 20000.16283 length 0.01003 color 0 0 1 }
Segment { rot -0.20937 0 0.97784 2.02314 offset 0.10033 0.13837 20000.16474 length 0.00857 color 0 0 1 }
Segment { rot -0.16845 0 0.98571 2.09867 offset 0.11044 0.14399 20000.16663 length 0.01488 color 0 0 1 }
Segment { rot -0.22579 0 0.97418 2.00926 offset 0.11852 0.14858 20000.16812 length 0.00395 color 0 0 1 }
Segment { rot -0.19004 0 0.98178 2.03817 offset 0.13073 0.1548 20000.17055 length 0.02388 color 0 0 1 }
Segment { rot -0.13022 0 0.99148 2.10748 offset 0.14125 0.16021 20000.17258 length 0.00015 color 0 0 1 }
Segment { rot -0.36639 0 0.93046 1.79373 offset 0.14222 0.16047 20000.17295 length 0.002 color 0 0 1 }
Segment { rot -0.35227 0 0.9359 1.83898 offset 0.14877 0.16235 20000.17543 length 0.01251 color 0 0 1 }
Segment { rot -0.42772 0 0.90391 1.80987 offset 0.16237 0.16615 20000.18131 length 0.0181 color 0 0 1 }
Segment { rot -0.40823 0 0.91288 1.73787 offset 0.177 0.16953 20000.18807 length 0.01486 color 0 0 1 }
Segment { rot -0.41954 0 0.90774 1.7233 offset 0.18633 0.17121 20000.19228 length 0.00589 color 0 0 1 }
Segment { rot -0.44071 0 0.89765 1.77644 offset 0.19761 0.17367 20000.19774 length 0.01965 color 0 0 1 }
Segment { rot -0.49724 0 0.86761 1.83853 offset 0.20995 0.17684 20000.2041 length 0.00885 color 0 0 1 }
Segment { rot -0.44264 0 0.8967 1.95605 offset 0.21761 0.1798 20000.20818 length 0.00952 color 0 0 1 }
Segment { rot -0.43479 0 0.90053 2.00416 offset 0.22479 0.18325 20000.21168 length 0.00789 color 0 0 1 }
Segment { rot -0.47861 0 0.87803 2.07986 offset 0.23102 0.18682 20000.21488 length 0.00784 color 0 0 1 }
Segment { rot -0.55478 0 0.832 2.10001 offset 0.23616 0.19023 20000.21794 length 0.00595 color 0 0 1 }
Segment { rot -0.20071 0 0.97965 2.17087 offset 0.2404 0.1932 20000.2198 length 0.00521 color 0 0 1 }
Segment { rot -0.11686 0 0.99315 2.16827 offset 0.24677 0.19759 20000.22073 length 0.01038 color 0 0 1 }
Segment { rot -0.00568 0 0.99998 2.14008 offset 0.25172 0.20095 20000.22124 length 0.00163 color 0 0 1 }
Segment { rot 0.23926 0 0.97095 2.06185 offset 0.25827 0.20462 20000.21979 length 0.01371 color 0 0 1 }
Segment { rot 0.26103 0 0.96533 2.06894 offset 0.26578 0.20878 20000.2179 length 0.00386 color 0 0 1 }
Segment { rot 0.35104 0 0.93636 2.04175 offset 0.26921 0.21068 20000.21679 length 0.00429 color 0 0 1 }
Segment { rot 0.04626 0 0.99893 1.96621 offset 0.284 0.21708 20000.21552 length 0.0282 color 0 0 1 }
Segment { rot 0.02278 0 0.99974 1.98672 offset 0.30659 0.22675 20000.2147 length 0.02097 color 0 0 1 }
Segment { rot -0.00452 0 0.99999 1.84553 offset 0.32194 0.23261 20000.2145 length 0.01198 color 0 0 1 }
Segment { rot 0.03519 0 0.99938 1.75855 offset 0.33215 0.23508 20000.21437 length 0.00905 color 0 0 1 }
Segment { rot 0.0643 0 0.99793 1.76689 offset 0.34726 0.23805 20000.21353 length 0.0218 color 0 0 1 }
Segment { rot -0.20707 0 0.97833 2.00359 offset 0.35845 0.24042 20000.21295 length 0.00117 color 0 0 1 }
Segment { rot -0.18614 0 0.98252 1.80265 offset 0.36566 0.24227 20000.21433 length 0.01399 color 0 0 1 }
Segment { rot -0.14884 0 0.98886 1.71081 offset 0.37634 0.24445 20000.2162 length 0.00815 color 0 0 1 }
Segment { rot -0.14667 0 0.98918 1.74857 offset 0.38076 0.24509 20000.21686 length 0.00089 color 0 0 1 }
Segment { rot -0.16422 0 0.98642 1.71853 offset 0.38919 0.24638 20000.21826 length 0.01638 color 0 0 1 }
Segment { rot -0.13551 0 0.99078 1.72337 offset 0.40058 0.24811 20000.22005 length 0.00696 color 0 0 1 }
Segment { rot -0.10529 0 0.99444 1.73018 offset 0.41398 0.25026 20000.22158 length 0.02036 color 0 0 1 }
Segment { rot 0.0184 0 0.99983 1.60188 offset 0.43729 0.25228 20000.22239 length 0.02664 color 0 0 1 }
Segment { rot 0.06903 0 0.99761 1.57649 offset 0.45325 0.25271 20000.22196 length 0.00533 color 0 0 1 }
Segment { rot -0.11128 0 0.99379 1.9572 offset 0.46416 0.25611 20000.2227 length 0.01792 color 0 0 1 }
Segment { rot -0.12506 0 0.99215 1.97627 offset 0.47748 0.26168 20000.22426 length 0.01113 color 0 0 1 }
Segment { rot -0.06013 0 0.99819 2.00157 offset 0.49358 0.26895 20000.22557 length 0.02431 color 0 0 1 }
Segment { rot -0.00492 0 0.99999 1.56754 offset 0.51325 0.274 20000.22627 length 0.01728 color 0 0 1 }
Segment { rot -0.05399 0 0.99854 1.6182 offset 0.52381 0.27406 20000.22642 length 0.00385 color 0 0 1 }
Segment { rot 0.05791 0 0.99832 1.58745 offset 0.5276 0.27418 20000.22642 length 0.00375 color 0 0 1 }
Segment { rot 0.08472 0 0.99641 1.63423 offset 0.53015 0.27426 20000.22625 length 0.00136 color 0 0 1 }
Segment { rot -0.02953 0 0.99956 1.52959 offset 0.53154 0.27427 20000.22621 length 0.00142 color 0 0 1 }
Segment { rot -0.00202 0 1 1.57901 offset 0.53401 0.27426 20000.22624 length 0.00353 color 0 0 1 }
Segment { rot 0.08603 0 0.99629 1.62759 offset 0.53623 0.2743 20000.2262 length 0.00091 color 0 0 1 }
Segment { rot -0.1013 0 0.99486 1.87271 offset 0.54106 0.27569 20000.22661 length 0.00921 color 0 0 1 }
Segment { rot -0.07707 0 0.99703 1.87522 offset 0.5461 0.27727 20000.22711 length 0.00141 color 0 0 1 }
Segment { rot 0.06837 0 0.99766 1.62155 offset 0.54714 0.27751 20000.22713 length 0.00074 color 0 0 1 }
Segment { rot 0.05002 0 0.99875 1.57446 offset 0.55157 0.27754 20000.2269 length 0.00814 color 0 0 1 }
Segment { rot 0.09446 0 0.99553 1.79622 offset 0.5567 0.2778 20000.2266 length 0.00219 color 0 0 1 }
Segment { rot 0.03616 0 0.99935 1.66026 offset 0.57563 0.27965 20000.22585 length 0.03591 color 0 0 1 }
Segment { rot 0.03215 0 0.99948 1.5898 offset 0.59511 0.28128 20000.22515 length 0.00322 color 0 0 1 }
Segment { rot -0.05023 0 0.99874 1.65407 offset 0.60247 0.28179 20000.22539 length 0.01157 color 0 0 1 }
Segment { rot -0.14195 0 0.98987 1.75004 offset 0.61275 0.2831 20000.22633 length 0.00928 color 0 0 1 }
Segment { rot -0.21674 0 0.97623 1.84104 offset 0.61738 0.28396 20000.227 length 0.00025 color 0 0 1 }
Segment { rot -0.21415 0 0.9768 1.70239 offset 0.62309 0.28475 20000.22825 length 0.01154 color 0 0 1 }
Segment { rot -0.00988 0 0.99995 1.90457 offset 0.64215 0.29018 20000.22961 length 0.02853 color 0 0 1 }
Segment { rot 0.0011 0 1 1.82874 offset 0.65948 0.29587 20000.22974 length 0.00798 color 0 0 1 }
Segment { rot 0.03274 0 0.99946 1.86375 offset 0.66665 0.29789 20000.22963 length 0.00692 color 0 0 1 }
Segment { rot -0.09157 0 0.9958 1.85661 offset 0.67738 0.30108 20000.2302 length 0.01552 color 0 0 1 }
Segment { rot -0.04083 0 0.99917 1.82958 offset 0.68574 0.30352 20000.23092 length 0.00197 color 0 0 1 }
Segment { rot -0.0275 0 0.99962 1.89933 offset 0.68806 0.30424 20000.231 length 0.0029 color 0 0 1 }
Segment { rot 0.05483 0 0.9985 1.91343 offset 0.69463 0.30656 20000.23075 length 0.01105 color 0 0 1 }
Segment { rot -0.06848 0 0.99765 1.95462 offset 0.70294 0.30967 20000.23068 length 0.00673 color 0 0 1 }
Segment { rot -0.04351 0 0.99905 1.98771 offset 0.71152 0.31336 20000.23113 length 0.01197 color 0 0 1 }
Segment { rot -0.0861 0 0.99629 2.03968 offset 0.72575 0.32024 20000.23213 length 0.01973 color 0 0 1 }
Segment { rot -0.04141 0 0.99914 1.98723 offset 0.73501 0.32491 20000.23291 length 0.00106 color 0 0 1 }
Segment { rot -0.04077 0 0.99917 1.96481 offset 0.74008 0.32704 20000.23311 length 0.00994 color 0 0 1 }
Segment { rot 0.10439 0 0.99454 1.9049 offset 0.74485 0.32901 20000.23328 length 0.00039 color 0 0 1 }
Segment { rot 0.15399 0 0.98807 1.87857 offset 0.75574 0.33252 20000.23159 length 0.02274 color 0 0 1 }
Segment { rot -0.70785 0 0.70636 1.61274 offset 0.76709 0.336 20000.23057 length 0.00183 color 0 0 1 }
Segment { rot -0.75441 0 0.65641 1.62745 offset 0.76976 0.33621 20000.23355 length 0.00619 color 0 0 1 }
Segment { rot -0.77043 0 0.63752 1.61422 offset 0.77603 0.33668 20000.241 length 0.01332 color 0 0 1 }
Segment { rot -0.83132 0 0.5558 1.65218 offset 0.78397 0.33751 20000.25167 length 0.01338 color 0 0 1 }
Segment { rot -0.77739 0 0.62901 1.41459 offset 0.79419 0.33642 20000.26526 length 0.02097 color 0 0 1 }
Segment { rot -0.80765 0 0.58966 1.3989 offset 0.80156 0.33454 20000.27448 length 0.00293 color 0 0 1 }
Segment { rot -0.76546 0 0.64348 1.51492 offset 0.80496 0.33407 20000.27868 length 0.00793 color 0 0 1 }
Segment { rot -0.75027 0 0.66113 1.53458 offset 0.80833 0.3338 20000.28264 length 0.00249 color 0 0 1 }
Segment { rot -0.75505 0 0.65566 1.54043 offset 0.81231 0.33361 20000.28721 length 0.00964 color 0 0 1 }
Segment { rot -0.76179 0 0.64782 1.50403 offset 0.81679 0.33333 20000.29241 length 0.0041 color 0 0 1 }
Segment { rot -0.69186 0 0.72203 1.68642 offset 0.82334 0.33403 20000.29897 length 0.01457 color 0 0 1 }
Segment { rot -0.60532 0 0.79598 1.74127 offset 0.82898 0.33496 20000.30429 length 0.00103 color 0 0 1 }
Segment { rot -0.60251 0 0.79811 1.69068 offset 0.83164 0.33539 20000.3063 length 0.0057 color 0 0 1 }
Segment { rot -0.62449 0 0.78103 1.5581 offset 0.83462 0.33571 20000.30859 length 0.00186 color 0 0 1 }
Segment { rot -0.64598 0 0.76336 1.49887 offset 0.83556 0.33568 20000.30934 length 0.00054 color 0 0 1 }
Segment { rot -0.59508 0 0.80367 1.42306 offset 0.83653 0.33552 20000.31008 length 0.00192 color 0 0 1 }
Segment { rot -0.61815 0 0.78606 1.67752 offset 0.83872 0.33558 20000.31177 length 0.00366 color 0 0 1 }
Segment { rot -0.61941 0 0.78507 1.76688 offset 0.84439 0.33684 20000.31624 length 0.01101 color 0 0 1 }
Segment { rot -0.64406 0 0.76497 1.74119 offset 0.84922 0.33805 20000.32009 length 0.00157 color 0 0 1 }
Segment { rot -0.64319 0 0.76571 1.75907 offset 0.85446 0.33934 20000.32449 length 0.01236 color 0 0 1 }
Segment { rot -0.62814 0 0.7781 1.79041 offset 0.86316 0.34166 20000.33166 length 0.01064 color 0 0 1 }
Segment { rot -0.76434 0 0.64482 1.80813 offset 0.87127 0.34434 20000.33975 length 0.01299 color 0 0 1 }
Segment { rot -0.75496 0 0.65577 1.76335 offset 0.87842 0.34679 20000.34813 length 0.00959 color 0 0 1 }
Segment { rot -0.74863 0 0.66299 1.77671 offset 0.88894 0.35005 20000.36007 length 0.02291 color 0 0 1 }
Segment { rot -0.69704 0 0.71703 1.74924 offset 0.90184 0.35376 20000.37377 length 0.01547 color 0 0 1 }
Segment { rot -0.66696 0 0.74509 1.73209 offset 0.90969 0.35566 20000.38122 length 0.00651 color 0 0 1 }
Segment { rot -0.65105 0 0.75904 1.76626 offset 0.9146 0.35684 20000.38552 length 0.00675 color 0 0 1 }
Segment { rot -0.64502 0 0.76417 1.65488 offset 0.92175 0.358 20000.3916 length 0.0122 color 0 0 1 }
Segment { rot -0.70858 0 0.70563 1.67741 offset 0.92976 0.35903 20000.3989 length 0.00959 color 0 0 1 }
Segment { rot -0.78216 0 0.62308 1.60371 offset 0.93353 0.35956 20000.40278 length 0.00129 color 0 0 1 }
Segment { rot -0.79891 0 0.60145 1.63794 offset 0.93612 0.35982 20000.40619 length 0.00729 color 0 0 1 }
Segment { rot -0.81143 0 0.58444 1.75385 offset 0.94138 0.36104 20000.41337 length 0.01071 color 0 0 1 }
Segment { rot -0.83144 0 0.55562 1.85798 offset 0.94487 0.36223 20000.41825 length 0.00153 color 0 0 1 }
Segment { rot -0.83527 0 0.54984 1.83651 offset 0.94905 0.36432 20000.42459 length 0.01423 color 0 0 1 }
Segment { rot -0.83601 0 0.54871 1.8313 offset 0.95468 0.36709 20000.43315 length 0.00699 color 0 0 1 }
Segment { rot -0.80059 0 0.59921 1.83025 offset 0.95727 0.36832 20000.43696 length 0.00256 color 0 0 1 }
Segment { rot -0.82946 0 0.55856 1.74189 offset 0.95982 0.3692 20000.44064 length 0.00658 color 0 0 1 }
Segment { rot -0.84801 0 0.52997 1.85834 offset 0.96206 0.37 20000.44401 length 0.00167 color 0 0 1 }
Segment { rot -0.86796 0 0.49664 1.82342 offset 0.96528 0.37169 20000.44958 length 0.01163 color 0 0 1 }
Segment { rot -0.85483 0 0.5189 1.82374 offset 0.96921 0.37371 20000.45634 length 0.00452 color 0 0 1 }
Segment { rot -0.86462 0 0.50243 1.78608 offset 0.97228 0.37512 20000.46153 length 0.00787 color 0 0 1 }
Segment { rot -0.87478 0 0.48452 1.77436 offset 0.97566 0.37657 20000.46747 length 0.0061 color 0 0 1 }
Segment { rot -0.90442 0 0.42665 1.78366 offset 0.9783 0.3778 20000.47261 length 0.00573 color 0 0 1 }
Segment { rot -0.88294 0 0.46948 1.7747 offset 0.98387 0.38033 20000.48338 length 0.01904 color 0 0 1 }
Segment { rot -0.81797 0 0.57526 1.29746 offset 0.98991 0.38145 20000.49397 length 0.00599 color 0 0 1 }
Segment { rot -0.85067 0 0.52571 1.20008 offset 0.9931 0.37951 20000.49881 length 0.00627 color 0 0 1 }
Segment { rot -0.83861 0 0.54473 1.19266 offset 0.99739 0.37637 20000.50553 length 0.01085 color 0 0 1 }
Segment { rot -0.8968 0 0.44243 1.14403 offset 1.00069 0.37379 20000.51089 length 0.00277 color 0 0 1 }
Segment { rot -0.9034 0 0.4288 1.15822 offset 1.00127 0.37319 20000.51207 length 0.00012 color 0 0 1 }
Segment { rot -0.85923 0 0.51159 1.22579 offset 1.00184 0.37279 20000.51303 length 0.00223 color 0 0 1 }
Segment { rot -0.8589 0 0.51214 1.22236 offset 1.00255 0.37228 20000.51423 length 0.00075 color 0 0 1 }
Segment { rot -0.84357 0 0.53701 0.93321 offset 1.00383 0.37064 20000.51626 length 0.00508 color 0 0 1 }
Segment { rot -0.84876 0 0.52878 0.91404 offset 1.00589 0.36772 20000.51953 length 0.00462 color 0 0 1 }
Segment { rot -0.97394 0 0.2268 1.00029 offset 1.00737 0.36487 20000.52327 length 0.00533 color 0 0 1 }
Segment { rot -0.96789 0 0.25138 0.98599 offset 1.0086 0.36154 20000.52822 length 0.00687 color 0 0 1 }
Segment { rot -0.96202 0 0.27298 0.79184 offset 1.01175 0.35085 20000.53956 length 0.02503 color 0 0 1 }
Segment { rot -0.94379 0 0.33054 0.79227 offset 1.01695 0.33378 20000.55605 length 0.02358 color 0 0 1 }
Segment { rot -0.93539 0 0.35361 0.8527 offset 1.02202 0.31985 20000.57002 length 0.01719 color 0 0 1 }
Segment { rot -0.94648 0 0.32277 0.80285 offset 1.02537 0.311 20000.57921 length 0.00919 color 0 0 1 }
Segment { rot -0.93957 0 0.34237 0.78046 offset 1.02744 0.30484 20000.5851 length 0.00834 color 0 0 1 }
Segment { rot -0.92105 0 0.38945 0.73084 offset 1.02883 0.30078 20000.58876 length 0.00295 color 0 0 1 }
Segment { rot -0.91651 0 0.40001 0.70942 offset 1.02978 0.29803 20000.59097 length 0.00435 color 0 0 1 }
Segment { rot -0.96291 0 -0.26981 0.70742 offset 1.02947 0.29254 20000.59542 length 0.01009 color 0 0 1 }
Segment { rot -0.92391 0 -0.38261 0.70185 offset 1.02813 0.28732 20000.59966 length 0.00364 color 0 0 1 }
Segment { rot -0.94372 0 -0.33075 0.68298 offset 1.02694 0.28315 20000.60288 length 0.00715 color 0 0 1 }
Segment { rot -0.75931 0 -0.65073 0.73338 offset 1.02117 0.27182 20000.61087 length 0.02305 color 0 0 1 }
Segment { rot -0.78424 0 -0.62045 0.74636 offset 1.01608 0.26313 20000.61682 length 0.00033 color 0 0 1 }
Segment { rot -0.76177 0 -0.64785 0.63263 offset 1.01397 0.25872 20000.6193 length 0.01065 color 0 0 1 }
Segment { rot -0.79041 0 -0.61258 0.60171 offset 1.01013 0.25015 20000.62402 length 0.01037 color 0 0 1 }
Segment { rot -0.72027 0 -0.6937 0.6245 offset 1.00833 0.24588 20000.62634 length 0.00001 color 0 0 1 }
Segment { rot -0.7112 0 -0.70299 0.6087 offset 1.00644 0.24201 20000.62825 length 0.00941 color 0 0 1 }
Segment { rot -0.71262 0 -0.70155 0.57839 offset 1.00297 0.23471 20000.63177 length 0.00823 color 0 0 1 }
Segment { rot -0.68494 0 -0.7286 0.57698 offset 1.001 0.23044 20000.63374 length 0.00198 color 0 0 1 }
Segment { rot -0.58704 0 -0.80956 0.30155 offset 1.00016 0.22782 20000.63444 length 0.00374 color 0 0 1 }
Segment { rot -0.48699 0 -0.87341 0.28601 offset 0.99808 0.21969 20000.63567 length 0.01324 color 0 0 1 }
Segment { rot -0.60614 0 -0.79535 0.47825 offset 0.99625 0.21285 20000.63673 length 0.0011 color 0 0 1 }
Segment { rot -0.56103 0 -0.82779 0.44004 offset 0.99484 0.20926 20000.63771 length 0.00686 color 0 0 1 }
Segment { rot -0.1408 0 -0.99004 0.44559 offset 0.9933 0.20546 20000.63857 length 0.00156 color 0 0 1 }
Segment { rot -0.23413 0 -0.97221 0.47871 offset 0.99246 0.20376 20000.63874 length 0.00224 color 0 0 1 }
Segment { rot -0.30022 0 -0.95387 0.52504 offset 0.99176 0.2024 20000.63892 length 0.00084 color 0 0 1 }
Segment { rot -0.27932 0 -0.9602 0.50768 offset 0.99045 0.19996 20000.63931 length 0.00477 color 0 0 1 }
Segment { rot -0.23266 0 -0.97256 0.54146 offset 0.98558 0.19146 20000.64053 length 0.01496 color 0 0 1 }
Segment { rot -0.18407 0 -0.98291 0.54385 offset 0.97958 0.18125 20000.64185 length 0.00888 color 0 0 1 }
Segment { rot -0.13103 0 -0.99138 0.54566 offset 0.97723 0.1773 20000.64229 length 0.00036 color 0 0 1 }
Segment { rot 0.00534 0 -0.99999 0.62362 offset 0.9769 0.17681 20000.6423 length 0.00082 color 0 0 1 }
Segment { rot 0.02691 0 -0.99964 0.62237 offset 0.9729 0.17124 20000.6422 length 0.01291 color 0 0 1 }
Segment { rot 0.11392 0 -0.99349 0.65835 offset 0.96886 0.16563 20000.64206 length 0.00092 color 0 0 1 }
Segment { rot 0.13593 0 -0.99072 0.69201 offset 0.96825 0.16487 20000.64199 length 0.00103 color 0 0 1 }
Segment { rot -0.03573 0 -0.99936 0.84783 offset 0.96537 0.16222 20000.64203 length 0.00681 color 0 0 1 }
Segment { rot -0.07888 0 -0.99688 0.66899 offset 0.9618 0.15867 20000.6422 length 0.0033 color 0 0 1 }
Segment { rot -0.07145 0 -0.99744 0.64978 offset 0.96067 0.15724 20000.64229 length 0.00035 color 0 0 1 }
Segment { rot -0.15959 0 -0.98718 0.64102 offset 0.96041 0.15688 20000.64233 length 0.00055 color 0 0 1 }
Segment { rot -0.15216 0 -0.98836 0.65989 offset 0.9594 0.15556 20000.64248 length 0.00279 color 0 0 1 }
Segment { rot -0.53714 0 -0.84349 1.65151 offset 0.95559 0.15474 20000.6445 length 0.00704 color 0 0 1 }
Segment { rot -0.4471 0 -0.89448 1.62918 offset 0.94695 0.1554 20000.64922 length 0.01272 color 0 0 1 }
Segment { rot -0.45859 0 -0.88865 1.596 offset 0.93662 0.1559 20000.65446 length 0.01046 color 0 0 1 }
Segment { rot -0.42932 0 -0.90315 1.58737 offset 0.93187 0.15604 20000.65691 length 0.00024 color 0 0 1 }
Segment { rot -0.37712 0 -0.92616 1.71831 offset 0.9293 0.15643 20000.65796 length 0.00538 color 0 0 1 }
Segment { rot -0.33445 0 -0.94241 1.78881 offset 0.926 0.15702 20000.65926 length 0.00182 color 0 0 1 }
Segment { rot -0.36687 0 -0.93027 1.72393 offset 0.92287 0.1576 20000.66047 length 0.005 color 0 0 1 }
Segment { rot -0.37599 0 -0.92662 1.80242 offset 0.92031 0.15805 20000.66148 length 0.00057 color 0 0 1 }
Segment { rot -0.46264 0 -0.88655 1.71779 offset 0.9123 0.15941 20000.66563 length 0.01769 color 0 0 1 }
Segment { rot -0.46209 0 -0.88683 1.68986 offset 0.88674 0.16311 20000.67895 length 0.04044 color 0 0 1 }
Segment { rot -0.51514 0 -0.85711 1.70451 offset 0.86699 0.16581 20000.6894 length 0.00458 color 0 0 1 }
Segment { rot -0.53741 0 -0.84332 1.74608 offset 0.86255 0.16664 20000.69216 length 0.00603 color 0 0 1 }
Segment { rot -0.54854 0 -0.83613 1.80884 offset 0.8573 0.16796 20000.69555 length 0.00675 color 0 0 1 }
Segment { rot -0.57797 0 -0.81606 1.7522 offset 0.84988 0.16981 20000.70067 length 0.01167 color 0 0 1 }
Segment { rot -0.54982 0 -0.83529 1.84242 offset 0.83974 0.17268 20000.70757 length 0.01354 color 0 0 1 }
Segment { rot -0.56287 0 -0.82654 1.84874 offset 0.83305 0.17493 20000.71201 length 0.00314 color 0 0 1 }
Segment { rot -0.56253 0 -0.82677 1.90069 offset 0.83057 0.17587 20000.71369 length 0.00314 color 0 0 1 }
Segment { rot -0.54365 0 -0.83931 1.85298 offset 0.82882 0.17656 20000.71487 length 0.00129 color 0 0 1 }
Segment { rot -0.51535 0 -0.85698 1.85934 offset 0.82538 0.17775 20000.71696 length 0.00712 color 0 0 1 }
Segment { rot -0.49498 0 -0.8689 2.07938 offset 0.82088 0.17978 20000.71962 length 0.00417 color 0 0 1 }
Segment { rot -0.49669 0 -0.86793 2.05765 offset 0.81857 0.18123 20000.72093 length 0.00189 color 0 0 1 }
Segment { rot -0.55611 0 -0.83111 2.07435 offset 0.81446 0.18392 20000.72362 length 0.00932 color 0 0 1 }
Segment { rot -0.53206 0 -0.8467 2.05873 offset 0.80957 0.18711 20000.72683 length 0.004 color 0 0 1 }
Segment { rot -0.45501 0 -0.89049 2.07459 offset 0.80655 0.18898 20000.72854 length 0.0039 color 0 0 1 }
Segment { rot -0.46944 0 -0.88296 2.02508 offset 0.79905 0.19324 20000.7325 length 0.0151 color 0 0 1 }
Segment { rot -0.44332 0 -0.89636 2.03976 offset 0.78482 0.20121 20000.73976 length 0.02061 color 0 0 1 }
Segment { rot -0.3791 0 -0.92536 1.98932 offset 0.77273 0.20771 20000.74541 length 0.00909 color 0 0 1 }
Segment { rot -0.40492 0 -0.91435 1.99102 offset 0.76807 0.20996 20000.74735 length 0.00198 color 0 0 1 }
Segment { rot -0.3606 0 -0.93272 2.11246 offset 0.76317 0.21299 20000.74929 length 0.0102 color 0 0 1 }
Segment { rot -0.39817 0 -0.91731 2.39821 offset 0.75532 0.22009 20000.7525 length 0.01215 color 0 0 1 }
Segment { rot -0.63333 0 -0.77388 2.34782 offset 0.74882 0.22804 20000.75638 length 0.0099 color 0 0 1 }
Segment { rot -0.67102 0 -0.74144 2.35088 offset 0.74588 0.23179 20000.7588 length 0.0008 color 0 0 1 }
Segment { rot -0.69024 0 -0.72358 2.35642 offset 0.74471 0.2334 20000.75991 length 0.00375 color 0 0 1 }
Segment { rot -0.68048 0 -0.73277 2.37153 offset 0.74298 0.23581 20000.76154 length 0.00301 color 0 0 1 }
Segment { rot -0.70842 0 -0.70579 2.35435 offset 0.74162 0.23773 20000.76285 length 0.00237 color 0 0 1 }
Segment { rot -0.62057 0 -0.78415 2.42146 offset 0.73899 0.24152 20000.76506 length 0.00788 color 0 0 1 }
Segment { rot -0.64769 0 -0.7619 2.43423 offset 0.73474 0.24787 20000.76854 length 0.00891 color 0 0 1 }
Segment { rot -0.80899 0 -0.58782 2.41078 offset 0.73185 0.25257 20000.77137 length 0.00352 color 0 0 1 }
Segment { rot -0.77503 0 -0.63192 2.32741 offset 0.72745 0.25941 20000.77686 length 0.01611 color 0 0 1 }
Segment { rot -0.76073 0 -0.64907 2.38443 offset 0.72293 0.26627 20000.78236 length 0.00367 color 0 0 1 }
Segment { rot -0.75813 0 -0.6521 2.3645 offset 0.72193 0.2679 20000.78354 length 0.00083 color 0 0 1 }
Segment { rot 0.32201 0 -0.94674 2.24897 offset 0.72102 0.26881 20000.78351 length 0.00195 color 0 0 1 }
Segment { rot 0.32176 0 -0.94682 2.25244 offset 0.71955 0.27007 20000.78302 length 0.00204 color 0 0 1 }
Segment { rot 0.39421 0 -0.91902 2.10121 offset 0.71126 0.27552 20000.77953 length 0.01902 color 0 0 1 }
Segment { rot 0.37007 0 -0.929 2.02936 offset 0.70002 0.2823 20000.77482 length 0.00889 color 0 0 1 }
Segment { rot 0.37403 0 -0.92742 2.01433 offset 0.69605 0.2844 20000.77324 length 0.00063 color 0 0 1 }
Segment { rot 0.69064 0 -0.7232 2.17147 offset 0.68899 0.29098 20000.76664 length 0.02279 color 0 0 1 }
Segment { rot 0.61676 0 -0.78715 2.17884 offset 0.68204 0.29755 20000.76003 length 0.00045 color 0 0 1 }
Segment { rot 0.61409 0 -0.78924 2.13491 offset 0.68012 0.2991 20000.75853 length 0.00533 color 0 0 1 }
Segment { rot 0.62108 0 -0.78375 2.16102 offset 0.67827 0.30059 20000.75709 length 0.00022 color 0 0 1 }
Segment { rot 0.43077 0 -0.90246 2.18264 offset 0.6752 0.30298 20000.75561 length 0.00812 color 0 0 1 }
Segment { rot 0.5034 0 -0.86406 2.12822 offset 0.66948 0.30727 20000.75259 length 0.00742 color 0 0 1 }
Segment { rot 0.51246 0 -0.85871 2.00811 offset 0.65888 0.31352 20000.7463 length 0.02025 color 0 0 1 }
Segment { rot 0.5122 0 -0.85887 1.96046 offset 0.64254 0.32186 20000.73656 length 0.02131 color 0 0 1 }
Segment { rot 0.54234 0 -0.84016 2.00672 offset 0.63118 0.32752 20000.72963 length 0.00763 color 0 0 1 }
Segment { rot 0.54738 0 -0.83689 2.03779 offset 0.62063 0.33373 20000.72276 length 0.02044 color 0 0 1 }
Segment { rot 0.81845 0 -0.57458 1.59871 offset 0.6101 0.33847 20000.71363 length 0.0101 color 0 0 1 }
Segment { rot 0.82252 0 -0.56873 1.60779 offset 0.60582 0.3387 20000.70752 length 0.00483 color 0 0 1 }
Segment { rot 0.81701 0 -0.57663 1.6198 offset 0.60087 0.33909 20000.70046 length 0.01241 color 0 0 1 }
Segment { rot 0.81993 0 -0.57246 1.67567 offset 0.59682 0.33949 20000.69471 length 0.00169 color 0 0 1 }
Segment { rot 0.85396 0 -0.52034 1.54752 offset 0.59226 0.33939 20000.68733 length 0.01566 color 0 0 1 }
Segment { rot 0.86567 0 -0.50062 1.58495 offset 0.58555 0.33929 20000.67609 length 0.01054 color 0 0 1 }
Segment { rot 0.86973 0 -0.49353 1.63814 offset 0.58146 0.33956 20000.66897 length 0.0059 color 0 0 1 }
Segment { rot 0.8589 0 -0.51214 1.61428 offset 0.57983 0.33977 20000.66611 length 0.00069 color 0 0 1 }
Segment { rot 0.87723 0 -0.48007 1.59512 offset 0.57667 0.33994 20000.66036 length 0.01244 color 0 0 1 }
Segment { rot -0.55568 0 0.8314 1.99689 offset 0.57574 0.34121 20000.65629 length 0.00544 color 0 0 1 }
Segment { rot -0.6205 0 0.78421 2.19314 offset 0.58136 0.34559 20000.66048 length 0.01117 color 0 0 1 }
Segment { rot -0.65383 0 0.75664 2.22212 offset 0.58796 0.35191 20000.66592 length 0.01012 color 0 0 1 }
Segment { rot -0.59669 0 0.80247 2.28203 offset 0.59669 0.36108 20000.67278 length 0.01869 color 0 0 1 }
Segment { rot -0.55332 0 0.83297 2.2445 offset 0.60414 0.36888 20000.67818 length 0.00547 color 0 0 1 }
Segment { rot -0.56772 0 0.82323 2.18545 offset 0.60599 0.37065 20000.67941 length 0.00021 color 0 0 1 }
Segment { rot -0.07769 0 0.99698 2.02516 offset 0.60707 0.3712 20000.67954 length 0.00226 color 0 0 1 }
Segment { rot -0.12263 0 0.99245 2.05832 offset 0.60853 0.37194 20000.67967 length 0.00102 color 0 0 1 }
Segment { rot -0.09813 0 0.99517 2.00627 offset 0.61836 0.37656 20000.68065 length 0.02078 color 0 0 1 }
Segment { rot -0.30411 0 0.95264 1.88499 offset 0.62883 0.38132 20000.68192 length 0.00241 color 0 0 1 }
Segment { rot -0.16834 0 0.98573 1.83511 offset 0.63041 0.38182 20000.68236 length 0.00103 color 0 0 1 }
Segment { rot -0.08344 0 0.99651 1.84003 offset 0.63306 0.38256 20000.68262 length 0.0045 color 0 0 1 }
Segment { rot -0.54671 0 0.83732 1.96305 offset 0.63528 0.38319 20000.68284 length 0.00015 color 0 0 1 }
Segment { rot -0.61936 0 0.78511 1.90576 offset 0.63538 0.38323 20000.68291 length 0.0001 color 0 0 1 }
Segment { rot -0.59341 0 0.8049 1.97482 offset 0.63551 0.3833 20000.68301 length 0.00027 color 0 0 1 }
Segment { rot -0.61769 0 0.78643 1.963 offset 0.63579 0.38345 20000.68323 length 0.0005 color 0 0 1 }
Segment { rot -0.64246 0 0.76632 2.0038 offset 0.63608 0.38361 20000.68346 length 0.0003 color 0 0 1 }
Segment { rot -0.55056 0 0.83479 2.08929 offset 0.64223 0.3878 20000.68753 length 0.01667 color 0 0 1 }
Segment { rot -0.43357 0 0.90112 2.02845 offset 0.65072 0.39327 20000.69269 length 0.00606 color 0 0 1 }
Segment { rot -0.51346 0 0.85811 2.09605 offset 0.65444 0.39546 20000.69463 length 0.00342 color 0 0 1 }
Segment { rot -0.51667 0 0.85619 2.06926 offset 0.65596 0.39648 20000.69554 length 0.00067 color 0 0 1 }
Segment { rot -0.4462 0 0.89493 2.00239 offset 0.65847 0.3978 20000.69682 length 0.00557 color 0 0 1 }
Segment { rot -0.43695 0 0.89949 1.99912 offset 0.66401 0.40063 20000.69954 length 0.008 color 0 0 1 }
Segment { rot -0.43318 0 0.90131 2.03897 offset 0.66877 0.40313 20000.70185 length 0.0037 color 0 0 1 }
Segment { rot -0.47488 0 0.88005 1.9718 offset 0.67206 0.40483 20000.70353 length 0.00445 color 0 0 1 }
Segment { rot -0.58188 0 0.81327 1.97371 offset 0.67754 0.40763 20000.70714 length 0.00985 color 0 0 1 }
Segment { rot -0.67077 0 0.74167 1.83155 offset 0.68208 0.40986 20000.71054 length 0.00237 color 0 0 1 }
Segment { rot -0.66516 0 0.7467 1.73762 offset 0.68663 0.41101 20000.71461 length 0.01005 color 0 0 1 }
Segment { rot -0.65238 0 0.75789 1.76394 offset 0.69125 0.41208 20000.7187 length 0.00249 color 0 0 1 }
Segment { rot -0.63065 0 0.77606 1.81357 offset 0.69296 0.41257 20000.72014 length 0.00209 color 0 0 1 }
Segment { rot -0.63391 0 0.77341 1.84793 offset 0.69451 0.4131 20000.7214 length 0.00205 color 0 0 1 }
Segment { rot -0.70299 0 0.7112 1.84498 offset 0.69602 0.41367 20000.72276 length 0.00217 color 0 0 1 }
Segment { rot -0.7015 0 0.71267 1.79926 offset 0.69848 0.41453 20000.72518 length 0.00493 color 0 0 1 }
Segment { rot -0.69867 0 0.71544 1.79389 offset 0.70719 0.4173 20000.7337 length 0.02006 color 0 0 1 }
Segment { rot -0.70112 0 0.71304 1.74654 offset 0.71503 0.41973 20000.74137 length 0.00241 color 0 0 1 }
Segment { rot -0.60948 0 0.7928 1.81849 offset 0.71675 0.42022 20000.74287 length 0.00228 color 0 0 1 }
Segment { rot -0.55844 0 0.82954 1.87282 offset 0.72374 0.4228 20000.74766 length 0.01543 color 0 0 1 }
Segment { rot -0.86896 0 0.49489 1.97195 offset 0.72992 0.42516 20000.75191 length 0.00033 color 0 0 1 }
Segment { rot -0.87251 0 0.48859 1.97536 offset 0.73051 0.42567 20000.75296 length 0.00229 color 0 0 1 }
Segment { rot -0.86996 0 0.49312 1.87375 offset 0.73871 0.431 20000.76744 length 0.03267 color 0 0 1 }
Segment { rot -0.87298 0 0.48775 1.89523 offset 0.74694 0.43624 20000.78196 length 0.00231 color 0 0 1 }
Segment { rot -0.89384 0 0.44838 1.87252 offset 0.74804 0.437 20000.78404 length 0.00264 color 0 0 1 }
Segment { rot -0.88745 0 0.46091 1.88228 offset 0.75268 0.44024 20000.79302 length 0.01859 color 0 0 1 }
Segment { rot -0.89002 0 0.45592 1.85888 offset 0.75848 0.44421 20000.80423 length 0.00788 color 0 0 1 }
Segment { rot -0.90796 0 0.41905 1.82041 offset 0.76283 0.44693 20000.8133 length 0.01295 color 0 0 1 }
Segment { rot -0.89382 0 0.44843 1.82971 offset 0.76684 0.44934 20000.82174 length 0.00635 color 0 0 1 }
Segment { rot -0.96513 0 0.26178 1.22646 offset 0.76848 0.44979 20000.82546 length 0.00216 color 0 0 1 }
Segment { rot -0.96814 0 0.25041 1.24418 offset 0.76956 0.44833 20000.82958 length 0.00683 color 0 0 1 }
Segment { rot -0.97967 0 0.20063 1.30846 offset 0.77085 0.44659 20000.83507 length 0.005 color 0 0 1 }
Segment { rot -0.93279 0 0.36041 1.41664 offset 0.77321 0.44513 20000.84228 length 0.01052 color 0 0 1 }
Segment { rot -0.96973 0 0.24419 1.39301 offset 0.77636 0.44338 20000.85221 length 0.01064 color 0 0 1 }
Segment { rot -0.93353 0 0.3585 1.37318 offset 0.7784 0.44202 20000.85926 length 0.00431 color 0 0 1 }
Segment { rot -0.9282 0 0.37207 1.40022 offset 0.77923 0.44156 20000.86143 length 0.00041 color 0 0 1 }
Segment { rot -0.94753 0 0.31966 1.44229 offset 0.78053 0.44103 20000.86522 length 0.00768 color 0 0 1 }
Segment { rot -0.94582 0 0.32468 1.3404 offset 0.78301 0.43963 20000.8725 length 0.00798 color 0 0 1 }
Segment { rot -0.91835 0 0.39576 1.30373 offset 0.78603 0.4375 20000.88027 length 0.00925 color 0 0 1 }
Segment { rot -0.99496 0 0.10026 1.09338 offset 0.78784 0.43607 20000.88478 length 0.00092 color 0 0 1 }
Segment { rot -0.62381 0 0.78158 0.97744 offset 0.79416 0.43044 20000.8902 length 0.01939 color 0 0 1 }
Segment { rot -0.64231 0 0.76644 0.91655 offset 0.80282 0.42263 20000.89721 length 0.00783 color 0 0 1 }
Segment { rot -0.78051 0 -0.62514 2.63369 offset 0.8034 0.42542 20000.90145 length 0.01184 color 0 0 1 }
Segment { rot -0.81474 0 -0.57982 2.65347 offset 0.80114 0.43212 20000.90436 length 0.00345 color 0 0 1 }
Segment { rot -0.78813 0 -0.61551 2.68434 offset 0.79921 0.43846 20000.90688 length 0.01074 color 0 0 1 }
Segment { rot -0.79162 0 -0.61101 2.83985 offset 0.7976 0.44406 20000.90894 length 0.00164 color 0 0 1 }
Segment { rot 0.1017 0 0.99482 1.97003 offset 0.8007 0.44622 20000.9088 length 0.00709 color 0 0 1 }
Segment { rot 0.09672 0 0.99531 1.89595 offset 0.80418 0.44767 20000.90845 length 0.00049 color 0 0 1 }
Segment { rot 0.11986 0 0.99279 1.83479 offset 0.80563 0.44808 20000.90828 length 0.00253 color 0 0 1 }
Segment { rot 0.15639 0 0.98769 1.90135 offset 0.80733 0.44858 20000.90806 length 0.00104 color 0 0 1 }
Segment { rot 0.18946 0 0.98189 1.94412 offset 0.81089 0.44998 20000.90739 length 0.00672 color 0 0 1 }
Segment { rot 0.16951 0 0.98553 1.97506 offset 0.81642 0.45227 20000.90637 length 0.00544 color 0 0 1 }
Segment { rot 0.31554 0 0.94891 2.00632 offset 0.81989 0.45383 20000.90561 length 0.00234 color 0 0 1 }
Segment { rot 0.55705 0 0.83048 2.16391 offset 0.82335 0.45632 20000.90363 length 0.00712 color 0 0 1 }
Segment { rot 0.44766 0 0.89421 2.02962 offset 0.82739 0.45918 20000.90119 length 0.00397 color 0 0 1 }
Segment { rot 0.41875 0 0.9081 2.06079 offset 0.83065 0.46105 20000.89963 length 0.00418 color 0 0 1 }
Segment { rot 0.71431 0 0.69983 2.44197 offset 0.83428 0.46534 20000.89686 length 0.00865 color 0 0 1 }
Segment { rot 0.68342 0 0.73002 2.37377 offset 0.83711 0.46991 20000.89404 length 0.00349 color 0 0 1 }
Segment { rot 0.71702 0 0.69705 2.40208 offset 0.83996 0.47425 20000.8912 length 0.00835 color 0 0 1 }
Segment { rot 0.99781 0 0.06619 2.7358 offset 0.84205 0.48171 20000.8873 length 0.00953 color 0 0 1 }
Segment { rot 0.99383 0 0.11095 2.74453 offset 0.84222 0.48715 20000.88498 length 0.00231 color 0 0 1 }
Segment { rot 0.98485 0 -0.17339 2.69536 offset 0.84216 0.48951 20000.88393 length 0.00286 color 0 0 1 }
Segment { rot 0.97419 0 -0.22573 2.68272 offset 0.84193 0.49197 20000.88276 length 0.00262 color 0 0 1 }
Segment { rot 0.92012 0 -0.39163 2.66971 offset 0.84076 0.49831 20000.87977 length 0.0116 color 0 0 1 }
Segment { rot 0.92886 0 -0.37044 2.67022 offset 0.8396 0.50418 20000.87701 length 0.00157 color 0 0 1 }
Segment { rot 0.94661 0 -0.32237 2.6477 offset 0.83942 0.50514 20000.87655 length 0.0006 color 0 0 1 }
Segment { rot 0.96654 0 -0.25651 2.51724 offset 0.83929 0.50586 20000.87609 length 0.00114 color 0 0 1 }
Segment { rot 0.96492 0 -0.26253 2.55301 offset 0.83914 0.5067 20000.87553 length 0.0009 color 0 0 1 }
Segment { rot 0.95514 0 -0.29614 2.55351 offset 0.8385 0.50998 20000.87344 length 0.00699 color 0 0 1 }
Segment { rot 0.92159 0 -0.38816 2.26029 offset 0.83721 0.51441 20000.86988 length 0.00479 color 0 0 1 }
Segment { rot 0.91882 0 -0.39467 2.2565 offset 0.83583 0.5173 20000.86664 length 0.00433 color 0 0 1 }
Segment { rot 0.12017 0 0.99275 1.14516 offset 0.84196 0.51557 20000.86428 length 0.01502 color 0 0 1 }
Segment { rot 0.1019 0 0.99479 1.11922 offset 0.8564 0.50874 20000.86268 length 0.0171 color 0 0 1 }
Segment { rot 0.09631 0 0.99535 1.12631 offset 0.86716 0.50352 20000.86159 length 0.00691 color 0 0 1 }
Segment { rot -0.11653 0 0.99319 1.11894 offset 0.87153 0.50142 20000.86144 length 0.00282 color 0 0 1 }
Segment { rot -0.0808 0 0.99673 1.148 offset 0.88002 0.49754 20000.86217 length 0.01591 color 0 0 1 }
Segment { rot -0.04642 0 0.99892 1.14952 offset 0.88732 0.49424 20000.86276 length 0.00015 color 0 0 1 }
Segment { rot -0.06096 0 0.99814 1.20286 offset 0.89022 0.49312 20000.86294 length 0.00609 color 0 0 1 }
Segment { rot -0.07979 0 0.99681 1.27332 offset 0.89433 0.49163 20000.86321 length 0.00267 color 0 0 1 }
Segment { rot -0.23429 0 0.97217 1.15948 offset 0.89561 0.49124 20000.86332 length 0.00002 color 0 0 1 }
Segment { rot -0.23776 0 0.97132 1.21335 offset 0.89666 0.49083 20000.86358 length 0.00229 color 0 0 1 }
Segment { rot -0.21643 0 0.9763 1.24402 offset 0.90193 0.48896 20000.86477 length 0.00914 color 0 0 1 }
Segment { rot -0.18878 0 0.98202 1.32468 offset 0.90625 0.48747 20000.86572 length 0.00018 color 0 0 1 }
Segment { rot -0.08293 0 0.99656 1.26302 offset 0.90752 0.48707 20000.86584 length 0.0025 color 0 0 1 }
Segment { rot -0.09611 0 0.99537 1.2777 offset 0.91471 0.48487 20000.86651 length 0.01261 color 0 0 1 }
Segment { rot -0.09976 0 0.99501 1.27284 offset 0.92403 0.48203 20000.86743 length 0.00696 color 0 0 1 }
Segment { rot -0.12264 0 0.99245 1.29145 offset 0.92917 0.48048 20000.86798 length 0.00384 color 0 0 1 }
Segment { rot -0.01471 0 0.99989 1.17538 offset 0.93207 0.4795 20000.86823 length 0.00232 color 0 0 1 }
Segment { rot -0.00742 0 0.99997 1.15972 offset 0.93409 0.47865 20000.86825 length 0.00206 color 0 0 1 }
Segment { rot 0.0251 0 0.99968 1.16542 offset 0.93699 0.47739 20000.86821 length 0.00427 color 0 0 1 }
Segment { rot 0.08283 0 0.99656 1.42581 offset 0.94269 0.476 20000.86785 length 0.00759 color 0 0 1 }
Segment { rot 0.2024 0 0.9793 0.96539 offset 0.94884 0.47375 20000.86704 length 0.00598 color 0 0 1 }
Segment { rot 0.06781 0 0.9977 0.91292 offset 0.95357 0.47026 20000.86638 length 0.00586 color 0 0 1 }
Segment { rot 0.05119 0 0.99869 0.90904 offset 0.95688 0.46768 20000.86617 length 0.00253 color 0 0 1 }
Segment { rot 0.0887 0 0.99606 1.01805 offset 0.96155 0.46463 20000.8658 length 0.00866 color 0 0 1 }
Segment { rot 0.12844 0 0.99172 1.01819 offset 0.9665 0.46157 20000.8653 length 0.00303 color 0 0 1 }
Segment { rot 0.1807 0 0.98354 1.02661 offset 0.97229 0.45799 20000.86431 length 0.01073 color 0 0 1 }
Segment { rot 0.2014 0 0.97951 1.0318 offset 0.97701 0.45509 20000.86344 length 0.00048 color 0 0 1 }
Segment { rot 0.19951 0 0.9799 1.19969 offset 0.9875 0.45088 20000.8613 length 0.02255 color 0 0 1 }
Segment { rot 0.17136 0 0.98521 1.18462 offset 0.99997 0.44589 20000.85883 length 0.00477 color 0 0 1 }
Segment { rot 0.12286 0 0.99242 1.21508 offset 1.00308 0.44465 20000.85833 length 0.002 color 0 0 1 }
Segment { rot 0.17643 0 0.98431 1.10498 offset 1.00483 0.44388 20000.85807 length 0.00185 color 0 0 1 }
Segment { rot 0.30733 0 0.9516 1.11538 offset 1.00709 0.44272 20000.85746 length 0.00338 color 0 0 1 }
Segment { rot 0.30297 0 0.953 1.11952 offset 1.00878 0.44186 20000.85691 length 0.00056 color 0 0 1 }
Segment { rot 0.2969 0 0.95491 1.14349 offset 1.00911 0.44169 20000.85681 length 0.00022 color 0 0 1 }
Segment { rot 0.40945 0 0.91233 0.91207 offset 1.01506 0.43668 20000.85415 length 0.01623 color 0 0 1 }
Segment { rot 0.39158 0 0.92014 0.87978 offset 1.02253 0.43025 20000.85084 length 0.00457 color 0 0 1 }
Segment { rot 0.41715 0 0.90884 0.97346 offset 1.02492 0.42822 20000.84979 length 0.00204 color 0 0 1 }
Segment { rot 0.39771 0 0.91751 0.98758 offset 1.02729 0.42649 20000.84875 length 0.0042 color 0 0 1 }
Segment { rot 0.51121 0 0.85945 0.91497 offset 1.02893 0.42532 20000.84803 length 0.00007 color 0 0 1 }
Segment { rot 0.55074 0 0.83468 0.78898 offset 1.03151 0.42225 20000.84633 length 0.00864 color 0 0 1 }
Segment { rot 0.44544 0 0.89531 0.83475 offset 1.03896 0.41426 20000.84221 length 0.01474 color 0 0 1 }
Segment { rot 0.35895 0 0.93336 0.71463 offset 1.04709 0.40531 20000.83853 length 0.01058 color 0 0 1 }
Segment { rot -0.12561 0 0.99208 0.69189 offset 1.05094 0.40056 20000.83736 length 0.00195 color 0 0 1 }
Segment { rot -0.18181 0 0.98333 0.70373 offset 1.05203 0.39925 20000.83753 length 0.00148 color 0 0 1 }
Segment { rot -0.23772 0 0.97133 0.7043 offset 1.05269 0.39845 20000.83766 length 0.00063 color 0 0 1 }
Segment { rot -0.24318 0 0.96998 0.70297 offset 1.05483 0.39586 20000.8382 length 0.00618 color 0 0 1 }
Segment { rot -0.43036 0 0.90266 0.59555 offset 1.05705 0.39304 20000.83882 length 0.00111 color 0 0 1 }
Segment { rot -0.39271 0 0.91966 0.59683 offset 1.05871 0.39037 20000.83954 length 0.00534 color 0 0 1 }
Segment { rot -0.44311 0 0.89647 0.60727 offset 1.06224 0.38471 20000.84119 length 0.00839 color 0 0 1 }
Segment { rot -0.41065 0 0.91179 0.5422 offset 1.06536 0.37949 20000.84269 length 0.00414 color 0 0 1 }
Segment { rot -0.37571 0 0.92674 0.51521 offset 1.06929 0.37208 20000.84433 length 0.01296 color 0 0 1 }
Segment { rot -0.41106 0 0.91161 0.52425 offset 1.07378 0.36353 20000.84622 length 0.00673 color 0 0 1 }
Segment { rot -0.43642 0 0.89974 0.51287 offset 1.07578 0.3597 20000.84714 length 0.0021 color 0 0 1 }
Segment { rot -0.01308 0 0.99991 0.43242 offset 1.07781 0.35539 20000.84738 length 0.00747 color 0 0 1 }
Segment { rot -0.00547 0 0.99999 0.4053 offset 1.07942 0.35191 20000.84741 length 0.0002 color 0 0 1 }
Segment { rot -0.35618 0 0.93442 0.71836 offset 1.08005 0.35109 20000.84763 length 0.00194 color 0 0 1 }
Segment { rot -0.41787 0 0.90851 0.79692 offset 1.08081 0.35019 20000.84793 length 0.0005 color 0 0 1 }
Segment { rot -0.44102 0 0.8975 0.8086 offset 1.08109 0.34989 20000.84807 length 0.00036 color 0 0 1 }
Segment { rot -0.45503 0 0.89048 0.82691 offset 1.08557 0.34525 20000.85035 length 0.01332 color 0 0 1 }
Segment { rot -0.44971 0 0.89318 0.83217 offset 1.09143 0.33922 20000.85334 length 0.00454 color 0 0 1 }
Segment { rot -0.49664 0 0.86795 0.66697 offset 1.1 0.32734 20000.85814 length 0.02635 color 0 0 1 }
Segment { rot -0.32195 0 0.94676 0.7452 offset 1.10763 0.31635 20000.86238 length 0.00173 color 0 0 1 }
Segment { rot -0.3436 0 0.93912 0.76744 offset 1.10869 0.31516 20000.86275 length 0.00154 color 0 0 1 }
Segment { rot -0.35185 0 0.93606 0.73238 offset 1.11449 0.30831 20000.86492 length 0.01694 color 0 0 1 }
Segment { rot -0.37705 0 0.92619 0.69626 offset 1.12253 0.29848 20000.86803 length 0.00922 color 0 0 1 }
Segment { rot -0.42874 0 0.90343 0.64309 offset 1.12852 0.29014 20000.87069 length 0.012 color 0 0 1 }
Segment { rot -0.13973 0 0.99019 0.57775 offset 1.13506 0.28024 20000.8727 length 0.01216 color 0 0 1 }
Segment { rot -0.09341 0 0.99563 0.54242 offset 1.14194 0.26915 20000.8735 length 0.014 color 0 0 1 }
Segment { rot -0.03431 0 0.99941 0.57534 offset 1.14717 0.26065 20000.87389 length 0.00599 color 0 0 1 }
Segment { rot -0.24307 0 0.97001 0.57768 offset 1.15385 0.25015 20000.87521 length 0.01907 color 0 0 1 }
Segment { rot -0.35136 0 0.93624 0.69679 offset 1.16143 0.23893 20000.87743 length 0.00842 color 0 0 1 }
Segment { rot 0.97018 0 -0.24239 2.75417 offset 1.16377 0.23755 20000.87765 length 0.00398 color 0 0 1 }
Segment { rot 0.90527 0 -0.42483 2.81901 offset 1.16256 0.24663 20000.87473 length 0.01526 color 0 0 1 }
Segment { rot -0.17751 0 0.98412 2.71511 offset 1.16366 0.25863 20000.87292 length 0.01046 color 0 0 1 }
Segment { rot -0.84646 0 0.53245 2.80094 offset 1.16612 0.26513 20000.87383 length 0.00369 color 0 0 1 }
Segment { rot -0.86 0 0.5103 2.60235 offset 1.16649 0.267 20000.87441 length 0.00031 color 0 0 1 }
Segment { rot -0.9129 0 0.40818 2.62893 offset 1.16659 0.26739 20000.87461 length 0.00059 color 0 0 1 }
Segment { rot -0.99926 0 -0.03859 2.60148 offset 1.16663 0.26834 20000.87516 length 0.00162 color 0 0 1 }
Segment { rot -0.69257 0 -0.72135 2.33376 offset 1.16631 0.26945 20000.87588 length 0.00119 color 0 0 1 }
Segment { rot -0.70154 0 -0.71263 2.31024 offset 1.16405 0.27235 20000.87809 length 0.00739 color 0 0 1 }
Segment { rot -0.76431 0 -0.64485 2.31223 offset 1.16117 0.27616 20000.88111 length 0.00391 color 0 0 1 }
Segment { rot -0.19684 0 -0.98043 1.50596 offset 1.15852 0.27737 20000.88256 length 0.00351 color 0 0 1 }
Segment { rot -0.01386 0 -0.9999 1.5371 offset 1.15219 0.2771 20000.88297 length 0.00923 color 0 0 1 }
Segment { rot -0.0183 0 -0.99983 1.50614 offset 1.13877 0.27637 20000.88319 length 0.01765 color 0 0 1 }
Segment { rot 0.00268 0 -1 1.52511 offset 1.12512 0.27558 20000.88334 length 0.00971 color 0 0 1 }
Segment { rot -0.03261 0 -0.99947 1.55339 offset 1.12015 0.27535 20000.88333 length 0.00025 color 0 0 1 }
Segment { rot -0.08334 0 -0.99652 1.49181 offset 1.11721 0.27513 20000.88357 length 0.00567 color 0 0 1 }
Segment { rot -0.00668 0 -0.99998 1.49642 offset 1.11103 0.27466 20000.88383 length 0.00674 color 0 0 1 }
Segment { rot -0.27017 0 -0.96281 1.64821 offset 1.10704 0.27446 20000.88403 length 0.00131 color 0 0 1 }
Segment { rot -0.21309 0 -0.97703 1.57182 offset 1.10243 0.27451 20000.88507 length 0.00816 color 0 0 1 }
Segment { rot -0.15972 0 -0.98716 1.59742 offset 1.09422 0.27463 20000.88662 length 0.00856 color 0 0 1 }
Segment { rot -0.18373 0 -0.98298 1.72736 offset 1.08721 0.27519 20000.88783 length 0.00573 color 0 0 1 }
Segment { rot -0.15132 0 -0.98848 1.74138 offset 1.07827 0.27671 20000.88929 length 0.01264 color 0 0 1 }
Segment { rot -0.20054 0 -0.97969 1.66904 offset 1.06945 0.27805 20000.89078 length 0.00547 color 0 0 1 }
Segment { rot -0.23306 0 -0.97246 1.72319 offset 1.05361 0.2804 20000.89448 length 0.02741 color 0 0 1 }
Segment { rot -0.2579 0 -0.96617 1.71226 offset 1.04006 0.28253 20000.89774 length 0.00078 color 0 0 1 }
Segment { rot -0.2116 0 -0.97736 1.72504 offset 1.03965 0.28259 20000.89785 length 0.00007 color 0 0 1 }
Segment { rot -0.19013 0 -0.98176 1.71367 offset 1.03251 0.28364 20000.89923 length 0.01462 color 0 0 1 }
Segment { rot -0.12564 0 -0.99208 1.61053 offset 1.02106 0.28486 20000.90116 length 0.00876 color 0 0 1 }
Segment { rot -0.19278 0 -0.98124 1.67258 offset 1.0051 0.28624 20000.90399 length 0.02381 color 0 0 1 }
Segment { rot -0.27782 0 -0.96063 1.84562 offset 0.99266 0.28769 20000.90651 length 0.00177 color 0 0 1 }
Segment { rot -0.42547 0 -0.90497 1.70444 offset 0.98496 0.28895 20000.90998 length 0.01535 color 0 0 1 }
Segment { rot -0.37391 0 -0.92747 1.70486 offset 0.97459 0.29048 20000.91462 length 0.0076 color 0 0 1 }
Segment { rot -0.21173 0 -0.97733 1.4696 offset 0.96955 0.29083 20000.91637 length 0.00317 color 0 0 1 }
Segment { rot -0.26965 0 -0.96296 1.54533 offset 0.96587 0.29061 20000.9173 length 0.00444 color 0 0 1 }
Segment { rot -0.31628 0 -0.94867 1.58039 offset 0.96235 0.29057 20000.91836 length 0.00293 color 0 0 1 }
Segment { rot -0.55846 0 -0.82953 1.37809 offset 0.96087 0.29056 20000.91888 length 0.00022 color 0 0 1 }
Segment { rot -0.60829 0 -0.79372 1.42643 offset 0.95901 0.29022 20000.9203 length 0.00451 color 0 0 1 }
Segment { rot -0.85436 0 -0.51968 2.11596 offset 0.95719 0.28995 20000.92174 length 0.00023 color 0 0 1 }
Segment { rot -0.86604 0 -0.49997 2.10698 offset 0.95668 0.29056 20000.92261 length 0.00213 color 0 0 1 }
Segment { rot -0.84829 0 -0.52953 2.12691 offset 0.95518 0.29233 20000.92509 length 0.00467 color 0 0 1 }
Segment { rot -0.94203 0 -0.33554 1.91911 offset 0.95295 0.29483 20000.93006 length 0.00744 color 0 0 1 }
Segment { rot -0.95489 0 -0.29694 2.05673 offset 0.95157 0.29647 20000.93403 length 0.0016 color 0 0 1 }
Segment { rot -0.92833 0 -0.37176 2.02303 offset 0.95069 0.29772 20000.93637 length 0.004 color 0 0 1 }
Segment { rot -0.90118 0 -0.43345 2.00228 offset 0.94934 0.29932 20000.93946 length 0.00346 color 0 0 1 }
Segment { rot -0.85042 0 -0.5261 1.93604 offset 0.94845 0.3002 20000.94123 length 0.00087 color 0 0 1 }
Segment { rot -0.85725 0 -0.5149 1.96405 offset 0.94808 0.30048 20000.94183 length 0.00066 color 0 0 1 }
Segment { rot -0.86882 0 -0.49514 1.95974 offset 0.94576 0.30239 20000.94588 length 0.00942 color 0 0 1 }
Segment { rot -0.80182 0 -0.59756 1.8837 offset 0.94142 0.30536 20000.95259 length 0.00768 color 0 0 1 }
Segment { rot -0.80763 0 -0.58969 1.91074 offset 0.93772 0.30745 20000.9576 length 0.00546 color 0 0 1 }
Segment { rot -0.77067 0 -0.63724 1.89437 offset 0.93448 0.30927 20000.96176 length 0.00572 color 0 0 1 }
Segment { rot -0.80478 0 -0.59358 1.86266 offset 0.93007 0.31154 20000.96749 length 0.00943 color 0 0 1 }
Segment { rot -0.78363 0 -0.62123 1.89336 offset 0.92636 0.31345 20000.97242 length 0.0035 color 0 0 1 }
Segment { rot -0.75336 0 -0.65761 1.89469 offset 0.92527 0.31404 20000.97379 length 0.00019 color 0 0 1 }
Segment { rot -0.73444 0 -0.67868 1.75975 offset 0.92486 0.31416 20000.97424 length 0.00104 color 0 0 1 }
Segment { rot -0.72601 0 -0.68768 1.73573 offset 0.91974 0.31542 20000.97965 length 0.01407 color 0 0 1 }
Segment { rot -0.50012 0 -0.86596 2.14152 offset 0.9144 0.31699 20000.98502 length 0.00157 color 0 0 1 }
Segment { rot -0.5016 0 -0.8651 2.11224 offset 0.91193 0.31873 20000.98645 length 0.00511 color 0 0 1 }
Segment { rot -0.62512 0 -0.78053 2.00661 offset 0.90945 0.3204 20000.98802 length 0.00168 color 0 0 1 }
Segment { rot -0.61485 0 -0.78864 2.02975 offset 0.9078 0.32142 20000.98932 length 0.00298 color 0 0 1 }
Segment { rot -0.55238 0 -0.83359 2.05917 offset 0.90661 0.32217 20000.99023 length 0.00037 color 0 0 1 }
Segment { rot -0.56856 0 -0.82264 2.09946 offset 0.90616 0.32247 20000.99053 length 0.00087 color 0 0 1 }
Segment { rot -0.54722 0 -0.83699 2.18122 offset 0.90309 0.32501 20000.99256 length 0.00808 color 0 0 1 }
Segment { rot -0.53797 0 -0.84296 2.09216 offset 0.8991 0.32815 20000.99514 length 0.00332 color 0 0 1 }
Segment { rot -0.57532 0 -0.81793 1.90793 offset 0.89554 0.32998 20000.99757 length 0.00607 color 0 0 1 }
Segment { rot -0.60596 0 -0.7955 1.90018 offset 0.89244 0.33131 20000.99979 length 0.00201 color 0 0 1 }
Segment { rot -0.59121 0 -0.80652 1.86465 offset 0.88474 0.33424 20001.00546 length 0.018 color 0 0 1 }
Segment { rot -0.49227 0 -0.87044 1.87836 offset 0.87751 0.33695 20001.01071 length 0.00069 color 0 0 1 }
Segment { rot -0.60157 0 -0.79882 1.90429 offset 0.87568 0.33772 20001.01204 length 0.00409 color 0 0 1 }
Segment { rot -0.21183 0 -0.97731 2.25151 offset 0.8723 0.33992 20001.0136 length 0.00484 color 0 0 1 }
Segment { rot -0.31185 0 -0.95013 2.28154 offset 0.86843 0.34328 20001.01466 length 0.00564 color 0 0 1 }
Segment { rot -0.35014 0 -0.9367 2.31646 offset 0.86506 0.34644 20001.01583 length 0.00388 color 0 0 1 }
Segment { rot -0.32815 0 -0.94463 2.40384 offset 0.86343 0.3481 20001.01643 length 0.00095 color 0 0 1 }
Segment { rot -0.32617 0 -0.94531 2.42555 offset 0.86214 0.34965 20001.01687 length 0.00317 color 0 0 1 }
Segment { rot -0.32314 0 -0.94635 2.41591 offset 0.86077 0.35131 20001.01735 length 0.00123 color 0 0 1 }
Segment { rot -0.38055 0 -0.92476 2.41403 offset 0.85957 0.35276 20001.01781 length 0.00266 color 0 0 1 }
Segment { rot -0.27515 0 -0.9614 2.53458 offset 0.85873 0.35379 20001.01816 length 0.00007 color 0 0 1 }
Segment { rot -0.32259 0 -0.94654 2.2602 offset 0.85671 0.35556 20001.01884 length 0.00548 color 0 0 1 }
Segment { rot -0.30499 0 -0.95236 2.25714 offset 0.85369 0.35818 20001.01985 length 0.00276 color 0 0 1 }
Segment { rot -0.31678 0 -0.9485 2.2064 offset 0.85155 0.35993 20001.02055 length 0.00294 color 0 0 1 }
Segment { rot -0.39667 0 -0.91796 2.19242 offset 0.84887 0.36201 20001.0216 length 0.00416 color 0 0 1 }
Segment { rot -0.43361 0 -0.9011 2.30317 offset 0.84709 0.36345 20001.02238 length 0.00068 color 0 0 1 }
Segment { rot -0.36791 0 -0.92986 2.38611 offset 0.84593 0.36475 20001.02286 length 0.00293 color 0 0 1 }
Segment { rot -0.35715 0 -0.93405 2.37013 offset 0.84431 0.36657 20001.02349 length 0.0021 color 0 0 1 }
Segment { rot -0.34957 0 -0.93691 2.36763 offset 0.8419 0.3692 20001.0244 length 0.00526 color 0 0 1 }
Segment { rot -0.33705 0 -0.94149 2.432 offset 0.83926 0.37222 20001.02537 length 0.00302 color 0 0 1 }
Segment { rot -0.38626 0 -0.92239 2.34682 offset 0.83773 0.374 20001.02595 length 0.00181 color 0 0 1 }
Segment { rot -0.38774 0 -0.92177 2.2911 offset 0.83329 0.3783 20001.02782 length 0.01112 color 0 0 1 }
Segment { rot -0.41673 0 -0.90903 2.29806 offset 0.82872 0.38267 20001.02977 length 0.00209 color 0 0 1 }
Segment { rot -0.38832 0 -0.92153 2.30043 offset 0.8278 0.38357 20001.03018 length 0.00061 color 0 0 1 }
Segment { rot -0.344 0 -0.93897 2.3307 offset 0.824 0.38741 20001.03159 length 0.01058 color 0 0 1 }
Segment { rot -0.19468 0 -0.98087 2.37107 offset 0.81626 0.3954 20001.03373 length 0.01211 color 0 0 1 }
Segment { rot -0.26758 0 -0.96353 2.35514 offset 0.81192 0.39995 20001.0346 length 0.00059 color 0 0 1 }
Segment { rot -0.3088 0 -0.95113 2.33171 offset 0.81118 0.4007 20001.03484 length 0.00158 color 0 0 1 }
Segment { rot -0.26639 0 -0.96386 2.32622 offset 0.81023 0.40165 20001.03512 length 0.00116 color 0 0 1 }
Segment { rot -0.24583 0 -0.96931 2.34861 offset 0.8076 0.4043 20001.0358 length 0.00644 color 0 0 1 }
Segment { rot -0.25793 0 -0.96616 2.30671 offset 0.80506 0.40685 20001.03645 length 0.00088 color 0 0 1 }
Segment { rot -0.50041 0 -0.86579 2.24974 offset 0.80433 0.40754 20001.03678 length 0.00125 color 0 0 1 }
Segment { rot -0.58716 0 -0.80947 2.47395 offset 0.80371 0.40824 20001.03716 length 0.00079 color 0 0 1 }
Segment { rot -0.55355 0 -0.83282 2.54121 offset 0.80348 0.40861 20001.03733 length 0.00013 color 0 0 1 }
Segment { rot -0.5274 0 -0.84962 2.50548 offset 0.80156 0.41167 20001.03852 length 0.00747 color 0 0 1 }
Segment { rot -0.56273 0 -0.82664 2.35738 offset 0.79795 0.41677 20001.04087 length 0.00594 color 0 0 1 }
Segment { rot -0.56337 0 -0.8262 2.33667 offset 0.79521 0.42004 20001.04273 length 0.00336 color 0 0 1 }
Segment { rot -0.60499 0 -0.79624 2.30899 offset 0.7918 0.42395 20001.04524 length 0.00818 color 0 0 1 }
Segment { rot 0.41176 0 -0.91129 2.49105 offset 0.78881 0.42755 20001.04681 length 0.00212 color 0 0 1 }
Segment { rot 0.40446 0 -0.91456 2.33048 offset 0.78624 0.43046 20001.04567 length 0.00599 color 0 0 1 }
Segment { rot 0.26918 0 -0.96309 2.21905 offset 0.78406 0.43267 20001.04473 length 0.0005 color 0 0 1 }
Segment { rot 0.26048 0 -0.96548 2.14346 offset 0.78214 0.43397 20001.04421 length 0.00426 color 0 0 1 }
Segment { rot 0.27571 0 -0.96124 2.18308 offset 0.78011 0.43535 20001.04366 length 0.00078 color 0 0 1 }
Segment { rot 0.42654 0 -0.90447 2.15673 offset 0.77813 0.4368 20001.04279 length 0.00443 color 0 0 1 }
Segment { rot 0.45224 0 -0.8919 2.16468 offset 0.77605 0.43834 20001.04179 length 0.00111 color 0 0 1 }
Segment { rot 0.46605 0 -0.88476 2.21422 offset 0.77452 0.4396 20001.04099 length 0.00318 color 0 0 1 }
Segment { rot 0.54833 0 -0.83626 2.20035 offset 0.7727 0.44115 20001.03995 length 0.00204 color 0 0 1 }
Segment { rot 0.15276 0 -0.98826 2.09108 offset 0.77078 0.44247 20001.0393 length 0.00288 color 0 0 1 }
Segment { rot 0.1575 0 -0.98752 2.07201 offset 0.76465 0.4459 20001.03833 length 0.01129 color 0 0 1 }
Segment { rot 0.08683 0 -0.99622 2.10258 offset 0.75663 0.45046 20001.03728 length 0.00729 color 0 0 1 }
Segment { rot 0.06411 0 -0.99794 2.10506 offset 0.75171 0.45337 20001.03689 length 0.00417 color 0 0 1 }
Segment { rot 0.33978 0 -0.94051 2.0666 offset 0.74957 0.45463 20001.03665 length 0.00085 color 0 0 1 }
Segment { rot 0.35694 0 -0.93413 2.01393 offset 0.74856 0.45517 20001.03627 length 0.00157 color 0 0 1 }
Segment { rot -0.21184 0 -0.9773 2.35739 offset 0.74607 0.45738 20001.03641 length 0.00527 color 0 0 1 }
Segment { rot -0.13867 0 -0.99034 2.44933 offset 0.74195 0.46204 20001.03713 length 0.00727 color 0 0 1 }
Segment { rot -0.97347 0 -0.22881 2.77074 offset 0.73927 0.46915 20001.03908 length 0.00925 color 0 0 1 }
Segment { rot -0.99964 0 0.02672 2.56782 offset 0.73892 0.47518 20001.04182 length 0.00411 color 0 0 1 }
Segment { rot -0.55976 0 0.82865 1.31312 offset 0.74153 0.47609 20001.04468 length 0.00643 color 0 0 1 }
Segment { rot -0.48052 0 0.87698 1.34107 offset 0.74509 0.47501 20001.04696 length 0.00231 color 0 0 1 }
Segment { rot -0.48723 0 0.87327 1.36779 offset 0.75612 0.47238 20001.0531 length 0.02347 color 0 0 1 }
Segment { rot -0.43366 0 0.90107 1.43722 offset 0.76811 0.46972 20001.05964 length 0.00437 color 0 0 1 }
Segment { rot -0.36216 0 0.93212 1.75109 offset 0.77016 0.46945 20001.06062 length 0.00021 color 0 0 1 }
Segment { rot -0.37158 0 0.9284 1.78094 offset 0.77357 0.47023 20001.06199 length 0.00729 color 0 0 1 }
Segment { rot -0.29705 0 0.95486 1.59241 offset 0.77798 0.47101 20001.06365 length 0.00231 color 0 0 1 }
Segment { rot -0.30882 0 0.95112 1.66015 offset 0.78016 0.47114 20001.06435 length 0.00227 color 0 0 1 }
Segment { rot -0.41391 0 0.91032 1.58411 offset 0.78132 0.47124 20001.06473 length 0.00019 color 0 0 1 }
Segment { rot -0.41055 0 0.91184 1.66125 offset 0.78378 0.47148 20001.06584 length 0.00522 color 0 0 1 }
Segment { rot -0.33958 0 0.94058 1.76791 offset 0.78626 0.47174 20001.06695 length 0.00023 color 0 0 1 }
Segment { rot -0.46754 0 0.88397 1.70279 offset 0.78814 0.47203 20001.06792 length 0.00404 color 0 0 1 }
Segment { rot -0.36191 0 0.93221 1.81435 offset 0.79216 0.47289 20001.06973 length 0.00497 color 0 0 1 }
Segment { rot -0.31257 0 0.94989 1.96039 offset 0.79499 0.47375 20001.0708 length 0.00134 color 0 0 1 }
Segment { rot 0.02311 0 0.99973 1.87333 offset 0.79587 0.47409 20001.07099 length 0.00061 color 0 0 1 }
Segment { rot 0.076 0 0.99711 1.84102 offset 0.79826 0.47476 20001.07082 length 0.00437 color 0 0 1 }
Segment { rot 0.09369 0 0.9956 1.78621 offset 0.80092 0.47547 20001.07061 length 0.00116 color 0 0 1 }
Segment { rot 0.65761 0 0.75336 1.78509 offset 0.8018 0.47569 20001.07028 length 0.00086 color 0 0 1 }
Segment { rot 0.90129 0 0.43322 1.88334 offset 0.80217 0.47582 20001.0699 length 0.00024 color 0 0 1 }
Segment { rot 0.88802 0 0.45981 1.73336 offset 0.80244 0.47593 20001.06936 length 0.00098 color 0 0 1 }
Segment { rot 0.92298 0 0.38484 1.77392 offset 0.80274 0.47605 20001.06875 length 0.00041 color 0 0 1 }
Segment { rot 0.68625 0 0.72737 1.55959 offset 0.80416 0.47607 20001.0673 length 0.00369 color 0 0 1 }
Segment { rot 0.67542 0 0.73743 1.54642 offset 0.80705 0.476 20001.06461 length 0.0042 color 0 0 1 }
Segment { rot 0.68515 0 0.7284 1.42595 offset 0.80945 0.47578 20001.0624 length 0.00235 color 0 0 1 }
Segment { rot 0.73479 0 0.6783 1.47145 offset 0.81047 0.47559 20001.06141 length 0.00053 color 0 0 1 }
Segment { rot 0.72391 0 0.6899 1.45182 offset 0.81126 0.47545 20001.06058 length 0.00176 color 0 0 1 }
Segment { rot 0.75699 0 0.65343 1.47247 offset 0.81386 0.47505 20001.05763 length 0.00615 color 0 0 1 }
Segment { rot 0.81946 0 0.57314 1.55212 offset 0.81726 0.4747 20001.05332 length 0.00489 color 0 0 1 }
Segment { rot 0.63164 0 0.77526 1.59268 offset 0.81889 0.47466 20001.05113 length 0.00058 color 0 0 1 }
Segment { rot 0.66187 0 0.74962 1.60019 offset 0.81912 0.47467 20001.05094 length 0.00002 color 0 0 1 }
Segment { rot 0.48853 0 0.87255 1.16884 offset 0.81926 0.4746 20001.05085 length 0.00034 color 0 0 1 }
Segment { rot 0.56252 0 0.82678 1.13131 offset 0.81946 0.4745 20001.05074 length 0.00015 color 0 0 1 }
Segment { rot 0.46252 0 0.88661 1.05027 offset 0.82084 0.47361 20001.05001 length 0.00346 color 0 0 1 }
Segment { rot 0.38622 0 0.92241 0.98428 offset 0.82325 0.47198 20001.04886 length 0.00279 color 0 0 1 }
Segment { rot 0.06005 0 0.9982 1.1762 offset 0.82504 0.4709 20001.04837 length 0.00157 color 0 0 1 }
Segment { rot 0.00543 0 0.99999 1.2513 offset 0.82578 0.4706 20001.04833 length 0.00002 color 0 0 1 }
Segment { rot 0.01858 0 0.99983 1.20845 offset 0.82584 0.47057 20001.04833 length 0.00012 color 0 0 1 }
Segment { rot 0.04724 0 0.99888 1.20993 offset 0.82826 0.46966 20001.04821 length 0.00505 color 0 0 1 }
Segment { rot 0.00087 0 1 1.22067 offset 0.83183 0.46833 20001.0481 length 0.00258 color 0 0 1 }
Segment { rot 0.0405 0 0.99918 1.27566 offset 0.83396 0.4676 20001.04806 length 0.00191 color 0 0 1 }
Segment { rot 0.06388 0 0.99796 1.25677 offset 0.83689 0.46667 20001.0479 length 0.00425 color 0 0 1 }
Segment { rot -0.00245 0 1 1.09593 offset 0.84162 0.46462 20001.04777 length 0.00611 color 0 0 1 }
Segment { rot 0.14852 0 0.98891 0.97361 offset 0.84662 0.46165 20001.04744 length 0.00558 color 0 0 1 }
Segment { rot 0.062 0 0.99808 1.07483 offset 0.84953 0.45974 20001.04706 length 0.00144 color 0 0 1 }
Segment { rot 0.17594 0 0.9844 1.25649 offset 0.85098 0.45913 20001.04687 length 0.00176 color 0 0 1 }
Segment { rot 0.15273 0 0.98827 1.25003 offset 0.85303 0.45845 20001.04654 length 0.00261 color 0 0 1 }
Segment { rot 0.08412 0 0.99646 1.07939 offset 0.85517 0.45754 20001.04627 length 0.00208 color 0 0 1 }
Segment { rot 0.09302 0 0.99566 1.15673 offset 0.85713 0.45659 20001.04609 length 0.00231 color 0 0 1 }
Segment { rot 0.19578 0 0.98065 1.21985 offset 0.85919 0.45575 20001.0458 length 0.00217 color 0 0 1 }
Segment { rot 0.36118 0 0.9325 1.35745 offset 0.86154 0.45506 20001.04507 length 0.00298 color 0 0 1 }
Segment { rot 0.3631 0 0.93175 1.27369 offset 0.86326 0.45463 20001.0444 length 0.00081 color 0 0 1 }
Segment { rot 0.34702 0 0.93786 1.21903 offset 0.86365 0.4545 20001.04425 length 0.00006 color 0 0 1 }
Segment { rot 0.37367 0 0.92756 1.24593 offset 0.86368 0.45449 20001.04424 length 0.00001 color 0 0 1 }
Segment { rot 0.59856 0 0.80108 1.19834 offset 0.86644 0.45314 20001.04218 length 0.00739 color 0 0 1 }
Segment { rot 0.55357 0 0.8328 1.1419 offset 0.86983 0.45145 20001.0397 length 0.00166 color 0 0 1 }
Segment { rot 0.54475 0 0.8386 1.11651 offset 0.87089 0.45085 20001.039 length 0.00116 color 0 0 1 }
Segment { rot -0.60321 0 -0.79758 1.011 offset 0.8701 0.44963 20001.03964 length 0.00363 color 0 0 1 }
Segment { rot -0.88077 0 -0.47354 0.71649 offset 0.86868 0.44819 20001.04094 length 0.00126 color 0 0 1 }
Segment { rot -0.67342 0 -0.73926 1.11042 offset 0.86596 0.44602 20001.04361 length 0.00764 color 0 0 1 }
Segment { rot -0.63889 0 -0.7693 1.13451 offset 0.86314 0.44415 20001.04615 length 0.00082 color 0 0 1 }
Segment { rot -0.64211 0 -0.76661 1.16296 offset 0.86247 0.44376 20001.04671 length 0.0011 color 0 0 1 }
Segment { rot -0.45651 0 -0.88972 1.205 offset 0.86102 0.44308 20001.04758 length 0.00255 color 0 0 1 }
Segment { rot -0.41592 0 -0.9094 1.22221 offset 0.85979 0.44256 20001.0482 length 0.0004 color 0 0 1 }
Segment { rot -0.38732 0 -0.92195 1.25243 offset 0.85932 0.44238 20001.0484 length 0.00068 color 0 0 1 }
Segment { rot -0.37405 0 -0.92741 1.29976 offset 0.85838 0.44208 20001.04879 length 0.00145 color 0 0 1 }
Segment { rot -0.3438 0 -0.93904 1.08434 offset 0.85727 0.44163 20001.04922 length 0.0011 color 0 0 1 }
Segment { rot -0.22485 0 -0.97439 1.0407 offset 0.85623 0.44102 20001.04952 length 0.00138 color 0 0 1 }
Segment { rot -0.22511 0 -0.97433 1.01072 offset 0.85324 0.43913 20001.05021 length 0.00583 color 0 0 1 }
Segment { rot -0.59306 0 -0.80516 0.97307 offset 0.8508 0.43755 20001.05079 length 0.0001 color 0 0 1 }
Segment { rot -0.69522 0 -0.7188 1.16479 offset 0.84958 0.43681 20001.05197 length 0.00362 color 0 0 1 }
Segment { rot -0.61307 0 -0.79003 1.18295 offset 0.84706 0.43541 20001.05415 length 0.00361 color 0 0 1 }
Segment { rot -0.60741 0 -0.79439 1.15395 offset 0.84503 0.43433 20001.05572 length 0.00194 color 0 0 1 }
Segment { rot -0.57376 0 -0.81902 1.16062 offset 0.84303 0.43325 20001.05717 length 0.00346 color 0 0 1 }
Segment { rot -0.55756 0 -0.83013 1.107 offset 0.84105 0.43215 20001.05853 length 0.00183 color 0 0 1 }
Segment { rot -0.92685 0 -0.37544 1.47685 offset 0.83961 0.43155 20001.06088 length 0.0041 color 0 0 1 }
Segment { rot -0.91913 0 -0.39395 1.44148 offset 0.83813 0.43112 20001.06443 length 0.00365 color 0 0 1 }
Segment { rot -0.95819 0 -0.28614 1.5266 offset 0.83717 0.43085 20001.06693 length 0.00174 color 0 0 1 }
Segment { rot -0.98957 0 -0.14402 1.55771 offset 0.83685 0.4308 20001.06824 length 0.00095 color 0 0 1 }
Segment { rot -0.99999 0 -0.00352 1.53322 offset 0.83678 0.43074 20001.07013 length 0.00285 color 0 0 1 }
Segment { rot -0.98988 0 -0.14191 1.36607 offset 0.83659 0.43042 20001.07283 length 0.00263 color 0 0 1 }
Segment { rot -0.97967 0 0.2006 1.3448 offset 0.83647 0.43009 20001.0744 length 0.00063 color 0 0 1 }
Segment { rot -0.9432 0 0.33224 0.9266 offset 0.83683 0.42933 20001.07556 length 0.00229 color 0 0 1 }
Segment { rot -0.97329 0 0.2296 0.98477 offset 0.83725 0.42831 20001.07692 length 0.00122 color 0 0 1 }
Segment { rot -0.99041 0 0.13815 0.88453 offset 0.83755 0.42688 20001.07873 length 0.00344 color 0 0 1 }
Segment { rot -0.99885 0 0.04795 0.87742 offset 0.83774 0.42573 20001.08011 length 0.00017 color 0 0 1 }
Segment { rot -0.99673 0 -0.08079 0.90722 offset 0.8377 0.4253 20001.08066 length 0.00124 color 0 0 1 }
Segment { rot -0.99523 0 -0.09751 0.85181 offset 0.83766 0.42491 20001.08116 length 0.00002 color 0 0 1 }
Segment { rot -0.99898 0 0.04508 0.90514 offset 0.8377 0.42422 20001.08204 length 0.00223 color 0 0 1 }
Segment { rot -0.99478 0 -0.10204 0.87587 offset 0.83772 0.42338 20001.08309 length 0.00045 color 0 0 1 }
Segment { rot -0.9754 0 -0.22042 0.86956 offset 0.83744 0.42224 20001.08442 length 0.00311 color 0 0 1 }
Segment { rot -0.99301 0 0.11807 0.71971 offset 0.83725 0.42057 20001.08615 length 0.00177 color 0 0 1 }
Segment { rot -0.99577 0 0.09191 0.73172 offset 0.83736 0.41936 20001.08722 length 0.00147 color 0 0 1 }
Segment { rot 0.27574 0 0.96123 2.58497 offset 0.83767 0.41924 20001.08764 length 0.00101 color 0 0 1 }
Segment { rot 0.19493 0 0.98082 2.50745 offset 0.8391 0.4213 20001.08733 length 0.00404 color 0 0 1 }
Segment { rot 0.09166 0 0.99579 2.48063 offset 0.84177 0.42486 20001.08696 length 0.00491 color 0 0 1 }
Segment { rot 0.08615 0 0.99628 2.37046 offset 0.84386 0.4274 20001.08677 length 0.00168 color 0 0 1 }
Segment { rot 0.05962 0 0.99822 2.2858 offset 0.84512 0.4286 20001.08668 length 0.00181 color 0 0 1 }
Segment { rot -0.90873 0 -0.41738 0.87719 offset 0.84567 0.42893 20001.08693 length 0.00083 color 0 0 1 }
Segment { rot -0.89782 0 -0.44035 0.8153 offset 0.8447 0.42687 20001.08893 length 0.00522 color 0 0 1 }
Segment { rot -0.75078 0 -0.66055 0.87068 offset 0.84375 0.42494 20001.09076 length 0.00045 color 0 0 1 }
Segment { rot -0.85016 0 -0.52653 0.89331 offset 0.84356 0.42468 20001.09101 length 0.00035 color 0 0 1 }
Segment { rot -0.9374 0 0.34824 2.78042 offset 0.84364 0.42572 20001.09153 length 0.00246 color 0 0 1 }
Segment { rot -0.93005 0 0.36744 2.79811 offset 0.84383 0.42717 20001.09204 length 0.00063 color 0 0 1 }
Segment { rot -0.95478 0 0.29731 2.73144 offset 0.8439 0.42768 20001.09222 length 0.00047 color 0 0 1 }
Segment { rot -0.17219 0 -0.98506 2.04084 offset 0.84381 0.42796 20001.09234 length 0.00028 color 0 0 1 }
Segment { rot -0.33593 0 -0.94189 2.10404 offset 0.84338 0.42821 20001.09246 length 0.00074 color 0 0 1 }
Segment { rot -0.49412 0 -0.86939 2.0583 offset 0.84237 0.42883 20001.09298 length 0.00186 color 0 0 1 }
Segment { rot -0.5423 0 -0.84019 2.42464 offset 0.83958 0.43211 20001.09473 length 0.00754 color 0 0 1 }
Segment { rot -0.70028 0 -0.71387 2.47644 offset 0.83741 0.4351 20001.09615 length 0.00039 color 0 0 1 }
Segment { rot 0.63542 0 -0.77217 2.65664 offset 0.83729 0.43535 20001.09621 length 0.00021 color 0 0 1 }
Segment { rot -0.45983 0 0.88801 1.59247 offset 0.83769 0.43545 20001.0964 length 0.00099 color 0 0 1 }
Segment { rot -0.42678 0 0.90436 1.58554 offset 0.83822 0.43546 20001.09668 length 0.00022 color 0 0 1 }
Segment { rot -0.08348 0 0.99651 2.29762 offset 0.83852 0.43564 20001.09674 length 0.00054 color 0 0 1 }
Segment { rot -0.02535 0 0.99968 2.1485 offset 0.83928 0.43619 20001.09677 length 0.00133 color 0 0 1 }
Segment { rot -0.10008 0 0.99498 2.11972 offset 0.84046 0.43693 20001.09685 length 0.00147 color 0 0 1 }
Segment { rot -0.01974 0 0.99981 2.10312 offset 0.84156 0.4376 20001.09692 length 0.0011 color 0 0 1 }
Segment { rot -0.23254 0 0.97259 2.13904 offset 0.8432 0.43864 20001.09721 length 0.00284 color 0 0 1 }
Segment { rot -0.17682 0 0.98424 2.20143 offset 0.84439 0.43942 20001.09749 length 0.00007 color 0 0 1 }
Segment { rot -0.14521 0 0.9894 2.15492 offset 0.84472 0.43965 20001.09754 length 0.00073 color 0 0 1 }
Segment { rot -0.1569 0 0.98762 2.11915 offset 0.84514 0.43992 20001.0976 length 0.00028 color 0 0 1 }
Segment { rot -0.08201 0 0.99663 2.15967 offset 0.8458 0.44036 20001.09767 length 0.00132 color 0 0 1 }
Segment { rot -0.08618 0 0.99628 2.01596 offset 0.84657 0.44083 20001.09773 length 0.00049 color 0 0 1 }
Segment { rot -0.00906 0 0.99996 2.05271 offset 0.84682 0.44095 20001.09775 length 0.00008 color 0 0 1 }
Segment { rot 0.07353 0 0.99729 2.02786 offset 0.8469 0.44099 20001.09775 length 0.0001 color 0 0 1 }
Segment { rot 0.75277 0 0.65828 2.04933 offset 0.84717 0.44119 20001.09749 length 0.00077 color 0 0 1 }
Segment { rot 0.78988 0 0.61326 1.96001 offset 0.8478 0.44164 20001.0967 length 0.00143 color 0 0 1 }
Segment { rot 0.78823 0 0.61538 2.22013 offset 0.84892 0.44279 20001.09527 length 0.0029 color 0 0 1 }
Segment { rot 0.84737 0 0.53101 2.54426 offset 0.84969 0.44385 20001.09426 length 0.00044 color 0 0 1 }
Segment { rot 0.85565 0 0.51755 2.55046 offset 0.85002 0.44478 20001.09372 length 0.0018 color 0 0 1 }
Segment { rot 0.80684 0 0.59077 2.55819 offset 0.85035 0.44573 20001.09318 length 0.00048 color 0 0 1 }
Segment { rot 0.62843 0 0.77787 2.57323 offset 0.85069 0.44644 20001.09287 length 0.00123 color 0 0 1 }
Segment { rot 0.43853 0 0.89872 2.6438 offset 0.85096 0.44699 20001.09266 length 0.00007 color 0 0 1 }
Segment { rot -0.64641 0 -0.76299 2.14423 offset 0.85039 0.44752 20001.09315 length 0.00184 color 0 0 1 }
Segment { rot -0.49978 0 -0.86615 2.54558 offset 0.84967 0.44823 20001.09372 length 0.00052 color 0 0 1 }
Segment { rot -0.28761 0 -0.95775 2.65968 offset 0.84936 0.44881 20001.09385 length 0.00083 color 0 0 1 }
Segment { rot -0.63244 0 -0.77461 2.81424 offset 0.84821 0.45284 20001.09469 length 0.00773 color 0 0 1 }
Segment { rot 0.43766 0 0.89914 0.80757 offset 0.84757 0.45616 20001.09532 length 0.00097 color 0 0 1 }
Segment { rot 0.31792 0 0.94812 0.94176 offset 0.84818 0.4556 20001.09507 length 0.00078 color 0 0 1 }
Segment { rot -0.95511 0 -0.29626 1.63013 offset 0.84847 0.45537 20001.09499 length 0.00004 color 0 0 1 }
Segment { rot -0.97982 0 -0.19989 1.61386 offset 0.84843 0.45538 20001.09519 length 0.00037 color 0 0 1 }
Segment { rot -0.86007 0 -0.51017 1.27842 offset 0.84806 0.45519 20001.09594 length 0.00138 color 0 0 1 }
Segment { rot -0.87955 0 -0.47581 0.65276 offset 0.84759 0.45464 20001.09674 length 0.00087 color 0 0 1 }
Segment { rot -0.93674 0 0.35002 0.36688 offset 0.84752 0.45388 20001.09713 length 0.00089 color 0 0 1 }
Segment { rot 0.09135 0 -0.99582 0.53742 offset 0.84743 0.45322 20001.09726 length 0.00058 color 0 0 1 }
Segment { rot -0.257 0 -0.96641 1.2441 offset 0.84714 0.45292 20001.09729 length 0.00031 color 0 0 1 }
Segment { rot -0.31478 0 -0.94916 1.20209 offset 0.84677 0.45278 20001.0974 length 0.00051 color 0 0 1 }
Segment { rot -0.22036 0 -0.97542 1.15202 offset 0.84637 0.45261 20001.09751 length 0.00039 color 0 0 1 }
Segment { rot -0.12485 0 -0.99218 1.0496 offset 0.84618 0.45252 20001.09755 length 0.00005 color 0 0 1 }
Segment { rot -0.08283 0 -0.99656 1.01986 offset 0.84606 0.45245 20001.09757 length 0.00023 color 0 0 1 }
Segment { rot 0.27076 0 -0.96265 1.57054 offset 0.84592 0.45239 20001.09756 length 0.00009 color 0 0 1 }
Segment { rot -0.66735 0 -0.74474 1.5894 offset 0.84578 0.45239 20001.09763 length 0.00023 color 0 0 1 }