#VRML V2.0 utf8
#Generated by NISTMonte
WorldInfo {
 title "NISTMonte Trajectory"
 info ["See http://www.cstl.nist.gov/div837/Division/home.html for more information"]
}
Viewpoint {
 fieldOfView 0.785398
 position 0 5 31000
 orientation -1 -0 -0 1.5708
 description "Y-Axis"
}
Viewpoint {
 fieldOfView 0.785398
 position 0 0 30995
 orientation 1 0 0 3.1415926
 description "Gun"
}
Viewpoint {
 fieldOfView 0.785398
 position -5 0 31000
 orientation 0 -1 0 1.5708
 description "X-Axis"
}




#Prototype for a trajectory segment
PROTO Segment [
 field SFRotation rot 1 0 0 0
 field SFVec3f offset 0 0 0
 field SFFloat length 0.1
 field SFColor color 1 1 1
]
{
 Transform {
  rotation IS rot
  translation IS offset
  children [
   Shape {
    geometry Cylinder {
     radius 0.001
     height IS length
    }
    appearance Appearance {
     material Material {
      emissiveColor IS color
     }
    }
   }
  ]
 }
}
Segment { rot -1 0 -0 1.5708 offset 0.00551 0.00623 31000.00237 length 0.00475 color 0 0 1 }
Segment { rot -0.81579 0 -0.57835 1.33567 offset 0.00316 0.00526 31000.00806 length 0.00835 color 0 0 1 }
Segment { rot -0.84073 0 -0.54146 1.31368 offset -0 0.00389 31000.01264 length 0.00314 color 0 0 1 }
Segment { rot -0.81807 0 -0.57512 1.46846 offset -0.00142 0.00338 31000.01476 length 0.00208 color 0 0 1 }
Segment { rot -0.82937 0 -0.55871 1.55708 offset -0.00344 0.00324 31000.01772 length 0.00511 color 0 0 1 }
Segment { rot -0.86468 0 -0.50233 1.56708 offset -0.00511 0.0032 31000.02026 length 0.00098 color 0 0 1 }
Segment { rot -0.84717 0 -0.53132 1.57205 offset -0.00561 0.0032 31000.02109 length 0.00096 color 0 0 1 }
Segment { rot -0.84814 0 -0.52976 1.57655 offset -0.00739 0.00322 31000.02393 length 0.00574 color 0 0 1 }
Segment { rot -0.79111 0 -0.61167 1.58329 offset -0.01242 0.00331 31000.03091 length 0.01148 color 0 0 1 }
Segment { rot -0.78493 0 -0.61958 1.60951 offset -0.01675 0.00343 31000.0365 length 0.00267 color 0 0 1 }
Segment { rot -0.8774 0 -0.47975 1.59884 offset -0.02075 0.00367 31000.04333 length 0.01319 color 0 0 1 }
Segment { rot -0.89843 0 -0.43913 1.69818 offset -0.02976 0.00556 31000.0611 length 0.02689 color 0 0 1 }
Segment { rot -0.9158 0 -0.40162 1.70913 offset -0.03623 0.00748 31000.07447 length 0.00308 color 0 0 1 }
Segment { rot -0.90748 0 -0.4201 1.66974 offset -0.03711 0.00776 31000.07644 length 0.00126 color 0 0 1 }
Segment { rot -0.91709 0 -0.39868 1.7015 offset -0.03811 0.00806 31000.07871 length 0.00375 color 0 0 1 }
Segment { rot -0.90766 0 -0.4197 1.6536 offset -0.03958 0.00845 31000.08198 length 0.00345 color 0 0 1 }
Segment { rot -0.89703 0 -0.44196 1.72134 offset -0.04056 0.00868 31000.08408 length 0.0012 color 0 0 1 }
Segment { rot -0.94168 0 -0.33652 1.89714 offset -0.04225 0.01021 31000.0886 length 0.00896 color 0 0 1 }
Segment { rot -0.96611 0 -0.25812 1.89242 offset -0.04407 0.01215 31000.09407 length 0.00319 color 0 0 1 }
Segment { rot -0.93081 0 -0.3655 1.89982 offset -0.04473 0.0129 31000.09621 length 0.00154 color 0 0 1 }
Segment { rot -0.92011 0 -0.39165 1.84993 offset -0.04557 0.01358 31000.09824 length 0.00308 color 0 0 1 }
Segment { rot -0.89297 0 -0.45012 1.86533 offset -0.04761 0.01498 31000.1025 length 0.00679 color 0 0 1 }
Segment { rot -0.92786 0 -0.37294 1.91497 offset -0.04936 0.01625 31000.10612 length 0.00163 color 0 0 1 }
Segment { rot -0.92827 0 -0.3719 1.93296 offset -0.0508 0.01769 31000.1097 length 0.0066 color 0 0 1 }
Segment { rot -0.90234 0 -0.43102 1.87225 offset -0.05382 0.02021 31000.11648 length 0.00909 color 0 0 1 }
Segment { rot -0.91755 0 -0.39762 1.96185 offset -0.05626 0.02216 31000.12172 length 0.00314 color 0 0 1 }
Segment { rot -0.93321 0 -0.35933 2.09507 offset -0.05709 0.02316 31000.12371 length 0.00162 color 0 0 1 }
Segment { rot -0.85103 0 -0.52512 2.19163 offset -0.05757 0.02387 31000.12472 length 0.00104 color 0 0 1 }
Segment { rot -0.85984 0 -0.51056 2.19476 offset -0.05969 0.02685 31000.12828 length 0.00917 color 0 0 1 }
Segment { rot -0.8569 0 -0.51549 2.16418 offset -0.06165 0.02961 31000.13158 length 0.0003 color 0 0 1 }
Segment { rot -0.7833 0 -0.62165 2.21954 offset -0.06305 0.03132 31000.13337 length 0.00538 color 0 0 1 }
Segment { rot -0.69456 0 -0.71943 1.18212 offset -0.06549 0.03231 31000.13612 length 0.00333 color 0 0 1 }
Segment { rot -0.72314 0 -0.6907 1.0062 offset -0.06743 0.03092 31000.13806 length 0.00285 color 0 0 1 }
Segment { rot -0.72958 0 -0.6839 1.01417 offset -0.07209 0.02667 31000.14302 length 0.01321 color 0 0 1 }
Segment { rot -0.7038 0 -0.7104 0.97964 offset -0.07602 0.02308 31000.14721 length 0.00033 color 0 0 1 }
Segment { rot -0.76731 0 -0.64128 0.93136 offset -0.07646 0.0226 31000.1477 length 0.0013 color 0 0 1 }
Segment { rot -0.75705 0 -0.65336 0.95534 offset -0.07717 0.0218 31000.14855 length 0.00143 color 0 0 1 }
Segment { rot -0.75744 0 -0.65291 0.92972 offset -0.0779 0.02099 31000.14939 length 0.00132 color 0 0 1 }
Segment { rot -0.796 0 -0.6053 0.91673 offset -0.07927 0.0193 31000.15114 length 0.00427 color 0 0 1 }
Segment { rot -0.70091 0 -0.71325 0.86068 offset -0.08127 0.01682 31000.15345 length 0.00359 color 0 0 1 }
Segment { rot -0.70021 0 -0.71394 0.89496 offset -0.08367 0.01405 31000.1558 length 0.00513 color 0 0 1 }
Segment { rot -0.60812 0 -0.79385 0.89677 offset -0.086 0.01154 31000.15789 length 0.00289 color 0 0 1 }
Segment { rot -0.6439 0 -0.76511 0.89388 offset -0.08819 0.00928 31000.15967 length 0.00437 color 0 0 1 }
Segment { rot -0.58564 0 -0.81057 0.82577 offset -0.09021 0.0071 31000.16128 length 0.0024 color 0 0 1 }
Segment { rot -0.55425 0 -0.83235 0.79083 offset -0.09178 0.00527 31000.16237 length 0.00289 color 0 0 1 }
Segment { rot -0.57213 0 -0.82016 0.83724 offset -0.09318 0.00365 31000.16332 length 0.0018 color 0 0 1 }
Segment { rot -0.52212 0 -0.85287 0.70684 offset -0.09436 0.00218 31000.16409 length 0.00227 color 0 0 1 }
Segment { rot -0.43862 0 -0.89867 0.65712 offset -0.09513 0.00111 31000.16454 length 0.00054 color 0 0 1 }
Segment { rot -0.44011 0 -0.89794 0.6691 offset -0.09618 -0.00037 31000.16506 length 0.00321 color 0 0 1 }
Segment { rot -0.48618 0 -0.87386 0.74484 offset -0.09862 -0.00354 31000.16635 length 0.00522 color 0 0 1 }
Segment { rot -0.49856 0 -0.86686 0.76916 offset -0.10431 -0.01041 31000.1696 length 0.01378 color 0 0 1 }
Segment { rot -0.45898 0 -0.88845 0.74542 offset -0.10898 -0.01599 31000.17226 length 0.00172 color 0 0 1 }
Segment { rot -0.47183 0 -0.88169 0.68464 offset -0.11063 -0.01818 31000.17313 length 0.00403 color 0 0 1 }
Segment { rot -0.48544 0 -0.87427 0.68294 offset -0.11352 -0.02223 31000.17471 length 0.00642 color 0 0 1 }
Segment { rot -0.47783 0 -0.87845 0.64185 offset -0.11545 -0.02497 31000.17578 length 0.00062 color 0 0 1 }
Segment { rot -0.45776 0 -0.88908 0.42173 offset -0.116 -0.02618 31000.17607 length 0.00212 color 0 0 1 }
Segment { rot -0.37962 0 -0.92514 0.38946 offset -0.11682 -0.02828 31000.17644 length 0.00243 color 0 0 1 }
Segment { rot -0.6229 0 -0.7823 0.69194 offset -0.1179 -0.03041 31000.17714 length 0.00263 color 0 0 1 }
Segment { rot -0.69048 0 -0.72335 0.69926 offset -0.11925 -0.03256 31000.17833 length 0.00298 color 0 0 1 }
Segment { rot -0.68004 0 -0.73317 0.67464 offset -0.12032 -0.03435 31000.17934 length 0.00164 color 0 0 1 }
Segment { rot -0.6719 0 -0.74064 0.66458 offset -0.12215 -0.03749 31000.181 length 0.00636 color 0 0 1 }
Segment { rot -0.59864 0 -0.80102 0.56488 offset -0.12377 -0.04033 31000.18245 length 0.0008 color 0 0 1 }
Segment { rot -0.46662 0 -0.88446 0.53797 offset -0.12473 -0.04216 31000.18299 length 0.00346 color 0 0 1 }
Segment { rot -0.24227 0 -0.97021 0.89688 offset -0.12582 -0.0439 31000.18348 length 0.00082 color 0 0 1 }
Segment { rot -0.25654 0 -0.96653 0.92314 offset -0.12703 -0.04486 31000.1838 length 0.00233 color 0 0 1 }
Segment { rot -0.30555 0 -0.95218 0.90648 offset -0.13088 -0.04798 31000.18498 length 0.00786 color 0 0 1 }
Segment { rot -0.28457 0 -0.95866 0.90631 offset -0.1349 -0.05129 31000.18625 length 0.00285 color 0 0 1 }
Segment { rot -0.37094 0 -0.92866 0.93375 offset -0.13753 -0.05341 31000.18719 length 0.00418 color 0 0 1 }
Segment { rot -0.48587 0 -0.87403 0.67514 offset -0.1394 -0.05508 31000.18798 length 0.00111 color 0 0 1 }
Segment { rot -0.6056 0 -0.79577 0.74381 offset -0.14156 -0.05806 31000.18957 length 0.00692 color 0 0 1 }
Segment { rot -0.61321 0 -0.78992 0.70841 offset -0.1436 -0.06086 31000.19112 length 0.00067 color 0 0 1 }
Segment { rot -0.63046 0 -0.77622 0.70479 offset -0.14676 -0.06564 31000.19368 length 0.01188 color 0 0 1 }
Segment { rot -0.59048 0 -0.80706 0.72977 offset -0.15218 -0.07354 31000.19789 length 0.00907 color 0 0 1 }
Segment { rot -0.62083 0 -0.78394 0.85254 offset -0.15758 -0.08022 31000.20202 length 0.01003 color 0 0 1 }
Segment { rot -0.66079 0 -0.75057 0.77424 offset -0.16127 -0.08451 31000.205 length 0.00277 color 0 0 1 }
Segment { rot -0.7267 0 -0.68696 0.83117 offset -0.16201 -0.08552 31000.20565 length 0.00004 color 0 0 1 }
Segment { rot -0.63955 0 -0.76875 1.70051 offset -0.16227 -0.08549 31000.20587 length 0.00066 color 0 0 1 }
Segment { rot -0.68956 0 -0.72423 1.62394 offset -0.16774 -0.08506 31000.21105 length 0.01443 color 0 0 1 }
Segment { rot -0.48219 0 -0.87607 1.61324 offset -0.17325 -0.08466 31000.21618 length 0.00067 color 0 0 1 }
Segment { rot -0.3954 0 -0.91851 1.46741 offset -0.17714 -0.08506 31000.21789 length 0.00788 color 0 0 1 }
Segment { rot -0.39714 0 -0.91776 1.49428 offset -0.18323 -0.08567 31000.22052 length 0.00544 color 0 0 1 }
Segment { rot -0.43367 0 -0.90107 1.34985 offset -0.19042 -0.08705 31000.22386 length 0.01069 color 0 0 1 }
Segment { rot -0.62676 0 -0.77921 1.31566 offset -0.19586 -0.08847 31000.22672 length 0.00197 color 0 0 1 }
Segment { rot -0.83866 0 -0.54466 1.49627 offset -0.19676 -0.08874 31000.22755 length 0.00056 color 0 0 1 }
Segment { rot -0.83819 0 -0.54538 1.56934 offset -0.19737 -0.08876 31000.22849 length 0.0017 color 0 0 1 }
Segment { rot -0.90006 0 -0.43576 1.47879 offset -0.1991 -0.08903 31000.23182 length 0.00584 color 0 0 1 }
Segment { rot -0.9908 0 -0.13536 1.60982 offset -0.20097 -0.08913 31000.23886 length 0.00892 color 0 0 1 }
Segment { rot -0.98611 0 -0.16607 1.46889 offset -0.20206 -0.08925 31000.24618 length 0.00592 color 0 0 1 }
Segment { rot -0.92495 0 -0.38009 1.46643 offset -0.20301 -0.08968 31000.25021 length 0.00244 color 0 0 1 }
Segment { rot -0.92663 0 -0.37598 1.41314 offset -0.20502 -0.09046 31000.25513 length 0.00832 color 0 0 1 }
Segment { rot -0.93748 0 -0.34804 1.4173 offset -0.20712 -0.09136 31000.26044 length 0.00323 color 0 0 1 }
Segment { rot -0.87627 0 -0.48182 1.69839 offset -0.20839 -0.09142 31000.26324 length 0.003 color 0 0 1 }
Segment { rot -0.8532 0 -0.52158 1.79637 offset -0.21189 -0.09001 31000.26908 length 0.01092 color 0 0 1 }
Segment { rot -0.8419 0 -0.53964 1.83578 offset -0.21559 -0.08832 31000.27507 length 0.00355 color 0 0 1 }
Segment { rot -0.80628 0 -0.59154 1.76044 offset -0.21904 -0.08704 31000.27995 length 0.00868 color 0 0 1 }
Segment { rot -0.77748 0 -0.62891 1.68437 offset -0.22219 -0.0861 31000.28417 length 0.00203 color 0 0 1 }
Segment { rot -0.97004 0 -0.24296 1.77965 offset -0.22501 -0.08408 31000.29369 length 0.0184 color 0 0 1 }
Segment { rot -0.99046 0 -0.13777 1.72993 offset -0.22769 -0.0816 31000.30591 length 0.00716 color 0 0 1 }
Segment { rot -0.8936 0 -0.44885 1.65779 offset -0.22906 -0.08087 31000.31118 length 0.00397 color 0 0 1 }
Segment { rot -0.90835 0 -0.41822 1.63351 offset -0.23004 -0.08068 31000.31316 length 0.00046 color 0 0 1 }
Segment { rot -0.88859 0 -0.4587 1.70924 offset -0.23182 -0.08015 31000.31663 length 0.00741 color 0 0 1 }
Segment { rot 0.49733 0 -0.86756 1.34582 offset -0.23448 -0.0799 31000.31933 length 0.0023 color 0 0 1 }
Segment { rot 0.56763 0 -0.82328 1.10065 offset -0.2365 -0.0808 31000.31805 length 0.00285 color 0 0 1 }
Segment { rot 0.53103 0 -0.84735 0.81761 offset -0.23762 -0.08153 31000.31728 length 0.00025 color 0 0 1 }
Segment { rot 0.5861 0 -0.81024 0.85729 offset -0.23961 -0.08365 31000.31585 length 0.00623 color 0 0 1 }
Segment { rot 0.72966 0 -0.68381 0.9534 offset -0.24173 -0.08591 31000.31425 length 0.00077 color 0 0 1 }
Segment { rot 0.78049 0 -0.62517 1.08332 offset -0.2426 -0.0867 31000.31319 length 0.00239 color 0 0 1 }
Segment { rot 0.785 0 -0.6195 1.05941 offset -0.24493 -0.08876 31000.31026 length 0.00616 color 0 0 1 }
Segment { rot 0.78101 0 -0.62452 1.01965 offset -0.2481 -0.09176 31000.30626 length 0.00569 color 0 0 1 }
Segment { rot 0.73945 0 -0.67321 1.01744 offset -0.25005 -0.09365 31000.30389 length 0.00152 color 0 0 1 }
Segment { rot 0.75619 0 -0.65435 1.04172 offset -0.2506 -0.09415 31000.30328 length 0.00041 color 0 0 1 }
Segment { rot 0.76667 0 -0.64204 1.0369 offset -0.25198 -0.09541 31000.30164 length 0.00455 color 0 0 1 }
Segment { rot 0.79333 0 -0.60879 1.11277 offset -0.25459 -0.09767 31000.29838 length 0.00494 color 0 0 1 }
Segment { rot 0.78987 0 -0.61327 1.09357 offset -0.25657 -0.09929 31000.2958 length 0.00234 color 0 0 1 }
Segment { rot 0.80263 0 -0.59648 1.1255 offset -0.2581 -0.10055 31000.29378 length 0.00331 color 0 0 1 }
Segment { rot 0.96314 0 -0.269 1.29054 offset -0.25913 -0.10141 31000.29209 length 0.00106 color 0 0 1 }
Segment { rot 0.98374 0 -0.17962 1.24933 offset -0.25941 -0.10181 31000.29083 length 0.00164 color 0 0 1 }
Segment { rot 0.97689 0 -0.21374 1.27312 offset -0.25973 -0.10233 31000.28925 length 0.00173 color 0 0 1 }
Segment { rot 0.98903 0 -0.14772 1.18884 offset -0.25996 -0.10275 31000.28804 length 0.00089 color 0 0 1 }
Segment { rot 0.98366 0 -0.18003 1.21904 offset -0.26024 -0.10334 31000.28648 length 0.00251 color 0 0 1 }
Segment { rot 0.99555 0 0.09426 1.30603 offset -0.25997 -0.10514 31000.28031 length 0.01042 color 0 0 1 }
Segment { rot 0.98749 0 -0.1577 1.70364 offset -0.25983 -0.10622 31000.27323 length 0.00423 color 0 0 1 }
Segment { rot -0.50132 0 0.86526 3.03708 offset -0.26013 -0.10563 31000.27118 length 0.00062 color 0 0 1 }
Segment { rot -0.60206 0 0.79845 2.99784 offset -0.26009 -0.10518 31000.2712 length 0.00028 color 0 0 1 }
Segment { rot 0.12141 0 0.9926 2.67956 offset -0.25743 -0.0997 31000.27089 length 0.01194 color 0 0 1 }
Segment { rot 0.13805 0 0.99042 2.68752 offset -0.25358 -0.09186 31000.2704 length 0.00555 color 0 0 1 }
Segment { rot 0.25585 0 0.96672 2.73354 offset -0.25171 -0.08777 31000.27006 length 0.00348 color 0 0 1 }
Segment { rot 0.1601 0 0.9871 2.73992 offset -0.25071 -0.08537 31000.26983 length 0.00175 color 0 0 1 }
Segment { rot -0.49878 0 0.86673 1.90696 offset -0.2497 -0.08429 31000.27015 length 0.00163 color 0 0 1 }
Segment { rot -0.44441 0 0.89582 1.87662 offset -0.24643 -0.0831 31000.27183 length 0.00611 color 0 0 1 }
Segment { rot -0.45827 0 0.88881 1.95621 offset -0.24366 -0.08211 31000.27321 length 0.00038 color 0 0 1 }
Segment { rot -0.45736 0 0.88928 1.81251 offset -0.24344 -0.08202 31000.27332 length 0.00014 color 0 0 1 }
Segment { rot -0.47966 0 0.87745 1.74925 offset -0.24242 -0.08181 31000.27387 length 0.00222 color 0 0 1 }
Segment { rot -0.44265 0 0.8967 1.69345 offset -0.23914 -0.08129 31000.27555 length 0.00524 color 0 0 1 }
Segment { rot -0.43739 0 0.89927 1.6208 offset -0.23575 -0.08091 31000.27721 length 0.00235 color 0 0 1 }
Segment { rot -0.42141 0 0.90687 1.57327 offset -0.23415 -0.08085 31000.27798 length 0.00121 color 0 0 1 }
Segment { rot -0.39549 0 0.91847 1.67559 offset -0.23198 -0.08067 31000.27893 length 0.00355 color 0 0 1 }
Segment { rot -0.44894 0 0.89356 1.63662 offset -0.22965 -0.08043 31000.27999 length 0.00161 color 0 0 1 }
Segment { rot 0.00526 0 0.99999 1.48809 offset -0.22869 -0.08039 31000.28035 length 0.00047 color 0 0 1 }
Segment { rot 0.00945 0 0.99996 1.50724 offset -0.22572 -0.08059 31000.28032 length 0.00549 color 0 0 1 }
Segment { rot -0.02097 0 0.99978 1.45014 offset -0.22135 -0.08096 31000.28033 length 0.00328 color 0 0 1 }
Segment { rot 0.00717 0 0.99997 1.43144 offset -0.21622 -0.08165 31000.28034 length 0.00709 color 0 0 1 }
Segment { rot 0.06188 0 0.99808 1.50939 offset -0.21264 -0.08215 31000.28031 length 0.00013 color 0 0 1 }
Segment { rot 0.09877 0 0.99511 1.54702 offset -0.2113 -0.08218 31000.28018 length 0.00257 color 0 0 1 }
Segment { rot 0.08713 0 0.9962 1.49915 offset -0.20996 -0.08222 31000.28005 length 0.00013 color 0 0 1 }
Segment { rot 0.15336 0 0.98817 1.57051 offset -0.20952 -0.08222 31000.27998 length 0.00075 color 0 0 1 }
Segment { rot 0.13172 0 0.99129 1.58079 offset -0.20842 -0.08221 31000.27983 length 0.00147 color 0 0 1 }
Segment { rot -0.22135 0 0.97519 1.70373 offset -0.20467 -0.08179 31000.28042 length 0.00626 color 0 0 1 }
Segment { rot -0.73746 0 0.67539 1.49275 offset -0.20138 -0.08141 31000.28139 length 0.00077 color 0 0 1 }
Segment { rot -0.7206 0 0.69335 1.43009 offset -0.20011 -0.08164 31000.28273 length 0.00296 color 0 0 1 }
Segment { rot -0.82769 0 0.56118 1.38763 offset -0.19537 -0.08308 31000.28928 length 0.01351 color 0 0 1 }
Segment { rot -0.80956 0 0.58703 1.40657 offset -0.19064 -0.08459 31000.29615 length 0.00345 color 0 0 1 }
Segment { rot -0.8723 0 0.48896 1.37482 offset -0.189 -0.08513 31000.29867 length 0.00266 color 0 0 1 }
Segment { rot -0.31346 0 -0.9496 0.5941 offset -0.18852 -0.08563 31000.29985 length 0.00058 color 0 0 1 }
Segment { rot -0.39994 0 -0.91654 0.52175 offset -0.18935 -0.08716 31000.3002 length 0.00296 color 0 0 1 }
Segment { rot -0.38003 0 -0.92498 0.62893 offset -0.19023 -0.08874 31000.30058 length 0.00073 color 0 0 1 }
Segment { rot -0.41163 0 -0.91135 0.58271 offset -0.19273 -0.09286 31000.3017 length 0.00917 color 0 0 1 }
Segment { rot -0.3705 0 -0.92883 0.60183 offset -0.1958 -0.0979 31000.30304 length 0.00293 color 0 0 1 }
Segment { rot -0.35219 0 -0.93593 0.61691 offset -0.19759 -0.10064 31000.30374 length 0.00377 color 0 0 1 }
Segment { rot -0.25262 0 -0.96757 0.53845 offset -0.1988 -0.10252 31000.30417 length 0.00079 color 0 0 1 }
Segment { rot -0.20641 0 -0.97847 0.44648 offset -0.19907 -0.10302 31000.30424 length 0.00035 color 0 0 1 }
Segment { rot -0.00359 0 -0.99999 0.43353 offset -0.19948 -0.10389 31000.30425 length 0.00157 color 0 0 1 }
Segment { rot -0.97618 0 0.21697 1.0264 offset -0.19956 -0.10529 31000.30537 length 0.00268 color 0 0 1 }
Segment { rot -0.98548 0 0.16978 1.03362 offset -0.19912 -0.10665 31000.30759 length 0.00259 color 0 0 1 }
Segment { rot -0.98243 0 0.18665 1.22284 offset -0.19887 -0.10742 31000.309 length 0.00067 color 0 0 1 }
Segment { rot -0.98215 0 0.18808 1.29563 offset -0.1976 -0.10936 31000.31566 length 0.01344 color 0 0 1 }
Segment { rot -0.99746 0 0.07128 1.27901 offset -0.19631 -0.11148 31000.32297 length 0.00201 color 0 0 1 }
Segment { rot -0.98996 0 0.14132 1.52257 offset -0.19615 -0.1118 31000.32461 length 0.00138 color 0 0 1 }
Segment { rot -0.98823 0 0.15296 1.5469 offset -0.19579 -0.11188 31000.32698 length 0.0034 color 0 0 1 }
Segment { rot -0.99905 0 -0.04348 1.44438 offset -0.19578 -0.11265 31000.33443 length 0.01165 color 0 0 1 }
Segment { rot -0.96346 0 0.26785 1.74019 offset -0.19594 -0.11333 31000.34053 length 0.0007 color 0 0 1 }
Segment { rot -0.95813 0 0.28635 1.6295 offset -0.19569 -0.11324 31000.3414 length 0.00112 color 0 0 1 }
Segment { rot -0.93364 0 0.35821 1.05515 offset -0.19538 -0.11344 31000.34232 length 0.00095 color 0 0 1 }
Segment { rot -0.8027 0 -0.59638 1.52561 offset -0.1955 -0.11369 31000.34306 length 0.00089 color 0 0 1 }
Segment { rot -0.80855 0 -0.58843 1.51987 offset -0.19678 -0.1138 31000.34481 length 0.00346 color 0 0 1 }
Segment { rot -0.73286 0 -0.68038 1.6602 offset -0.19862 -0.11378 31000.3471 length 0.00244 color 0 0 1 }
Segment { rot -0.68327 0 -0.73016 1.48587 offset -0.2003 -0.11377 31000.34878 length 0.00235 color 0 0 1 }
Segment { rot -0.75435 0 -0.65647 1.4031 offset -0.20124 -0.11389 31000.34969 length 0.00029 color 0 0 1 }
Segment { rot -0.60723 0 -0.79453 1.41093 offset -0.20309 -0.11427 31000.35114 length 0.00447 color 0 0 1 }
Segment { rot -0.80855 0 -0.58843 1.17021 offset -0.20503 -0.11476 31000.35273 length 0.00069 color 0 0 1 }
Segment { rot -0.8427 0 -0.53839 1.11934 offset -0.20568 -0.11532 31000.35372 length 0.00193 color 0 0 1 }
Segment { rot -0.89424 0 -0.44759 1.16362 offset -0.20645 -0.11603 31000.35506 length 0.00148 color 0 0 1 }
Segment { rot -0.88756 0 -0.46068 1.15089 offset -0.20904 -0.11853 31000.36006 length 0.01083 color 0 0 1 }
Segment { rot -0.83159 0 -0.55539 0.94703 offset -0.2114 -0.12086 31000.36458 length 0.00039 color 0 0 1 }
Segment { rot -0.80808 0 -0.58908 0.99287 offset -0.21258 -0.12218 31000.36621 length 0.00442 color 0 0 1 }
Segment { rot -0.767 0 -0.64165 0.98057 offset -0.21379 -0.1235 31000.36784 length 0.00044 color 0 0 1 }
Segment { rot -0.80598 0 -0.59194 0.92414 offset -0.21498 -0.125 31000.36945 length 0.00457 color 0 0 1 }
Segment { rot -0.62176 0 -0.78321 1.10627 offset -0.21612 -0.12642 31000.37097 length 0.00017 color 0 0 1 }
Segment { rot -0.58054 0 -0.81423 1.02327 offset -0.21764 -0.12755 31000.37206 length 0.0042 color 0 0 1 }
Segment { rot -0.63265 0 -0.77444 1.04576 offset -0.22073 -0.12986 31000.37442 length 0.00485 color 0 0 1 }
Segment { rot -0.54131 0 -0.84083 1.34204 offset -0.22289 -0.13122 31000.3761 length 0.00131 color 0 0 1 }
Segment { rot -0.46343 0 -0.88614 1.31198 offset -0.22346 -0.13138 31000.37646 length 0.00007 color 0 0 1 }
Segment { rot -0.44644 0 -0.89481 1.30467 offset -0.22397 -0.13154 31000.37672 length 0.00111 color 0 0 1 }
Segment { rot -0.34602 0 -0.93823 1.2968 offset -0.22477 -0.13178 31000.37708 length 0.00071 color 0 0 1 }
Segment { rot -0.51331 0 -0.8582 1.28288 offset -0.22572 -0.13209 31000.37757 length 0.00151 color 0 0 1 }
Segment { rot -0.44599 0 -0.89504 1.22343 offset -0.22783 -0.13291 31000.37868 length 0.00353 color 0 0 1 }
Segment { rot -0.58783 0 -0.80898 1.21159 offset -0.22993 -0.13379 31000.37987 length 0.00162 color 0 0 1 }
Segment { rot 0.51745 0 -0.85571 1.18605 offset -0.23156 -0.13456 31000.3797 length 0.00257 color 0 0 1 }
Segment { rot 0.4782 0 -0.87825 1.16759 offset -0.23353 -0.1355 31000.37857 length 0.00235 color 0 0 1 }
Segment { rot 0.46814 0 -0.88365 1.11717 offset -0.23509 -0.1363 31000.37772 length 0.00155 color 0 0 1 }
Segment { rot 0.46841 0 -0.88351 0.98828 offset -0.23735 -0.13787 31000.37653 length 0.00446 color 0 0 1 }
Segment { rot 0.46878 0 -0.88331 1.02028 offset -0.2406 -0.14021 31000.3748 length 0.00426 color 0 0 1 }
Segment { rot 0.58578 0 -0.81047 1.04872 offset -0.2423 -0.14139 31000.37388 length 0.00029 color 0 0 1 }
Segment { rot 0.57164 0 -0.8205 1.0684 offset -0.24366 -0.14231 31000.37293 length 0.00351 color 0 0 1 }
Segment { rot 0.68091 0 -0.73237 0.71123 offset -0.24594 -0.14476 31000.37111 length 0.00424 color 0 0 1 }
Segment { rot 0.67077 0 -0.74167 0.70544 offset -0.24714 -0.14666 31000.37 length 0.00076 color 0 0 1 }
Segment { rot 0.73161 0 -0.68172 0.71389 offset -0.24747 -0.1472 31000.36968 length 0.00065 color 0 0 1 }
Segment { rot -0.28 0 -0.96 1.15759 offset -0.24794 -0.14759 31000.36962 length 0.00075 color 0 0 1 }
Segment { rot -0.12174 0 -0.99256 1.10672 offset -0.2487 -0.14796 31000.36976 length 0.00096 color 0 0 1 }
Segment { rot -0.29292 0 -0.95614 1.14454 offset -0.25065 -0.1489 31000.37028 length 0.0035 color 0 0 1 }
Segment { rot -0.14108 0 -0.99 1.03659 offset -0.25308 -0.15016 31000.37088 length 0.00213 color 0 0 1 }
Segment { rot -0.10615 0 -0.99435 1.05654 offset -0.25533 -0.15147 31000.37115 length 0.0031 color 0 0 1 }
Segment { rot -0.33962 0 -0.94056 1.17212 offset -0.25691 -0.15234 31000.37138 length 0.00054 color 0 0 1 }
Segment { rot -0.32979 0 -0.94406 1.13863 offset -0.25779 -0.15276 31000.37169 length 0.00151 color 0 0 1 }
Segment { rot -0.15077 0 -0.98857 1.22773 offset -0.25978 -0.15356 31000.37212 length 0.00289 color 0 0 1 }
Segment { rot -0.09464 0 -0.99551 1.1791 offset -0.26181 -0.15433 31000.37239 length 0.00148 color 0 0 1 }
Segment { rot -0.60271 0 -0.79796 2.0301 offset -0.26321 -0.15416 31000.373 length 0.00202 color 0 0 1 }
Segment { rot -0.69082 0 -0.72303 2.13619 offset -0.26426 -0.15343 31000.37386 length 0.00107 color 0 0 1 }
Segment { rot -0.36663 0 -0.93037 2.18399 offset -0.26489 -0.15292 31000.37429 length 0.00078 color 0 0 1 }
Segment { rot -0.34323 0 -0.93925 2.17166 offset -0.26706 -0.15132 31000.37509 length 0.00485 color 0 0 1 }
Segment { rot -0.22911 0 -0.9734 2.30114 offset -0.26927 -0.14965 31000.37586 length 0.00091 color 0 0 1 }
Segment { rot -0.21831 0 -0.97588 2.2504 offset -0.2698 -0.14918 31000.37598 length 0.00053 color 0 0 1 }
Segment { rot -0.12605 0 -0.99202 2.18692 offset -0.27203 -0.14756 31000.37628 length 0.005 color 0 0 1 }
Segment { rot -0.05754 0 -0.99834 2.25701 offset -0.2741 -0.14608 31000.37654 length 0.0001 color 0 0 1 }
Segment { rot -0.15531 0 -0.98787 2.35485 offset -0.27415 -0.14604 31000.37655 length 0.00003 color 0 0 1 }
Segment { rot -0.2063 0 -0.97849 2.36011 offset -0.27453 -0.14564 31000.37663 length 0.00108 color 0 0 1 }
Segment { rot -0.2444 0 -0.96967 2.42701 offset -0.277 -0.14278 31000.37723 length 0.00658 color 0 0 1 }
Segment { rot -0.34027 0 -0.94033 2.35663 offset -0.27944 -0.13991 31000.37789 length 0.00108 color 0 0 1 }
Segment { rot -0.37554 0 -0.92681 2.37153 offset -0.2804 -0.13886 31000.37826 length 0.00186 color 0 0 1 }
Segment { rot -0.42538 0 -0.90502 2.26749 offset -0.28127 -0.13794 31000.37863 length 0.00078 color 0 0 1 }
Segment { rot -0.3387 0 -0.9409 2.18957 offset -0.28172 -0.13756 31000.37882 length 0.00047 color 0 0 1 }
Segment { rot -0.27931 0 -0.9602 1.98254 offset -0.28224 -0.13727 31000.37899 length 0.00076 color 0 0 1 }
Segment { rot 0.24644 0 -0.96916 0.77123 offset -0.28299 -0.13757 31000.37898 length 0.00125 color 0 0 1 }
Segment { rot 0.19765 0 -0.98027 0.76722 offset -0.28443 -0.13909 31000.37866 length 0.003 color 0 0 1 }
Segment { rot 0.22942 0 -0.97333 0.77733 offset -0.28663 -0.1414 31000.37818 length 0.00345 color 0 0 1 }
Segment { rot 0.25311 0 -0.96744 0.8839 offset -0.28815 -0.14292 31000.37781 length 0.00091 color 0 0 1 }
Segment { rot 0.15791 0 -0.98745 0.88437 offset -0.28889 -0.14354 31000.37766 length 0.00106 color 0 0 1 }
Segment { rot 0.92027 0 -0.39129 1.12914 offset -0.28978 -0.14446 31000.37645 length 0.00274 color 0 0 1 }
Segment { rot 0.776 0 0.63073 1.46411 offset -0.29015 -0.14507 31000.37517 length 0.00038 color 0 0 1 }
Segment { rot 0.76315 0 0.64622 1.50078 offset -0.28983 -0.14511 31000.37479 length 0.00061 color 0 0 1 }
Segment { rot 0.12963 0 0.99156 1.6872 offset -0.28882 -0.14503 31000.37445 length 0.00166 color 0 0 1 }
Segment { rot -0.6363 0 0.77144 1.45013 offset -0.28799 -0.14494 31000.37435 length 0.00003 color 0 0 1 }
Segment { rot -0.42365 0 0.90582 1.33689 offset -0.28732 -0.14511 31000.37467 length 0.00149 color 0 0 1 }
Segment { rot -0.42758 0 0.90398 1.25609 offset -0.28643 -0.14537 31000.37509 length 0.00055 color 0 0 1 }
Segment { rot -0.29266 0 0.95622 1.24037 offset -0.28536 -0.14576 31000.37546 length 0.00184 color 0 0 1 }
Segment { rot -0.24252 0 0.97015 1.24097 offset -0.28441 -0.1461 31000.37574 length 0.00025 color 0 0 1 }
Segment { rot 0.69096 0 -0.7229 2.04999 offset -0.28475 -0.14581 31000.37533 length 0.00143 color 0 0 1 }
Segment { rot 0.58197 0 -0.81321 1.75305 offset -0.28562 -0.14538 31000.3746 length 0.00104 color 0 0 1 }
Segment { rot 0.73209 0 -0.68121 1.80202 offset -0.28653 -0.14512 31000.37377 length 0.00148 color 0 0 1 }
Segment { rot 0.66233 0 -0.74921 1.89178 offset -0.28756 -0.14471 31000.37277 length 0.00152 color 0 0 1 }
Segment { rot 0.633 0 -0.77415 1.95132 offset -0.28838 -0.14433 31000.37206 length 0.00077 color 0 0 1 }
Segment { rot 0.22187 0 -0.97508 2.14083 offset -0.28875 -0.14412 31000.37181 length 0.00023 color 0 0 1 }
Segment { rot -0.30183 0 0.95336 1.07515 offset -0.28848 -0.14426 31000.37191 length 0.00085 color 0 0 1 }
Segment { rot -0.29859 0 0.95438 1.0008 offset -0.28695 -0.14526 31000.37239 length 0.00294 color 0 0 1 }
Segment { rot -0.56742 0 0.82343 0.71189 offset -0.28573 -0.14611 31000.37278 length 0.00014 color 0 0 1 }
Segment { rot -0.99429 0 -0.10674 0.20094 offset -0.2857 -0.14644 31000.37287 length 0.00058 color 0 0 1 }
Segment { rot 0.95842 0 0.28537 2.4593 offset -0.28568 -0.14663 31000.37284 length 0.00027 color 0 0 1 }
Segment { rot 0.94097 0 0.33849 1.7749 offset -0.28554 -0.14645 31000.37243 length 0.00072 color 0 0 1 }
Segment { rot 0.89625 0 -0.44354 1.81295 offset -0.2858 -0.14616 31000.37134 length 0.00176 color 0 0 1 }
Segment { rot 0.87562 0 -0.48301 1.9392 offset -0.28631 -0.14585 31000.37033 length 0.0006 color 0 0 1 }
Segment { rot 0.60582 0 -0.79561 1.89236 offset -0.28736 -0.14536 31000.36939 length 0.00242 color 0 0 1 }
Segment { rot 0.62867 0 -0.77767 1.92461 offset -0.28843 -0.1449 31000.36856 length 0.00044 color 0 0 1 }
Segment { rot -0.9549 0 0.29694 1.12823 offset -0.28849 -0.14499 31000.36877 length 0.00077 color 0 0 1 }
Segment { rot -0.99407 0 0.10877 1.38517 offset -0.28837 -0.14518 31000.36924 length 0.00028 color 0 0 1 }
Segment { rot -0.99344 0 0.11432 1.59692 offset -0.2883 -0.14519 31000.36979 length 0.00082 color 0 0 1 }
Segment { rot -0.99835 0 -0.05737 1.22238 offset -0.28827 -0.14526 31000.3704 length 0.00044 color 0 0 1 }
Segment { rot -0.99974 0 -0.02274 1.14279 offset -0.28829 -0.14557 31000.37112 length 0.00114 color 0 0 1 }
Segment { rot -0.88861 0 0.45866 0.85223 offset -0.28828 -0.14586 31000.3717 length 0.00017 color 0 0 1 }
Segment { rot -0.83725 0 0.54682 2.24442 offset -0.28818 -0.14582 31000.37186 length 0.00032 color 0 0 1 }
Segment { rot -0.85252 0 0.52269 2.51954 offset -0.28809 -0.14566 31000.372 length 0.00015 color 0 0 1 }
Segment { rot -0.7799 0 0.62591 2.62061 offset -0.28802 -0.14548 31000.37209 length 0.00027 color 0 0 1 }
Segment { rot -0.949 0 0.31528 2.57203 offset -0.28793 -0.14512 31000.37229 length 0.0006 color 0 0 1 }
Segment { rot 0.74382 0 -0.66838 0.76003 offset -0.28796 -0.14499 31000.37235 length 0.00035 color 0 0 1 }
Segment { rot 0.92005 0 -0.39181 1.00437 offset -0.28806 -0.14516 31000.37221 length 0.00013 color 0 0 1 }
Segment { rot 0.93603 0 -0.35191 0.97852 offset -0.28817 -0.14535 31000.37194 length 0.00057 color 0 0 1 }
Segment { rot 0.98917 0 -0.14676 0.90644 offset -0.28828 -0.14567 31000.37151 length 0.00053 color 0 0 1 }
Segment { rot 0.98543 0 -0.17009 0.93816 offset -0.28839 -0.14616 31000.37087 length 0.00109 color 0 0 1 }