#VRML V2.0 utf8
#Generated by NISTMonte
WorldInfo {
 title "NISTMonte Trajectory"
 info ["See http://www.cstl.nist.gov/div837/Division/home.html for more information"]
}
Viewpoint {
 fieldOfView 0.785398
 position 0 5 31000
 orientation -1 -0 -0 1.5708
 description "Y-Axis"
}
Viewpoint {
 fieldOfView 0.785398
 position 0 0 30995
 orientation 1 0 0 3.1415926
 description "Gun"
}
Viewpoint {
 fieldOfView 0.785398
 position -5 0 31000
 orientation 0 -1 0 1.5708
 description "X-Axis"
}




#Prototype for a trajectory segment
PROTO Segment [
 field SFRotation rot 1 0 0 0
 field SFVec3f offset 0 0 0
 field SFFloat length 0.1
 field SFColor color 1 1 1
]
{
 Transform {
  rotation IS rot
  translation IS offset
  children [
   Shape {
    geometry Cylinder {
     radius 0.001
     height IS length
    }
    appearance Appearance {
     material Material {
      emissiveColor IS color
     }
    }
   }
  ]
 }
}
Segment { rot -1 0 -0 1.5708 offset 0.00859 -0.0008 31000.00436 length 0.00872 color 0 0 1 }
Segment { rot -0.9993 0 0.03734 1.54237 offset 0.00878 -0.00094 31000.0138 length 0.01016 color 0 0 1 }
Segment { rot -0.99667 0 0.08149 1.64649 offset 0.00988 -0.00024 31000.03004 length 0.02249 color 0 0 1 }
Segment { rot -0.99585 0 0.09105 1.56702 offset 0.01188 0.00057 31000.05303 length 0.02373 color 0 0 1 }
Segment { rot -0.99596 0 0.08983 1.67185 offset 0.01297 0.00054 31000.06498 length 0.00026 color 0 0 1 }
Segment { rot -0.99732 0 0.07321 1.65737 offset 0.01302 0.00059 31000.06559 length 0.00097 color 0 0 1 }
Segment { rot -0.99795 0 0.06401 1.60037 offset 0.01339 0.00079 31000.07134 length 0.01057 color 0 0 1 }
Segment { rot -0.99413 0 0.10821 1.55483 offset 0.01409 0.00089 31000.0799 length 0.00661 color 0 0 1 }
Segment { rot -0.9933 0 0.11557 1.56123 offset 0.01477 0.00081 31000.08598 length 0.00563 color 0 0 1 }
Segment { rot -0.96348 0 0.26779 1.6108 offset 0.01552 0.00085 31000.0903 length 0.00317 color 0 0 1 }
Segment { rot -0.95896 0 0.28353 1.58818 offset 0.01905 0.0011 31000.10233 length 0.02192 color 0 0 1 }
Segment { rot -0.95644 0 0.29193 1.57051 offset 0.02537 0.00129 31000.12337 length 0.02201 color 0 0 1 }
Segment { rot -0.87946 0 0.47598 1.64664 offset 0.03041 0.00158 31000.13728 length 0.00771 color 0 0 1 }
Segment { rot -0.8887 0 0.45849 1.5335 offset 0.03423 0.00171 31000.14451 length 0.00868 color 0 0 1 }
Segment { rot -0.9044 0 0.42669 1.5271 offset 0.03662 0.00151 31000.14922 length 0.00188 color 0 0 1 }
Segment { rot -0.90594 0 0.42341 1.51438 offset 0.03824 0.0013 31000.15268 length 0.00578 color 0 0 1 }
Segment { rot -0.9042 0 0.42712 1.52137 offset 0.04249 0.00079 31000.16171 length 0.0142 color 0 0 1 }
Segment { rot -0.89219 0 0.45165 1.61514 offset 0.04719 0.0006 31000.17141 length 0.00738 color 0 0 1 }
Segment { rot -0.89735 0 0.44132 1.58172 offset 0.04913 0.00077 31000.17526 length 0.00127 color 0 0 1 }
Segment { rot -0.88148 0 0.47222 1.60265 offset 0.05014 0.00083 31000.17719 length 0.00308 color 0 0 1 }
Segment { rot -0.88222 0 0.47083 1.58742 offset 0.05124 0.00089 31000.17925 length 0.0016 color 0 0 1 }
Segment { rot -0.91059 0 0.41332 1.68918 offset 0.05403 0.0016 31000.18527 length 0.01176 color 0 0 1 }
Segment { rot -0.92891 0 0.37031 1.69387 offset 0.06084 0.00376 31000.20161 length 0.02391 color 0 0 1 }
Segment { rot -0.9332 0 0.35935 1.69024 offset 0.06712 0.00586 31000.21754 length 0.01059 color 0 0 1 }
Segment { rot -0.91726 0 0.39828 1.72493 offset 0.07042 0.00704 31000.2257 length 0.00718 color 0 0 1 }
Segment { rot -0.94245 0 0.33435 1.77209 offset 0.07456 0.00926 31000.23663 length 0.01662 color 0 0 1 }
Segment { rot -0.95108 0 0.30895 1.77573 offset 0.07952 0.01242 31000.25119 length 0.01479 color 0 0 1 }
Segment { rot -0.91172 0 0.41081 1.8397 offset 0.08493 0.01605 31000.26511 length 0.01602 color 0 0 1 }
Segment { rot -0.91441 0 0.40478 1.81908 offset 0.09184 0.02053 31000.28062 length 0.0191 color 0 0 1 }
Segment { rot -0.90652 0 0.42217 1.84185 offset 0.09673 0.02362 31000.29152 length 0.00558 color 0 0 1 }
Segment { rot -0.884 0 0.46749 1.80188 offset 0.09913 0.02501 31000.29635 length 0.00557 color 0 0 1 }
Segment { rot -0.87454 0 0.48495 1.82886 offset 0.1032 0.02717 31000.30381 length 0.01198 color 0 0 1 }
Segment { rot -0.86966 0 0.49365 1.84713 offset 0.10611 0.02876 31000.30906 length 0.00042 color 0 0 1 }
Segment { rot -0.87202 0 0.48948 1.86131 offset 0.10697 0.02928 31000.31057 length 0.0032 color 0 0 1 }
Segment { rot -0.84705 0 0.53152 1.8451 offset 0.11298 0.03252 31000.3203 length 0.0206 color 0 0 1 }
Segment { rot -0.81023 0 0.58612 1.86807 offset 0.12086 0.03668 31000.3323 length 0.0093 color 0 0 1 }
Segment { rot -0.84481 0 0.53507 1.87231 offset 0.12417 0.03845 31000.33702 length 0.00277 color 0 0 1 }
Segment { rot -0.8252 0 0.56484 1.85489 offset 0.1272 0.04006 31000.34152 length 0.00855 color 0 0 1 }
Segment { rot -0.8132 0 0.58198 1.84766 offset 0.1316 0.04227 31000.34783 length 0.00747 color 0 0 1 }
Segment { rot -0.74169 0 0.67075 1.72097 offset 0.13581 0.04377 31000.35309 length 0.00638 color 0 0 1 }
Segment { rot -0.7429 0 0.66941 1.71993 offset 0.14359 0.04552 31000.36172 length 0.01713 color 0 0 1 }
Segment { rot -0.9166 0 0.39982 1.94825 offset 0.15148 0.049 31000.3731 length 0.01195 color 0 0 1 }
Segment { rot -0.85529 0 0.51815 1.903 offset 0.15615 0.05283 31000.38223 length 0.00997 color 0 0 1 }
Segment { rot -0.82873 0 0.55965 1.89672 offset 0.15984 0.05521 31000.38811 length 0.00472 color 0 0 1 }
Segment { rot -0.80135 0 0.59819 1.83785 offset 0.16268 0.05669 31000.39209 length 0.0055 color 0 0 1 }
Segment { rot -0.83801 0 0.54565 1.83676 offset 0.16461 0.05759 31000.39474 length 0.00129 color 0 0 1 }
Segment { rot -0.84586 0 0.5334 1.82225 offset 0.1739 0.06207 31000.40946 length 0.03466 color 0 0 1 }
Segment { rot -0.51282 0 0.85849 2.21317 offset 0.18298 0.06649 31000.42374 length 0.00037 color 0 0 1 }
Segment { rot -0.52548 0 0.8508 2.24168 offset 0.18368 0.06714 31000.42417 length 0.00172 color 0 0 1 }
Segment { rot -0.50594 0 0.86257 2.2732 offset 0.18573 0.06912 31000.42539 length 0.00449 color 0 0 1 }
Segment { rot -0.56078 0 0.82796 2.27457 offset 0.19094 0.07439 31000.42878 length 0.01181 color 0 0 1 }
Segment { rot -0.66097 0 0.75041 2.11918 offset 0.19848 0.08132 31000.43466 length 0.01192 color 0 0 1 }
Segment { rot -0.67415 0 0.73859 2.1838 offset 0.20721 0.08911 31000.44251 length 0.01627 color 0 0 1 }
Segment { rot -0.68691 0 0.72674 2.2114 offset 0.22165 0.10356 31000.456 length 0.0327 color 0 0 1 }
Segment { rot -0.67933 0 0.73384 2.16695 offset 0.23125 0.1134 31000.46507 length 0.00024 color 0 0 1 }
Segment { rot -0.67844 0 0.73465 2.20074 offset 0.23282 0.11495 31000.46652 length 0.00504 color 0 0 1 }
Segment { rot -0.86146 0 0.50783 2.30305 offset 0.23683 0.12087 31000.47216 length 0.01328 color 0 0 1 }
Segment { rot -0.87846 0 0.47781 2.23805 offset 0.2405 0.12723 31000.47855 length 0.00622 color 0 0 1 }
Segment { rot -0.85144 0 0.52445 2.27272 offset 0.24177 0.12932 31000.48086 length 0.0005 color 0 0 1 }
Segment { rot -0.83575 0 0.54911 2.24552 offset 0.2431 0.13127 31000.4829 length 0.00574 color 0 0 1 }
Segment { rot -0.88363 0 0.46818 2.22459 offset 0.24943 0.14142 31000.4944 length 0.02748 color 0 0 1 }
Segment { rot -0.91334 0 0.4072 2.20067 offset 0.25484 0.15032 31000.50473 length 0.00185 color 0 0 1 }
Segment { rot -0.90219 0 0.43135 2.19449 offset 0.25626 0.15272 31000.50774 length 0.00636 color 0 0 1 }
Segment { rot -0.92671 0 0.37578 2.1697 offset 0.2589 0.15735 31000.51382 length 0.00981 color 0 0 1 }
Segment { rot -0.93229 0 0.3617 2.19459 offset 0.26054 0.16035 31000.51789 length 0.00082 color 0 0 1 }
Segment { rot -0.91918 0 0.39383 2.23966 offset 0.26069 0.16065 31000.51826 length 0.00018 color 0 0 1 }
Segment { rot -0.88702 0 0.46173 2.35076 offset 0.26194 0.16334 31000.52069 length 0.00749 color 0 0 1 }
Segment { rot -0.9219 0 0.38744 2.38819 offset 0.26403 0.16832 31000.52508 length 0.00644 color 0 0 1 }
Segment { rot -0.93706 0 0.34916 2.42941 offset 0.26652 0.17612 31000.53152 length 0.0144 color 0 0 1 }
Segment { rot -0.9371 0 0.34906 2.43566 offset 0.26864 0.18316 31000.5372 length 0.00418 color 0 0 1 }
Segment { rot -0.92645 0 0.37641 2.40071 offset 0.26928 0.18523 31000.53888 length 0.00129 color 0 0 1 }
Segment { rot -0.9336 0 0.35832 2.40719 offset 0.27125 0.19129 31000.54399 length 0.01506 color 0 0 1 }
Segment { rot -0.89994 0 0.43602 2.42655 offset 0.27324 0.19735 31000.54907 length 0.00124 color 0 0 1 }
Segment { rot -0.90431 0 0.42688 2.44172 offset 0.27465 0.20127 31000.55207 length 0.00903 color 0 0 1 }
Segment { rot -0.92393 0 0.38257 2.45336 offset 0.27641 0.20635 31000.55593 length 0.00419 color 0 0 1 }
Segment { rot -0.84683 0 0.53186 2.47234 offset 0.27892 0.21273 31000.56035 length 0.01215 color 0 0 1 }
Segment { rot -0.8755 0 0.48322 2.45627 offset 0.28256 0.22165 31000.56651 length 0.01073 color 0 0 1 }
Segment { rot -0.8692 0 0.49446 2.40309 offset 0.28512 0.22783 31000.57109 length 0.00549 color 0 0 1 }
Segment { rot -0.89708 0 0.44187 2.54997 offset 0.28635 0.23095 31000.57335 length 0.00263 color 0 0 1 }
Segment { rot -0.86533 0 0.5012 2.51943 offset 0.2873 0.23376 31000.57508 length 0.00423 color 0 0 1 }
Segment { rot -0.89738 0 0.44127 2.61274 offset 0.28802 0.23588 31000.57636 length 0.00094 color 0 0 1 }
Segment { rot -0.92672 0 0.37575 2.75205 offset 0.2884 0.23805 31000.57724 length 0.00381 color 0 0 1 }
Segment { rot -0.9195 0 0.3931 2.76585 offset 0.29099 0.25482 31000.58335 length 0.03227 color 0 0 1 }
Segment { rot -0.69218 0 0.72173 2.64152 offset 0.29342 0.27009 31000.58889 length 0.00058 color 0 0 1 }
Segment { rot -0.72605 0 0.68764 2.67005 offset 0.29453 0.27322 31000.59006 length 0.00647 color 0 0 1 }
Segment { rot 0.40234 0 0.91549 2.71297 offset 0.29663 0.2787 31000.59065 length 0.00572 color 0 0 1 }
Segment { rot -0.44315 0 0.89645 2.77016 offset 0.2983 0.28295 31000.59045 length 0.00354 color 0 0 1 }
Segment { rot -0.35698 0 0.93411 2.74922 offset 0.30035 0.28842 31000.5913 length 0.00826 color 0 0 1 }
Segment { rot -0.24758 0 0.96887 2.9007 offset 0.30256 0.29535 31000.59205 length 0.00642 color 0 0 1 }
Segment { rot 0.30942 0 0.95093 2.92123 offset 0.30418 0.30257 31000.59196 length 0.0084 color 0 0 1 }
Segment { rot 0.42093 0 0.90709 2.86871 offset 0.3055 0.30843 31000.59147 length 0.00366 color 0 0 1 }
Segment { rot 0.39452 0 0.91889 2.88499 offset 0.30615 0.31103 31000.59117 length 0.00174 color 0 0 1 }
Segment { rot 0.39355 0 0.9193 2.87003 offset 0.30877 0.32132 31000.59005 length 0.01961 color 0 0 1 }
Segment { rot 0.51699 0 0.85599 2.85961 offset 0.31252 0.33613 31000.58821 length 0.01116 color 0 0 1 }
Segment { rot 0.33311 0 0.94289 2.83889 offset 0.31449 0.34365 31000.58719 length 0.00454 color 0 0 1 }
Segment { rot -0.16369 0 0.98651 2.76956 offset 0.31551 0.34682 31000.58702 length 0.00214 color 0 0 1 }
Segment { rot -0.04047 0 0.99918 2.73338 offset 0.31823 0.35323 31000.58718 length 0.0118 color 0 0 1 }
Segment { rot -0.00307 0 1 2.73345 offset 0.32135 0.36045 31000.58728 length 0.00394 color 0 0 1 }
Segment { rot 0.00187 0 1 2.70576 offset 0.32272 0.36352 31000.58728 length 0.00279 color 0 0 1 }
Segment { rot 0.12959 0 0.99157 2.69148 offset 0.32411 0.36645 31000.58718 length 0.00369 color 0 0 1 }
Segment { rot 0.00374 0 0.99999 2.6637 offset 0.32571 0.36966 31000.58707 length 0.0035 color 0 0 1 }
Segment { rot -0.17507 0 0.98456 2.67416 offset 0.32658 0.37134 31000.58708 length 0.00029 color 0 0 1 }
Segment { rot -0.24825 0 0.9687 2.67809 offset 0.32771 0.37368 31000.58736 length 0.00492 color 0 0 1 }
Segment { rot -0.29896 0 0.95427 2.82892 offset 0.3295 0.37824 31000.58786 length 0.00496 color 0 0 1 }
Segment { rot -0.29413 0 0.95576 2.82942 offset 0.33276 0.3888 31000.58887 length 0.01724 color 0 0 1 }
Segment { rot -0.32575 0 0.94545 2.83767 offset 0.33568 0.39832 31000.58978 length 0.00276 color 0 0 1 }
Segment { rot -0.33552 0 0.94203 2.84636 offset 0.33655 0.40131 31000.59009 length 0.00349 color 0 0 1 }
Segment { rot -0.21122 0 0.97744 2.85586 offset 0.33779 0.40563 31000.59042 length 0.00554 color 0 0 1 }
Segment { rot -0.23857 0 0.97113 2.90337 offset 0.33974 0.41333 31000.59088 length 0.01038 color 0 0 1 }
Segment { rot 0.15469 0 0.98796 2.98872 offset 0.34117 0.41995 31000.59114 length 0.00317 color 0 0 1 }
Segment { rot 0.22121 0 0.97523 2.99119 offset 0.34224 0.42711 31000.59091 length 0.01132 color 0 0 1 }
Segment { rot 0.5465 0 0.83746 2.97145 offset 0.34311 0.43301 31000.59069 length 0.00061 color 0 0 1 }
Segment { rot 0.51213 0 0.85891 3.02943 offset 0.34342 0.43613 31000.5905 length 0.00568 color 0 0 1 }
Segment { rot 0.22187 0 0.97508 3.01958 offset 0.34376 0.43946 31000.59033 length 0.00101 color 0 0 1 }
Segment { rot -0.95239 0 0.30488 2.60478 offset 0.34391 0.4405 31000.59062 length 0.00126 color 0 0 1 }
Segment { rot -0.93392 0 0.35749 2.62255 offset 0.34412 0.44158 31000.59121 length 0.00124 color 0 0 1 }
Segment { rot -0.97278 0 0.23173 2.69399 offset 0.34429 0.44268 31000.59176 length 0.00124 color 0 0 1 }
Segment { rot -0.99441 0 -0.10561 2.71914 offset 0.34434 0.44357 31000.59217 length 0.00074 color 0 0 1 }
Segment { rot -0.99011 0 -0.14031 2.71441 offset 0.34408 0.44778 31000.59407 length 0.00852 color 0 0 1 }
Segment { rot -0.99981 0 0.01961 2.41751 offset 0.34386 0.4535 31000.59744 length 0.00491 color 0 0 1 }
Segment { rot -0.99997 0 -0.00809 2.29892 offset 0.34386 0.45857 31000.6027 length 0.00971 color 0 0 1 }
Segment { rot -0.98601 0 0.16671 2.28484 offset 0.34405 0.46291 31000.60758 length 0.00337 color 0 0 1 }
Segment { rot -0.98422 0 0.17692 2.28163 offset 0.34448 0.46508 31000.61006 length 0.00329 color 0 0 1 }
Segment { rot -0.95032 0 0.31126 2.32189 offset 0.34472 0.46621 31000.61134 length 0.00016 color 0 0 1 }
Segment { rot -0.96244 0 0.2715 2.22246 offset 0.34503 0.46709 31000.61244 length 0.00272 color 0 0 1 }
Segment { rot -0.9724 0 0.23331 2.221 offset 0.34589 0.46975 31000.61582 length 0.00605 color 0 0 1 }
Segment { rot -0.97756 0 0.21068 2.23276 offset 0.34711 0.47401 31000.62121 length 0.00791 color 0 0 1 }
Segment { rot -0.97263 0 0.23236 2.22586 offset 0.34781 0.4766 31000.62446 length 0.00051 color 0 0 1 }
Segment { rot -0.83368 0 0.55225 1.90094 offset 0.35184 0.47923 31000.63067 length 0.01525 color 0 0 1 }
Segment { rot -0.84744 0 0.53089 1.90015 offset 0.35654 0.48216 31000.63783 length 0.00287 color 0 0 1 }
Segment { rot -0.84885 0 0.52863 1.87472 offset 0.35855 0.48339 31000.64105 length 0.00511 color 0 0 1 }
Segment { rot -0.8437 0 0.53681 1.97863 offset 0.36105 0.48512 31000.64502 length 0.00488 color 0 0 1 }
Segment { rot -0.81784 0 0.57544 2.06171 offset 0.36297 0.48676 31000.64793 length 0.00284 color 0 0 1 }
Segment { rot -0.82403 0 0.56654 2.02354 offset 0.36692 0.49021 31000.65365 length 0.01269 color 0 0 1 }
Segment { rot -0.84355 0 0.53705 2.00915 offset 0.37129 0.49397 31000.66014 length 0.00466 color 0 0 1 }
Segment { rot -0.8457 0 0.53365 1.90729 offset 0.37992 0.49988 31000.6738 length 0.02978 color 0 0 1 }
Segment { rot -0.8183 0 0.57479 1.92369 offset 0.38915 0.5059 31000.68815 length 0.00642 color 0 0 1 }
Segment { rot -0.85664 0 0.51591 1.916 offset 0.39658 0.51098 31000.70007 length 0.02345 color 0 0 1 }
Segment { rot -0.77706 0 0.62943 1.71911 offset 0.4059 0.51581 31000.714 length 0.01165 color 0 0 1 }
Segment { rot -0.77443 0 0.63266 1.68797 offset 0.40982 0.51672 31000.71885 length 0.00096 color 0 0 1 }
Segment { rot -0.96738 0 0.25331 1.32521 offset 0.41104 0.51588 31000.72269 length 0.00741 color 0 0 1 }
Segment { rot -0.96076 0 0.27739 1.34623 offset 0.41265 0.5144 31000.7286 length 0.0052 color 0 0 1 }
Segment { rot -0.96025 0 0.27915 1.38026 offset 0.41441 0.51309 31000.73467 length 0.00771 color 0 0 1 }
Segment { rot -0.99885 0 0.04794 1.38277 offset 0.41571 0.5114 31000.74336 length 0.0103 color 0 0 1 }
Segment { rot -0.99583 0 0.09118 1.40797 offset 0.41596 0.51042 31000.74853 length 0.00024 color 0 0 1 }
Segment { rot -0.99727 0 0.07389 1.51121 offset 0.4162 0.51021 31000.75176 length 0.00625 color 0 0 1 }
Segment { rot -0.99997 0 0.0071 1.53503 offset 0.41644 0.50997 31000.75635 length 0.00297 color 0 0 1 }
Segment { rot -0.99182 0 -0.12765 1.54264 offset 0.41603 0.50982 31000.76117 length 0.00672 color 0 0 1 }
Segment { rot -0.98292 0 -0.18402 1.50147 offset 0.41522 0.50959 31000.76652 length 0.0041 color 0 0 1 }
Segment { rot -0.9884 0 -0.1519 1.51706 offset 0.41439 0.50929 31000.77146 length 0.00594 color 0 0 1 }
Segment { rot -0.98371 0 -0.17974 1.50509 offset 0.41317 0.50884 31000.77861 length 0.00861 color 0 0 1 }
Segment { rot -0.98084 0 -0.19483 1.47187 offset 0.41232 0.50852 31000.78323 length 0.00081 color 0 0 1 }
Segment { rot -0.9989 0 0.0469 1.32905 offset 0.41237 0.50779 31000.78643 length 0.00579 color 0 0 1 }
Segment { rot -0.99973 0 -0.02344 1.29484 offset 0.41243 0.50615 31000.79258 length 0.00695 color 0 0 1 }
Segment { rot -0.99909 0 0.04257 1.19902 offset 0.4124 0.5047 31000.7972 length 0.00274 color 0 0 1 }
Segment { rot -0.88028 0 0.47445 0.87377 offset 0.4144 0.50078 31000.80208 length 0.01069 color 0 0 1 }
Segment { rot -0.89599 0 0.44407 0.92167 offset 0.41664 0.49685 31000.80628 length 0.00165 color 0 0 1 }
Segment { rot -0.88468 0 0.4662 0.93247 offset 0.41794 0.49475 31000.80878 length 0.00538 color 0 0 1 }
Segment { rot -0.9029 0 0.42986 0.9016 offset 0.42099 0.48937 31000.81499 length 0.01216 color 0 0 1 }
Segment { rot -0.91518 0 0.40306 0.89705 offset 0.42345 0.48479 31000.82022 length 0.00259 color 0 0 1 }
Segment { rot -0.93086 0 0.36537 0.8575 offset 0.42451 0.48245 31000.8228 length 0.00468 color 0 0 1 }
Segment { rot -0.92589 0 0.37779 0.85472 offset 0.42563 0.47981 31000.82562 length 0.00338 color 0 0 1 }
Segment { rot -0.85316 0 0.52164 0.7825 offset 0.42853 0.47405 31000.83075 length 0.01312 color 0 0 1 }
Segment { rot -0.81487 0 0.57964 0.77879 offset 0.43124 0.46887 31000.83512 length 0.00148 color 0 0 1 }
Segment { rot -0.876 0 0.48231 0.73031 offset 0.435 0.46034 31000.84183 length 0.0215 color 0 0 1 }
Segment { rot -0.89116 0 0.4537 0.7651 offset 0.43847 0.45232 31000.84812 length 0.00003 color 0 0 1 }
Segment { rot -0.91569 0 0.40189 0.78628 offset 0.43881 0.45147 31000.8489 length 0.00237 color 0 0 1 }
Segment { rot -0.94987 0 0.31263 0.85992 offset 0.43932 0.45015 31000.85019 length 0.00145 color 0 0 1 }
Segment { rot -0.9573 0 0.28911 0.87923 offset 0.44015 0.4478 31000.85289 length 0.00589 color 0 0 1 }
Segment { rot -0.96736 0 0.25339 0.86854 offset 0.44085 0.44577 31000.85523 length 0.00047 color 0 0 1 }
Segment { rot -0.98083 0 0.19488 0.98408 offset 0.44114 0.44478 31000.85664 length 0.00304 color 0 0 1 }
Segment { rot -0.98332 0 0.18188 1.0045 offset 0.44148 0.44363 31000.85837 length 0.00116 color 0 0 1 }
Segment { rot -0.99933 0 0.03665 1.01111 offset 0.44171 0.44082 31000.86283 length 0.00939 color 0 0 1 }
Segment { rot -0.99695 0 -0.078 0.9675 offset 0.4413 0.43342 31000.87391 length 0.0173 color 0 0 1 }
Segment { rot -0.99144 0 -0.13053 0.98414 offset 0.44074 0.42849 31000.88104 length 0.00009 color 0 0 1 }
Segment { rot -0.98503 0 -0.17237 0.95869 offset 0.44059 0.42786 31000.88193 length 0.00211 color 0 0 1 }
Segment { rot -0.98899 0 -0.14801 0.98811 offset 0.44014 0.42591 31000.88479 length 0.00487 color 0 0 1 }
Segment { rot -0.99116 0 -0.13265 0.98316 offset 0.43974 0.4241 31000.88751 length 0.0017 color 0 0 1 }
Segment { rot -0.9912 0 0.13237 1.13973 offset 0.44016 0.42186 31000.89201 length 0.00844 color 0 0 1 }
Segment { rot -0.9904 0 0.1382 1.13355 offset 0.44113 0.41852 31000.89914 length 0.00744 color 0 0 1 }
Segment { rot -0.97763 0 0.21033 1.03073 offset 0.44235 0.41478 31000.90601 length 0.00842 color 0 0 1 }
Segment { rot -0.97652 0 0.21541 1.03834 offset 0.44341 0.41182 31000.91087 length 0.00315 color 0 0 1 }
Segment { rot -0.95407 0 0.29958 0.94271 offset 0.44438 0.40937 31000.91436 length 0.00561 color 0 0 1 }
Segment { rot -0.95533 0 0.29555 0.92039 offset 0.44512 0.40758 31000.91671 length 0.00048 color 0 0 1 }
Segment { rot -0.96446 0 0.26422 0.93371 offset 0.44669 0.40319 31000.92242 length 0.01427 color 0 0 1 }
Segment { rot -0.99155 0 -0.12973 0.83615 offset 0.44787 0.39665 31000.93047 length 0.00683 color 0 0 1 }
Segment { rot -0.99163 0 -0.1291 0.8902 offset 0.44747 0.39393 31000.93352 length 0.00139 color 0 0 1 }
Segment { rot -0.99167 0 -0.12878 0.87242 offset 0.44737 0.39325 31000.93434 length 0.00076 color 0 0 1 }
Segment { rot -0.98971 0 -0.14306 0.87917 offset 0.44723 0.3924 31000.93535 length 0.00189 color 0 0 1 }
Segment { rot -0.99993 0 -0.012 0.98397 offset 0.44711 0.39112 31000.93708 length 0.00242 color 0 0 1 }
Segment { rot -0.99076 0 0.1356 0.9976 offset 0.4477 0.38757 31000.94251 length 0.01064 color 0 0 1 }
Segment { rot -0.96445 0 0.26428 0.91042 offset 0.45019 0.37916 31000.9538 length 0.01802 color 0 0 1 }
Segment { rot -0.94066 0 0.33935 0.95735 offset 0.45256 0.37262 31000.96202 length 0.00352 color 0 0 1 }
Segment { rot -0.94545 0 0.32576 0.94205 offset 0.45347 0.37065 31000.96461 length 0.00323 color 0 0 1 }
Segment { rot -0.97387 0 0.2271 1.00839 offset 0.45412 0.36909 31000.9668 length 0.0023 color 0 0 1 }
Segment { rot -0.97026 0 0.24206 1.035 offset 0.45457 0.36792 31000.96866 length 0.00219 color 0 0 1 }
Segment { rot -0.98258 0 0.18582 1.07995 offset 0.45491 0.36703 31000.97018 length 0.00141 color 0 0 1 }
Segment { rot -0.99782 0 0.06599 0.94839 offset 0.45517 0.36513 31000.97296 length 0.00535 color 0 0 1 }
Segment { rot -0.99804 0 0.06257 0.99592 offset 0.45581 0.35849 31000.98296 length 0.0187 color 0 0 1 }
Segment { rot -0.99975 0 0.02214 1.06536 offset 0.45638 0.35133 31000.99455 length 0.00859 color 0 0 1 }
Segment { rot -0.9999 0 -0.0142 1.02139 offset 0.45646 0.3492 31000.99838 length 0.00018 color 0 0 1 }
Segment { rot -0.51572 0 -0.85676 1.61792 offset 0.45557 0.3492 31000.999 length 0.00209 color 0 0 1 }
Segment { rot -0.50979 0 -0.8603 1.62848 offset 0.44979 0.34958 31001.00243 length 0.01135 color 0 0 1 }
Segment { rot -0.50332 0 -0.8641 1.65169 offset 0.44397 0.35 31001.00587 length 0.0022 color 0 0 1 }
Segment { rot -0.50714 0 -0.86186 1.66059 offset 0.44236 0.35015 31001.00681 length 0.00155 color 0 0 1 }
Segment { rot -0.49442 0 -0.86922 1.81185 offset 0.44162 0.35024 31001.00724 length 0.00017 color 0 0 1 }
Segment { rot -0.56443 0 -0.82548 1.78181 offset 0.43843 0.35108 31001.00942 length 0.00774 color 0 0 1 }
Segment { rot -0.58392 0 -0.81181 1.79669 offset 0.43407 0.35223 31001.01244 length 0.00312 color 0 0 1 }
Segment { rot -0.63174 0 -0.77518 1.8495 offset 0.43281 0.35259 31001.01335 length 0.00008 color 0 0 1 }
Segment { rot -0.63439 0 -0.77302 1.87911 offset 0.43125 0.35323 31001.01463 length 0.00414 color 0 0 1 }
Segment { rot -0.64043 0 -0.76802 1.87933 offset 0.4255 0.35562 31001.0194 length 0.01155 color 0 0 1 }
Segment { rot -0.61537 0 -0.78824 1.83745 offset 0.41764 0.35863 31001.02577 length 0.00957 color 0 0 1 }
Segment { rot -0.60757 0 -0.79426 1.86614 offset 0.41188 0.3607 31001.03023 length 0.00557 color 0 0 1 }
Segment { rot -0.60032 0 -0.79976 1.88205 offset 0.40943 0.36165 31001.0321 length 0.0009 color 0 0 1 }
Segment { rot -0.70707 0 -0.70714 1.91011 offset 0.4021 0.36528 31001.03935 length 0.02096 color 0 0 1 }
Segment { rot -0.66958 0 -0.74274 1.89162 offset 0.39471 0.36894 31001.04669 length 0.00112 color 0 0 1 }
Segment { rot -0.6795 0 -0.73368 1.98816 offset 0.39011 0.37166 31001.05094 length 0.01255 color 0 0 1 }
Segment { rot -0.67063 0 -0.74179 1.98029 offset 0.38332 0.37571 31001.05717 length 0.00759 color 0 0 1 }
Segment { rot -0.68837 0 -0.72536 1.98257 offset 0.37876 0.37842 31001.06139 length 0.00595 color 0 0 1 }
Segment { rot -0.73112 0 -0.68225 2.08384 offset 0.37545 0.38071 31001.06469 length 0.00449 color 0 0 1 }
Segment { rot -0.89224 0 -0.45157 1.90926 offset 0.37403 0.38187 31001.06628 length 0.00038 color 0 0 1 }
Segment { rot -0.86582 0 -0.50036 1.99117 offset 0.36847 0.38684 31001.07593 length 0.024 color 0 0 1 }
Segment { rot -0.88153 0 -0.47212 1.9825 offset 0.36192 0.39272 31001.0874 length 0.00491 color 0 0 1 }
Segment { rot -0.89007 0 -0.45583 1.94573 offset 0.36071 0.39383 31001.08969 length 0.00072 color 0 0 1 }
Segment { rot -0.91539 0 -0.40257 1.94351 offset 0.35764 0.39679 31001.0966 length 0.01553 color 0 0 1 }
Segment { rot -0.92065 0 -0.39039 1.96599 offset 0.35373 0.40069 31001.10559 length 0.00558 color 0 0 1 }
Segment { rot -0.95279 0 0.30362 2.12345 offset 0.35361 0.40358 31001.11076 length 0.0069 color 0 0 1 }
Segment { rot -0.89471 0 0.44666 2.17699 offset 0.35658 0.40861 31001.11772 length 0.01132 color 0 0 1 }
Segment { rot -0.90384 0 0.42788 2.15757 offset 0.35878 0.41204 31001.12215 length 0.00072 color 0 0 1 }
Segment { rot -0.85685 0 0.51557 2.13693 offset 0.35904 0.41239 31001.12263 length 0.00058 color 0 0 1 }
Segment { rot -0.93982 0 0.34168 2.18719 offset 0.35943 0.4131 31001.12358 length 0.00192 color 0 0 1 }
Segment { rot -0.93469 0 0.35546 2.18343 offset 0.36051 0.41526 31001.12645 length 0.00559 color 0 0 1 }
Segment { rot -0.93142 0 0.36394 2.15579 offset 0.36224 0.41854 31001.13093 length 0.00603 color 0 0 1 }
Segment { rot -0.92957 0 0.36864 2.14326 offset 0.36377 0.42128 31001.13483 length 0.00399 color 0 0 1 }
Segment { rot -0.96376 0 0.26678 2.38687 offset 0.36466 0.42342 31001.13734 length 0.0029 color 0 0 1 }
Segment { rot -0.98431 0 0.17646 2.34759 offset 0.36499 0.42483 31001.13866 length 0.00103 color 0 0 1 }
Segment { rot -0.96741 0 0.2532 2.38228 offset 0.36528 0.42615 31001.1399 length 0.00263 color 0 0 1 }
Segment { rot -0.64326 0 0.76565 2.15256 offset 0.36666 0.42809 31001.14174 length 0.00359 color 0 0 1 }
Segment { rot -0.72286 0 0.69099 2.11713 offset 0.36811 0.42934 31001.14302 length 0.00102 color 0 0 1 }
Segment { rot -0.73877 0 0.67395 2.01632 offset 0.36888 0.42994 31001.14386 length 0.00156 color 0 0 1 }
Segment { rot -0.7613 0 0.6484 1.92995 offset 0.36973 0.43049 31001.14481 length 0.00123 color 0 0 1 }
Segment { rot -0.74088 0 0.67163 1.88963 offset 0.3704 0.43085 31001.14558 length 0.00092 color 0 0 1 }
Segment { rot -0.7317 0 0.68163 1.86879 offset 0.37113 0.43119 31001.14637 length 0.00133 color 0 0 1 }
Segment { rot -0.6092 0 0.79302 1.93763 offset 0.37261 0.4319 31001.14764 length 0.00283 color 0 0 1 }
Segment { rot -0.6102 0 0.79224 1.903 offset 0.37428 0.43268 31001.14892 length 0.00167 color 0 0 1 }
Segment { rot -0.67917 0 0.73398 1.88319 offset 0.37605 0.43345 31001.15046 length 0.00328 color 0 0 1 }
Segment { rot -0.73638 0 0.67657 1.97902 offset 0.37955 0.43546 31001.15408 length 0.00756 color 0 0 1 }
Segment { rot -0.71212 0 0.70206 1.97533 offset 0.38203 0.43704 31001.15677 length 0.00042 color 0 0 1 }
Segment { rot -0.66892 0 0.74334 2.18994 offset 0.38241 0.43736 31001.15713 length 0.00079 color 0 0 1 }
Segment { rot -0.79064 0 0.61228 2.25036 offset 0.38481 0.44043 31001.16013 length 0.00907 color 0 0 1 }
Segment { rot -0.90874 0 0.41736 2.41959 offset 0.38768 0.44523 31001.16447 length 0.00518 color 0 0 1 }
Segment { rot -0.83411 0 0.5516 2.43398 offset 0.39152 0.4538 31001.17076 length 0.01746 color 0 0 1 }
Segment { rot -0.76012 0 0.64978 2.42148 offset 0.39599 0.46279 31001.17706 length 0.00625 color 0 0 1 }
Segment { rot -0.7459 0 0.66606 2.44107 offset 0.3983 0.46686 31001.17971 length 0.00449 color 0 0 1 }
Segment { rot -0.81716 0 0.57641 2.42528 offset 0.40192 0.47386 31001.18455 length 0.01402 color 0 0 1 }
Segment { rot -0.72779 0 0.6858 2.3189 offset 0.40534 0.48019 31001.18913 length 0.00308 color 0 0 1 }
Segment { rot -0.76041 0 0.64944 2.3754 offset 0.40633 0.48159 31001.19021 length 0.00097 color 0 0 1 }
Segment { rot -0.75265 0 0.65842 2.36251 offset 0.41219 0.49061 31001.19691 length 0.02437 color 0 0 1 }
Segment { rot -0.73621 0 0.67675 2.35674 offset 0.41926 0.5014 31001.20491 length 0.006 color 0 0 1 }
Segment { rot -0.57676 0 0.81691 2.1713 offset 0.42072 0.50354 31001.20649 length 0.00006 color 0 0 1 }
Segment { rot -0.56306 0 0.82642 2.24702 offset 0.42198 0.50476 31001.20735 length 0.00385 color 0 0 1 }
Segment { rot -0.50513 0 0.86304 2.24523 offset 0.42395 0.50664 31001.20862 length 0.00216 color 0 0 1 }
Segment { rot -0.53083 0 0.84748 2.26952 offset 0.42473 0.50737 31001.20908 length 0.00016 color 0 0 1 }
Segment { rot -0.51267 0 0.85859 2.2416 offset 0.42556 0.50815 31001.20958 length 0.00233 color 0 0 1 }
Segment { rot -0.4977 0 0.86735 2.25944 offset 0.42652 0.50903 31001.21015 length 0.00051 color 0 0 1 }
Segment { rot -0.49612 0 0.86826 2.23923 offset 0.42798 0.51037 31001.21098 length 0.0038 color 0 0 1 }
Segment { rot -0.6064 0 0.79516 2.45696 offset 0.42935 0.51166 31001.21178 length 0.0003 color 0 0 1 }
Segment { rot -0.59846 0 0.80115 2.46027 offset 0.43496 0.5203 31001.21597 length 0.02196 color 0 0 1 }
Segment { rot -0.63147 0 0.7754 2.47075 offset 0.44079 0.52929 31001.22034 length 0.00118 color 0 0 1 }
Segment { rot -0.61819 0 0.78602 2.54499 offset 0.44135 0.53029 31001.2208 length 0.00128 color 0 0 1 }
Segment { rot -0.65041 0 0.75958 2.50642 offset 0.44402 0.53507 31001.22306 length 0.01057 color 0 0 1 }
Segment { rot -0.60819 0 0.79379 2.56436 offset 0.44839 0.54316 31001.22662 length 0.00916 color 0 0 1 }
Segment { rot -0.44974 0 0.89316 2.53298 offset 0.45335 0.55179 31001.22964 length 0.01167 color 0 0 1 }
Segment { rot -0.30907 0 0.95104 2.5401 offset 0.4568 0.5573 31001.23129 length 0.00174 color 0 0 1 }
Segment { rot -0.30809 0 0.95136 2.54043 offset 0.45741 0.55823 31001.23149 length 0.00052 color 0 0 1 }
Segment { rot -0.30146 0 0.95348 2.53695 offset 0.4584 0.55974 31001.23181 length 0.00315 color 0 0 1 }
Segment { rot -0.53582 0 0.84433 2.4966 offset 0.45983 0.56194 31001.23244 length 0.00228 color 0 0 1 }
Segment { rot -0.41149 0 0.91142 2.55581 offset 0.46107 0.56394 31001.23311 length 0.00261 color 0 0 1 }
Segment { rot -0.5483 0 0.83628 2.68642 offset 0.46276 0.56756 31001.23409 length 0.00565 color 0 0 1 }
Segment { rot -0.58169 0 0.81341 2.66415 offset 0.46495 0.57284 31001.23559 length 0.00616 color 0 0 1 }
Segment { rot -0.63492 0 0.77258 2.74122 offset 0.46678 0.57763 31001.23697 length 0.00446 color 0 0 1 }
Segment { rot -0.65033 0 0.75966 2.7343 offset 0.46955 0.58609 31001.23932 length 0.01396 color 0 0 1 }
Segment { rot -0.6477 0 0.7619 2.72942 offset 0.47236 0.59465 31001.24172 length 0.00469 color 0 0 1 }
Segment { rot -0.69934 0 0.71479 2.72645 offset 0.47481 0.60228 31001.24402 length 0.01199 color 0 0 1 }
Segment { rot -0.67528 0 0.73756 2.77051 offset 0.47674 0.60848 31001.2459 length 0.00152 color 0 0 1 }
Segment { rot -0.88178 0 0.47167 2.88908 offset 0.47741 0.61302 31001.24696 length 0.00793 color 0 0 1 }
Segment { rot 0.16365 0 0.98652 3.06893 offset 0.47797 0.61817 31001.24782 length 0.00262 color 0 0 1 }
Segment { rot 0.99973 0 -0.02332 2.89653 offset 0.47802 0.62686 31001.24595 length 0.01522 color 0 0 1 }
Segment { rot 0.99132 0 0.1315 2.90679 offset 0.47803 0.6358 31001.24374 length 0.0032 color 0 0 1 }
Segment { rot 0.9395 0 0.34254 2.83242 offset 0.47825 0.63896 31001.24289 length 0.00337 color 0 0 1 }
Segment { rot 0.88168 0 0.47184 2.86089 offset 0.47886 0.64377 31001.24159 length 0.00668 color 0 0 1 }
Segment { rot 0.6902 0 0.72362 2.81294 offset 0.47942 0.64746 31001.24066 length 0.00103 color 0 0 1 }
Segment { rot 0.73642 0 0.67652 2.82208 offset 0.47971 0.64869 31001.24037 length 0.00156 color 0 0 1 }
Segment { rot 0.82345 0 0.56739 2.80415 offset 0.48027 0.65142 31001.23961 length 0.00422 color 0 0 1 }
Segment { rot 0.77982 0 0.626 2.77087 offset 0.48068 0.65349 31001.23901 length 0.00017 color 0 0 1 }
Segment { rot 0.70416 0 0.71004 2.71639 offset 0.48173 0.65677 31001.23797 length 0.00702 color 0 0 1 }
Segment { rot 0.64846 0 0.76125 2.64663 offset 0.48386 0.66264 31001.23601 length 0.00608 color 0 0 1 }
Segment { rot 0.84934 0 0.52784 2.01244 offset 0.4856 0.6659 31001.23404 length 0.00271 color 0 0 1 }
Segment { rot 0.85174 0 0.52396 2.02174 offset 0.48947 0.66945 31001.22776 length 0.01367 color 0 0 1 }
Segment { rot 0.9041 0 0.42733 1.98958 offset 0.49372 0.6735 31001.22034 length 0.00527 color 0 0 1 }
Segment { rot 0.82996 0 0.55783 1.92801 offset 0.49511 0.67481 31001.21763 length 0.00138 color 0 0 1 }
Segment { rot 0.86192 0 0.50704 1.94715 offset 0.4956 0.67515 31001.21689 length 0.00052 color 0 0 1 }
Segment { rot 0.86479 0 0.50213 1.94189 offset 0.49579 0.6753 31001.21656 length 0.00029 color 0 0 1 }
Segment { rot 0.85401 0 0.52025 1.9346 offset 0.49602 0.67548 31001.21617 length 0.00069 color 0 0 1 }
Segment { rot 0.84638 0 0.53258 1.92288 offset 0.4982 0.67698 31001.2127 length 0.00803 color 0 0 1 }
Segment { rot 0.95792 0 0.28703 1.95694 offset 0.50067 0.67903 31001.20796 length 0.00351 color 0 0 1 }
Segment { rot 0.88965 0 0.45664 1.65311 offset 0.50277 0.67998 31001.20322 length 0.00718 color 0 0 1 }
Segment { rot 0.94263 0 0.33385 1.7765 offset 0.50441 0.68028 31001.20002 length 0.00002 color 0 0 1 }
Segment { rot 0.95507 0 0.29638 1.7412 offset 0.50658 0.68154 31001.19304 length 0.01482 color 0 0 1 }
Segment { rot 0.99649 0 0.08371 1.1566 offset 0.50876 0.68267 31001.18579 length 0.00062 color 0 0 1 }
Segment { rot 0.99939 0 0.03502 1.20503 offset 0.50893 0.68102 31001.18153 length 0.00852 color 0 0 1 }
Segment { rot 0.99993 0 -0.01151 1.18653 offset 0.50903 0.67833 31001.17467 length 0.00623 color 0 0 1 }
Segment { rot 0.99992 0 0.01267 1.19005 offset 0.50902 0.67658 31001.17032 length 0.00313 color 0 0 1 }
Segment { rot 0.99996 0 0.00925 1.19689 offset 0.50907 0.67464 31001.1654 length 0.00745 color 0 0 1 }
Segment { rot 0.99996 0 0.00904 1.20006 offset 0.50912 0.67229 31001.15939 length 0.00545 color 0 0 1 }
Segment { rot 1 0 0.00278 1.14862 offset 0.50915 0.67129 31001.15682 length 0.00008 color 0 0 1 }
Segment { rot 0.97893 0 -0.2042 1.24478 offset 0.50846 0.67013 31001.15348 length 0.00712 color 0 0 1 }
Segment { rot 0.89348 0 -0.4491 1.1538 offset 0.50743 0.66866 31001.1495 length 0.00165 color 0 0 1 }
Segment { rot 0.8773 0 -0.47993 1.16989 offset 0.50337 0.66503 31001.14201 length 0.01687 color 0 0 1 }
Segment { rot 0.81996 0 -0.57242 1.21698 offset 0.49697 0.66002 31001.13138 length 0.00995 color 0 0 1 }
Segment { rot 0.77163 0 -0.63607 1.26718 offset 0.49271 0.65751 31001.12562 length 0.00524 color 0 0 1 }
Segment { rot 0.7927 0 -0.60961 1.21003 offset 0.49064 0.65643 31001.12307 length 0.00167 color 0 0 1 }
Segment { rot 0.86091 0 -0.50875 1.24654 offset 0.48954 0.65572 31001.12139 length 0.00261 color 0 0 1 }
Segment { rot 0.87092 0 -0.49142 1.21244 offset 0.48835 0.65488 31001.11933 length 0.00244 color 0 0 1 }
Segment { rot 0.73895 0 -0.67376 1.33687 offset 0.48168 0.65229 31001.11164 length 0.01864 color 0 0 1 }
Segment { rot 0.796 0 -0.6053 1.34847 offset 0.47408 0.64958 31001.10299 length 0.00503 color 0 0 1 }
Segment { rot 0.78446 0 -0.62018 1.33526 offset 0.47009 0.64805 31001.09787 length 0.0083 color 0 0 1 }
Segment { rot 0.7784 0 -0.62777 1.13049 offset 0.46499 0.64513 31001.09148 length 0.00915 color 0 0 1 }
Segment { rot 0.80241 0 -0.59677 1.08551 offset 0.45778 0.63911 31001.08205 length 0.01749 color 0 0 1 }
Segment { rot 0.75055 0 -0.66081 1.19919 offset 0.44779 0.63186 31001.06974 length 0.01745 color 0 0 1 }
Segment { rot 0.51232 0 -0.85879 1.34711 offset 0.44168 0.62849 31001.0632 length 0.00177 color 0 0 1 }
Segment { rot 0.51281 0 -0.8585 1.35361 offset 0.43733 0.62737 31001.0606 length 0.0086 color 0 0 1 }
Segment { rot 0.59375 0 -0.80465 1.37253 offset 0.43209 0.62603 31001.05724 length 0.00415 color 0 0 1 }
Segment { rot 0.5655 0 -0.82474 1.28606 offset 0.42955 0.62531 31001.05541 length 0.00227 color 0 0 1 }
Segment { rot 0.64411 0 -0.76493 1.13845 offset 0.4269 0.62393 31001.05332 length 0.00504 color 0 0 1 }
Segment { rot 0.65324 0 -0.75715 1.11913 offset 0.41821 0.61843 31001.04586 length 0.02036 color 0 0 1 }
Segment { rot 0.55187 0 -0.83393 1.0917 offset 0.41068 0.61362 31001.03949 length 0.0016 color 0 0 1 }
Segment { rot 0.52152 0 -0.85324 1.13749 offset 0.40957 0.61297 31001.03878 length 0.00134 color 0 0 1 }
Segment { rot 0.35866 0 -0.93347 1.6405 offset 0.40849 0.61273 31001.03824 length 0.00122 color 0 0 1 }
Segment { rot 0.36702 0 -0.93021 1.79715 offset 0.39703 0.61547 31001.03373 length 0.02403 color 0 0 1 }
Segment { rot 0.33023 0 -0.9439 1.79611 offset 0.38409 0.61866 31001.02872 length 0.00447 color 0 0 1 }
Segment { rot 0.26591 0 -0.964 1.83438 offset 0.38148 0.61932 31001.02784 length 0.0012 color 0 0 1 }
Segment { rot -0.0729 0 -0.99734 1.8962 offset 0.38078 0.61952 31001.0277 length 0.00031 color 0 0 1 }
Segment { rot -0.01832 0 -0.99983 1.81144 offset 0.38061 0.61958 31001.02771 length 0.00004 color 0 0 1 }
Segment { rot 0.00762 0 -0.99997 1.77987 offset 0.37625 0.6205 31001.02768 length 0.00889 color 0 0 1 }
Segment { rot -0.0463 0 -0.99893 1.82285 offset 0.36901 0.62217 31001.02778 length 0.00598 color 0 0 1 }
Segment { rot -0.25398 0 -0.96721 1.71649 offset 0.36505 0.62308 31001.02819 length 0.00222 color 0 0 1 }
Segment { rot -0.14609 0 -0.98927 2.06708 offset 0.36387 0.62331 31001.02849 length 0.00028 color 0 0 1 }
Segment { rot -0.11567 0 -0.99329 2.06176 offset 0.36268 0.62395 31001.02863 length 0.00244 color 0 0 1 }
Segment { rot -0.1559 0 -0.98777 2.03161 offset 0.35866 0.62601 31001.02922 length 0.00668 color 0 0 1 }
Segment { rot -0.17841 0 -0.98396 2.05085 offset 0.35412 0.62833 31001.02997 length 0.00362 color 0 0 1 }
Segment { rot -0.12586 0 -0.99205 2.05542 offset 0.35178 0.62957 31001.03036 length 0.00173 color 0 0 1 }
Segment { rot -0.21538 0 -0.97653 2.02007 offset 0.35019 0.63038 31001.03064 length 0.0019 color 0 0 1 }
Segment { rot -0.2283 0 -0.97359 2.00718 offset 0.34912 0.63091 31001.03088 length 0.00053 color 0 0 1 }
Segment { rot -0.43285 0 -0.90147 2.03912 offset 0.34885 0.63104 31001.03095 length 0.00009 color 0 0 1 }
Segment { rot -0.40288 0 -0.91525 2.09632 offset 0.3487 0.63113 31001.03102 length 0.0003 color 0 0 1 }
Segment { rot -0.34942 0 -0.93697 2.16175 offset 0.34811 0.63154 31001.03124 length 0.00119 color 0 0 1 }
Segment { rot -0.20623 0 -0.9785 2.18444 offset 0.34565 0.63332 31001.03184 length 0.00501 color 0 0 1 }
Segment { rot -0.16307 0 -0.98661 2.31249 offset 0.34274 0.6356 31001.03241 length 0.00249 color 0 0 1 }
Segment { rot -0.10364 0 -0.99462 2.33605 offset 0.33968 0.63851 31001.03278 length 0.00598 color 0 0 1 }
Segment { rot 0.08153 0 -0.99667 2.49977 offset 0.33605 0.64259 31001.03288 length 0.005 color 0 0 1 }
Segment { rot 0.0082 0 -0.99997 2.55212 offset 0.33416 0.64519 31001.03276 length 0.00143 color 0 0 1 }
Segment { rot 0.00725 0 -0.99997 2.54571 offset 0.33321 0.64659 31001.03275 length 0.00197 color 0 0 1 }
Segment { rot -0.10207 0 -0.99478 2.54384 offset 0.3308 0.65014 31001.03294 length 0.00662 color 0 0 1 }
Segment { rot -0.20235 0 -0.97931 2.00506 offset 0.32861 0.65304 31001.0332 length 0.00076 color 0 0 1 }
Segment { rot -0.22574 0 -0.97419 1.98146 offset 0.32796 0.65334 31001.03334 length 0.00071 color 0 0 1 }
Segment { rot -0.16011 0 -0.9871 1.9509 offset 0.32601 0.65414 31001.03368 length 0.00355 color 0 0 1 }
Segment { rot -0.1667 0 -0.98601 1.98118 offset 0.32182 0.65593 31001.03438 length 0.00568 color 0 0 1 }
Segment { rot -0.19432 0 -0.98094 1.97164 offset 0.31822 0.65751 31001.03502 length 0.00228 color 0 0 1 }
Segment { rot -0.22592 0 -0.97415 1.98241 offset 0.31404 0.65937 31001.03595 length 0.00705 color 0 0 1 }
Segment { rot -0.34603 0 -0.93822 1.92932 offset 0.31072 0.66085 31001.03674 length 0.0004 color 0 0 1 }
Segment { rot 0.14989 0 -0.9887 0.83659 offset 0.30986 0.6603 31001.03671 length 0.00185 color 0 0 1 }
Segment { rot 0.14888 0 -0.98886 0.86709 offset 0.30803 0.65869 31001.03643 length 0.00304 color 0 0 1 }
Segment { rot -0.29059 0 -0.95685 0.92252 offset 0.3064 0.65732 31001.03641 length 0.00128 color 0 0 1 }
Segment { rot -0.15142 0 -0.98847 1.09806 offset 0.30244 0.65514 31001.03709 length 0.00788 color 0 0 1 }
Segment { rot -0.14742 0 -0.98907 1.11283 offset 0.2978 0.65276 31001.03779 length 0.00263 color 0 0 1 }
Segment { rot 0.67485 0 0.73795 3.00113 offset 0.29664 0.65223 31001.03796 length 0.00011 color 0 0 1 }
Segment { rot 0.78985 0 0.6133 2.9662 offset 0.29704 0.65592 31001.03745 length 0.00739 color 0 0 1 }
Segment { rot 0.65015 0 0.75981 2.8926 offset 0.29749 0.65984 31001.03689 length 0.00056 color 0 0 1 }
Segment { rot 0.62499 0 0.78064 2.88935 offset 0.29816 0.66318 31001.03635 length 0.00635 color 0 0 1 }
Segment { rot 0.47028 0 0.88252 2.88313 offset 0.29902 0.66727 31001.03573 length 0.0021 color 0 0 1 }
Segment { rot 0.62266 0 0.78249 2.74131 offset 0.29998 0.67047 31001.03503 length 0.00474 color 0 0 1 }
Segment { rot 0.62289 0 0.78231 2.79323 offset 0.30105 0.67388 31001.03418 length 0.00261 color 0 0 1 }
Segment { rot -0.16875 0 0.98566 2.87832 offset 0.30142 0.67519 31001.0339 length 0.00017 color 0 0 1 }
Segment { rot -0.27649 0 0.96102 2.63281 offset 0.3027 0.67763 31001.03427 length 0.00539 color 0 0 1 }
Segment { rot -0.28329 0 0.95904 2.73216 offset 0.30491 0.68226 31001.03491 length 0.00497 color 0 0 1 }
Segment { rot -0.22413 0 0.97456 2.69032 offset 0.30657 0.68604 31001.03536 length 0.00335 color 0 0 1 }
Segment { rot -0.42315 0 0.90606 2.63864 offset 0.30793 0.68885 31001.03582 length 0.00298 color 0 0 1 }
Segment { rot -0.49008 0 0.87168 2.68091 offset 0.31007 0.69359 31001.03696 length 0.00767 color 0 0 1 }
Segment { rot -0.59281 0 0.80534 2.50715 offset 0.31202 0.69781 31001.03814 length 0.00194 color 0 0 1 }
Segment { rot -0.55902 0 0.82915 2.51987 offset 0.31369 0.70063 31001.03929 length 0.00501 color 0 0 1 }
Segment { rot -0.81857 0 0.5744 2.64318 offset 0.31526 0.70381 31001.04062 length 0.00261 color 0 0 1 }
Segment { rot -0.93326 0 0.3592 2.62164 offset 0.31587 0.70618 31001.04179 length 0.00283 color 0 0 1 }
Segment { rot -0.92268 0 0.38557 2.70464 offset 0.31755 0.71532 31001.04585 length 0.01748 color 0 0 1 }
Segment { rot -0.9733 0 0.22953 2.73965 offset 0.31923 0.72586 31001.05035 length 0.00568 color 0 0 1 }
Segment { rot -0.99997 0 -0.00821 2.80578 offset 0.31947 0.73423 31001.05344 length 0.01221 color 0 0 1 }
Segment { rot -0.99904 0 0.04382 2.85771 offset 0.31946 0.74067 31001.05565 length 0.00139 color 0 0 1 }
Segment { rot -0.94202 0 0.33554 2.9546 offset 0.3196 0.74351 31001.05623 length 0.00442 color 0 0 1 }
Segment { rot -0.96762 0 0.25239 3.00524 offset 0.31981 0.74767 31001.05688 length 0.00401 color 0 0 1 }
Segment { rot -0.19596 0 -0.98061 2.94155 offset 0.31956 0.75127 31001.05721 length 0.00329 color 0 0 1 }
Segment { rot -0.02731 0 -0.99963 2.89374 offset 0.31892 0.75412 31001.05728 length 0.00256 color 0 0 1 }
Segment { rot 0.2521 0 -0.9677 2.92136 offset 0.31852 0.75577 31001.05727 length 0.00084 color 0 0 1 }
Segment { rot 0.17842 0 -0.98395 2.95832 offset 0.31834 0.75671 31001.05723 length 0.00108 color 0 0 1 }
Segment { rot -0.13973 0 -0.99019 2.89268 offset 0.31776 0.75915 31001.05728 length 0.00394 color 0 0 1 }
Segment { rot 0.01173 0 -0.99993 2.88707 offset 0.31654 0.76389 31001.05734 length 0.00585 color 0 0 1 }
Segment { rot 0.15237 0 -0.98832 2.874 offset 0.31543 0.76809 31001.05727 length 0.00283 color 0 0 1 }
Segment { rot 0.22446 0 -0.97448 2.90135 offset 0.31498 0.7698 31001.05719 length 0.00072 color 0 0 1 }
Segment { rot 0.08849 0 -0.99608 2.91736 offset 0.31484 0.77043 31001.05717 length 0.00057 color 0 0 1 }
Segment { rot 0.24566 0 -0.96936 2.90296 offset 0.31402 0.77389 31001.05697 length 0.00656 color 0 0 1 }
Segment { rot 0.39237 0 -0.91981 2.88141 offset 0.31273 0.77927 31001.05655 length 0.00452 color 0 0 1 }
Segment { rot 0.58497 0 -0.81106 2.78139 offset 0.31179 0.78278 31001.05603 length 0.00285 color 0 0 1 }
Segment { rot 0.68718 0 -0.72649 2.64419 offset 0.30954 0.78879 31001.054 length 0.01062 color 0 0 1 }
Segment { rot 0.85013 0 -0.52657 2.63739 offset 0.3072 0.79517 31001.05145 length 0.00392 color 0 0 1 }
Segment { rot 0.40961 0 -0.91226 2.71385 offset 0.30576 0.79915 31001.05022 length 0.00497 color 0 0 1 }
Segment { rot 0.99322 0 -0.11621 2.5415 offset 0.30464 0.80375 31001.04821 length 0.00567 color 0 0 1 }
Segment { rot 0.99636 0 0.08524 2.46653 offset 0.30468 0.80948 31001.04391 length 0.00871 color 0 0 1 }
Segment { rot 0.9946 0 -0.10374 2.51032 offset 0.3049 0.81309 31001.04105 length 0.00052 color 0 0 1 }
Segment { rot 0.99334 0 -0.11521 2.45524 offset 0.30464 0.81585 31001.03882 length 0.00659 color 0 0 1 }
Segment { rot 0.99807 0 -0.06213 2.43286 offset 0.30429 0.8205 31001.03495 length 0.00553 color 0 0 1 }
Segment { rot 0.99758 0 -0.06947 2.47062 offset 0.30407 0.82467 31001.03151 length 0.00529 color 0 0 1 }
Segment { rot 0.41151 0 0.91141 2.20265 offset 0.30882 0.83065 31001.02767 length 0.01325 color 0 0 1 }
Segment { rot 0.45203 0 0.892 2.18524 offset 0.31446 0.83517 31001.02509 length 0.0021 color 0 0 1 }
Segment { rot 0.39391 0 0.91915 2.11401 offset 0.31672 0.83676 31001.02406 length 0.00381 color 0 0 1 }
Segment { rot 0.2948 0 0.95556 2.20623 offset 0.32109 0.83996 31001.02253 length 0.00746 color 0 0 1 }
Segment { rot 0.3153 0 0.94899 2.23463 offset 0.32419 0.84236 31001.02157 length 0.00062 color 0 0 1 }
Segment { rot -0.21052 0 0.97759 2.13592 offset 0.32495 0.8429 31001.0216 length 0.00128 color 0 0 1 }
Segment { rot -0.77037 0 0.6376 2.19066 offset 0.32631 0.84417 31001.02272 length 0.00321 color 0 0 1 }
Segment { rot -0.78446 0 0.62017 2.23079 offset 0.32761 0.84568 31001.02431 length 0.00189 color 0 0 1 }
Segment { rot -0.81237 0 0.58315 2.18575 offset 0.32851 0.84679 31001.02551 length 0.00184 color 0 0 1 }
Segment { rot -0.79353 0 0.60853 2.17332 offset 0.32917 0.84757 31001.02641 length 0.00087 color 0 0 1 }
Segment { rot -0.75422 0 0.65663 2.15069 offset 0.33047 0.8489 31001.02794 length 0.00395 color 0 0 1 }
Segment { rot -0.7331 0 0.68012 2.21793 offset 0.33255 0.85109 31001.03026 length 0.00369 color 0 0 1 }
Segment { rot -0.70757 0 0.70665 2.20911 offset 0.33365 0.8523 31001.03143 length 0.00033 color 0 0 1 }
Segment { rot -0.7347 0 0.6784 2.17627 offset 0.33437 0.85304 31001.03221 length 0.00225 color 0 0 1 }
Segment { rot -0.78206 0 0.6232 2.16415 offset 0.33519 0.85389 31001.03313 length 0.00076 color 0 0 1 }
Segment { rot -0.88576 0 0.46414 2.2182 offset 0.33556 0.85439 31001.03371 length 0.00093 color 0 0 1 }
Segment { rot -0.93239 0 0.36144 2.21051 offset 0.33582 0.85484 31001.03425 length 0.00058 color 0 0 1 }
Segment { rot -0.83452 0 0.55098 1.42083 offset 0.3367 0.8548 31001.03568 length 0.00294 color 0 0 1 }
Segment { rot -0.83262 0 0.55385 1.41804 offset 0.33783 0.85448 31001.03739 length 0.0012 color 0 0 1 }
Segment { rot -0.75511 0 0.6556 1.4541 offset 0.33901 0.85424 31001.03887 length 0.00262 color 0 0 1 }
Segment { rot -0.74193 0 0.67048 1.28162 offset 0.34064 0.85375 31001.0407 length 0.00239 color 0 0 1 }
Segment { rot -0.76649 0 0.64226 1.28491 offset 0.3425 0.8529 31001.04286 length 0.00357 color 0 0 1 }
Segment { rot -0.76683 0 0.64185 1.28652 offset 0.34485 0.85183 31001.04567 length 0.00405 color 0 0 1 }
Segment { rot -0.9889 0 0.14859 1.61566 offset 0.34618 0.85129 31001.04767 length 0.00104 color 0 0 1 }
Segment { rot -0.99536 0 0.09626 1.53746 offset 0.34665 0.85117 31001.05226 length 0.00819 color 0 0 1 }
Segment { rot -0.9377 0 -0.34744 0.87447 offset 0.34691 0.85072 31001.0567 length 0.001 color 0 0 1 }
Segment { rot -0.90102 0 -0.43377 0.97287 offset 0.34659 0.85011 31001.05744 length 0.00103 color 0 0 1 }
Segment { rot -0.94568 0 -0.3251 1.10024 offset 0.34599 0.84917 31001.05903 length 0.00287 color 0 0 1 }
Segment { rot -0.9344 0 -0.35621 1.17284 offset 0.34471 0.84749 31001.06252 length 0.00528 color 0 0 1 }
Segment { rot -0.90081 0 -0.43421 1.106 offset 0.34353 0.84611 31001.06544 length 0.0016 color 0 0 1 }
Segment { rot -0.8981 0 -0.43979 1.11294 offset 0.343 0.84551 31001.06653 length 0.00111 color 0 0 1 }
Segment { rot 0.73375 0 0.67942 1.45964 offset 0.34288 0.84524 31001.06687 length 0.00031 color 0 0 1 }
Segment { rot 0.82605 0 0.5636 1.39789 offset 0.34299 0.84522 31001.06674 length 0.00002 color 0 0 1 }
Segment { rot 0.84766 0 0.53053 1.43734 offset 0.34354 0.84509 31001.06587 length 0.00205 color 0 0 1 }
Segment { rot 0.78823 0 0.61538 1.48587 offset 0.34424 0.84493 31001.0648 length 0.00054 color 0 0 1 }
Segment { rot 0.83329 0 0.55284 1.54724 offset 0.35017 0.84466 31001.05591 length 0.02085 color 0 0 1 }
Segment { rot 0.83511 0 0.55008 1.78569 offset 0.35595 0.84442 31001.04719 length 0.00009 color 0 0 1 }
Segment { rot 0.83907 0 0.54402 1.81511 offset 0.35599 0.84444 31001.04713 length 0.00004 color 0 0 1 }
Segment { rot 0.73238 0 0.6809 1.67637 offset 0.35665 0.84454 31001.04642 length 0.00191 color 0 0 1 }
Segment { rot 0.66439 0 0.74739 1.61231 offset 0.35809 0.84469 31001.04502 length 0.00212 color 0 0 1 }
Segment { rot 0.67412 0 0.73862 1.54939 offset 0.35927 0.84472 31001.04396 length 0.00108 color 0 0 1 }
Segment { rot 0.59099 0 0.80668 1.50006 offset 0.36181 0.84452 31001.04203 length 0.0053 color 0 0 1 }
Segment { rot 0.6926 0 0.72132 1.43725 offset 0.3661 0.84393 31001.03839 length 0.00604 color 0 0 1 }
Segment { rot 0.92617 0 0.37711 1.53185 offset 0.3686 0.84349 31001.03547 length 0.00184 color 0 0 1 }
Segment { rot 0.91802 0 0.39652 1.43385 offset 0.36906 0.84342 31001.03436 length 0.00055 color 0 0 1 }
Segment { rot 0.77575 0 0.63104 1.83334 offset 0.37063 0.84401 31001.03231 length 0.00481 color 0 0 1 }
Segment { rot 0.81085 0 0.58525 1.74506 offset 0.37217 0.84465 31001.03041 length 0.00025 color 0 0 1 }
Segment { rot 0.78427 0 0.62042 1.75145 offset 0.37296 0.84488 31001.02941 length 0.00234 color 0 0 1 }
Segment { rot 0.78068 0 0.62493 1.80341 offset 0.37524 0.84569 31001.02655 length 0.00514 color 0 0 1 }
Segment { rot 0.72446 0 0.68931 1.83582 offset 0.37776 0.84666 31001.02359 length 0.00289 color 0 0 1 }
Segment { rot 0.7068 0 0.70742 1.88959 offset 0.38114 0.84816 31001.02017 length 0.0072 color 0 0 1 }
Segment { rot 0.77071 0 0.63719 2.0085 offset 0.38424 0.84979 31001.01692 length 0.00237 color 0 0 1 }
Segment { rot 0.67288 0 0.73975 2.03121 offset 0.38507 0.8504 31001.01596 length 0.00047 color 0 0 1 }
Segment { rot 0.64844 0 0.76127 2.01479 offset 0.38559 0.85073 31001.01551 length 0.00105 color 0 0 1 }
Segment { rot 0.67447 0 0.7383 1.9807 offset 0.38636 0.85119 31001.01483 length 0.0012 color 0 0 1 }
Segment { rot 0.87928 0 0.4763 1.49455 offset 0.38781 0.85126 31001.01252 length 0.00442 color 0 0 1 }
Segment { rot 0.92582 0 0.37796 1.66464 offset 0.38902 0.85113 31001.01019 length 0.00084 color 0 0 1 }
Segment { rot 0.78714 0 0.61677 1.75768 offset 0.38928 0.8512 31001.00968 length 0.00032 color 0 0 1 }
Segment { rot 0.78888 0 0.61455 1.84135 offset 0.38999 0.85151 31001.00876 length 0.0021 color 0 0 1 }
Segment { rot 0.77796 0 0.62832 1.98833 offset 0.39101 0.85207 31001.00748 length 0.00137 color 0 0 1 }
Segment { rot 0.78947 0 0.61378 1.988 offset 0.39156 0.85246 31001.00679 length 0.00056 color 0 0 1 }
Segment { rot 0.34001 0 0.94042 1.85603 offset 0.39279 0.85291 31001.0062 length 0.00238 color 0 0 1 }
Segment { rot 0.38615 0 0.92243 1.86583 offset 0.39618 0.85401 31001.00484 length 0.00527 color 0 0 1 }
Segment { rot 0.36802 0 0.92982 1.8476 offset 0.40008 0.85526 31001.00324 length 0.00353 color 0 0 1 }
Segment { rot 0.3739 0 0.92747 1.85374 offset 0.40261 0.85604 31001.00224 length 0.00214 color 0 0 1 }
Segment { rot 0.26535 0 0.96415 1.87004 offset 0.40361 0.85635 31001.00184 length 0.00008 color 0 0 1 }
Segment { rot 0.62641 0 0.77949 1.60717 offset 0.40368 0.85636 31001.0018 length 0.00009 color 0 0 1 }
Segment { rot 0.64697 0 0.76252 1.58706 offset 0.40672 0.85643 31000.99922 length 0.0079 color 0 0 1 }
Segment { rot 0.94486 0 -0.32748 1.13299 offset 0.40938 0.85599 31000.99565 length 0.00239 color 0 0 1 }
Segment { rot 0.8889 0 -0.4581 1.07106 offset 0.40892 0.85535 31000.99442 length 0.00053 color 0 0 1 }
Segment { rot 0.88005 0 -0.47488 1.17791 offset 0.40834 0.85481 31000.99333 length 0.00216 color 0 0 1 }
Segment { rot 0.91604 0 -0.40108 1.15465 offset 0.4075 0.854 31000.99162 length 0.00198 color 0 0 1 }
Segment { rot 0.96272 0 0.27051 1.95604 offset 0.40729 0.85383 31000.99023 length 0.00126 color 0 0 1 }
Segment { rot 0.97629 0 0.21646 1.90517 offset 0.40751 0.85416 31000.98942 length 0.00056 color 0 0 1 }
Segment { rot 0.98202 0 0.1888 1.84932 offset 0.40764 0.85436 31000.98878 length 0.0008 color 0 0 1 }
Segment { rot 0.99073 0 0.13586 2.0105 offset 0.40802 0.85554 31000.98616 length 0.00501 color 0 0 1 }
Segment { rot 0.99327 0 0.11585 2.02161 offset 0.40843 0.85705 31000.983 length 0.00205 color 0 0 1 }
Segment { rot 0.98747 0 0.15779 1.96383 offset 0.40888 0.85838 31000.97999 length 0.00459 color 0 0 1 }
Segment { rot 0.98658 0 0.1633 1.93604 offset 0.40926 0.85937 31000.9776 length 0.00064 color 0 0 1 }
Segment { rot 0.99449 0 -0.10485 1.44827 offset 0.40906 0.85919 31000.97494 length 0.00478 color 0 0 1 }
Segment { rot 0.96213 0 -0.27258 1.46343 offset 0.40881 0.8589 31000.97258 length 0.00001 color 0 0 1 }
Segment { rot 0.97001 0 -0.24308 1.4235 offset 0.40827 0.85857 31000.97045 length 0.00444 color 0 0 1 }
Segment { rot 0.9584 0 -0.28542 1.47125 offset 0.4076 0.8582 31000.96785 length 0.00099 color 0 0 1 }
Segment { rot 0.03036 0 0.99954 2.54682 offset 0.4075 0.85821 31000.96737 length 0.00016 color 0 0 1 }
Segment { rot -0.09367 0 0.9956 2.41668 offset 0.40773 0.85849 31000.96739 length 0.00056 color 0 0 1 }
Segment { rot -0.11891 0 0.9929 2.38808 offset 0.40819 0.85899 31000.96744 length 0.0008 color 0 0 1 }
Segment { rot -0.10897 0 0.99404 2.16964 offset 0.41255 0.86209 31000.96792 length 0.00994 color 0 0 1 }
Segment { rot -0.21489 0 0.97664 2.12998 offset 0.41694 0.86509 31000.96844 length 0.00076 color 0 0 1 }
Segment { rot -0.17354 0 0.98483 2.03123 offset 0.41769 0.86551 31000.96858 length 0.00097 color 0 0 1 }
Segment { rot -0.05966 0 0.99822 2.55588 offset 0.41864 0.86652 31000.96869 length 0.00192 color 0 0 1 }
Segment { rot -0.10383 0 0.99459 2.48959 offset 0.41983 0.86819 31000.96879 length 0.00219 color 0 0 1 }
Segment { rot -0.21107 0 0.97747 2.43399 offset 0.4206 0.8692 31000.96888 length 0.00035 color 0 0 1 }
Segment { rot -0.2909 0 0.95675 2.45441 offset 0.42085 0.8695 31000.96895 length 0.00046 color 0 0 1 }
Segment { rot -0.30755 0 0.95153 2.40866 offset 0.42159 0.87038 31000.96918 length 0.00187 color 0 0 1 }
Segment { rot 0.02366 0 0.99972 2.43403 offset 0.42221 0.87111 31000.96938 length 0.00008 color 0 0 1 }
Segment { rot -0.05068 0 0.99871 2.13085 offset 0.42225 0.87114 31000.96938 length 0.00002 color 0 0 1 }
Segment { rot -0.45889 0 0.88849 2.76386 offset 0.42234 0.87137 31000.96942 length 0.00048 color 0 0 1 }
Segment { rot -0.41474 0 0.90994 2.85752 offset 0.42308 0.8741 31000.96976 length 0.00522 color 0 0 1 }
Segment { rot -0.36659 0 0.93038 2.89824 offset 0.42381 0.87686 31000.97009 length 0.00054 color 0 0 1 }
Segment { rot -0.11209 0 0.9937 2.93997 offset 0.42396 0.87758 31000.97012 length 0.00093 color 0 0 1 }
Segment { rot -0.89428 0 -0.4475 1.94135 offset 0.42274 0.87918 31000.97276 length 0.0063 color 0 0 1 }
Segment { rot -0.65182 0 -0.75837 2.31384 offset 0.42062 0.88129 31000.97607 length 0.00287 color 0 0 1 }
Segment { rot -0.70236 0 -0.71182 2.31324 offset 0.41974 0.88237 31000.97684 length 0.00032 color 0 0 1 }
Segment { rot -0.65851 0 -0.75257 2.33105 offset 0.4193 0.88293 31000.97724 length 0.00131 color 0 0 1 }
Segment { rot -0.67803 0 -0.73504 2.30313 offset 0.41878 0.88357 31000.9777 length 0.00058 color 0 0 1 }
Segment { rot -0.70948 0 -0.70472 2.17625 offset 0.41827 0.88412 31000.9782 length 0.00123 color 0 0 1 }
Segment { rot 0.9396 0 0.34229 1.35315 offset 0.41802 0.88439 31000.97826 length 0.00065 color 0 0 1 }
Segment { rot 0.91877 0 0.39479 1.27691 offset 0.41816 0.8843 31000.97789 length 0.00016 color 0 0 1 }
Segment { rot 0.77419 0 0.63295 1.03642 offset 0.41939 0.88316 31000.97636 length 0.00438 color 0 0 1 }
Segment { rot 0.78573 0 0.61857 0.9826 offset 0.42215 0.88035 31000.97291 length 0.00611 color 0 0 1 }
Segment { rot 0.62284 0 0.78235 1.15386 offset 0.42399 0.87851 31000.9707 length 0.00075 color 0 0 1 }
Segment { rot 0.5943 0 0.80425 1.20568 offset 0.42537 0.87783 31000.96966 length 0.00296 color 0 0 1 }
Segment { rot 0.01399 0 0.9999 0.56816 offset 0.42667 0.87699 31000.96884 length 0.00073 color 0 0 1 }
Segment { rot 0.79457 0 0.60718 0.43811 offset 0.42697 0.87632 31000.9687 length 0.0008 color 0 0 1 }
Segment { rot 0.58964 0 -0.80767 1.56281 offset 0.42694 0.87596 31000.96846 length 0.00035 color 0 0 1 }
Segment { rot 0.5706 0 -0.82123 1.5549 offset 0.42661 0.87595 31000.96823 length 0.00047 color 0 0 1 }
Segment { rot 0.56957 0 -0.82194 1.57277 offset 0.42641 0.87595 31000.96809 length 0.00002 color 0 0 1 }
Segment { rot 0.73671 0 -0.6762 1.47096 offset 0.42528 0.87578 31000.96686 length 0.00332 color 0 0 1 }
Segment { rot 0.78742 0 -0.61642 1.47113 offset 0.42374 0.87555 31000.96511 length 0.00136 color 0 0 1 }
Segment { rot 0.75797 0 -0.65229 1.38552 offset 0.42296 0.87538 31000.96416 length 0.00115 color 0 0 1 }
Segment { rot 0.74943 0 -0.66208 1.38654 offset 0.42131 0.87491 31000.96227 length 0.00396 color 0 0 1 }
Segment { rot 0.72248 0 -0.69139 1.25477 offset 0.41873 0.87394 31000.95947 length 0.00391 color 0 0 1 }
Segment { rot 0.67889 0 -0.73424 1.35421 offset 0.41564 0.87279 31000.95645 length 0.00505 color 0 0 1 }
Segment { rot 0.73594 0 -0.67704 1.17214 offset 0.41325 0.87189 31000.95416 length 0.00183 color 0 0 1 }
Segment { rot 0.83124 0 -0.55591 1.11833 offset 0.41243 0.87131 31000.95315 length 0.00104 color 0 0 1 }
Segment { rot 0.11219 0 -0.99369 0.36532 offset 0.41213 0.87099 31000.95276 length 0.00021 color 0 0 1 }
Segment { rot -0.97744 0 -0.2112 2.39182 offset 0.41172 0.87277 31000.95446 length 0.00512 color 0 0 1 }
Segment { rot 0.57484 0 -0.81826 1.88526 offset 0.4098 0.87526 31000.95507 length 0.004 color 0 0 1 }
Segment { rot 0.64827 0 -0.76141 1.86119 offset 0.40762 0.87612 31000.95345 length 0.00171 color 0 0 1 }
Segment { rot 0.63549 0 -0.77211 1.88185 offset 0.40699 0.87637 31000.95292 length 0 color 0 0 1 }
Segment { rot 0.66709 0 -0.74498 1.89149 offset 0.40623 0.87671 31000.95223 length 0.00217 color 0 0 1 }
Segment { rot 0.6918 0 -0.72209 1.97525 offset 0.4053 0.87715 31000.95139 length 0.00049 color 0 0 1 }
Segment { rot 0.79141 0 -0.61129 1.54595 offset 0.40487 0.87723 31000.95089 length 0.00088 color 0 0 1 }
Segment { rot 0.80016 0 -0.59978 1.17375 offset 0.40451 0.87716 31000.95042 length 0.00032 color 0 0 1 }
Segment { rot 0.98119 0 0.19305 2.11498 offset 0.4046 0.87766 31000.94937 length 0.0022 color 0 0 1 }
Segment { rot 0.96808 0 0.25065 2.12225 offset 0.40514 0.8791 31000.94708 length 0.00332 color 0 0 1 }
Segment { rot 0.97672 0 0.21453 2.13942 offset 0.40557 0.88022 31000.94533 length 0.00092 color 0 0 1 }
Segment { rot 0.98199 0 0.18894 2.16417 offset 0.40568 0.88054 31000.94486 length 0.00025 color 0 0 1 }
Segment { rot 0.93475 0 0.35531 2.08341 offset 0.40578 0.88074 31000.94453 length 0.00056 color 0 0 1 }
Segment { rot 0.9332 0 0.35937 2.13988 offset 0.40643 0.88188 31000.94284 length 0.00371 color 0 0 1 }
Segment { rot -0.98522 0 0.17132 0.8965 offset 0.40703 0.88269 31000.94162 length 0.00062 color 0 0 1 }
Segment { rot -0.98006 0 0.19871 0.91452 offset 0.40714 0.88226 31000.94216 length 0.00077 color 0 0 1 }
Segment { rot -0.82225 0 0.56913 0.79187 offset 0.40759 0.88133 31000.94303 length 0.00196 color 0 0 1 }
Segment { rot 0.94979 0 -0.31288 2.07232 offset 0.40793 0.88076 31000.94341 length 0.00048 color 0 0 1 }
Segment { rot 0.91573 0 -0.4018 1.99874 offset 0.40772 0.88104 31000.94288 length 0.00079 color 0 0 1 }
Segment { rot 0.89866 0 -0.43865 1.99409 offset 0.40733 0.88145 31000.94205 length 0.00122 color 0 0 1 }
Segment { rot 0.99904 0 -0.04371 1.47788 offset 0.40706 0.88166 31000.94107 length 0.00098 color 0 0 1 }
Segment { rot 0.9921 0 -0.12544 1.62987 offset 0.40699 0.88164 31000.94015 length 0.00087 color 0 0 1 }
Segment { rot 0.98026 0 -0.19772 1.41169 offset 0.40653 0.88133 31000.93771 length 0.00416 color 0 0 1 }
Segment { rot 0.98549 0 -0.16972 1.52868 offset 0.40602 0.88098 31000.93512 length 0.00116 color 0 0 1 }
Segment { rot 0.99566 0 -0.09306 1.46678 offset 0.40589 0.88091 31000.93415 length 0.00081 color 0 0 1 }
Segment { rot 0.99847 0 -0.05522 1.55531 offset 0.40585 0.88087 31000.93372 length 0.00004 color 0 0 1 }
Segment { rot 0.99686 0 0.07921 1.64684 offset 0.40593 0.88095 31000.93263 length 0.00216 color 0 0 1 }
Segment { rot 0.99383 0 0.11093 1.76755 offset 0.40603 0.88106 31000.93141 length 0.0003 color 0 0 1 }
Segment { rot 0.97124 0 0.23809 1.72493 offset 0.40644 0.88135 31000.92966 length 0.00335 color 0 0 1 }
Segment { rot 0.98175 0 0.19018 1.777 offset 0.40694 0.88172 31000.92753 length 0.0011 color 0 0 1 }
Segment { rot 0.97454 0 0.22423 1.96755 offset 0.40711 0.88197 31000.92668 length 0.00071 color 0 0 1 }
Segment { rot -0.82298 0 0.56808 1.16588 offset 0.40808 0.88143 31000.92766 length 0.00341 color 0 0 1 }
Segment { rot -0.32866 0 0.94445 1.15838 offset 0.40957 0.88048 31000.92916 length 0.00139 color 0 0 1 }
Segment { rot -0.32476 0 0.9458 1.30238 offset 0.41072 0.88004 31000.92956 length 0.0012 color 0 0 1 }
Segment { rot -0.31321 0 0.94968 1.38148 offset 0.41206 0.87972 31000.93 length 0.00169 color 0 0 1 }
Segment { rot -0.47867 0 0.878 1.74807 offset 0.41338 0.87967 31000.93055 length 0.00123 color 0 0 1 }
Segment { rot -0.52149 0 0.85326 1.75601 offset 0.41396 0.87979 31000.93087 length 0.0001 color 0 0 1 }
Segment { rot -0.54274 0 0.8399 1.61465 offset 0.41415 0.87981 31000.93099 length 0.00034 color 0 0 1 }
Segment { rot -0.66858 0 0.74364 1.57027 offset 0.41463 0.87981 31000.93139 length 0.0009 color 0 0 1 }
Segment { rot -0.57829 0 0.81583 1.58634 offset 0.41502 0.87981 31000.93173 length 0.00014 color 0 0 1 }
Segment { rot -0.73251 0 0.68076 1.66663 offset 0.41519 0.87983 31000.93189 length 0.00033 color 0 0 1 }
Segment { rot 0.76987 0 -0.6382 0.9982 offset 0.41507 0.87961 31000.93173 length 0.00086 color 0 0 1 }
Segment { rot 0.69034 0 -0.72348 0.89575 offset 0.41443 0.87894 31000.93107 length 0.00142 color 0 0 1 }
Segment { rot 0.49187 0 -0.87067 0.8184 offset 0.41398 0.87843 31000.93065 length 0.00018 color 0 0 1 }
Segment { rot 0.57429 0 -0.81865 0.93019 offset 0.41355 0.87803 31000.93036 length 0.00113 color 0 0 1 }
Segment { rot 0.45493 0 -0.89053 0.93074 offset 0.41294 0.8775 31000.92998 length 0.00065 color 0 0 1 }
Segment { rot 0.42109 0 -0.90702 1.42882 offset 0.4126 0.87728 31000.92981 length 0.00025 color 0 0 1 }
Segment { rot -0.52226 0 -0.85279 2.61917 offset 0.41236 0.87752 31000.92983 length 0.00059 color 0 0 1 }
Segment { rot -0.15221 0 -0.98835 1.97292 offset 0.41208 0.87784 31000.92993 length 0.00035 color 0 0 1 }
Segment { rot 0.49097 0 -0.87118 1.32746 offset 0.41163 0.87783 31000.9298 length 0.00068 color 0 0 1 }