#VRML V2.0 utf8
#Generated by NISTMonte
WorldInfo {
 title "NISTMonte Trajectory"
 info ["See http://www.cstl.nist.gov/div837/Division/home.html for more information"]
}
Viewpoint {
 fieldOfView 0.785398
 position 0 5 20000
 orientation -1 -0 -0 1.5708
 description "Y-Axis"
}
Viewpoint {
 fieldOfView 0.785398
 position 0 0 19995
 orientation 1 0 0 3.1415926
 description "Gun"
}
Viewpoint {
 fieldOfView 0.785398
 position -5 0 20000
 orientation 0 -1 0 1.5708
 description "X-Axis"
}




#Prototype for a trajectory segment
PROTO Segment [
 field SFRotation rot 1 0 0 0
 field SFVec3f offset 0 0 0
 field SFFloat length 0.1
 field SFColor color 1 1 1
]
{
 Transform {
  rotation IS rot
  translation IS offset
  children [
   Shape {
    geometry Cylinder {
     radius 0.001
     height IS length
    }
    appearance Appearance {
     material Material {
      emissiveColor IS color
     }
    }
   }
  ]
 }
}
Segment { rot -1 0 -0 1.5708 offset -0.00439 -0.01283 20000.00789 length 0.01578 color 0 0 1 }
Segment { rot -0.99932 0 -0.03688 1.39197 offset -0.00445 -0.01313 20000.01742 length 0.00333 color 0 0 1 }
Segment { rot -0.99176 0 -0.1281 1.39558 offset -0.00467 -0.01364 20000.02026 length 0.00246 color 0 0 1 }
Segment { rot -0.9866 0 -0.16316 1.31451 offset -0.00735 -0.01791 20000.03675 length 0.03202 color 0 0 1 }
Segment { rot -0.97599 0 -0.21783 1.34517 offset -0.01043 -0.02255 20000.05451 length 0.0052 color 0 0 1 }
Segment { rot -0.99772 0 -0.06751 1.35997 offset -0.011 -0.0232 20000.05727 length 0.00059 color 0 0 1 }
Segment { rot -0.99633 0 -0.08556 1.38035 offset -0.01108 -0.02338 20000.0582 length 0.00133 color 0 0 1 }
Segment { rot -0.98482 0 0.1736 1.38592 offset -0.0109 -0.02376 20000.06015 length 0.00269 color 0 0 1 }
Segment { rot -0.98306 0 0.18328 1.42253 offset -0.00915 -0.02524 20000.06963 length 0.01682 color 0 0 1 }
Segment { rot -0.96644 0 0.25687 1.4581 offset -0.0072 -0.02667 20000.0794 length 0.00332 color 0 0 1 }
Segment { rot -0.98683 0 0.16173 1.50284 offset -0.00671 -0.02689 20000.0814 length 0.00083 color 0 0 1 }
Segment { rot -0.99229 0 0.12395 1.55786 offset -0.00655 -0.02693 20000.08257 length 0.00155 color 0 0 1 }
Segment { rot -0.99465 0 0.10334 1.39068 offset -0.00605 -0.02764 20000.08719 length 0.00786 color 0 0 1 }
Segment { rot -0.991 0 0.13387 1.27844 offset -0.00555 -0.02857 20000.09178 length 0.00157 color 0 0 1 }
Segment { rot -0.98657 0 0.16334 1.01273 offset -0.00436 -0.03297 20000.09913 length 0.01577 color 0 0 1 }
Segment { rot -0.97884 0 0.20463 0.98918 offset -0.0031 -0.03767 20000.10651 length 0.00192 color 0 0 1 }
Segment { rot -0.99431 0 0.10653 0.8748 offset -0.00244 -0.04213 20000.11196 length 0.01224 color 0 0 1 }
Segment { rot -0.76233 0 0.64719 0.7802 offset 0.00194 -0.05211 20000.12121 length 0.01705 color 0 0 1 }
Segment { rot -0.86076 0 0.50902 0.61771 offset 0.0065 -0.06003 20000.12691 length 0.00456 color 0 0 1 }
Segment { rot -0.7952 0 0.60634 0.4807 offset 0.00755 -0.06308 20000.12855 length 0.0027 color 0 0 1 }
Segment { rot -0.70373 0 -0.71047 0.35928 offset 0.0071 -0.06738 20000.12986 length 0.00663 color 0 0 1 }
Segment { rot -0.82049 0 -0.57166 0.62616 offset 0.00574 -0.07177 20000.13145 length 0.00318 color 0 0 1 }
Segment { rot -0.78429 0 -0.62039 0.67137 offset 0.00257 -0.0784 20000.13554 length 0.01364 color 0 0 1 }
Segment { rot -0.80214 0 -0.59714 0.61438 offset -0.00167 -0.08757 20000.14103 length 0.00937 color 0 0 1 }
Segment { rot -0.38816 0 -0.92159 0.64271 offset -0.00703 -0.09682 20000.14478 length 0.01356 color 0 0 1 }
Segment { rot -0.23241 0 -0.97262 0.83525 offset -0.01283 -0.10417 20000.14684 length 0.0057 color 0 0 1 }
Segment { rot -0.46335 0 -0.88618 0.61655 offset -0.01537 -0.10684 20000.14759 length 0.00187 color 0 0 1 }
Segment { rot -0.49791 0 -0.86723 0.60474 offset -0.01588 -0.10766 20000.14786 length 0.00014 color 0 0 1 }
Segment { rot -0.39532 0 -0.91854 0.58664 offset -0.01631 -0.10837 20000.14805 length 0.00156 color 0 0 1 }
Segment { rot -0.58912 0 -0.80805 0.4973 offset -0.01995 -0.11641 20000.15058 length 0.01682 color 0 0 1 }
Segment { rot -0.59952 0 -0.80036 0.53823 offset -0.02363 -0.12472 20000.15327 length 0.00214 color 0 0 1 }
Segment { rot -0.64137 0 -0.76723 0.49952 offset -0.02573 -0.12961 20000.15499 length 0.00906 color 0 0 1 }
Segment { rot -0.56146 0 -0.82751 0.60727 offset -0.02743 -0.13365 20000.15641 length 0.00015 color 0 0 1 }
Segment { rot -0.63001 0 -0.77658 0.63866 offset -0.02841 -0.13534 20000.1572 length 0.00406 color 0 0 1 }
Segment { rot -0.65365 0 -0.7568 0.63899 offset -0.03455 -0.14623 20000.16245 length 0.02306 color 0 0 1 }
Segment { rot -0.61826 0 -0.78597 0.68405 offset -0.04407 -0.16222 20000.17034 length 0.01736 color 0 0 1 }
Segment { rot -0.35448 0 -0.93506 0.65391 offset -0.05026 -0.17157 20000.17445 length 0.00661 color 0 0 1 }
Segment { rot -0.11681 0 -0.99315 1.29337 offset -0.05901 -0.17616 20000.17597 length 0.01437 color 0 0 1 }
Segment { rot -0.06237 0 -0.99805 1.36297 offset -0.06753 -0.17848 20000.17688 length 0.00342 color 0 0 1 }
Segment { rot -0.02476 0 -0.99969 1.42054 offset -0.07012 -0.17897 20000.177 length 0.00185 color 0 0 1 }
Segment { rot -0.06979 0 -0.99756 1.32086 offset -0.07422 -0.17993 20000.17725 length 0.0066 color 0 0 1 }
Segment { rot -0.04479 0 -0.999 1.31959 offset -0.07786 -0.18086 20000.17749 length 0.00093 color 0 0 1 }
Segment { rot 0.11234 0 -0.99367 1.17922 offset -0.07852 -0.18106 20000.17749 length 0.00045 color 0 0 1 }
Segment { rot 0.08563 0 -0.99633 1.15129 offset -0.07904 -0.18129 20000.17744 length 0.00069 color 0 0 1 }
Segment { rot 0.05666 0 -0.99839 1.04326 offset -0.08346 -0.18382 20000.17718 length 0.00952 color 0 0 1 }
Segment { rot 0.25335 0 -0.96737 1.09345 offset -0.08805 -0.18648 20000.17682 length 0.00111 color 0 0 1 }
Segment { rot -0.06203 0 -0.99807 1.00972 offset -0.08943 -0.1873 20000.17675 length 0.00215 color 0 0 1 }
Segment { rot -0.08184 0 -0.99665 1.02933 offset -0.09165 -0.18867 20000.17692 length 0.00308 color 0 0 1 }
Segment { rot -0.07904 0 -0.99687 1.33109 offset -0.10115 -0.19147 20000.17768 length 0.0169 color 0 0 1 }
Segment { rot 0.10875 0 -0.99407 1.4462 offset -0.11256 -0.19388 20000.17797 length 0.00654 color 0 0 1 }
Segment { rot 0.11315 0 -0.99358 1.42823 offset -0.11811 -0.19462 20000.17735 length 0.00474 color 0 0 1 }
Segment { rot 0.12062 0 -0.9927 1.39971 offset -0.12476 -0.19571 20000.17656 length 0.00884 color 0 0 1 }
Segment { rot 0.10812 0 -0.99414 1.38351 offset -0.12946 -0.19654 20000.176 length 0.00076 color 0 0 1 }
Segment { rot 0.1699 0 -0.98546 1.36547 offset -0.13084 -0.19682 20000.17578 length 0.00208 color 0 0 1 }
Segment { rot 0.13598 0 -0.99071 1.33361 offset -0.1388 -0.19873 20000.17466 length 0.01445 color 0 0 1 }
Segment { rot 0.11656 0 -0.99318 1.3997 offset -0.14882 -0.20096 20000.17334 length 0.00626 color 0 0 1 }
Segment { rot 0.0485 0 -0.99882 1.56882 offset -0.15202 -0.20149 20000.17297 length 0.00027 color 0 0 1 }
Segment { rot -0.07083 0 -0.99749 1.54695 offset -0.15254 -0.2015 20000.17299 length 0.00075 color 0 0 1 }
Segment { rot -0.24764 0 -0.96885 1.45532 offset -0.15937 -0.20228 20000.17467 length 0.01342 color 0 0 1 }
Segment { rot -0.22257 0 -0.97492 1.43209 offset -0.16618 -0.20311 20000.1764 length 0.00072 color 0 0 1 }
Segment { rot -0.20116 0 -0.97956 1.65162 offset -0.16653 -0.20316 20000.17648 length 0.00002 color 0 0 1 }
Segment { rot -0.24733 0 -0.96893 1.66018 offset -0.18329 -0.20161 20000.18076 length 0.03471 color 0 0 1 }
Segment { rot -0.34083 0 -0.94013 1.54339 offset -0.21442 -0.20048 20000.19025 length 0.0306 color 0 0 1 }
Segment { rot -0.28888 0 -0.95737 1.54128 offset -0.23035 -0.20094 20000.19593 length 0.00325 color 0 0 1 }
Segment { rot -0.30073 0 -0.95371 1.47044 offset -0.23932 -0.20177 20000.19874 length 0.01562 color 0 0 1 }
Segment { rot -0.23916 0 -0.97098 1.48895 offset -0.25062 -0.20289 20000.20203 length 0.00804 color 0 0 1 }
Segment { rot -0.29792 0 -0.95459 1.51108 offset -0.25682 -0.20336 20000.20371 length 0.00483 color 0 0 1 }
Segment { rot -0.26457 0 -0.96437 1.52847 offset -0.26017 -0.20355 20000.20472 length 0.00218 color 0 0 1 }
Segment { rot 0.22698 0 -0.9739 1.52554 offset -0.26421 -0.20373 20000.20431 length 0.00615 color 0 0 1 }
Segment { rot 0.38191 0 -0.9242 1.43071 offset -0.26941 -0.20421 20000.2027 length 0.00483 color 0 0 1 }
Segment { rot 0.32426 0 -0.94597 1.4129 offset -0.27414 -0.20497 20000.20092 length 0.0054 color 0 0 1 }
Segment { rot 0.36711 0 -0.93018 1.48775 offset -0.27785 -0.2055 20000.19959 length 0.00257 color 0 0 1 }
Segment { rot 0.40004 0 -0.9165 1.45327 offset -0.28087 -0.20585 20000.19832 length 0.00401 color 0 0 1 }
Segment { rot 0.44587 0 -0.8951 1.29407 offset -0.28687 -0.2074 20000.19544 length 0.00969 color 0 0 1 }
Segment { rot 0.99617 0 0.08748 0.69909 offset -0.29056 -0.21533 20000.18783 length 0.01725 color 0 0 1 }
Segment { rot 0.98511 0 0.17194 0.74116 offset -0.28984 -0.22339 20000.18099 length 0.00395 color 0 0 1 }
Segment { rot 0.98546 0 0.16992 0.74074 offset -0.28752 -0.23833 20000.16753 length 0.03655 color 0 0 1 }
Segment { rot 0.98102 0 0.1939 0.70846 offset -0.28493 -0.25476 20000.1529 length 0.00776 color 0 0 1 }
Segment { rot 0.97598 0 0.21785 0.69077 offset -0.28327 -0.26421 20000.14517 length 0.01687 color 0 0 1 }
Segment { rot 0.96862 0 0.24856 0.71466 offset -0.28016 -0.27972 20000.13236 length 0.02385 color 0 0 1 }
Segment { rot 0.96593 0 0.2588 0.68457 offset -0.2781 -0.28927 20000.12436 length 0.00142 color 0 0 1 }
Segment { rot 0.97001 0 0.24308 0.74992 offset -0.27798 -0.28983 20000.12392 length 0.00004 color 0 0 1 }
Segment { rot 0.96919 0 0.24631 0.73519 offset -0.27765 -0.29131 20000.12263 length 0.00394 color 0 0 1 }
Segment { rot 0.96034 0 0.27883 0.75584 offset -0.27607 -0.29754 20000.11702 length 0.01313 color 0 0 1 }
Segment { rot 0.9573 0 0.2891 0.76515 offset -0.27475 -0.30256 20000.11248 length 0.00066 color 0 0 1 }
Segment { rot 0.95711 0 0.28974 0.75093 offset -0.27352 -0.30713 20000.10839 length 0.01185 color 0 0 1 }
Segment { rot 0.92496 0 0.38007 0.73586 offset -0.27196 -0.31259 20000.10358 length 0.00304 color 0 0 1 }
Segment { rot 0.89346 0 0.44915 0.38163 offset -0.2711 -0.31632 20000.1017 length 0.00562 color 0 0 1 }
Segment { rot 0.96265 0 0.27075 0.36309 offset -0.27047 -0.32042 20000.10022 length 0.00318 color 0 0 1 }
Segment { rot 0.98249 0 0.18631 0.33552 offset -0.26965 -0.3323 20000.09612 length 0.02202 color 0 0 1 }
Segment { rot 0.53263 0 0.84635 0.14293 offset -0.2675 -0.35481 20000.09163 length 0.02448 color 0 0 1 }
Segment { rot 0.60502 0 0.79621 0.432 offset -0.26437 -0.37141 20000.08944 length 0.0099 color 0 0 1 }
Segment { rot 0.7481 0 0.66359 0.46346 offset -0.26241 -0.37684 20000.08784 length 0.0021 color 0 0 1 }
Segment { rot 0.76339 0 0.64593 0.40079 offset -0.26133 -0.38058 20000.08658 length 0.00607 color 0 0 1 }
Segment { rot 0.59706 0 0.8022 0.40727 offset -0.25997 -0.38511 20000.08523 length 0.00378 color 0 0 1 }
Segment { rot 0.60806 0 0.79389 0.43579 offset -0.25797 -0.39062 20000.08372 length 0.00832 color 0 0 1 }
Segment { rot 0.47626 0 0.8793 0.60125 offset -0.25579 -0.3957 20000.08222 length 0.00317 color 0 0 1 }
Segment { rot 0.21729 0 0.97611 0.64475 offset -0.25381 -0.39863 20000.08153 length 0.00406 color 0 0 1 }
Segment { rot 0.26539 0 0.96414 0.66969 offset -0.24737 -0.40713 20000.07982 length 0.01755 color 0 0 1 }
Segment { rot 0.26886 0 0.96318 0.68897 offset -0.24154 -0.41474 20000.07821 length 0.00189 color 0 0 1 }
Segment { rot 0.29078 0 0.95679 0.65674 offset -0.23536 -0.42306 20000.07635 length 0.01918 color 0 0 1 }
Segment { rot 0.30956 0 0.95088 0.59486 offset -0.22749 -0.43419 20000.07391 length 0.00852 color 0 0 1 }
Segment { rot 0.35302 0 0.93562 0.57351 offset -0.22139 -0.44405 20000.07172 length 0.01508 color 0 0 1 }
Segment { rot 0.45041 0 0.89282 0.54236 offset -0.21551 -0.45419 20000.06924 length 0.0089 color 0 0 1 }
Segment { rot 0.40509 0 0.91428 0.64813 offset -0.21318 -0.45841 20000.06809 length 0.001 color 0 0 1 }
Segment { rot 0.40765 0 0.91314 0.6436 offset -0.21054 -0.46225 20000.06691 length 0.00862 color 0 0 1 }
Segment { rot 0.38625 0 0.9224 0.70686 offset -0.2076 -0.46644 20000.06561 length 0.00194 color 0 0 1 }
Segment { rot 0.46954 0 0.88291 0.74172 offset -0.20495 -0.46974 20000.06427 length 0.00696 color 0 0 1 }
Segment { rot 0.51447 0 0.85751 0.72956 offset -0.19983 -0.47627 20000.06134 length 0.01065 color 0 0 1 }
Segment { rot 0.49438 0 0.86924 0.70054 offset -0.19619 -0.48106 20000.05917 length 0.00214 color 0 0 1 }
Segment { rot 0.46222 0 0.88677 0.70775 offset -0.19403 -0.48393 20000.05802 length 0.00541 color 0 0 1 }
Segment { rot 0.5213 0 0.85337 0.6817 offset -0.19173 -0.48705 20000.05676 length 0.00273 color 0 0 1 }
Segment { rot 0.5412 0 0.8409 0.71582 offset -0.18408 -0.49758 20000.05185 length 0.0251 color 0 0 1 }
Segment { rot 0.48323 0 0.87549 0.70013 offset -0.17493 -0.51005 20000.04617 length 0.00787 color 0 0 1 }
Segment { rot 0.39963 0 0.91668 0.63825 offset -0.17232 -0.51364 20000.04477 length 0.00143 color 0 0 1 }
Segment { rot 0.46734 0 0.88408 0.60465 offset -0.1713 -0.51524 20000.04427 length 0.00249 color 0 0 1 }
Segment { rot 0.55571 0 0.83138 0.63631 offset -0.17059 -0.51641 20000.04388 length 0.00035 color 0 0 1 }
Segment { rot 0.60904 0 0.79314 0.60603 offset -0.16989 -0.51765 20000.04336 length 0.0027 color 0 0 1 }
Segment { rot 0.84019 0 0.54229 0.66616 offset -0.16882 -0.51984 20000.04218 length 0.00274 color 0 0 1 }
Segment { rot 0.81619 0 0.57778 0.71704 offset -0.16726 -0.5231 20000.03991 length 0.0058 color 0 0 1 }
Segment { rot 0.77867 0 0.62743 0.74214 offset -0.16562 -0.52623 20000.03768 length 0.00256 color 0 0 1 }
Segment { rot 0.82499 0 0.56515 0.65218 offset -0.16497 -0.52744 20000.03684 length 0.00065 color 0 0 1 }
Segment { rot -0.99988 0 -0.0152 0.68015 offset -0.16488 -0.52943 20000.03809 length 0.00446 color 0 0 1 }
Segment { rot -1 0 0.0004 0.69285 offset -0.16489 -0.53842 20000.04551 length 0.01884 color 0 0 1 }
Segment { rot -0.99923 0 0.03935 0.82848 offset -0.16486 -0.54644 20000.05237 length 0.0023 color 0 0 1 }
Segment { rot -0.98657 0 -0.16335 0.84325 offset -0.1651 -0.54871 20000.05487 length 0.00449 color 0 0 1 }
Segment { rot -0.96654 0 -0.25651 0.87719 offset -0.16589 -0.55188 20000.05847 length 0.00524 color 0 0 1 }
Segment { rot -0.96708 0 -0.25448 0.85858 offset -0.16641 -0.55355 20000.06042 length 0 color 0 0 1 }
Segment { rot -0.9988 0 -0.04894 0.80667 offset -0.16642 -0.55375 20000.06062 length 0.00056 color 0 0 1 }
Segment { rot -0.99056 0 -0.13706 0.76974 offset -0.16655 -0.55487 20000.06172 length 0.0026 color 0 0 1 }
Segment { rot -0.9964 0 -0.08482 0.88692 offset -0.16674 -0.55647 20000.06343 length 0.00212 color 0 0 1 }
Segment { rot -0.99706 0 -0.07659 0.86886 offset -0.16684 -0.55743 20000.06458 length 0.00088 color 0 0 1 }
Segment { rot -0.99942 0 -0.03401 0.85165 offset -0.16709 -0.56362 20000.07166 length 0.01794 color 0 0 1 }
Segment { rot -0.99888 0 -0.04737 0.86291 offset -0.16741 -0.57109 20000.08023 length 0.00481 color 0 0 1 }
Segment { rot -0.97223 0 0.23404 1.08606 offset -0.16295 -0.58288 20000.10094 length 0.04389 color 0 0 1 }
Segment { rot -0.97427 0 0.22537 1.07701 offset -0.15833 -0.5933 20000.12016 length 0.00079 color 0 0 1 }
Segment { rot -0.98392 0 0.17862 1.09871 offset -0.15823 -0.59354 20000.1206 length 0.00023 color 0 0 1 }
Segment { rot -0.98685 0 0.16165 1.09572 offset -0.15599 -0.60067 20000.13428 length 0.03096 color 0 0 1 }
Segment { rot -0.99354 0 0.11349 1.19263 offset -0.15371 -0.60794 20000.14833 length 0.001 color 0 0 1 }
Segment { rot -0.9968 0 0.07992 1.14063 offset -0.1536 -0.60846 20000.14953 length 0.00162 color 0 0 1 }
Segment { rot -0.99964 0 0.02675 1.13917 offset -0.15319 -0.61485 20000.1634 length 0.02893 color 0 0 1 }
Segment { rot -0.99977 0 0.02144 1.1446 offset -0.15283 -0.62111 20000.177 length 0.00104 color 0 0 1 }
Segment { rot -0.99777 0 -0.0667 1.06817 offset -0.15305 -0.62324 20000.18094 length 0.00794 color 0 0 1 }
Segment { rot -0.9963 0 -0.08598 1.06039 offset -0.15353 -0.62677 20000.18729 length 0.00661 color 0 0 1 }
Segment { rot -0.99792 0 -0.0645 1.02872 offset -0.15399 -0.63038 20000.19347 length 0.00774 color 0 0 1 }
Segment { rot -0.99775 0 -0.067 1.09037 offset -0.15424 -0.63267 20000.19734 length 0.00127 color 0 0 1 }
Segment { rot -0.99369 0 -0.11215 1.09678 offset -0.15459 -0.63441 20000.2007 length 0.00631 color 0 0 1 }
Segment { rot -0.99996 0 0.00864 1.24574 offset -0.15489 -0.63648 20000.20537 length 0.00398 color 0 0 1 }
Segment { rot -0.99955 0 0.03014 1.25261 offset -0.15462 -0.63991 20000.21574 length 0.01787 color 0 0 1 }
Segment { rot -0.99999 0 0.00418 1.2546 offset -0.15435 -0.64424 20000.22889 length 0.00984 color 0 0 1 }
Segment { rot -0.99939 0 -0.03503 1.28569 offset -0.15435 -0.64595 20000.23419 length 0.00131 color 0 0 1 }
Segment { rot -0.99852 0 -0.05445 1.28313 offset -0.15456 -0.64714 20000.23823 length 0.00712 color 0 0 1 }
Segment { rot -0.99502 0 -0.09963 1.30501 offset -0.15553 -0.65031 20000.24952 length 0.01643 color 0 0 1 }
Segment { rot -0.99042 0 -0.13811 1.27912 offset -0.15634 -0.65251 20000.25753 length 0.00025 color 0 0 1 }
Segment { rot -0.95549 0 0.29504 0.95082 offset -0.15593 -0.65357 20000.25902 length 0.00353 color 0 0 1 }
Segment { rot -0.90079 0 0.43425 0.9126 offset -0.15218 -0.66051 20000.26729 length 0.01936 color 0 0 1 }
Segment { rot -0.91724 0 0.39834 0.85911 offset -0.14727 -0.66987 20000.27784 length 0.01053 color 0 0 1 }
Segment { rot -0.90331 0 0.42898 0.80129 offset -0.14447 -0.67604 20000.28405 length 0.00785 color 0 0 1 }
Segment { rot -0.99619 0 0.08722 1.06206 offset -0.14311 -0.67976 20000.28837 length 0.00408 color 0 0 1 }
Segment { rot -0.99661 0 0.08233 1.09678 offset -0.14245 -0.68389 20000.29623 length 0.01374 color 0 0 1 }
Segment { rot -0.99699 0 0.07758 1.10644 offset -0.14189 -0.68742 20000.30311 length 0.00175 color 0 0 1 }
Segment { rot -0.99738 0 0.07233 1.00749 offset -0.14175 -0.68843 20000.30487 length 0.00233 color 0 0 1 }
Segment { rot -0.99973 0 0.02325 0.97236 offset -0.14152 -0.69393 20000.31301 length 0.01732 color 0 0 1 }
Segment { rot -0.9998 0 0.01984 0.87957 offset -0.14132 -0.70029 20000.32194 length 0.00464 color 0 0 1 }
Segment { rot -1 0 -0.00014 0.85284 offset -0.14128 -0.70196 20000.32394 length 0.00057 color 0 0 1 }
Segment { rot -0.98924 0 0.14633 0.91333 offset -0.14051 -0.7062 20000.32935 length 0.01326 color 0 0 1 }
Segment { rot -0.98813 0 0.15365 0.83702 offset -0.13937 -0.71241 20000.33692 length 0.00647 color 0 0 1 }
Segment { rot -0.9673 0 0.25364 0.62883 offset -0.1385 -0.71732 20000.34122 length 0.00677 color 0 0 1 }
Segment { rot -0.96373 0 0.26687 0.59967 offset -0.13698 -0.7256 20000.34679 length 0.01342 color 0 0 1 }
Segment { rot -0.94913 0 0.31487 0.62384 offset -0.13563 -0.73266 20000.35149 length 0.00376 color 0 0 1 }
Segment { rot -0.98173 0 0.1903 0.63503 offset -0.13503 -0.73596 20000.35381 length 0.00439 color 0 0 1 }
Segment { rot -0.98639 0 0.1644 0.61095 offset -0.13469 -0.73857 20000.35567 length 0.00206 color 0 0 1 }
Segment { rot -0.98555 0 0.16939 0.59428 offset -0.13416 -0.74322 20000.35879 length 0.00919 color 0 0 1 }
Segment { rot -0.75657 0 -0.65392 0.6472 offset -0.13532 -0.75028 20000.36318 length 0.00814 color 0 0 1 }
Segment { rot -0.68879 0 -0.72496 0.70639 offset -0.14214 -0.76194 20000.36999 length 0.02213 color 0 0 1 }
Segment { rot -0.67792 0 -0.73514 0.76454 offset -0.14838 -0.77182 20000.37589 length 0.00406 color 0 0 1 }
Segment { rot -0.60361 0 -0.79728 0.92299 offset -0.15134 -0.77512 20000.3783 length 0.00609 color 0 0 1 }
Segment { rot -0.58482 0 -0.81117 0.90503 offset -0.15361 -0.77728 20000.38001 length 0.00104 color 0 0 1 }
Segment { rot -0.54868 0 -0.83603 1.2452 offset -0.16106 -0.78048 20000.38492 length 0.01797 color 0 0 1 }
Segment { rot -0.66826 0 -0.74393 1.1626 offset -0.16891 -0.78378 20000.39025 length 0.00215 color 0 0 1 }
Segment { rot -0.68887 0 -0.72489 1.07927 offset -0.17014 -0.78457 20000.39138 length 0.00154 color 0 0 1 }
Segment { rot -0.69854 0 -0.71558 1.06893 offset -0.17409 -0.78758 20000.39522 length 0.01101 color 0 0 1 }
Segment { rot -0.72059 0 -0.69336 1.05395 offset -0.17783 -0.79047 20000.39889 length 0.00096 color 0 0 1 }
Segment { rot -0.49531 0 -0.86872 0.46786 offset -0.17938 -0.79359 20000.39991 length 0.00647 color 0 0 1 }
Segment { rot -0.47685 0 -0.87899 0.50357 offset -0.1808 -0.79679 20000.40072 length 0.00072 color 0 0 1 }
Segment { rot -0.43666 0 -0.89963 0.50828 offset -0.18096 -0.79712 20000.4008 length 0.00003 color 0 0 1 }
Segment { rot 0.0347 0 -0.9994 0.4496 offset -0.1811 -0.7974 20000.4008 length 0.0006 color 0 0 1 }
Segment { rot 0.06706 0 -0.99775 0.4574 offset -0.18123 -0.79768 20000.40079 length 0.00002 color 0 0 1 }
Segment { rot -0.04789 0 -0.99885 0.53999 offset -0.18288 -0.80043 20000.40087 length 0.0064 color 0 0 1 }
Segment { rot 0.07094 0 -0.99748 0.50131 offset -0.18881 -0.81102 20000.40065 length 0.01791 color 0 0 1 }
Segment { rot -0.0521 0 -0.99864 0.88784 offset -0.19421 -0.81977 20000.4004 length 0.00284 color 0 0 1 }
Segment { rot -0.09649 0 -0.99533 0.84993 offset -0.19729 -0.82242 20000.40065 length 0.00531 color 0 0 1 }
Segment { rot -0.13403 0 -0.99098 0.67293 offset -0.19996 -0.82503 20000.40093 length 0.0022 color 0 0 1 }
Segment { rot -0.01171 0 -0.99993 0.60375 offset -0.20113 -0.8266 20000.40103 length 0.00173 color 0 0 1 }
Segment { rot 0.02365 0 -0.99972 0.8234 offset -0.20569 -0.83109 20000.40094 length 0.01111 color 0 0 1 }
Segment { rot 0.04328 0 -0.99906 0.88488 offset -0.21442 -0.83868 20000.40064 length 0.01206 color 0 0 1 }
Segment { rot 0.21434 0 -0.97676 0.80623 offset -0.22061 -0.84401 20000.4001 length 0.00434 color 0 0 1 }
Segment { rot 0.19906 0 -0.97999 0.72718 offset -0.22296 -0.84644 20000.3996 length 0.0025 color 0 0 1 }
Segment { rot 0.14283 0 -0.98975 0.71808 offset -0.22581 -0.84973 20000.39914 length 0.00625 color 0 0 1 }
Segment { rot 0.09837 0 -0.99515 0.76236 offset -0.22824 -0.85251 20000.39881 length 0.00117 color 0 0 1 }
Segment { rot 0.18089 0 -0.9835 0.76001 offset -0.22882 -0.85312 20000.39874 length 0.00052 color 0 0 1 }
Segment { rot 0.09653 0 -0.99533 0.7895 offset -0.2295 -0.85381 20000.39866 length 0.00142 color 0 0 1 }
Segment { rot 0.09626 0 -0.99536 0.78581 offset -0.23021 -0.85451 20000.39859 length 0.00057 color 0 0 1 }
Segment { rot 0.11408 0 -0.99347 0.77566 offset -0.2322 -0.85655 20000.39836 length 0.00514 color 0 0 1 }
Segment { rot 0.0381 0 -0.99927 0.61927 offset -0.23651 -0.86192 20000.39806 length 0.0087 color 0 0 1 }
Segment { rot 0.0345 0 -0.9994 0.58388 offset -0.24036 -0.86748 20000.39792 length 0.00483 color 0 0 1 }
Segment { rot 0.05105 0 -0.9987 0.59283 offset -0.24249 -0.87068 20000.39783 length 0.00286 color 0 0 1 }
Segment { rot 0.09612 0 -0.99537 0.71088 offset -0.25056 -0.88036 20000.39709 length 0.02241 color 0 0 1 }
Segment { rot 0.11214 0 -0.99369 0.70688 offset -0.25953 -0.89084 20000.3962 length 0.00524 color 0 0 1 }
Segment { rot 0.15648 0 -0.98768 0.74111 offset -0.26135 -0.89297 20000.39599 length 0.00038 color 0 0 1 }
Segment { rot 0.24302 0 -0.97002 0.7633 offset -0.26242 -0.89413 20000.39573 length 0.00282 color 0 0 1 }
Segment { rot 0.31313 0 -0.94971 0.7836 offset -0.26442 -0.89627 20000.39514 length 0.00316 color 0 0 1 }
Segment { rot 0.36265 0 -0.93192 0.81501 offset -0.26725 -0.89917 20000.3941 length 0.00522 color 0 0 1 }
Segment { rot 0.31196 0 -0.95009 0.80827 offset -0.27332 -0.90529 20000.392 length 0.01253 color 0 0 1 }
Segment { rot 0.32183 0 -0.9468 0.83169 offset -0.278 -0.90997 20000.39046 length 0.00105 color 0 0 1 }
Segment { rot 0.38487 0 -0.92297 0.90201 offset -0.2865 -0.91729 20000.38695 length 0.02246 color 0 0 1 }
Segment { rot 0.40254 0 -0.9154 0.92062 offset -0.29784 -0.92692 20000.38214 length 0.00881 color 0 0 1 }
Segment { rot 0.88102 0 0.47308 0.40698 offset -0.3007 -0.93132 20000.38008 length 0.00376 color 0 0 1 }
Segment { rot 0.84438 0 0.53574 0.3627 offset -0.29968 -0.93631 20000.37837 length 0.007 color 0 0 1 }
Segment { rot 0.61711 0 0.78688 0.37902 offset -0.29718 -0.94544 20000.37589 length 0.01261 color 0 0 1 }
Segment { rot 0.5128 0 0.85851 0.3159 offset -0.29522 -0.95175 20000.37437 length 0.00096 color 0 0 1 }
Segment { rot 0.54822 0 0.83633 0.29373 offset -0.29469 -0.95379 20000.37403 length 0.0033 color 0 0 1 }
Segment { rot 0.83064 0 0.55681 0.36719 offset -0.29392 -0.95707 20000.37323 length 0.00364 color 0 0 1 }
Segment { rot -0.09447 0 0.99553 0.09431 offset -0.29305 -0.96417 20000.37273 length 0.01086 color 0 0 1 }
Segment { rot -0.43397 0 0.90093 0.11344 offset -0.29199 -0.975 20000.37305 length 0.01092 color 0 0 1 }
Segment { rot -0.99887 0 0.04749 0.37625 offset -0.29135 -0.98465 20000.37498 length 0.00908 color 0 0 1 }
Segment { rot -0.99991 0 -0.01351 0.37879 offset -0.29129 -0.99296 20000.37828 length 0.00881 color 0 0 1 }
Segment { rot -0.99898 0 0.0451 0.37542 offset -0.29131 -0.99715 20000.37995 length 0.00021 color 0 0 1 }
Segment { rot -0.99893 0 -0.04625 0.36802 offset -0.2914 -1.00238 20000.38196 length 0.01099 color 0 0 1 }
Segment { rot -0.99292 0 -0.11879 0.33552 offset -0.29156 -1.00914 20000.3845 length 0.00348 color 0 0 1 }
Segment { rot -0.97368 0 -0.22794 0.40386 offset -0.29164 -1.01083 20000.38509 length 0.0001 color 0 0 1 }
Segment { rot -0.92451 0 -0.38115 0.36267 offset -0.29184 -1.01225 20000.38559 length 0.00294 color 0 0 1 }
Segment { rot -0.94262 0 -0.33386 0.35101 offset -0.29247 -1.01714 20000.38728 length 0.00748 color 0 0 1 }
Segment { rot -0.94566 0 -0.32514 0.38513 offset -0.29383 -1.02771 20000.3912 length 0.01524 color 0 0 1 }
Segment { rot -0.88699 0 -0.4618 0.40908 offset -0.29496 -1.03579 20000.3943 length 0.00221 color 0 0 1 }
Segment { rot -0.88894 0 -0.45803 0.43309 offset -0.29547 -1.03826 20000.39529 length 0.00321 color 0 0 1 }
Segment { rot -0.98802 0 -0.15432 0.29629 offset -0.2958 -1.04008 20000.396 length 0.00075 color 0 0 1 }
Segment { rot -0.87664 0 0.48115 0.26383 offset -0.29577 -1.04077 20000.39619 length 0.0007 color 0 0 1 }
Segment { rot -0.87791 0 0.47883 0.25353 offset -0.29521 -1.04529 20000.39722 length 0.00863 color 0 0 1 }
Segment { rot -0.92158 0 0.38818 0.2942 offset -0.29409 -1.05454 20000.39958 length 0.01061 color 0 0 1 }
Segment { rot -0.61902 0 0.78537 0.27787 offset -0.29184 -1.06702 20000.40231 length 0.01538 color 0 0 1 }
Segment { rot -0.88575 0 0.46416 0.23708 offset -0.28957 -1.07991 20000.40479 length 0.01131 color 0 0 1 }
Segment { rot -0.8748 0 0.48448 0.22045 offset -0.28893 -1.0856 20000.406 length 0.00039 color 0 0 1 }
Segment { rot -0.86347 0 0.5044 0.28056 offset -0.28875 -1.08689 20000.40632 length 0.0023 color 0 0 1 }
Segment { rot -0.80691 0 0.59067 0.35512 offset -0.28818 -1.08985 20000.40714 length 0.00395 color 0 0 1 }
Segment { rot -0.79833 0 0.60222 0.354 offset -0.28704 -1.09502 20000.40868 length 0.00708 color 0 0 1 }
Segment { rot -0.87493 0 0.48425 0.31671 offset -0.28606 -1.09984 20000.41009 length 0.00317 color 0 0 1 }
Segment { rot -0.93694 0 0.34949 0.34515 offset -0.2856 -1.10308 20000.4111 length 0.00367 color 0 0 1 }
Segment { rot -0.99961 0 -0.02787 0.34714 offset -0.28544 -1.11041 20000.41371 length 0.01192 color 0 0 1 }
Segment { rot -0.96205 0 0.27286 0.37215 offset -0.28466 -1.12386 20000.41868 length 0.01684 color 0 0 1 }
Segment { rot -0.95834 0 0.28561 0.36677 offset -0.28381 -1.1319 20000.4217 length 0.00043 color 0 0 1 }
Segment { rot -0.97457 0 0.22409 0.35318 offset -0.28373 -1.13271 20000.422 length 0.0013 color 0 0 1 }
Segment { rot -0.97188 0 0.23548 0.32634 offset -0.28368 -1.13332 20000.42221 length 0.00001 color 0 0 1 }
Segment { rot -0.97013 0 0.24259 0.44114 offset -0.28324 -1.13716 20000.42397 length 0.00847 color 0 0 1 }
Segment { rot -0.97644 0 0.21581 0.40226 offset -0.28265 -1.14265 20000.42642 length 0.00361 color 0 0 1 }
Segment { rot -0.99929 0 0.03756 0.32889 offset -0.28247 -1.14642 20000.42783 length 0.00446 color 0 0 1 }
Segment { rot -0.99472 0 0.1026 0.30357 offset -0.28241 -1.14964 20000.42889 length 0.00232 color 0 0 1 }
Segment { rot -0.98337 0 0.18161 0.34161 offset -0.28237 -1.15082 20000.42926 length 0.00015 color 0 0 1 }
Segment { rot -0.44054 0 0.89773 0.24574 offset -0.28204 -1.15233 20000.42944 length 0.00297 color 0 0 1 }
Segment { rot -0.28974 0 0.95711 0.20202 offset -0.28122 -1.15629 20000.42975 length 0.00516 color 0 0 1 }
Segment { rot -0.04006 0 0.9992 0.15094 offset -0.27908 -1.16963 20000.42997 length 0.02187 color 0 0 1 }
Segment { rot -0.12521 0 0.99213 0.16063 offset -0.2773 -1.18133 20000.43005 length 0.00181 color 0 0 1 }
Segment { rot 0.25058 0 0.9681 0.15302 offset -0.27675 -1.18496 20000.42996 length 0.00554 color 0 0 1 }
Segment { rot 0.23183 0 0.97276 0.1367 offset -0.27507 -1.19714 20000.42956 length 0.01907 color 0 0 1 }
Segment { rot 0.82266 0 0.56854 0.22203 offset -0.27347 -1.20927 20000.42876 length 0.0055 color 0 0 1 }
Segment { rot 0.86729 0 0.4978 0.26688 offset -0.27295 -1.21324 20000.42795 length 0.00268 color 0 0 1 }
Segment { rot 0.79921 0 0.60106 0.23478 offset -0.2709 -1.22753 20000.42516 length 0.02672 color 0 0 1 }
Segment { rot 0.80861 0 0.58835 0.26152 offset -0.26893 -1.24115 20000.42254 length 0.00129 color 0 0 1 }
Segment { rot 0.9919 0 0.12699 0.65819 offset -0.26833 -1.24692 20000.41846 length 0.01301 color 0 0 1 }
Segment { rot 0.99203 0 0.12601 0.64985 offset -0.26765 -1.25387 20000.41315 length 0.00454 color 0 0 1 }
Segment { rot 0.98824 0 0.15293 0.62971 offset -0.2671 -1.25904 20000.40937 length 0.00832 color 0 0 1 }
Segment { rot 0.97693 0 0.21357 0.82378 offset -0.26449 -1.27211 20000.39671 length 0.02857 color 0 0 1 }
Segment { rot 0.99519 0 0.09801 0.81991 offset -0.26224 -1.28198 20000.38629 length 0.00047 color 0 0 1 }
Segment { rot 0.99237 0 0.12331 0.87345 offset -0.26185 -1.28468 20000.38312 length 0.00789 color 0 0 1 }
Segment { rot 0.99268 0 0.1208 0.90346 offset -0.26087 -1.29113 20000.37518 length 0.01266 color 0 0 1 }
Segment { rot 0.99751 0 0.07051 0.89434 offset -0.26017 -1.29623 20000.36877 length 0.00379 color 0 0 1 }
Segment { rot 0.96827 0 0.24989 0.83017 offset -0.25973 -1.29866 20000.36599 length 0.00367 color 0 0 1 }
Segment { rot 0.98972 0 0.14305 0.83133 offset -0.25902 -1.30224 20000.36214 length 0.00695 color 0 0 1 }
Segment { rot 0.99411 0 0.10838 0.81089 offset -0.2582 -1.30853 20000.35545 length 0.01149 color 0 0 1 }
Segment { rot 0.999 0 0.04478 0.78395 offset -0.25772 -1.31306 20000.35074 length 0.00161 color 0 0 1 }
Segment { rot 0.99935 0 0.0361 0.72494 offset -0.25767 -1.31444 20000.34946 length 0.00216 color 0 0 1 }
Segment { rot 0.96654 0 0.25652 0.6275 offset -0.25675 -1.32009 20000.34535 length 0.01195 color 0 0 1 }
Segment { rot 0.97506 0 0.22196 0.69333 offset -0.25424 -1.33362 20000.33492 length 0.02262 color 0 0 1 }
Segment { rot 0.97631 0 0.21638 0.64163 offset -0.2524 -1.3438 20000.32679 length 0.00369 color 0 0 1 }
Segment { rot 0.96798 0 0.25103 0.64616 offset -0.2514 -1.34927 20000.32279 length 0.01001 color 0 0 1 }
Segment { rot 0.99702 0 0.0771 0.51553 offset -0.25037 -1.35958 20000.31631 length 0.01451 color 0 0 1 }
Segment { rot 0.95415 0 0.29933 0.79579 offset -0.24957 -1.36762 20000.31106 length 0.00493 color 0 0 1 }
Segment { rot 0.96601 0 0.2585 0.82267 offset -0.24833 -1.37188 20000.30674 length 0.00745 color 0 0 1 }
Segment { rot 0.99056 0 0.13706 1.0146 offset -0.24757 -1.37468 20000.30369 length 0.00097 color 0 0 1 }
Segment { rot 0.99881 0 0.04872 0.95448 offset -0.24746 -1.37576 20000.30212 length 0.00286 color 0 0 1 }
Segment { rot 0.99308 0 0.1174 1.01773 offset -0.24721 -1.3776 20000.29932 length 0.00388 color 0 0 1 }
Segment { rot 0.9889 0 0.14859 0.99533 offset -0.24695 -1.37892 20000.29722 length 0.0011 color 0 0 1 }
Segment { rot 0.9852 0 0.17143 1.00263 offset -0.24644 -1.38083 20000.29427 length 0.00599 color 0 0 1 }
Segment { rot 0.99938 0 0.03509 1.17774 offset -0.24598 -1.38284 20000.29084 length 0.00204 color 0 0 1 }
Segment { rot 0.99938 0 0.03514 1.17795 offset -0.24592 -1.38358 20000.28906 length 0.00183 color 0 0 1 }
Segment { rot 0.99976 0 0.0218 1.19571 offset -0.24585 -1.38455 20000.28665 length 0.00336 color 0 0 1 }
Segment { rot 0.99823 0 -0.05943 1.13624 offset -0.2459 -1.3858 20000.28371 length 0.00305 color 0 0 1 }
Segment { rot 0.94577 0 -0.32483 1.25731 offset -0.24637 -1.38683 20000.28119 length 0.00252 color 0 0 1 }
Segment { rot 0.93942 0 -0.34278 1.26224 offset -0.24785 -1.38823 20000.27707 length 0.00668 color 0 0 1 }
Segment { rot 0.93254 0 -0.36106 1.18302 offset -0.25013 -1.3906 20000.27101 length 0.00713 color 0 0 1 }
Segment { rot 0.95377 0 -0.30055 1.22107 offset -0.25185 -1.39258 20000.26626 length 0.00373 color 0 0 1 }
Segment { rot 0.99984 0 -0.01792 1.21364 offset -0.25252 -1.39619 20000.25663 length 0.01699 color 0 0 1 }
Segment { rot 0.99623 0 -0.08675 1.30023 offset -0.25361 -1.40218 20000.23782 length 0.02262 color 0 0 1 }
Segment { rot 0.88823 0 -0.45939 0.8691 offset -0.25656 -1.4089 20000.22308 length 0.01145 color 0 0 1 }
Segment { rot 0.85637 0 -0.51636 0.98364 offset -0.25875 -1.41283 20000.21889 length 0.00085 color 0 0 1 }
Segment { rot 0.81882 0 -0.57404 0.94126 offset -0.26091 -1.41557 20000.21578 length 0.0085 color 0 0 1 }
Segment { rot -0.49641 0 0.86809 0.47399 offset -0.26176 -1.42059 20000.2136 length 0.00566 color 0 0 1 }
Segment { rot 0.21577 0 0.97644 0.35867 offset -0.25987 -1.4252 20000.21408 length 0.00446 color 0 0 1 }
Segment { rot 0.20511 0 0.97874 0.29745 offset -0.25902 -1.42756 20000.21389 length 0.00056 color 0 0 1 }
Segment { rot 0.23428 0 0.97217 0.34803 offset -0.25659 -1.4345 20000.21331 length 0.01419 color 0 0 1 }
Segment { rot 0.28613 0 0.95819 0.35533 offset -0.25326 -1.44391 20000.21245 length 0.00586 color 0 0 1 }
Segment { rot 0.23095 0 0.97297 0.35017 offset -0.24927 -1.45514 20000.21144 length 0.01805 color 0 0 1 }
Segment { rot 0.08916 0 0.99602 0.31597 offset -0.24546 -1.46609 20000.21066 length 0.00521 color 0 0 1 }
Segment { rot 0.06311 0 0.99801 0.27145 offset -0.24447 -1.46921 20000.21057 length 0.00135 color 0 0 1 }
Segment { rot -0.13129 0 0.99134 0.28398 offset -0.24406 -1.47065 20000.21059 length 0.00164 color 0 0 1 }
Segment { rot -0.10992 0 0.99394 0.27016 offset -0.24331 -1.47335 20000.21068 length 0.00399 color 0 0 1 }
Segment { rot -0.50082 0 0.86555 0.21181 offset -0.24243 -1.47713 20000.21094 length 0.00379 color 0 0 1 }
Segment { rot -0.99966 0 0.02588 0.31068 offset -0.24209 -1.47907 20000.21116 length 0.00018 color 0 0 1 }
Segment { rot -0.99299 0 -0.1182 0.22441 offset -0.24226 -1.48561 20000.21266 length 0.01326 color 0 0 1 }
Segment { rot -0.9939 0 -0.11025 0.22494 offset -0.24254 -1.49624 20000.21507 length 0.00855 color 0 0 1 }
Segment { rot -0.97726 0 -0.21205 0.21644 offset -0.24268 -1.50126 20000.2162 length 0.00175 color 0 0 1 }
Segment { rot -0.84189 0 0.53965 0.47159 offset -0.24164 -1.50608 20000.21808 length 0.00889 color 0 0 1 }
Segment { rot -0.81948 0 0.57311 0.44448 offset -0.23904 -1.51556 20000.22194 length 0.01223 color 0 0 1 }
Segment { rot -0.37685 0 0.92628 0.40422 offset -0.2373 -1.52167 20000.22419 length 0.00127 color 0 0 1 }
Segment { rot -0.45369 0 0.89116 0.41142 offset -0.23632 -1.52418 20000.22466 length 0.0042 color 0 0 1 }
Segment { rot -0.51475 0 0.85734 0.41647 offset -0.23167 -1.53639 20000.22739 length 0.0225 color 0 0 1 }
Segment { rot -0.45175 0 0.89215 0.47296 offset -0.2276 -1.54704 20000.22981 length 0.0008 color 0 0 1 }
Segment { rot -0.50695 0 0.86198 0.57446 offset -0.22419 -1.55321 20000.23181 length 0.01386 color 0 0 1 }
Segment { rot -0.55165 0 0.83407 0.66227 offset -0.21915 -1.56179 20000.2349 length 0.007 color 0 0 1 }
Segment { rot -0.56662 0 0.82398 0.66978 offset -0.21652 -1.56584 20000.23667 length 0.00328 color 0 0 1 }
Segment { rot -0.59745 0 0.80191 0.70172 offset -0.21566 -1.56716 20000.23726 length 0.00007 color 0 0 1 }
Segment { rot -0.5705 0 0.8213 0.7124 offset -0.21415 -1.56929 20000.23831 length 0.00556 color 0 0 1 }
Segment { rot -0.72379 0 0.69002 0.79224 offset -0.21255 -1.57154 20000.23946 length 0.00043 color 0 0 1 }
Segment { rot -0.73704 0 0.67585 0.76681 offset -0.21136 -1.57336 20000.24075 length 0.00462 color 0 0 1 }
Segment { rot -0.79296 0 0.60927 0.74274 offset -0.20823 -1.57867 20000.24459 length 0.0099 color 0 0 1 }
Segment { rot -0.77554 0 0.6313 0.70809 offset -0.20452 -1.58541 20000.2493 length 0.00815 color 0 0 1 }
Segment { rot -0.71289 0 0.70127 0.48046 offset -0.20281 -1.58861 20000.25139 length 0.00023 color 0 0 1 }
Segment { rot -0.70975 0 0.70445 0.54421 offset -0.20166 -1.59133 20000.25255 length 0.00611 color 0 0 1 }
Segment { rot -0.65028 0 0.75969 0.50859 offset -0.19876 -1.59815 20000.2552 length 0.00965 color 0 0 1 }
Segment { rot 0.83377 0 0.55211 0.25684 offset -0.19654 -1.60535 20000.25607 length 0.00618 color 0 0 1 }
Segment { rot 0.84775 0 0.53039 0.35804 offset -0.19514 -1.61322 20000.25387 length 0.01042 color 0 0 1 }
Segment { rot 0.89642 0 0.44321 0.33208 offset -0.19369 -1.62126 20000.25135 length 0.00669 color 0 0 1 }
Segment { rot 0.87617 0 0.482 0.37754 offset -0.19105 -1.63569 20000.24646 length 0.02423 color 0 0 1 }
Segment { rot 0.74744 0 0.66433 0.43699 offset -0.18696 -1.6532 20000.24036 length 0.01379 color 0 0 1 }
Segment { rot 0.79483 0 0.60683 0.47571 offset -0.18425 -1.66191 20000.23717 length 0.00554 color 0 0 1 }
Segment { rot 0.40644 0 0.91368 0.49192 offset -0.18259 -1.66619 20000.23577 length 0.00413 color 0 0 1 }
Segment { rot 0.36149 0 0.93238 0.47375 offset -0.18126 -1.66893 20000.2352 length 0.00209 color 0 0 1 }
Segment { rot 0.36667 0 0.93035 0.41084 offset -0.17732 -1.6785 20000.23365 length 0.01884 color 0 0 1 }
Segment { rot 0.32281 0 0.94646 0.55946 offset -0.17043 -1.69286 20000.23111 length 0.01349 color 0 0 1 }
Segment { rot -0.92792 0 -0.37277 1.4945 offset -0.16871 -1.69892 20000.23411 length 0.00898 color 0 0 1 }
Segment { rot -0.92702 0 -0.37502 1.52043 offset -0.17041 -1.69926 20000.23835 length 0.00018 color 0 0 1 }
Segment { rot -0.9716 0 -0.23663 1.50263 offset -0.17148 -1.69957 20000.2427 length 0.00881 color 0 0 1 }
Segment { rot -0.98269 0 -0.18525 1.38718 offset -0.17367 -1.70102 20000.25309 length 0.01267 color 0 0 1 }
Segment { rot -0.98394 0 -0.17851 1.37064 offset -0.17558 -1.70303 20000.26333 length 0.00853 color 0 0 1 }
Segment { rot -0.97744 0 -0.21123 1.42207 offset -0.17655 -1.70404 20000.26848 length 0.00215 color 0 0 1 }
Segment { rot -0.98112 0 -0.19338 1.39908 offset -0.17736 -1.70472 20000.2725 length 0.00617 color 0 0 1 }
Segment { rot -0.99413 0 -0.10818 1.38919 offset -0.17797 -1.70529 20000.27567 length 0.00039 color 0 0 1 }
Segment { rot -0.99548 0 -0.095 1.34379 offset -0.17802 -1.70541 20000.27624 length 0.00077 color 0 0 1 }
Segment { rot -0.99216 0 -0.12497 1.34105 offset -0.17837 -1.70607 20000.27906 length 0.00506 color 0 0 1 }
Segment { rot -0.98863 0 -0.15039 1.36564 offset -0.17897 -1.70705 20000.28342 length 0.00396 color 0 0 1 }
Segment { rot -0.99305 0 -0.1177 1.34694 offset -0.17945 -1.70783 20000.28698 length 0.0034 color 0 0 1 }
Segment { rot -0.97076 0 -0.24004 1.67357 offset -0.17987 -1.70811 20000.28954 length 0.00187 color 0 0 1 }
Segment { rot -0.97072 0 -0.24021 1.68956 offset -0.18053 -1.7078 20000.29221 length 0.00366 color 0 0 1 }
Segment { rot -0.95986 0 -0.28047 1.79516 offset -0.18128 -1.70733 20000.29503 length 0.00228 color 0 0 1 }
Segment { rot -0.96854 0 -0.24887 1.75721 offset -0.18164 -1.70704 20000.29629 length 0.0004 color 0 0 1 }
Segment { rot -0.95787 0 -0.28719 1.76397 offset -0.18191 -1.70685 20000.29723 length 0.00158 color 0 0 1 }
Segment { rot -0.95236 0 -0.30498 1.77188 offset -0.18328 -1.70593 20000.30155 length 0.00768 color 0 0 1 }
Segment { rot -0.94636 0 -0.32311 1.76149 offset -0.18599 -1.70423 20000.3097 length 0.00982 color 0 0 1 }
Segment { rot -0.96624 0 -0.25765 1.75974 offset -0.18862 -1.70251 20000.31827 length 0.00845 color 0 0 1 }
Segment { rot -0.96252 0 -0.27122 1.82625 offset -0.19047 -1.70096 20000.32507 length 0.00598 color 0 0 1 }
Segment { rot -0.92728 0 -0.37438 1.91759 offset -0.19169 -1.69978 20000.32893 length 0.00247 color 0 0 1 }
Segment { rot -0.93268 0 -0.36071 1.78478 offset -0.19397 -1.69825 20000.33479 length 0.01048 color 0 0 1 }
Segment { rot -0.79881 0 -0.60159 1.90715 offset -0.1992 -1.69517 20000.34405 length 0.01191 color 0 0 1 }
Segment { rot -0.80452 0 -0.59393 2.08429 offset -0.20561 -1.69033 20000.35265 length 0.01171 color 0 0 1 }
Segment { rot -0.71354 0 -0.70062 1.92496 offset -0.21409 -1.68458 20000.3623 length 0.01658 color 0 0 1 }
Segment { rot -0.70386 0 -0.71034 1.92396 offset -0.2211 -1.6809 20000.36939 length 0.00469 color 0 0 1 }
Segment { rot -0.68925 0 -0.72452 1.99067 offset -0.22477 -1.67878 20000.37295 length 0.00638 color 0 0 1 }
Segment { rot -0.78335 0 -0.62158 1.66524 offset -0.22758 -1.67738 20000.37584 length 0.00227 color 0 0 1 }
Segment { rot -0.76226 0 -0.64727 1.58485 offset -0.23164 -1.6772 20000.38068 length 0.01038 color 0 0 1 }
Segment { rot -0.71936 0 -0.69464 1.51106 offset -0.23672 -1.67727 20000.38641 length 0.00495 color 0 0 1 }
Segment { rot -0.36472 0 -0.93112 1.37424 offset -0.2385 -1.67743 20000.38822 length 0.00015 color 0 0 1 }
Segment { rot -0.50641 0 -0.8623 1.49077 offset -0.24279 -1.67784 20000.39072 length 0.00982 color 0 0 1 }
Segment { rot -0.57168 0 -0.82048 1.68598 offset -0.25121 -1.67764 20000.39613 length 0.01031 color 0 0 1 }
Segment { rot -0.57615 0 -0.81734 1.69906 offset -0.25723 -1.67676 20000.40034 length 0.00449 color 0 0 1 }
Segment { rot -0.52865 0 -0.84884 1.92722 offset -0.26105 -1.6756 20000.40286 length 0.005 color 0 0 1 }
Segment { rot -0.45007 0 -0.89299 1.99962 offset -0.26626 -1.67308 20000.40573 length 0.00795 color 0 0 1 }
Segment { rot -0.42151 0 -0.90683 1.92594 offset -0.26969 -1.67134 20000.40745 length 0.00049 color 0 0 1 }
Segment { rot -0.2071 0 -0.97832 1.71892 offset -0.27049 -1.67117 20000.40767 length 0.00121 color 0 0 1 }
Segment { rot -0.19151 0 -0.98149 1.58043 offset -0.27181 -1.67107 20000.40794 length 0.0015 color 0 0 1 }
Segment { rot -0.66162 0 -0.74983 1.62031 offset -0.2729 -1.67104 20000.4084 length 0.00095 color 0 0 1 }
Segment { rot -0.58013 0 -0.81452 1.64232 offset -0.27423 -1.67093 20000.4094 length 0.00239 color 0 0 1 }
Segment { rot -0.58889 0 -0.80822 1.64086 offset -0.27591 -1.67078 20000.41061 length 0.00175 color 0 0 1 }
Segment { rot -0.60834 0 -0.79368 1.51733 offset -0.27704 -1.67075 20000.41145 length 0.00108 color 0 0 1 }
Segment { rot -0.61819 0 -0.78603 1.54457 offset -0.27807 -1.6708 20000.41225 length 0.00152 color 0 0 1 }
Segment { rot -0.98607 0 0.16631 2.84877 offset -0.27862 -1.66986 20000.41301 length 0.00201 color 0 0 1 }
Segment { rot -0.97815 0 0.20788 2.89395 offset -0.27853 -1.66812 20000.41349 length 0.0016 color 0 0 1 }
Segment { rot -0.80864 0 0.58831 2.93176 offset -0.27848 -1.66725 20000.4137 length 0.0002 color 0 0 1 }
Segment { rot -0.82038 0 0.57182 2.90581 offset -0.2784 -1.66669 20000.4138 length 0.00094 color 0 0 1 }
Segment { rot -0.79339 0 0.60871 3.00234 offset -0.27801 -1.66236 20000.41432 length 0.00782 color 0 0 1 }
Segment { rot -0.62462 0 0.78093 3.02787 offset -0.27768 -1.65845 20000.41476 length 0.00008 color 0 0 1 }
Segment { rot -0.99719 0 -0.07496 3.03761 offset -0.2777 -1.65508 20000.41511 length 0.0067 color 0 0 1 }
Segment { rot -0.83153 0 -0.55548 3.03085 offset -0.27789 -1.64904 20000.4157 length 0.00546 color 0 0 1 }
Segment { rot -0.65764 0 -0.75333 3.01047 offset -0.27836 -1.64336 20000.41621 length 0.00598 color 0 0 1 }
Segment { rot -0.5334 0 -0.84587 3.0332 offset -0.27888 -1.63788 20000.41662 length 0.00507 color 0 0 1 }
Segment { rot 0.45941 0 -0.88822 3.09118 offset -0.27917 -1.634 20000.41673 length 0.00272 color 0 0 1 }
Segment { rot 0.45864 0 -0.88862 3.10467 offset -0.27925 -1.63226 20000.41669 length 0.00077 color 0 0 1 }
Segment { rot -0.37481 0 -0.9271 3.08889 offset -0.27942 -1.62857 20000.41675 length 0.00662 color 0 0 1 }
Segment { rot 0.99317 0 0.11663 3.03436 offset -0.27956 -1.62365 20000.41664 length 0.00326 color 0 0 1 }
Segment { rot 0.99832 0 -0.05787 2.57189 offset -0.27962 -1.61995 20000.41514 length 0.00493 color 0 0 1 }
Segment { rot 0.99944 0 -0.03343 2.63047 offset -0.27972 -1.61638 20000.41298 length 0.00341 color 0 0 1 }
Segment { rot 0.9963 0 -0.086 2.63431 offset -0.27987 -1.61241 20000.41077 length 0.00568 color 0 0 1 }
Segment { rot 0.99649 0 -0.08368 2.61761 offset -0.28002 -1.60924 20000.409 length 0.00158 color 0 0 1 }
Segment { rot 0.99697 0 -0.07783 2.56781 offset -0.28009 -1.60787 20000.40816 length 0.00163 color 0 0 1 }
Segment { rot 0.99525 0 0.09731 2.61989 offset -0.28007 -1.60625 20000.40718 length 0.00217 color 0 0 1 }
Segment { rot 0.9746 0 0.22396 2.52969 offset -0.27974 -1.60352 20000.40542 length 0.00438 color 0 0 1 }
Segment { rot 0.98115 0 0.19326 2.53553 offset -0.27918 -1.59964 20000.40278 length 0.00509 color 0 0 1 }
Segment { rot 0.96105 0 0.27638 2.49843 offset -0.27874 -1.59677 20000.40079 length 0.00194 color 0 0 1 }
Segment { rot 0.99624 0 0.08667 2.42563 offset -0.2784 -1.59362 20000.39818 length 0.00628 color 0 0 1 }
Segment { rot 0.99993 0 0.01165 2.46864 offset -0.27822 -1.59124 20000.39612 length 0.00004 color 0 0 1 }
Segment { rot 0.99735 0 0.0727 2.45281 offset -0.2782 -1.59089 20000.39583 length 0.00086 color 0 0 1 }
Segment { rot 0.98939 0 0.14525 2.62167 offset -0.27812 -1.58991 20000.39519 length 0.00149 color 0 0 1 }
Segment { rot 0.99985 0 -0.01731 2.74205 offset -0.27807 -1.58893 20000.39469 length 0.00072 color 0 0 1 }
Segment { rot 0.99021 0 0.13961 2.74386 offset -0.27799 -1.58713 20000.39394 length 0.00318 color 0 0 1 }
Segment { rot 0.94699 0 -0.32126 2.57376 offset -0.27821 -1.58419 20000.39243 length 0.00351 color 0 0 1 }
Segment { rot 0.81973 0 -0.57275 2.55302 offset -0.27974 -1.57949 20000.38978 length 0.00774 color 0 0 1 }
Segment { rot 0.83296 0 -0.55333 2.54841 offset -0.28137 -1.5752 20000.38741 length 0.00258 color 0 0 1 }
Segment { rot 0.89268 0 -0.4507 2.52452 offset -0.28186 -1.57386 20000.38664 length 0.00067 color 0 0 1 }
Segment { rot 0.90469 0 -0.42607 2.52832 offset -0.28238 -1.57212 20000.38553 length 0.00359 color 0 0 1 }
Segment { rot 0.90787 0 -0.41926 2.63154 offset -0.28285 -1.57053 20000.38454 length 0.00027 color 0 0 1 }
Segment { rot 0.95203 0 -0.30601 2.68114 offset -0.28355 -1.56599 20000.38239 length 0.00987 color 0 0 1 }
Segment { rot 0.99523 0 0.09757 2.4817 offset -0.28404 -1.55916 20000.37845 length 0.0061 color 0 0 1 }
Segment { rot 0.99714 0 0.07552 2.45762 offset -0.28384 -1.55645 20000.37633 length 0.0008 color 0 0 1 }
Segment { rot -0.8097 0 -0.58685 2.16737 offset -0.28408 -1.55584 20000.37644 length 0.00106 color 0 0 1 }
Segment { rot -0.83414 0 -0.55155 2.05777 offset -0.28568 -1.55425 20000.37883 length 0.00553 color 0 0 1 }
Segment { rot -0.8722 0 -0.48915 1.95173 offset -0.28788 -1.55225 20000.38239 length 0.00376 color 0 0 1 }
Segment { rot -0.77676 0 -0.62979 1.81059 offset -0.28877 -1.55154 20000.38396 length 0.00011 color 0 0 1 }
Segment { rot -0.74326 0 -0.669 1.77754 offset -0.29055 -1.55098 20000.38594 length 0.00532 color 0 0 1 }
Segment { rot -0.87021 0 -0.49269 1.69073 offset -0.29271 -1.55033 20000.38861 length 0.00171 color 0 0 1 }
Segment { rot -0.88279 0 -0.46976 1.79738 offset -0.29384 -1.54988 20000.39069 length 0.0031 color 0 0 1 }
Segment { rot -0.93544 0 -0.35348 2.0154 offset -0.29526 -1.54857 20000.3939 length 0.00447 color 0 0 1 }
Segment { rot -0.93027 0 -0.36689 1.98283 offset -0.2972 -1.54615 20000.3989 length 0.0073 color 0 0 1 }
Segment { rot -0.92262 0 0.38572 1.98652 offset -0.29837 -1.54463 20000.40214 length 0.00029 color 0 0 1 }
Segment { rot -0.92692 0 0.37525 1.97283 offset -0.29736 -1.54347 20000.40465 length 0.00561 color 0 0 1 }
Segment { rot -0.92459 0 0.38095 1.98391 offset -0.29605 -1.54199 20000.40785 length 0.00192 color 0 0 1 }
Segment { rot -0.811 0 0.58505 2.00985 offset -0.29548 -1.54142 20000.409 length 0.0009 color 0 0 1 }
Segment { rot -0.80689 0 0.5907 1.94165 offset -0.29524 -1.54122 20000.40933 length 0.00001 color 0 0 1 }
Segment { rot -0.81986 0 0.57256 1.9709 offset -0.29413 -1.5404 20000.41092 length 0.00422 color 0 0 1 }
Segment { rot -0.85293 0 0.52203 2.06548 offset -0.29181 -1.53833 20000.41449 length 0.00526 color 0 0 1 }
Segment { rot -0.97631 0 0.21636 1.25128 offset -0.29059 -1.5371 20000.41651 length 0.0001 color 0 0 1 }
Segment { rot -0.97128 0 0.23795 1.27431 offset -0.29052 -1.53719 20000.41679 length 0.00052 color 0 0 1 }
Segment { rot -0.9882 0 0.15314 1.11892 offset -0.29041 -1.53742 20000.41734 length 0.00069 color 0 0 1 }
Segment { rot -0.98649 0 0.16381 1.12115 offset -0.29035 -1.53763 20000.41778 length 0.00029 color 0 0 1 }
Segment { rot -0.98908 0 0.14739 1.1809 offset -0.28994 -1.53877 20000.4205 length 0.00567 color 0 0 1 }
Segment { rot -0.98184 0 0.18973 1.28634 offset -0.2891 -1.54055 20000.42544 length 0.00499 color 0 0 1 }
Segment { rot -0.9656 0 0.26003 1.24715 offset -0.2875 -1.54271 20000.43202 length 0.00923 color 0 0 1 }
Segment { rot -0.95531 0 0.2956 1.22542 offset -0.28501 -1.54583 20000.44062 length 0.00975 color 0 0 1 }
Segment { rot -0.81848 0 0.57454 1.1504 offset -0.28236 -1.5485 20000.44686 length 0.00495 color 0 0 1 }
Segment { rot -0.87236 0 0.48886 1.16782 offset -0.28103 -1.54953 20000.44876 length 0.00013 color 0 0 1 }
Segment { rot -0.82471 0 0.56556 1.16824 offset -0.28081 -1.5497 20000.44908 length 0.00071 color 0 0 1 }
Segment { rot -0.86147 0 0.50782 1.20595 offset -0.28046 -1.54996 20000.44963 length 0.0007 color 0 0 1 }
Segment { rot -0.89946 0 0.43701 2.41335 offset -0.28001 -1.54933 20000.45051 length 0.00201 color 0 0 1 }
Segment { rot -0.85758 0 0.51436 2.38825 offset -0.27958 -1.54831 20000.45133 length 0.00074 color 0 0 1 }
Segment { rot -0.89399 0 0.44809 2.38512 offset -0.27728 -1.5429 20000.45589 length 0.01415 color 0 0 1 }
Segment { rot -0.37187 0 0.92828 2.61888 offset -0.27502 -1.5376 20000.46026 length 0.00035 color 0 0 1 }
Segment { rot 0.67092 0 -0.74153 1.71532 offset -0.27509 -1.53742 20000.46015 length 0.00042 color 0 0 1 }
Segment { rot 0.63615 0 -0.77157 1.68398 offset -0.27558 -1.53734 20000.45975 length 0.00085 color 0 0 1 }
Segment { rot 0.61625 0 -0.78755 1.62666 offset -0.27595 -1.53729 20000.45944 length 0.00012 color 0 0 1 }
Segment { rot 0.16271 0 -0.98667 1.72472 offset -0.27795 -1.53698 20000.45908 length 0.00401 color 0 0 1 }
Segment { rot 0.18334 0 -0.98305 1.7424 offset -0.28073 -1.53653 20000.4586 length 0.00169 color 0 0 1 }
Segment { rot 0.17113 0 -0.98525 1.60764 offset -0.2831 -1.53632 20000.45818 length 0.00315 color 0 0 1 }
Segment { rot 0.8791 0 0.47664 1.1888 offset -0.28386 -1.53694 20000.45644 length 0.00361 color 0 0 1 }
Segment { rot 0.86623 0 0.49965 1.21551 offset -0.28265 -1.53792 20000.45425 length 0.00176 color 0 0 1 }
Segment { rot 0.79934 0 0.60088 1.17281 offset -0.28141 -1.5388 20000.45243 length 0.00299 color 0 0 1 }
Segment { rot 0.61271 0 0.79031 1.30436 offset -0.28003 -1.53957 20000.45091 length 0.00143 color 0 0 1 }
Segment { rot 0.59532 0 0.80349 1.29063 offset -0.27822 -1.54021 20000.44955 length 0.00328 color 0 0 1 }
Segment { rot 0.65624 0 0.75455 1.27223 offset -0.27688 -1.5407 20000.44855 length 0.00019 color 0 0 1 }
Segment { rot 0.37608 0 0.92659 1.35424 offset -0.27634 -1.54084 20000.44829 length 0.00105 color 0 0 1 }
Segment { rot 0.2098 0 0.97774 1.49408 offset -0.27209 -1.54125 20000.44729 length 0.00773 color 0 0 1 }
Segment { rot 0.23181 0 0.97276 1.29012 offset -0.26763 -1.54175 20000.44632 length 0.00148 color 0 0 1 }
Segment { rot 0.21981 0 0.97554 1.25998 offset -0.26568 -1.54237 20000.44587 length 0.00272 color 0 0 1 }
Segment { rot 0.17133 0 0.98521 1.41878 offset -0.26393 -1.54286 20000.4455 length 0.00101 color 0 0 1 }
Segment { rot 0.18236 0 0.98323 1.36445 offset -0.26269 -1.5431 20000.44527 length 0.00155 color 0 0 1 }
Segment { rot 0.20448 0 0.97887 1.48539 offset -0.25965 -1.54345 20000.44466 length 0.0047 color 0 0 1 }
Segment { rot 0.12721 0 0.99188 1.81709 offset -0.25621 -1.54336 20000.44403 length 0.00239 color 0 0 1 }
Segment { rot 0.12307 0 0.9924 1.83658 offset -0.25151 -1.5421 20000.44344 length 0.00743 color 0 0 1 }
Segment { rot 0.20902 0 0.97791 1.80201 offset -0.24779 -1.54108 20000.44297 length 0.00034 color 0 0 1 }
Segment { rot 0.2375 0 0.97139 1.7234 offset -0.24664 -1.54089 20000.44269 length 0.00206 color 0 0 1 }
Segment { rot 0.2079 0 0.97815 1.74768 offset -0.23721 -1.53919 20000.44066 length 0.01753 color 0 0 1 }
Segment { rot 0.20756 0 0.97822 1.77604 offset -0.22743 -1.53736 20000.43858 length 0.00281 color 0 0 1 }
Segment { rot 0.19025 0 0.98174 1.72584 offset -0.22583 -1.53703 20000.43824 length 0.00052 color 0 0 1 }
Segment { rot 0.27664 0 0.96097 1.60674 offset -0.22459 -1.53696 20000.43791 length 0.00205 color 0 0 1 }
Segment { rot 0.33969 0 0.94054 1.74803 offset -0.22232 -1.53667 20000.43716 length 0.00279 color 0 0 1 }
Segment { rot -0.22823 0 -0.97361 0.72876 offset -0.22297 -1.53866 20000.43715 length 0.00599 color 0 0 1 }
Segment { rot 0.9989 0 0.04698 1.46289 offset -0.22478 -1.5412 20000.43482 length 0.00561 color 0 0 1 }
Segment { rot 0.99835 0 0.05746 1.46298 offset -0.22463 -1.54154 20000.43168 length 0.00071 color 0 0 1 }
Segment { rot 0.9958 0 0.09153 1.53453 offset -0.22448 -1.54162 20000.42994 length 0.00278 color 0 0 1 }
Segment { rot 0.98771 0 0.15628 1.43994 offset -0.22427 -1.54174 20000.42805 length 0.00104 color 0 0 1 }
Segment { rot 0.99367 0 0.1123 1.46158 offset -0.22358 -1.5424 20000.42216 length 0.01089 color 0 0 1 }
Segment { rot 0.98253 0 0.18612 1.46927 offset -0.22295 -1.54301 20000.41666 length 0.00025 color 0 0 1 }
Segment { rot 0.97596 0 0.21796 1.53304 offset -0.22269 -1.54306 20000.41549 length 0.00214 color 0 0 1 }
Segment { rot 0.93293 0 0.36005 2.10434 offset -0.22118 -1.54101 20000.41114 length 0.00825 color 0 0 1 }
Segment { rot 0.94423 0 0.32928 2.01894 offset -0.21923 -1.53793 20000.40589 length 0.00454 color 0 0 1 }
Segment { rot 0.99501 0 0.09982 2.04045 offset -0.21834 -1.53583 20000.40178 length 0.00493 color 0 0 1 }
Segment { rot 0.99898 0 0.04525 2.03906 offset -0.21807 -1.53418 20000.39854 length 0.00235 color 0 0 1 }
Segment { rot 0.99961 0 0.02783 2.00776 offset -0.21788 -1.5312 20000.39224 length 0.01162 color 0 0 1 }
Segment { rot 0.99978 0 0.02088 2.00579 offset -0.21772 -1.52846 20000.38637 length 0.00134 color 0 0 1 }
Segment { rot 0.9938 0 0.11123 1.83697 offset -0.21766 -1.52806 20000.38536 length 0.00084 color 0 0 1 }
Segment { rot 0.99736 0 -0.07263 1.80837 offset -0.21773 -1.52756 20000.38333 length 0.00336 color 0 0 1 }
Segment { rot 0.98947 0 -0.14473 1.7158 offset -0.21795 -1.52706 20000.38102 length 0.0014 color 0 0 1 }
Segment { rot 0.98839 0 -0.15192 1.71794 offset -0.2182 -1.52682 20000.37941 length 0.00188 color 0 0 1 }
Segment { rot 0.98988 0 -0.1419 1.66407 offset -0.2185 -1.52658 20000.37734 length 0.00234 color 0 0 1 }
Segment { rot 0.9344 0 -0.35624 1.71385 offset -0.21889 -1.52638 20000.37559 length 0.00128 color 0 0 1 }
Segment { rot 0.95857 0 -0.28485 1.68745 offset -0.21962 -1.52608 20000.3733 length 0.00357 color 0 0 1 }
Segment { rot 0.97503 0 -0.22208 1.71878 offset -0.22043 -1.52567 20000.37027 length 0.00274 color 0 0 1 }
Segment { rot 0.86178 0 0.50728 0.95905 offset -0.22053 -1.52575 20000.3686 length 0.001 color 0 0 1 }
Segment { rot 0.86948 0 -0.49397 0.4762 offset -0.22048 -1.52668 20000.36796 length 0.00146 color 0 0 1 }
Segment { rot 0.92969 0 -0.36834 0.64362 offset -0.22092 -1.52833 20000.36697 length 0.0025 color 0 0 1 }
Segment { rot 0.86603 0 -0.5 0.41576 offset -0.22132 -1.52987 20000.36607 length 0.00117 color 0 0 1 }
Segment { rot 0.51026 0 -0.86002 0.54074 offset -0.22438 -1.53611 20000.36412 length 0.01332 color 0 0 1 }
Segment { rot 0.52062 0 -0.85379 0.41815 offset -0.22852 -1.54496 20000.36164 length 0.00688 color 0 0 1 }
Segment { rot 0.49409 0 -0.86941 0.3748 offset -0.23095 -1.5517 20000.36021 length 0.00774 color 0 0 1 }
Segment { rot 0.4713 0 -0.88197 0.27425 offset -0.23221 -1.55541 20000.3595 length 0.00022 color 0 0 1 }
Segment { rot 0.30274 0 -0.95307 0.31083 offset -0.23349 -1.55961 20000.35909 length 0.00858 color 0 0 1 }
Segment { rot 0.3609 0 -0.9326 0.43961 offset -0.2349 -1.56406 20000.35863 length 0.00081 color 0 0 1 }
Segment { rot 0.08854 0 -0.99607 0.34126 offset -0.23509 -1.56451 20000.35856 length 0.00018 color 0 0 1 }
Segment { rot -0.49749 0 -0.86747 0.39284 offset -0.23755 -1.57135 20000.35995 length 0.01464 color 0 0 1 }
Segment { rot -0.83087 0 -0.55647 0.46726 offset -0.23998 -1.57813 20000.36135 length 0.00003 color 0 0 1 }
Segment { rot -0.801 0 -0.59866 0.45269 offset -0.24032 -1.57928 20000.36181 length 0.00254 color 0 0 1 }
Segment { rot -0.68463 0 -0.72889 0.49519 offset -0.24082 -1.58085 20000.36241 length 0.00098 color 0 0 1 }
Segment { rot -0.28454 0 -0.95866 0.60956 offset -0.24219 -1.58308 20000.36292 length 0.00438 color 0 0 1 }
Segment { rot -0.13984 0 -0.99017 0.55839 offset -0.24401 -1.58588 20000.36337 length 0.00237 color 0 0 1 }
Segment { rot -0.30177 0 -0.95338 0.61993 offset -0.24503 -1.58747 20000.36358 length 0.00145 color 0 0 1 }
Segment { rot -0.39513 0 -0.91863 0.49039 offset -0.24627 -1.58976 20000.36407 length 0.00386 color 0 0 1 }
Segment { rot -0.45978 0 -0.88804 0.47533 offset -0.24758 -1.5925 20000.36467 length 0.00233 color 0 0 1 }
Segment { rot -0.44145 0 -0.89729 0.5014 offset -0.24894 -1.59533 20000.36535 length 0.0041 color 0 0 1 }
Segment { rot -0.42452 0 -0.90542 0.48192 offset -0.24989 -1.59727 20000.36582 length 0.00032 color 0 0 1 }
Segment { rot -0.50456 0 -0.86338 0.52701 offset -0.25209 -1.60166 20000.3671 length 0.00983 color 0 0 1 }
Segment { rot -0.86714 0 -0.49807 1.84378 offset -0.2546 -1.6057 20000.369 length 0.00156 color 0 0 1 }
Segment { rot -0.85419 0 -0.51995 1.85489 offset -0.2563 -1.60474 20000.37184 length 0.00534 color 0 0 1 }
Segment { rot -0.83963 0 -0.54316 1.83009 offset -0.2582 -1.60372 20000.3749 length 0.00215 color 0 0 1 }
Segment { rot -0.94946 0 -0.31387 1.80802 offset -0.25947 -1.6029 20000.37791 length 0.00465 color 0 0 1 }
Segment { rot -0.95221 0 -0.30543 1.14073 offset -0.2606 -1.60298 20000.38137 length 0.00303 color 0 0 1 }
Segment { rot -0.9296 0 -0.36857 1.1114 offset -0.26135 -1.60405 20000.3835 length 0.00197 color 0 0 1 }
Segment { rot -0.94952 0 -0.31369 1.10088 offset -0.26185 -1.60478 20000.38487 length 0.00131 color 0 0 1 }
Segment { rot -0.93567 0 -0.35289 1.19498 offset -0.26262 -1.60573 20000.38697 length 0.00355 color 0 0 1 }
Segment { rot -0.79407 0 -0.60783 1.73866 offset -0.26397 -1.60617 20000.38952 length 0.00256 color 0 0 1 }
Segment { rot -0.81787 0 -0.57541 1.80074 offset -0.26546 -1.60566 20000.39155 length 0.00261 color 0 0 1 }
Segment { rot -0.81082 0 -0.58529 1.78637 offset -0.26768 -1.60481 20000.39465 length 0.00519 color 0 0 1 }
Segment { rot -0.82606 0 -0.56358 1.78165 offset -0.26927 -1.60421 20000.39686 length 0.0004 color 0 0 1 }
Segment { rot -0.79588 0 -0.60545 1.69484 offset -0.27002 -1.60404 20000.39787 length 0.00214 color 0 0 1 }
Segment { rot -0.81607 0 -0.57796 1.62815 offset -0.27077 -1.60389 20000.39886 length 0.00036 color 0 0 1 }
Segment { rot -0.75063 0 -0.66072 1.88594 offset -0.27189 -1.60338 20000.40016 length 0.00323 color 0 0 1 }
Segment { rot -0.71816 0 -0.69587 2.02748 offset -0.27305 -1.60278 20000.40146 length 0.00046 color 0 0 1 }
Segment { rot -0.7204 0 -0.69356 2.00663 offset -0.27349 -1.60248 20000.40192 length 0.00094 color 0 0 1 }
Segment { rot -0.70669 0 -0.70752 2.07384 offset -0.27396 -1.60214 20000.4024 length 0.00055 color 0 0 1 }
Segment { rot -0.69539 0 -0.71863 1.87809 offset -0.27447 -1.60186 20000.4029 length 0.00098 color 0 0 1 }
Segment { rot -0.74517 0 -0.66688 1.94012 offset -0.2752 -1.60148 20000.40367 length 0.00129 color 0 0 1 }
Segment { rot -0.45597 0 -0.89 1.23265 offset -0.27575 -1.60131 20000.40419 length 0.00034 color 0 0 1 }
Segment { rot -0.68886 0 -0.72489 1.02796 offset -0.27589 -1.60136 20000.40426 length 0 color 0 0 1 }
Segment { rot -0.90214 0 -0.43145 1.70753 offset -0.27599 -1.60133 20000.40448 length 0.00047 color 0 0 1 }
Segment { rot -0.996 0 -0.08931 1.92307 offset -0.27637 -1.60016 20000.40776 length 0.00659 color 0 0 1 }
Segment { rot -0.14921 0 0.98881 1.23892 offset -0.27555 -1.59941 20000.41101 length 0.00235 color 0 0 1 }
Segment { rot -0.25542 0 0.96683 0.80122 offset -0.27409 -1.60015 20000.41127 length 0.00102 color 0 0 1 }
Segment { rot -0.49051 0 0.87144 0.77005 offset -0.2732 -1.60114 20000.41167 length 0.00179 color 0 0 1 }
Segment { rot -0.55166 0 0.83407 0.55827 offset -0.27264 -1.6018 20000.41198 length 0.00004 color 0 0 1 }
Segment { rot -0.00197 0 1 1.63693 offset -0.27237 -1.6018 20000.41198 length 0.00053 color 0 0 1 }
Segment { rot -0.14549 0 0.98936 1.83796 offset -0.27157 -1.60164 20000.41206 length 0.00112 color 0 0 1 }
Segment { rot -0.22851 0 0.97354 1.86242 offset -0.27052 -1.60133 20000.41227 length 0.00112 color 0 0 1 }
Segment { rot -0.25165 0 0.96782 1.8904 offset -0.26878 -1.60075 20000.4127 length 0.00264 color 0 0 1 }
Segment { rot 0.59631 0 0.80275 1.19774 offset -0.26629 -1.60096 20000.41207 length 0.00342 color 0 0 1 }
Segment { rot 0.73167 0 0.68166 1.51411 offset -0.26429 -1.60164 20000.41034 length 0.00212 color 0 0 1 }
Segment { rot 0.70118 0 0.71299 1.60056 offset -0.26343 -1.6017 20000.40943 length 0.00039 color 0 0 1 }
Segment { rot 0.85635 0 0.51639 1.56048 offset -0.26274 -1.6017 20000.40838 length 0.00214 color 0 0 1 }
Segment { rot 0.84795 0 0.53007 1.54853 offset -0.26207 -1.60172 20000.40728 length 0.00043 color 0 0 1 }
Segment { rot 0.93518 0 0.35416 0.99021 offset -0.26163 -1.60232 20000.40624 length 0.00218 color 0 0 1 }
Segment { rot 0.99074 0 0.13576 1.43435 offset -0.26127 -1.60296 20000.4051 length 0.00057 color 0 0 1 }
Segment { rot 0.99054 0 0.13719 1.47108 offset -0.26082 -1.6033 20000.40185 length 0.00602 color 0 0 1 }
Segment { rot 0.97454 0 0.22422 1.50228 offset -0.26008 -1.6037 20000.39747 length 0.00291 color 0 0 1 }
Segment { rot 0.89555 0 0.44495 1.52781 offset -0.25974 -1.6038 20000.39603 length 0.00005 color 0 0 1 }
Segment { rot 0.89867 0 0.43864 1.7269 offset -0.25934 -1.60366 20000.39521 length 0.00179 color 0 0 1 }
Segment { rot 0.87372 0 0.48644 1.63252 offset -0.25871 -1.60349 20000.39398 length 0.00101 color 0 0 1 }
Segment { rot 0.8587 0 0.51249 1.69516 offset -0.25773 -1.60328 20000.3923 length 0.00292 color 0 0 1 }
Segment { rot 0.86227 0 0.50644 1.97779 offset -0.25693 -1.60305 20000.39096 length 0.00024 color 0 0 1 }
Segment { rot 0.81831 0 0.57477 1.61248 offset -0.25618 -1.60295 20000.38987 length 0.00242 color 0 0 1 }
Segment { rot 0.85169 0 0.52405 1.61453 offset -0.25519 -1.60287 20000.38841 length 0.00111 color 0 0 1 }
Segment { rot 0.78489 0 0.61963 1.64015 offset -0.25397 -1.60275 20000.38676 length 0.00301 color 0 0 1 }
Segment { rot 0.77314 0 0.63423 1.59648 offset -0.2528 -1.60263 20000.38529 length 0.00076 color 0 0 1 }
Segment { rot -0.95987 0 -0.28045 1.90547 offset -0.25258 -1.60259 20000.38508 length 0.00019 color 0 0 1 }
Segment { rot -0.97502 0 -0.22211 2.07155 offset -0.25263 -1.60251 20000.38526 length 0.00021 color 0 0 1 }
Segment { rot -0.94263 0 -0.33384 2.13743 offset -0.25279 -1.60219 20000.38575 length 0.00101 color 0 0 1 }
Segment { rot -0.95614 0 -0.2929 2.09954 offset -0.25294 -1.6019 20000.38618 length 0.00006 color 0 0 1 }
Segment { rot -0.87302 0 -0.48768 2.03265 offset -0.25299 -1.60185 20000.38627 length 0.00018 color 0 0 1 }
Segment { rot -0.80964 0 -0.58693 2.26007 offset -0.25328 -1.60144 20000.38669 length 0.00114 color 0 0 1 }
Segment { rot -0.81051 0 -0.58573 2.40358 offset -0.25387 -1.60047 20000.3875 length 0.00166 color 0 0 1 }
Segment { rot -0.921 0 -0.38956 2.35139 offset -0.25424 -1.59974 20000.38806 length 0.00034 color 0 0 1 }
Segment { rot -0.84679 0 -0.53193 2.26836 offset -0.25452 -1.59926 20000.38854 length 0.00112 color 0 0 1 }
Segment { rot -0.90974 0 -0.41517 2.24134 offset -0.25514 -1.59815 20000.38976 length 0.00242 color 0 0 1 }
Segment { rot 0.47632 0 -0.87927 1.64239 offset -0.25586 -1.59737 20000.39045 length 0.00076 color 0 0 1 }
Segment { rot 0.43292 0 -0.90143 1.62725 offset -0.25659 -1.59732 20000.39008 length 0.00087 color 0 0 1 }
Segment { rot 0.29485 0 -0.95554 1.6676 offset -0.25703 -1.59729 20000.38987 length 0.00012 color 0 0 1 }
Segment { rot 0.21958 0 -0.97559 1.87056 offset -0.25722 -1.59724 20000.38983 length 0.00028 color 0 0 1 }
Segment { rot 0.10983 0 -0.99395 1.451 offset -0.25745 -1.59721 20000.38979 length 0.0002 color 0 0 1 }
Segment { rot -0.01855 0 -0.99983 1.42943 offset -0.25905 -1.59744 20000.3898 length 0.00303 color 0 0 1 }
Segment { rot 0.03752 0 0.9993 2.61339 offset -0.26052 -1.59761 20000.38983 length 0.00009 color 0 0 1 }
Segment { rot -0.0739 0 0.99727 2.44492 offset -0.2599 -1.59686 20000.38987 length 0.00186 color 0 0 1 }
Segment { rot -0.38475 0 0.92302 2.41605 offset -0.25918 -1.59598 20000.38997 length 0.00044 color 0 0 1 }
Segment { rot 0.65669 0 -0.75416 1.35387 offset -0.25979 -1.59604 20000.38938 length 0.00203 color 0 0 1 }
Segment { rot 0.90847 0 -0.41794 1.2674 offset -0.26062 -1.59631 20000.38855 length 0.0004 color 0 0 1 }
Segment { rot -0.71538 0 0.69873 1.7529 offset -0.2605 -1.59632 20000.38858 length 0.00056 color 0 0 1 }
Segment { rot -0.7197 0 0.69429 1.36751 offset -0.25977 -1.59643 20000.38933 length 0.00158 color 0 0 1 }
Segment { rot 0.38575 0 -0.9226 1.99201 offset -0.26003 -1.5962 20000.38956 length 0.00189 color 0 0 1 }
Segment { rot 0.07979 0 -0.99681 0.99677 offset -0.26113 -1.59602 20000.3892 length 0.00073 color 0 0 1 }
Segment { rot -0.07106 0 -0.99747 0.68534 offset -0.26166 -1.59648 20000.38919 length 0.00069 color 0 0 1 }
Segment { rot 0.11972 0 -0.99281 0.79221 offset -0.26191 -1.59678 20000.3892 length 0.00009 color 0 0 1 }
Segment { rot 0.18492 0 -0.98275 0.84305 offset -0.26197 -1.59684 20000.38919 length 0.00008 color 0 0 1 }
Segment { rot 0.34023 0 -0.94034 0.81271 offset -0.26205 -1.59692 20000.38917 length 0.00015 color 0 0 1 }
Segment { rot 0.84033 0 -0.54207 0.81896 offset -0.26211 -1.59698 20000.38914 length 0.00002 color 0 0 1 }
Segment { rot 0.62946 0 -0.77703 0.28454 offset -0.26219 -1.59734 20000.38907 length 0.00073 color 0 0 1 }
Segment { rot 0.64799 0 -0.76165 0.24851 offset -0.26228 -1.59773 20000.389 length 0.00009 color 0 0 1 }
Segment { rot 0.32833 0 -0.94456 0.36109 offset -0.26231 -1.59783 20000.38899 length 0.00012 color 0 0 1 }
Segment { rot 0.41693 0 0.90894 2.34664 offset -0.2622 -1.59775 20000.38892 length 0.00039 color 0 0 1 }
Segment { rot 0.44792 0 0.89407 2.16178 offset -0.2619 -1.59748 20000.38877 length 0.00048 color 0 0 1 }
Segment { rot 0.3315 0 0.94345 2.41031 offset -0.26167 -1.5973 20000.38867 length 0.00014 color 0 0 1 }
Segment { rot 0.37449 0 0.92723 2.11695 offset -0.26133 -1.59705 20000.38853 length 0.00076 color 0 0 1 }
Segment { rot 0.31675 0 0.94851 2.35116 offset -0.26071 -1.59651 20000.3883 length 0.00096 color 0 0 1 }
Segment { rot 0.47209 0 0.88155 2.0014 offset -0.25987 -1.59591 20000.38792 length 0.00127 color 0 0 1 }
Segment { rot -0.53015 0 -0.8479 0.8887 offset -0.25945 -1.59572 20000.3877 length 0.00025 color 0 0 1 }
Segment { rot -0.73628 0 -0.67667 0.96778 offset -0.25998 -1.59626 20000.38824 length 0.0016 color 0 0 1 }
Segment { rot -0.80053 0 -0.5993 0.94371 offset -0.26061 -1.59694 20000.38897 length 0.00078 color 0 0 1 }
Segment { rot -0.95654 0 -0.29159 1.75972 offset -0.26082 -1.59715 20000.3893 length 0.00016 color 0 0 1 }
Segment { rot -0.97176 0 -0.23597 1.57899 offset -0.26085 -1.59714 20000.38941 length 0.00008 color 0 0 1 }
Segment { rot -0.99804 0 -0.06261 1.76117 offset -0.26086 -1.59713 20000.38948 length 0.00006 color 0 0 1 }
Segment { rot -0.99778 0 0.06663 1.79117 offset -0.26085 -1.59708 20000.38972 length 0.00041 color 0 0 1 }