#VRML V2.0 utf8
#Generated by NISTMonte
WorldInfo {
 title "NISTMonte Trajectory"
 info ["See http://www.cstl.nist.gov/div837/Division/home.html for more information"]
}
Viewpoint {
 fieldOfView 0.785398
 position 0 5 31000
 orientation -1 -0 -0 1.5708
 description "Y-Axis"
}
Viewpoint {
 fieldOfView 0.785398
 position 0 0 30995
 orientation 1 0 0 3.1415926
 description "Gun"
}
Viewpoint {
 fieldOfView 0.785398
 position -5 0 31000
 orientation 0 -1 0 1.5708
 description "X-Axis"
}




#Prototype for a trajectory segment
PROTO Segment [
 field SFRotation rot 1 0 0 0
 field SFVec3f offset 0 0 0
 field SFFloat length 0.1
 field SFColor color 1 1 1
]
{
 Transform {
  rotation IS rot
  translation IS offset
  children [
   Shape {
    geometry Cylinder {
     radius 0.001
     height IS length
    }
    appearance Appearance {
     material Material {
      emissiveColor IS color
     }
    }
   }
  ]
 }
}
Segment { rot -1 0 -0 1.5708 offset 0.00566 0.00046 31000.00038 length 0.00075 color 0 0 1 }
Segment { rot -0.99974 0 0.02294 1.57607 offset 0.00572 0.00047 31000.0032 length 0.00489 color 0 0 1 }
Segment { rot -0.99848 0 0.05512 1.492 offset 0.00586 0.00037 31000.00711 length 0.00296 color 0 0 1 }
Segment { rot -0.99956 0 -0.02959 1.4917 offset 0.00571 -0.00037 31000.01635 length 0.0156 color 0 0 1 }
Segment { rot -0.97648 0 -0.2156 1.52361 offset 0.00543 -0.00099 31000.02436 length 0.00048 color 0 0 1 }
Segment { rot -0.98678 0 -0.16205 1.51707 offset 0.00292 -0.00182 31000.03953 length 0.03034 color 0 0 1 }
Segment { rot -0.97341 0 -0.22906 1.60516 offset -0.00013 -0.00254 31000.05702 length 0.00523 color 0 0 1 }
Segment { rot -0.99028 0 -0.1391 1.61599 offset -0.00125 -0.00228 31000.0633 length 0.00755 color 0 0 1 }
Segment { rot -0.99914 0 -0.04152 1.71744 offset -0.00182 -0.00195 31000.06812 length 0.00219 color 0 0 1 }
Segment { rot -1 0 -0.00313 1.76103 offset -0.00187 -0.00146 31000.07094 length 0.00355 color 0 0 1 }
Segment { rot 0.56647 0 0.82408 0.96565 offset 0.00071 -0.0033 31000.07091 length 0.00764 color 0 0 1 }
Segment { rot 0.61379 0 0.78947 1.00255 offset 0.00367 -0.00576 31000.06884 length 0.0011 color 0 0 1 }
Segment { rot 0.61286 0 0.79019 0.92276 offset 0.00985 -0.01164 31000.06404 length 0.01849 color 0 0 1 }
Segment { rot 0.64459 0 0.76453 0.90101 offset 0.0159 -0.01745 31000.05934 length 0.00073 color 0 0 1 }
Segment { rot 0.63069 0 0.77604 0.95521 offset 0.0165 -0.01802 31000.05884 length 0.00121 color 0 0 1 }
Segment { rot 0.85396 0 0.52034 0.83303 offset 0.01807 -0.02045 31000.05658 length 0.00619 color 0 0 1 }
Segment { rot 0.86246 0 0.50613 0.83269 offset 0.02215 -0.02773 31000.0497 length 0.01543 color 0 0 1 }
Segment { rot 0.89612 0 0.44382 0.79328 offset 0.0266 -0.03636 31000.04164 length 0.00982 color 0 0 1 }
Segment { rot 0.89646 0 0.44313 0.75845 offset 0.02998 -0.04416 31000.03481 length 0.01199 color 0 0 1 }
Segment { rot 0.88317 0 0.46905 0.82637 offset 0.03255 -0.04997 31000.02971 length 0.0043 color 0 0 1 }
Segment { rot 0.98419 0 0.17713 0.90793 offset 0.03368 -0.05316 31000.02613 length 0.00563 color 0 0 1 }
Segment { rot 0.98128 0 0.19256 0.82164 offset 0.03534 -0.06098 31000.01753 length 0.01788 color 0 0 1 }
Segment { rot 0.97542 0 0.22035 0.82517 offset 0.03765 -0.0715 31000.00642 length 0.01306 color 0 0 1 }
Segment { rot 0.96682 0 0.25546 0.90894 offset 0.03894 -0.07663 31000.00087 length 0.00229 color 0 0 1 }