#VRML V2.0 utf8
#Generated by NISTMonte
WorldInfo {
 title "NISTMonte Trajectory"
 info ["See http://www.cstl.nist.gov/div837/Division/home.html for more information"]
}
Viewpoint {
 fieldOfView 0.785398
 position 0 5 31000
 orientation -1 -0 -0 1.5708
 description "Y-Axis"
}
Viewpoint {
 fieldOfView 0.785398
 position 0 0 30995
 orientation 1 0 0 3.1415926
 description "Gun"
}
Viewpoint {
 fieldOfView 0.785398
 position -5 0 31000
 orientation 0 -1 0 1.5708
 description "X-Axis"
}




#Prototype for a trajectory segment
PROTO Segment [
 field SFRotation rot 1 0 0 0
 field SFVec3f offset 0 0 0
 field SFFloat length 0.1
 field SFColor color 1 1 1
]
{
 Transform {
  rotation IS rot
  translation IS offset
  children [
   Shape {
    geometry Cylinder {
     radius 0.001
     height IS length
    }
    appearance Appearance {
     material Material {
      emissiveColor IS color
     }
    }
   }
  ]
 }
}
Segment { rot -1 0 -0 1.5708 offset -0.00383 -0.0014 31000.01333 length 0.02666 color 0 0 1 }
Segment { rot -0.99998 0 0.00561 1.5709 offset -0.00378 -0.0014 31000.03523 length 0.01715 color 0 0 1 }
Segment { rot -0.99653 0 0.08319 1.78382 offset -0.00366 -0.00121 31000.04469 length 0.00181 color 0 0 1 }
Segment { rot -0.99718 0 0.07507 1.76995 offset -0.00344 -0.00065 31000.0474 length 0.00374 color 0 0 1 }
Segment { rot 0.97666 0 0.21481 0.96941 offset -0.00327 -0.0004 31000.04905 length 0.00043 color 0 0 1 }
Segment { rot 0.99179 0 0.12785 0.88405 offset -0.00244 -0.0056 31000.04273 length 0.01602 color 0 0 1 }
Segment { rot 0.96772 0 0.25204 0.88183 offset -0.00147 -0.01124 31000.03593 length 0.00177 color 0 0 1 }
Segment { rot 0.99634 0 0.0855 0.91962 offset -0.00093 -0.01513 31000.03093 length 0.01095 color 0 0 1 }
Segment { rot 0.99422 0 -0.1074 0.99896 offset -0.00062 -0.01881 31000.02602 length 0.00135 color 0 0 1 }
Segment { rot 0.99637 0 -0.08517 0.99676 offset -0.00084 -0.0204 31000.02357 length 0.00452 color 0 0 1 }
Segment { rot 0.99441 0 -0.10555 0.97502 offset -0.00112 -0.02241 31000.02054 length 0.00277 color 0 0 1 }
Segment { rot 0.99997 0 -0.00721 0.99666 offset -0.00131 -0.02946 31000.0097 length 0.0231 color 0 0 1 }