#VRML V2.0 utf8
#Generated by NISTMonte
WorldInfo {
 title "NISTMonte Trajectory"
 info ["See http://www.cstl.nist.gov/div837/Division/home.html for more information"]
}
Viewpoint {
 fieldOfView 0.785398
 position 0 5 31000
 orientation -1 -0 -0 1.5708
 description "Y-Axis"
}
Viewpoint {
 fieldOfView 0.785398
 position 0 0 30995
 orientation 1 0 0 3.1415926
 description "Gun"
}
Viewpoint {
 fieldOfView 0.785398
 position -5 0 31000
 orientation 0 -1 0 1.5708
 description "X-Axis"
}




#Prototype for a trajectory segment
PROTO Segment [
 field SFRotation rot 1 0 0 0
 field SFVec3f offset 0 0 0
 field SFFloat length 0.1
 field SFColor color 1 1 1
]
{
 Transform {
  rotation IS rot
  translation IS offset
  children [
   Shape {
    geometry Cylinder {
     radius 0.001
     height IS length
    }
    appearance Appearance {
     material Material {
      emissiveColor IS color
     }
    }
   }
  ]
 }
}
Segment { rot -1 0 -0 1.5708 offset 0.00944 -0.00391 31000.00171 length 0.00342 color 0 0 1 }
Segment { rot -0.99856 0 0.05372 1.44898 offset 0.0098 -0.00472 31000.01001 length 0.01331 color 0 0 1 }
Segment { rot -0.99936 0 0.03578 1.4585 offset 0.01024 -0.00581 31000.01914 length 0.00509 color 0 0 1 }
Segment { rot -0.99658 0 0.08261 1.4716 offset 0.01126 -0.00721 31000.0328 length 0.02245 color 0 0 1 }
Segment { rot -0.99183 0 0.12754 1.54609 offset 0.01283 -0.00845 31000.04902 length 0.01026 color 0 0 1 }
Segment { rot -0.99208 0 0.12564 1.58369 offset 0.01378 -0.00855 31000.05642 length 0.00466 color 0 0 1 }
Segment { rot -0.9871 0 0.16009 1.60352 offset 0.01555 -0.00821 31000.06786 length 0.01852 color 0 0 1 }
Segment { rot -0.98169 0 0.1905 1.49054 offset 0.01735 -0.00804 31000.07865 length 0.00337 color 0 0 1 }
Segment { rot -0.99987 0 -0.01599 0.98791 offset 0.01763 -0.01009 31000.0832 length 0.00695 color 0 0 1 }
Segment { rot -0.99919 0 -0.04033 1.00058 offset 0.0175 -0.01332 31000.08814 length 0.00487 color 0 0 1 }
Segment { rot -0.99574 0 0.09218 1.08418 offset 0.01754 -0.01535 31000.09155 length 0.00308 color 0 0 1 }
Segment { rot -0.96904 0 0.24692 1.66377 offset 0.01826 -0.01585 31000.09521 length 0.00478 color 0 0 1 }
Segment { rot -0.9678 0 0.25173 1.63342 offset 0.01924 -0.01553 31000.09905 length 0.00316 color 0 0 1 }
Segment { rot -0.94821 0 0.31765 1.48628 offset 0.02049 -0.01566 31000.10312 length 0.0054 color 0 0 1 }
Segment { rot -0.95059 0 0.31046 1.63959 offset 0.02162 -0.01583 31000.10651 length 0.00176 color 0 0 1 }
Segment { rot -0.89935 0 0.43722 1.62821 offset 0.02299 -0.01562 31000.1096 length 0.00502 color 0 0 1 }
Segment { rot -0.90993 0 0.41476 1.68212 offset 0.02514 -0.01519 31000.11417 length 0.00511 color 0 0 1 }
Segment { rot -0.94351 0 0.33135 1.68448 offset 0.02848 -0.01412 31000.12298 length 0.01387 color 0 0 1 }
Segment { rot -0.93867 0 0.34481 1.6712 offset 0.03321 -0.01262 31000.13616 length 0.0143 color 0 0 1 }
Segment { rot -0.93018 0 0.36711 1.73392 offset 0.0364 -0.01157 31000.14471 length 0.00407 color 0 0 1 }
Segment { rot -0.96659 0 0.25635 1.70871 offset 0.03892 -0.01028 31000.15328 length 0.014 color 0 0 1 }
Segment { rot -0.93695 0 0.34946 1.75249 offset 0.04114 -0.00908 31000.16118 length 0.00258 color 0 0 1 }
Segment { rot -0.92571 0 0.37824 1.72714 offset 0.04174 -0.00879 31000.16275 length 0.00084 color 0 0 1 }
Segment { rot -0.91949 0 0.39311 1.7329 offset 0.04245 -0.00849 31000.16441 length 0.00282 color 0 0 1 }
Segment { rot -0.92419 0 0.38192 1.72915 offset 0.04362 -0.008 31000.16721 length 0.00333 color 0 0 1 }
Segment { rot -0.90324 0 0.42914 1.71461 offset 0.04677 -0.00689 31000.17404 length 0.01189 color 0 0 1 }
Segment { rot -0.85889 0 0.51217 1.80815 offset 0.05261 -0.00447 31000.18491 length 0.01332 color 0 0 1 }
Segment { rot -0.82132 0 0.57046 1.84594 offset 0.057 -0.00237 31000.19202 length 0.00392 color 0 0 1 }
Segment { rot -0.83401 0 0.55175 1.82311 offset 0.05815 -0.00181 31000.19368 length 0.00025 color 0 0 1 }
Segment { rot -0.80186 0 0.59751 1.79681 offset 0.05833 -0.00173 31000.19394 length 0.00041 color 0 0 1 }
Segment { rot -0.80357 0 0.59522 1.74597 offset 0.06302 -0.00033 31000.20027 length 0.0156 color 0 0 1 }
Segment { rot -0.75238 0 0.65873 1.71392 offset 0.06775 0.00107 31000.20662 length 0.00049 color 0 0 1 }
Segment { rot -0.74566 0 0.66633 1.68868 offset 0.07256 0.00193 31000.212 length 0.01404 color 0 0 1 }
Segment { rot -0.67963 0 0.73355 1.72025 offset 0.078 0.00292 31000.21794 length 0.00221 color 0 0 1 }
Segment { rot -0.73837 0 0.67439 1.68833 offset 0.08102 0.00347 31000.22111 length 0.00662 color 0 0 1 }
Segment { rot -0.74676 0 0.66509 1.70735 offset 0.0846 0.00414 31000.22506 length 0.00414 color 0 0 1 }
Segment { rot -0.75583 0 0.65476 1.77279 offset 0.08702 0.00475 31000.22782 length 0.0033 color 0 0 1 }
Segment { rot -0.775 0 0.63196 1.78507 offset 0.08998 0.00574 31000.23137 length 0.00615 color 0 0 1 }
Segment { rot -0.75896 0 0.65114 1.80596 offset 0.09627 0.00801 31000.23882 length 0.01386 color 0 0 1 }
Segment { rot -0.68337 0 0.73007 1.89217 offset 0.10432 0.01129 31000.24735 length 0.01056 color 0 0 1 }
Segment { rot -0.7204 0 0.69355 1.84873 offset 0.11302 0.01504 31000.25602 length 0.01514 color 0 0 1 }
Segment { rot -0.73432 0 0.6788 1.81029 offset 0.11913 0.0175 31000.26242 length 0.00323 color 0 0 1 }
Segment { rot -0.8315 0 0.55553 1.85626 offset 0.12227 0.01897 31000.26667 length 0.00776 color 0 0 1 }
Segment { rot -0.90677 0 0.42162 1.87868 offset 0.12484 0.02044 31000.27085 length 0.00251 color 0 0 1 }
Segment { rot -0.93169 0 0.36326 1.87434 offset 0.12654 0.02186 31000.27501 length 0.00692 color 0 0 1 }
Segment { rot -0.92362 0 0.38331 1.88868 offset 0.12953 0.02442 31000.28238 length 0.00979 color 0 0 1 }
Segment { rot -0.93175 0 0.36311 1.83834 offset 0.13309 0.0273 31000.29124 length 0.01016 color 0 0 1 }
Segment { rot -0.92622 0 0.37698 1.72798 offset 0.13806 0.02998 31000.30364 length 0.01713 color 0 0 1 }
Segment { rot -0.93585 0 0.35239 1.70311 offset 0.14518 0.03281 31000.32191 length 0.0225 color 0 0 1 }
Segment { rot -0.94509 0 0.32682 1.66101 offset 0.1504 0.03465 31000.33608 length 0.00792 color 0 0 1 }
Segment { rot -0.93676 0 0.34998 1.69317 offset 0.15222 0.03519 31000.34123 length 0.00307 color 0 0 1 }
Segment { rot -0.91622 0 0.40068 1.8249 offset 0.15523 0.03698 31000.34832 length 0.01277 color 0 0 1 }
Segment { rot -0.89394 0 0.44818 1.84144 offset 0.15803 0.03879 31000.35463 length 0.0015 color 0 0 1 }
Segment { rot -0.8898 0 0.45636 1.8408 offset 0.15964 0.03977 31000.35779 length 0.00588 color 0 0 1 }
Segment { rot -0.88201 0 0.47123 1.81168 offset 0.16215 0.04119 31000.36259 length 0.00531 color 0 0 1 }
Segment { rot -0.80009 0 0.59988 2.05001 offset 0.16601 0.04411 31000.36839 length 0.00993 color 0 0 1 }
Segment { rot -0.8237 0 0.56703 2.11689 offset 0.1701 0.04796 31000.37403 length 0.00599 color 0 0 1 }
Segment { rot -0.85188 0 0.52374 2.1116 offset 0.17191 0.04992 31000.37671 length 0.00158 color 0 0 1 }
Segment { rot -0.8544 0 0.51962 2.06949 offset 0.17264 0.05072 31000.3779 length 0.00164 color 0 0 1 }
Segment { rot -0.91467 0 0.40419 2.18241 offset 0.17435 0.05343 31000.38154 length 0.00808 color 0 0 1 }
Segment { rot -0.92416 0 0.382 2.19266 offset 0.17588 0.05611 31000.38503 length 0.00125 color 0 0 1 }
Segment { rot -0.91295 0 0.40808 2.13321 offset 0.17663 0.05734 31000.38676 length 0.00326 color 0 0 1 }
Segment { rot -0.9312 0 0.36451 2.12015 offset 0.17767 0.05901 31000.38924 length 0.00307 color 0 0 1 }
Segment { rot -0.95169 0 0.30707 2.12984 offset 0.18045 0.0645 31000.39758 length 0.01767 color 0 0 1 }
Segment { rot -0.95593 0 0.29358 2.14155 offset 0.18384 0.07157 31000.40827 length 0.00884 color 0 0 1 }
Segment { rot -0.9707 0 0.24031 2.08797 offset 0.18496 0.07402 31000.41192 length 0.00023 color 0 0 1 }
Segment { rot -0.92775 0 0.37321 2.21645 offset 0.18515 0.07442 31000.41244 length 0.00115 color 0 0 1 }
Segment { rot -0.82493 0 0.56523 2.19194 offset 0.18742 0.07742 31000.41592 length 0.00911 color 0 0 1 }
Segment { rot -0.82575 0 0.56404 2.18953 offset 0.19111 0.08209 31000.42132 length 0.00697 color 0 0 1 }
Segment { rot -0.86198 0 0.50694 2.18392 offset 0.19752 0.09078 31000.43183 length 0.02318 color 0 0 1 }
Segment { rot -0.83602 0 0.5487 2.29645 offset 0.20551 0.10261 31000.44487 length 0.01555 color 0 0 1 }
Segment { rot -0.87765 0 0.4793 2.31738 offset 0.21287 0.11581 31000.45736 length 0.0237 color 0 0 1 }
Segment { rot -0.87508 0 0.48398 2.30655 offset 0.22288 0.13479 31000.47556 length 0.03257 color 0 0 1 }
Segment { rot -0.89704 0 0.44194 2.24365 offset 0.22998 0.14798 31000.48867 length 0.00725 color 0 0 1 }
Segment { rot -0.90801 0 0.41894 2.20153 offset 0.23231 0.15212 31000.49355 length 0.00637 color 0 0 1 }
Segment { rot -0.90744 0 0.42019 2.17326 offset 0.23387 0.15478 31000.49691 length 0.00275 color 0 0 1 }
Segment { rot -0.95226 0 0.30529 2.19751 offset 0.23493 0.15696 31000.49978 length 0.00477 color 0 0 1 }
Segment { rot -0.68174 0 -0.7316 1.68023 offset 0.23399 0.15859 31000.50306 length 0.00423 color 0 0 1 }
Segment { rot -0.7204 0 -0.69356 1.63088 offset 0.23244 0.15882 31000.5045 length 0.00003 color 0 0 1 }
Segment { rot -0.85246 0 -0.52279 1.59433 offset 0.23138 0.15887 31000.50621 length 0.004 color 0 0 1 }
Segment { rot -0.85475 0 -0.51904 1.6196 offset 0.22945 0.159 31000.50937 length 0.00341 color 0 0 1 }
Segment { rot -0.78175 0 -0.6236 1.51453 offset 0.2267 0.15891 31000.51318 length 0.00602 color 0 0 1 }
Segment { rot -0.82295 0 -0.56811 1.54895 offset 0.22385 0.1587 31000.51694 length 0.00342 color 0 0 1 }
Segment { rot -0.85005 0 -0.5267 1.54436 offset 0.22155 0.1586 31000.52048 length 0.00503 color 0 0 1 }
Segment { rot -0.87781 0 -0.479 1.66667 offset 0.21627 0.15933 31000.52987 length 0.0166 color 0 0 1 }
Segment { rot -0.86214 0 -0.50667 1.58417 offset 0.21204 0.16013 31000.53759 length 0.00108 color 0 0 1 }
Segment { rot -0.87875 0 -0.47728 1.59091 offset 0.21095 0.16017 31000.53955 length 0.0034 color 0 0 1 }
Segment { rot -0.77601 0 -0.63072 1.55417 offset 0.20839 0.16016 31000.5432 length 0.00556 color 0 0 1 }
Segment { rot -0.72445 0 -0.68933 1.59702 offset 0.19889 0.16041 31000.5535 length 0.02248 color 0 0 1 }
Segment { rot -0.63818 0 -0.76989 1.6309 offset 0.19058 0.16075 31000.56211 length 0.00148 color 0 0 1 }
Segment { rot -0.67411 0 -0.73863 1.62629 offset 0.18588 0.1611 31000.56635 length 0.0112 color 0 0 1 }
Segment { rot -0.67079 0 -0.74165 1.6346 offset 0.17899 0.16165 31000.57261 length 0.00745 color 0 0 1 }
Segment { rot -0.63191 0 -0.77504 1.69835 offset 0.17471 0.16214 31000.57635 length 0.00398 color 0 0 1 }
Segment { rot -0.6462 0 -0.76317 1.70204 offset 0.17313 0.1624 31000.57764 length 0.00014 color 0 0 1 }
Segment { rot -0.65833 0 -0.75273 1.70731 offset 0.17087 0.16281 31000.57962 length 0.00592 color 0 0 1 }
Segment { rot -0.68408 0 -0.7294 1.68036 offset 0.16379 0.16395 31000.58612 length 0.01344 color 0 0 1 }
Segment { rot -0.76412 0 -0.64508 1.67673 offset 0.15579 0.1652 31000.59439 length 0.00973 color 0 0 1 }
Segment { rot -0.7694 0 -0.63877 1.64715 offset 0.15243 0.16575 31000.59837 length 0.00076 color 0 0 1 }
Segment { rot -0.78034 0 -0.62536 1.63172 offset 0.15173 0.16582 31000.59923 length 0.00146 color 0 0 1 }
Segment { rot -0.74349 0 -0.66875 1.63231 offset 0.14717 0.16624 31000.60437 length 0.0123 color 0 0 1 }
Segment { rot -0.76458 0 -0.64453 1.64869 offset 0.14303 0.16662 31000.60897 length 0.00011 color 0 0 1 }
Segment { rot -0.73429 0 -0.67884 1.56179 offset 0.14202 0.16662 31000.61007 length 0.00286 color 0 0 1 }
Segment { rot -0.70149 0 -0.71268 1.58948 offset 0.14063 0.16661 31000.61153 length 0.00118 color 0 0 1 }
Segment { rot -0.76115 0 -0.64857 1.77471 offset 0.13966 0.1668 31000.61259 length 0.00172 color 0 0 1 }
Segment { rot -0.75336 0 -0.65761 1.77898 offset 0.13878 0.16708 31000.61362 length 0.00106 color 0 0 1 }
Segment { rot -0.7718 0 -0.63587 1.75986 offset 0.13343 0.1687 31000.62008 length 0.01603 color 0 0 1 }
Segment { rot -0.99999 0 -0.00473 0.93859 offset 0.1284 0.16708 31000.63042 length 0.01057 color 0 0 1 }
Segment { rot -0.99916 0 -0.04099 0.95732 offset 0.12832 0.1628 31000.63633 length 0.00403 color 0 0 1 }
Segment { rot -1 0 0.00004 1.01195 offset 0.12825 0.15856 31000.64289 length 0.01159 color 0 0 1 }
Segment { rot -0.99952 0 -0.03103 1.02785 offset 0.1282 0.15458 31000.64931 length 0.00352 color 0 0 1 }
Segment { rot -0.99238 0 -0.12325 1.04964 offset 0.12805 0.15318 31000.65167 length 0.00198 color 0 0 1 }
Segment { rot -0.99182 0 -0.12766 1.04313 offset 0.12793 0.15261 31000.65265 length 0.00029 color 0 0 1 }
Segment { rot -0.99425 0 -0.10713 1.05431 offset 0.12734 0.14952 31000.65806 length 0.01223 color 0 0 1 }
Segment { rot -0.9101 0 -0.4144 0.46446 offset 0.12582 0.1419 31000.66545 length 0.01029 color 0 0 1 }
Segment { rot -0.9097 0 -0.41527 0.4636 offset 0.12325 0.12954 31000.67107 length 0.01734 color 0 0 1 }
Segment { rot -0.9601 0 -0.27965 0.40844 offset 0.12104 0.11679 31000.67668 length 0.01089 color 0 0 1 }
Segment { rot -0.99531 0 -0.09678 0.38954 offset 0.12038 0.11037 31000.67934 length 0.00308 color 0 0 1 }
Segment { rot -0.99035 0 -0.13858 0.41862 offset 0.12018 0.1066 31000.68095 length 0.00514 color 0 0 1 }
Segment { rot -0.99996 0 0.00902 0.42615 offset 0.12009 0.09026 31000.68834 length 0.03073 color 0 0 1 }
Segment { rot -0.95394 0 -0.29999 0.42245 offset 0.11996 0.07493 31000.69526 length 0.00294 color 0 0 1 }
Segment { rot -0.89181 0 -0.45242 0.45207 offset 0.11821 0.06642 31000.69894 length 0.01594 color 0 0 1 }
Segment { rot -0.92237 0 -0.3863 0.47291 offset 0.11613 0.05668 31000.70326 length 0.00577 color 0 0 1 }
Segment { rot -0.897 0 -0.44204 0.54516 offset 0.11528 0.05284 31000.70516 length 0.00298 color 0 0 1 }
Segment { rot -0.91788 0 -0.39685 0.50344 offset 0.11454 0.04977 31000.70677 length 0.00411 color 0 0 1 }
Segment { rot -0.91275 0 -0.40853 0.51965 offset 0.11398 0.04725 31000.70805 length 0.00165 color 0 0 1 }
Segment { rot -0.93271 0 -0.36062 0.43693 offset 0.11378 0.0463 31000.70852 length 0.00053 color 0 0 1 }
Segment { rot -0.97874 0 -0.20512 0.52844 offset 0.11323 0.04183 31000.71105 length 0.0098 color 0 0 1 }
Segment { rot -0.97782 0 -0.20944 0.56171 offset 0.11258 0.03654 31000.71412 length 0.00251 color 0 0 1 }
Segment { rot -0.97773 0 -0.20988 0.56527 offset 0.11239 0.0351 31000.71501 length 0.00091 color 0 0 1 }
Segment { rot -0.98537 0 -0.17045 0.57476 offset 0.1122 0.03348 31000.71603 length 0.00293 color 0 0 1 }
Segment { rot -0.97387 0 -0.22709 0.53296 offset 0.11199 0.03165 31000.71716 length 0.0014 color 0 0 1 }
Segment { rot -0.95997 0 -0.28009 0.56242 offset 0.1116 0.0293 31000.71857 length 0.00414 color 0 0 1 }
Segment { rot -0.97156 0 -0.23681 0.55643 offset 0.11123 0.02715 31000.71987 length 0.00094 color 0 0 1 }
Segment { rot -0.99453 0 -0.10447 0.53259 offset 0.11066 0.01837 31000.72502 length 0.01945 color 0 0 1 }
Segment { rot -0.99273 0 -0.12038 0.47712 offset 0.10996 0.00715 31000.73139 length 0.0064 color 0 0 1 }
Segment { rot -0.9508 0 -0.30981 0.37289 offset 0.10929 0.00018 31000.73438 length 0.00887 color 0 0 1 }
Segment { rot -0.93987 0 -0.34154 0.29963 offset 0.10872 -0.00452 31000.73608 length 0.00119 color 0 0 1 }
Segment { rot -0.93856 0 -0.34513 0.252 offset 0.10866 -0.0051 31000.73625 length 0.00003 color 0 0 1 }
Segment { rot -0.95593 0 -0.2936 0.24225 offset 0.10762 -0.01945 31000.73964 length 0.02953 color 0 0 1 }
Segment { rot -0.91423 0 -0.4052 0.24959 offset 0.10568 -0.0425 31000.74506 length 0.01797 color 0 0 1 }
Segment { rot -0.92848 0 -0.37138 0.24965 offset 0.10443 -0.05498 31000.74798 length 0.00779 color 0 0 1 }
Segment { rot -0.98917 0 -0.14681 0.24612 offset 0.10379 -0.0664 31000.75077 length 0.01576 color 0 0 1 }
Segment { rot -1 0 0.00288 0.19821 offset 0.10351 -0.0746 31000.75279 length 0.00113 color 0 0 1 }
Segment { rot -0.98556 0 0.16931 0.19913 offset 0.10359 -0.07766 31000.7534 length 0.00512 color 0 0 1 }
Segment { rot -0.99938 0 -0.03531 0.22001 offset 0.10366 -0.08222 31000.75435 length 0.0042 color 0 0 1 }
Segment { rot -0.97977 0 -0.20013 0.21506 offset 0.10334 -0.09113 31000.75628 length 0.01404 color 0 0 1 }
Segment { rot -0.97333 0 -0.22942 0.21427 offset 0.103 -0.09893 31000.75795 length 0.00194 color 0 0 1 }
Segment { rot -0.68274 0 -0.73066 0.16827 offset 0.10226 -0.10543 31000.75879 length 0.01126 color 0 0 1 }
Segment { rot -0.57433 0 -0.81862 0.16657 offset 0.10151 -0.11143 31000.75948 length 0.00092 color 0 0 1 }
Segment { rot -0.60578 0 -0.79563 0.16318 offset 0.10087 -0.11629 31000.75996 length 0.00892 color 0 0 1 }
Segment { rot -0.46948 0 -0.88295 0.30253 offset 0.09829 -0.12796 31000.76147 length 0.01524 color 0 0 1 }
Segment { rot 0.17467 0 -0.98463 0.5262 offset 0.09371 -0.13974 31000.76208 length 0.01041 color 0 0 1 }
Segment { rot 0.13329 0 -0.99108 0.52891 offset 0.08895 -0.14802 31000.76132 length 0.00876 color 0 0 1 }
Segment { rot 0.13451 0 -0.99091 0.52429 offset 0.08519 -0.15454 31000.76082 length 0.00632 color 0 0 1 }
Segment { rot 0.01065 0 -0.99994 0.55422 offset 0.07805 -0.16627 31000.76054 length 0.02116 color 0 0 1 }
Segment { rot 0.01798 0 -0.99984 0.47606 offset 0.07226 -0.1757 31000.76048 length 0.00099 color 0 0 1 }
Segment { rot -0.02656 0 -0.99965 0.46943 offset 0.07005 -0.18006 31000.76053 length 0.00877 color 0 0 1 }
Segment { rot -0.30213 0 -0.95327 0.50964 offset 0.06789 -0.1843 31000.76064 length 0.00076 color 0 0 1 }
Segment { rot -0.05734 0 -0.99835 0.59953 offset 0.06583 -0.18739 31000.7608 length 0.00667 color 0 0 1 }
Segment { rot -0.10066 0 -0.99492 0.65445 offset 0.06211 -0.19255 31000.7611 length 0.00609 color 0 0 1 }
Segment { rot -0.05777 0 -0.99833 0.78828 offset 0.05755 -0.19767 31000.76144 length 0.00767 color 0 0 1 }
Segment { rot 0.35462 0 -0.93501 0.95891 offset 0.0545 -0.20063 31000.76147 length 0.00089 color 0 0 1 }
Segment { rot 0.46394 0 -0.88587 0.66568 offset 0.05244 -0.20336 31000.76044 length 0.00629 color 0 0 1 }
Segment { rot 0.79923 0 -0.60103 0.47568 offset 0.04871 -0.2123 31000.75687 length 0.01455 color 0 0 1 }
Segment { rot 0.85347 0 -0.52114 0.48669 offset 0.04556 -0.22296 31000.75232 length 0.00948 color 0 0 1 }
Segment { rot 0.79886 0 -0.60151 0.46982 offset 0.04437 -0.22724 31000.75039 length 0.0002 color 0 0 1 }
Segment { rot 0.80635 0 -0.59144 0.45738 offset 0.04368 -0.22961 31000.74945 length 0.00509 color 0 0 1 }
Segment { rot 0.80244 0 -0.59673 0.39096 offset 0.04241 -0.23436 31000.74773 length 0.00533 color 0 0 1 }
Segment { rot 0.8042 0 -0.59436 0.40301 offset 0.0409 -0.2404 31000.74569 length 0.00777 color 0 0 1 }
Segment { rot 0.77901 0 -0.62702 0.40017 offset 0.03875 -0.24864 31000.74292 length 0.01014 color 0 0 1 }
Segment { rot 0.67253 0 -0.74007 0.53559 offset 0.03386 -0.26163 31000.73806 length 0.01935 color 0 0 1 }
Segment { rot 0.49697 0 -0.86777 0.65582 offset 0.02966 -0.27077 31000.73443 length 0.00208 color 0 0 1 }
Segment { rot 0.54194 0 -0.84042 0.63409 offset 0.02647 -0.27586 31000.73241 length 0.01059 color 0 0 1 }
Segment { rot 0.60573 0 -0.79567 0.60885 offset 0.02371 -0.28035 31000.73062 length 0.00054 color 0 0 1 }
Segment { rot 0.57182 0 -0.82038 0.62982 offset 0.02282 -0.28185 31000.72999 length 0.00318 color 0 0 1 }
Segment { rot 0.60653 0 -0.79506 0.63096 offset 0.02201 -0.28322 31000.72942 length 0.00021 color 0 0 1 }
Segment { rot 0.61967 0 -0.78486 0.48401 offset 0.01592 -0.29795 31000.72461 length 0.03308 color 0 0 1 }
Segment { rot 0.44695 0 -0.89456 0.52967 offset 0.00943 -0.31343 31000.71962 length 0.00195 color 0 0 1 }
Segment { rot 0.51002 0 -0.86016 0.57487 offset 0.00722 -0.31745 31000.71835 length 0.00758 color 0 0 1 }
Segment { rot 0.46135 0 -0.88722 0.64114 offset 0.00517 -0.32105 31000.71716 length 0.00105 color 0 0 1 }
Segment { rot 0.43416 0 -0.90084 0.62807 offset -0.00055 -0.32979 31000.71439 length 0.02057 color 0 0 1 }
Segment { rot 0.45001 0 -0.89302 0.61129 offset -0.01247 -0.34846 31000.7085 length 0.02527 color 0 0 1 }
Segment { rot 0.47694 0 -0.87894 0.61038 offset -0.02935 -0.37573 31000.69959 length 0.04132 color 0 0 1 }
Segment { rot 0.21049 0 -0.9776 0.48541 offset -0.04038 -0.39386 31000.69381 length 0.00271 color 0 0 1 }
Segment { rot 0.17813 0 -0.98401 0.50459 offset -0.04191 -0.39673 31000.69351 length 0.00384 color 0 0 1 }
Segment { rot 0.1033 0 -0.99465 0.49723 offset -0.04618 -0.40464 31000.693 length 0.01418 color 0 0 1 }
Segment { rot -0.30149 0 -0.95347 0.42467 offset -0.05052 -0.41314 31000.69296 length 0.00496 color 0 0 1 }
Segment { rot -0.33476 0 -0.9423 0.46729 offset -0.05707 -0.42711 31000.69525 length 0.02625 color 0 0 1 }
Segment { rot -0.27408 0 -0.96171 0.5414 offset -0.06274 -0.43901 31000.69725 length 0.00041 color 0 0 1 }
Segment { rot -0.34324 0 -0.93925 0.55268 offset -0.06485 -0.44265 31000.69802 length 0.00813 color 0 0 1 }
Segment { rot -0.36823 0 -0.92974 0.53417 offset -0.06734 -0.44699 31000.69894 length 0.00205 color 0 0 1 }
Segment { rot -0.5033 0 -0.86411 0.45051 offset -0.06805 -0.4484 31000.69926 length 0.00119 color 0 0 1 }
Segment { rot -0.52884 0 -0.84872 0.39412 offset -0.06847 -0.4495 31000.69951 length 0.00121 color 0 0 1 }
Segment { rot -0.39537 0 -0.91852 0.36506 offset -0.06905 -0.45116 31000.6998 length 0.00237 color 0 0 1 }
Segment { rot -0.40182 0 -0.91572 0.36785 offset -0.0696 -0.45273 31000.70004 length 0.00097 color 0 0 1 }
Segment { rot -0.45387 0 -0.89107 0.39139 offset -0.07078 -0.45596 31000.70063 length 0.00601 color 0 0 1 }
Segment { rot -0.47568 0 -0.87962 0.35876 offset -0.07215 -0.45977 31000.70134 length 0.00222 color 0 0 1 }
Segment { rot -0.22882 0 -0.97347 0.39588 offset -0.07297 -0.46199 31000.70164 length 0.00255 color 0 0 1 }
Segment { rot -0.70859 0 -0.70562 0.43872 offset -0.07388 -0.46448 31000.70218 length 0.00289 color 0 0 1 }
Segment { rot -0.6912 0 -0.72266 0.42992 offset -0.07449 -0.46633 31000.70279 length 0.0012 color 0 0 1 }
Segment { rot -0.71314 0 -0.70103 0.41963 offset -0.07529 -0.46886 31000.7036 length 0.00434 color 0 0 1 }
Segment { rot 0.20848 0 -0.97803 0.46131 offset -0.07645 -0.47195 31000.70411 length 0.00248 color 0 0 1 }
Segment { rot 0.1107 0 -0.99385 0.47335 offset -0.07717 -0.4734 31000.70398 length 0.00077 color 0 0 1 }
Segment { rot 0.12496 0 -0.99216 0.48272 offset -0.07906 -0.47705 31000.70374 length 0.00747 color 0 0 1 }
Segment { rot 0.11261 0 -0.99364 0.49923 offset -0.08268 -0.48386 31000.70331 length 0.00799 color 0 0 1 }
Segment { rot 0.13108 0 -0.99137 0.52439 offset -0.08614 -0.49009 31000.70289 length 0.00629 color 0 0 1 }
Segment { rot 0.17779 0 -0.98407 0.47206 offset -0.09 -0.49739 31000.70227 length 0.01027 color 0 0 1 }
Segment { rot 0.1768 0 -0.98425 0.51977 offset -0.09507 -0.50689 31000.70135 length 0.01135 color 0 0 1 }
Segment { rot 0.14 0 -0.99015 0.54904 offset -0.09882 -0.51342 31000.70072 length 0.00377 color 0 0 1 }
Segment { rot 0.12725 0 -0.99187 0.51588 offset -0.09988 -0.51519 31000.70057 length 0.00036 color 0 0 1 }
Segment { rot 0.25073 0 -0.96806 0.57029 offset -0.10026 -0.51581 31000.70048 length 0.00111 color 0 0 1 }
Segment { rot 0.19627 0 -0.98055 0.56818 offset -0.10056 -0.51629 31000.7004 length 0.00002 color 0 0 1 }
Segment { rot 0.18291 0 -0.98313 0.52489 offset -0.10151 -0.51795 31000.70023 length 0.00383 color 0 0 1 }
Segment { rot 0.16246 0 -0.98671 0.55574 offset -0.11062 -0.53293 31000.69871 length 0.03138 color 0 0 1 }
Segment { rot 0.19265 0 -0.98127 0.44042 offset -0.12178 -0.55275 31000.69677 length 0.01434 color 0 0 1 }
Segment { rot 0.25871 0 -0.96596 0.39813 offset -0.12509 -0.55999 31000.6961 length 0.00164 color 0 0 1 }
Segment { rot 0.32279 0 -0.94647 0.39046 offset -0.12909 -0.57023 31000.69476 length 0.02051 color 0 0 1 }
Segment { rot 0.19585 0 -0.98063 0.70962 offset -0.13381 -0.58092 31000.6933 length 0.0032 color 0 0 1 }
Segment { rot 0.23508 0 -0.97198 0.75926 offset -0.14086 -0.58868 31000.69163 length 0.01804 color 0 0 1 }
Segment { rot -0.08493 0 -0.99639 0.78875 offset -0.15087 -0.59918 31000.69051 length 0.01124 color 0 0 1 }
Segment { rot -0.2551 0 -0.96691 0.94544 offset -0.15983 -0.60686 31000.69217 length 0.01273 color 0 0 1 }
Segment { rot -0.33266 0 -0.94305 0.8972 offset -0.16573 -0.61136 31000.69381 length 0.00246 color 0 0 1 }
Segment { rot -0.3307 0 -0.94374 1.15228 offset -0.17739 -0.61719 31000.69789 length 0.02493 color 0 0 1 }
Segment { rot -0.49542 0 -0.86865 1.22351 offset -0.18814 -0.62226 31000.70166 length 0.00002 color 0 0 1 }
Segment { rot -0.62084 0 -0.78394 1.20799 offset -0.19233 -0.62429 31000.70498 length 0.01139 color 0 0 1 }
Segment { rot -0.60434 0 -0.79673 1.19328 offset -0.19695 -0.62653 31000.70862 length 0.00121 color 0 0 1 }
Segment { rot -0.59085 0 -0.80678 1.26084 offset -0.19774 -0.62689 31000.70921 length 0.00091 color 0 0 1 }
Segment { rot -0.63261 0 -0.77447 1.20007 offset -0.20007 -0.62802 31000.71108 length 0.00546 color 0 0 1 }
Segment { rot -0.65478 0 -0.75582 1.14761 offset -0.20312 -0.62965 31000.71363 length 0.00313 color 0 0 1 }
Segment { rot -0.67295 0 -0.73969 1.12936 offset -0.20461 -0.63056 31000.71494 length 0.00124 color 0 0 1 }
Segment { rot -0.84689 0 -0.53177 1.345 offset -0.20533 -0.63096 31000.71579 length 0.00115 color 0 0 1 }
Segment { rot -0.85052 0 -0.52594 1.31152 offset -0.20618 -0.63137 31000.71717 length 0.0022 color 0 0 1 }
Segment { rot -0.90051 0 -0.43484 1.27761 offset -0.21256 -0.63569 31000.73013 length 0.02796 color 0 0 1 }
Segment { rot -0.96506 0 -0.26201 1.31803 offset -0.21863 -0.63997 31000.74308 length 0.00193 color 0 0 1 }
Segment { rot -0.97887 0 -0.20448 1.35579 offset -0.21952 -0.64091 31000.74711 length 0.00653 color 0 0 1 }
Segment { rot -0.98053 0 -0.19635 1.32133 offset -0.22109 -0.64279 31000.75479 length 0.0096 color 0 0 1 }
Segment { rot -0.98505 0 -0.17229 1.30718 offset -0.22251 -0.64477 31000.76225 length 0.00609 color 0 0 1 }
Segment { rot -0.98875 0 -0.14961 1.31066 offset -0.22333 -0.64613 31000.76724 length 0.00439 color 0 0 1 }
Segment { rot -0.92645 0 -0.37643 1.18178 offset -0.22563 -0.64885 31000.7742 length 0.01136 color 0 0 1 }
Segment { rot -0.93198 0 -0.36251 1.15983 offset -0.22883 -0.65247 31000.78222 length 0.00738 color 0 0 1 }
Segment { rot -0.9326 0 -0.36091 1.1804 offset -0.23073 -0.65472 31000.78712 length 0.00403 color 0 0 1 }
Segment { rot -0.9176 0 -0.39751 1.12559 offset -0.23197 -0.65616 31000.79015 length 0.00313 color 0 0 1 }
Segment { rot -0.80267 0 -0.59642 1.13646 offset -0.2357 -0.6593 31000.79572 length 0.01173 color 0 0 1 }
Segment { rot -0.81077 0 -0.58537 1.14889 offset -0.23952 -0.66226 31000.80088 length 0.00243 color 0 0 1 }
Segment { rot -0.82653 0 -0.56289 1.14439 offset -0.24049 -0.66302 31000.80225 length 0.00124 color 0 0 1 }
Segment { rot -0.7982 0 -0.6024 1.17697 offset -0.2429 -0.66472 31000.80549 length 0.00754 color 0 0 1 }
Segment { rot -0.79703 0 -0.60393 1.20976 offset -0.25847 -0.67459 31000.82605 length 0.04769 color 0 0 1 }
Segment { rot -0.91129 0 -0.41177 1.19525 offset -0.27238 -0.68343 31000.84479 length 0.00227 color 0 0 1 }
Segment { rot -0.9578 0 -0.28744 1.15775 offset -0.27303 -0.68417 31000.84647 length 0.00163 color 0 0 1 }
Segment { rot -0.99826 0 -0.05897 1.01052 offset -0.27336 -0.6857 31000.84909 length 0.0045 color 0 0 1 }
Segment { rot -0.99983 0 0.01833 0.93745 offset -0.27337 -0.69092 31000.85648 length 0.01363 color 0 0 1 }
Segment { rot -0.99842 0 -0.05619 1.00246 offset -0.27354 -0.69809 31000.86687 length 0.01162 color 0 0 1 }
Segment { rot -0.99597 0 -0.08965 1.04511 offset -0.27432 -0.70446 31000.87734 length 0.01295 color 0 0 1 }
Segment { rot -0.99574 0 -0.09223 1.01834 offset -0.27492 -0.70837 31000.88398 length 0.00251 color 0 0 1 }
Segment { rot -0.98468 0 -0.17437 1.056 offset -0.27514 -0.70943 31000.88573 length 0.00159 color 0 0 1 }
Segment { rot -0.98476 0 -0.17391 1.02986 offset -0.27653 -0.71421 31000.89361 length 0.01705 color 0 0 1 }
Segment { rot -0.9684 0 -0.2494 1.09564 offset -0.27874 -0.72052 31000.90443 length 0.00841 color 0 0 1 }
Segment { rot -0.98245 0 -0.18654 1.03251 offset -0.28012 -0.72388 31000.91041 length 0.00561 color 0 0 1 }
Segment { rot -0.99402 0 -0.10921 0.95439 offset -0.28119 -0.72936 31000.91845 length 0.01399 color 0 0 1 }
Segment { rot -0.99124 0 -0.13209 1.00225 offset -0.28245 -0.73651 31000.92894 length 0.01154 color 0 0 1 }
Segment { rot -0.99223 0 -0.12444 1.14824 offset -0.28315 -0.7398 31000.93417 length 0.00091 color 0 0 1 }
Segment { rot -0.98798 0 -0.15456 1.16358 offset -0.28344 -0.74067 31000.93613 length 0.00342 color 0 0 1 }
Segment { rot -0.9964 0 -0.08478 1.16769 offset -0.2837 -0.74143 31000.93788 length 0.00044 color 0 0 1 }
Segment { rot -0.99956 0 -0.02965 1.11756 offset -0.28373 -0.74174 31000.93854 length 0.00101 color 0 0 1 }
Segment { rot -0.9998 0 -0.01994 1.08775 offset -0.28376 -0.74225 31000.93954 length 0.00124 color 0 0 1 }
Segment { rot -0.91927 0 0.39363 0.7484 offset -0.28366 -0.74283 31000.94034 length 0.0008 color 0 0 1 }
Segment { rot -0.90391 0 0.42772 0.73175 offset -0.28191 -0.7474 31000.94406 length 0.01149 color 0 0 1 }
Segment { rot 0.19447 0 0.98091 1.00199 offset -0.27617 -0.75434 31000.94672 length 0.00992 color 0 0 1 }
Segment { rot 0.22579 0 0.97418 0.68651 offset -0.27115 -0.75817 31000.9457 length 0.00298 color 0 0 1 }
Segment { rot 0.20681 0 0.97838 0.68591 offset -0.26433 -0.76669 31000.94423 length 0.01905 color 0 0 1 }
Segment { rot 0.20217 0 0.97935 0.56036 offset -0.25802 -0.77471 31000.9429 length 0.00155 color 0 0 1 }
Segment { rot 0.85208 0 0.52342 0.46799 offset -0.25749 -0.77588 31000.9426 length 0.00115 color 0 0 1 }
Segment { rot 0.85143 0 0.52447 0.45476 offset -0.25681 -0.77851 31000.9415 length 0.0047 color 0 0 1 }
Segment { rot 0.23048 0 -0.97308 0.7221 offset -0.25761 -0.78219 31000.9403 length 0.00417 color 0 0 1 }
Segment { rot 0.22943 0 -0.97332 0.72198 offset -0.25915 -0.78399 31000.93993 length 0.00064 color 0 0 1 }
Segment { rot 0.13729 0 -0.99053 0.99419 offset -0.26045 -0.78495 31000.93974 length 0.00262 color 0 0 1 }
Segment { rot 0.13694 0 -0.99058 0.97512 offset -0.26196 -0.78595 31000.93953 length 0.00103 color 0 0 1 }
Segment { rot 0.14542 0 -0.98937 0.97201 offset -0.26249 -0.78632 31000.93945 length 0.00027 color 0 0 1 }
Segment { rot 0.00482 0 -0.99999 0.8541 offset -0.26827 -0.79133 31000.93941 length 0.01504 color 0 0 1 }
Segment { rot 0.16044 0 -0.98705 0.88777 offset -0.27571 -0.79773 31000.93909 length 0.00461 color 0 0 1 }
Segment { rot -0.15784 0 -0.98747 0.94346 offset -0.27926 -0.80049 31000.93909 length 0.00446 color 0 0 1 }
Segment { rot -0.1617 0 -0.98684 1.02498 offset -0.28337 -0.80324 31000.93976 length 0.00554 color 0 0 1 }
Segment { rot -0.14024 0 -0.99012 1.01233 offset -0.28609 -0.80492 31000.9402 length 0.00092 color 0 0 1 }
Segment { rot -0.13456 0 -0.99091 0.9544 offset -0.28669 -0.80531 31000.94028 length 0.00052 color 0 0 1 }
Segment { rot -0.09784 0 -0.9952 0.96596 offset -0.28881 -0.80679 31000.9405 length 0.00466 color 0 0 1 }
Segment { rot 0.28519 0 -0.95847 1.20676 offset -0.30091 -0.81216 31000.93765 length 0.02276 color 0 0 1 }
Segment { rot -0.02834 0 -0.9996 1.04314 offset -0.31278 -0.8172 31000.93467 length 0.0039 color 0 0 1 }
Segment { rot 0.01199 0 -0.99993 1.0103 offset -0.31543 -0.81879 31000.9347 length 0.00228 color 0 0 1 }
Segment { rot -0.02262 0 -0.99974 1.06284 offset -0.31717 -0.81982 31000.93471 length 0.00178 color 0 0 1 }
Segment { rot 0.07592 0 -0.99711 1.01977 offset -0.32075 -0.82198 31000.93451 length 0.0066 color 0 0 1 }
Segment { rot 0.17321 0 -0.98489 1.26386 offset -0.32592 -0.82447 31000.93388 length 0.00503 color 0 0 1 }
Segment { rot 0.28736 0 -0.95782 1.21646 offset -0.3288 -0.82543 31000.93331 length 0.00116 color 0 0 1 }
Segment { rot 0.3073 0 -0.95161 1.28848 offset -0.33007 -0.82586 31000.93291 length 0.00163 color 0 0 1 }
Segment { rot 0.29812 0 -0.95453 1.28057 offset -0.33196 -0.82645 31000.93231 length 0.00252 color 0 0 1 }
Segment { rot 0.33315 0 -0.94287 1.26552 offset -0.33383 -0.82705 31000.9317 length 0.00159 color 0 0 1 }
Segment { rot 0.2539 0 -0.96723 1.2257 offset -0.33645 -0.82799 31000.93095 length 0.0042 color 0 0 1 }
Segment { rot 0.23488 0 -0.97202 1.26639 offset -0.3401 -0.82927 31000.93003 length 0.00376 color 0 0 1 }
Segment { rot 0.02207 0 -0.99976 1.25904 offset -0.34444 -0.83067 31000.92955 length 0.00545 color 0 0 1 }
Segment { rot -0.11667 0 -0.99317 1.24883 offset -0.34781 -0.83176 31000.92958 length 0.00164 color 0 0 1 }
Segment { rot -0.08489 0 -0.99639 1.29134 offset -0.35053 -0.83259 31000.92984 length 0.00407 color 0 0 1 }
Segment { rot -0.23567 0 -0.97183 1.4118 offset -0.35512 -0.83358 31000.93064 length 0.00549 color 0 0 1 }
Segment { rot -0.69526 0 -0.71876 1.18999 offset -0.359 -0.83471 31000.93249 length 0.00376 color 0 0 1 }
Segment { rot -0.65622 0 -0.75457 1.15395 offset -0.36134 -0.83605 31000.93465 length 0.00313 color 0 0 1 }
Segment { rot -0.62222 0 -0.78284 1.20559 offset -0.36511 -0.838 31000.93773 length 0.00737 color 0 0 1 }
Segment { rot -0.62615 0 -0.7797 1.22332 offset -0.37037 -0.8405 31000.94193 length 0.00699 color 0 0 1 }
Segment { rot -0.61681 0 -0.78711 1.23131 offset -0.37334 -0.84188 31000.94431 length 0.00112 color 0 0 1 }
Segment { rot -0.5943 0 -0.80424 1.20998 offset -0.3743 -0.84232 31000.94504 length 0.00145 color 0 0 1 }
Segment { rot -0.67849 0 -0.73461 1.31351 offset -0.37721 -0.84342 31000.94762 length 0.00664 color 0 0 1 }
Segment { rot -0.66849 0 -0.74372 1.30577 offset -0.37976 -0.84434 31000.94997 length 0.00055 color 0 0 1 }
Segment { rot -0.69427 0 -0.71972 1.42244 offset -0.38108 -0.84464 31000.95123 length 0.00315 color 0 0 1 }
Segment { rot -0.64418 0 -0.76488 1.44453 offset -0.38459 -0.84527 31000.95433 length 0.00631 color 0 0 1 }
Segment { rot -0.67544 0 -0.73741 1.32689 offset -0.39423 -0.84811 31000.96297 length 0.02024 color 0 0 1 }
Segment { rot -0.88894 0 -0.45802 1.11298 offset -0.40196 -0.85109 31000.97057 length 0.00241 color 0 0 1 }
Segment { rot -0.91433 0 -0.40497 1.21434 offset -0.40301 -0.85213 31000.97278 length 0.00292 color 0 0 1 }
Segment { rot -0.90834 0 -0.41822 1.01068 offset -0.40559 -0.85568 31000.97843 length 0.01143 color 0 0 1 }
Segment { rot -0.93097 0 -0.3651 0.96195 offset -0.40886 -0.86108 31000.98599 length 0.00827 color 0 0 1 }
Segment { rot -0.95693 0 -0.29032 0.96173 offset -0.41021 -0.86373 31000.98954 length 0.00099 color 0 0 1 }
Segment { rot -0.95812 0 -0.28636 0.9385 offset -0.41067 -0.86487 31000.99105 length 0.0029 color 0 0 1 }
Segment { rot -0.95619 0 -0.29275 0.95984 offset -0.41264 -0.86964 31000.99751 length 0.01365 color 0 0 1 }
Segment { rot -0.95747 0 -0.28854 0.99078 offset -0.41448 -0.87403 31001.00355 length 0.00173 color 0 0 1 }
Segment { rot -0.89534 0 -0.44537 1.09382 offset -0.41697 -0.87715 31001.00882 length 0.01151 color 0 0 1 }
Segment { rot -0.85749 0 -0.5145 1.06328 offset -0.41928 -0.87982 31001.01345 length 0.00013 color 0 0 1 }
Segment { rot -0.99953 0 -0.03056 0.73413 offset -0.41932 -0.88024 31001.01385 length 0.00106 color 0 0 1 }
Segment { rot -0.99927 0 0.03824 0.61399 offset -0.41932 -0.88092 31001.0144 length 0.0007 color 0 0 1 }
Segment { rot -0.99975 0 0.02227 0.66343 offset -0.41931 -0.88155 31001.01487 length 0.00087 color 0 0 1 }
Segment { rot -0.98664 0 0.16289 0.72162 offset -0.41919 -0.88264 31001.01579 length 0.00199 color 0 0 1 }
Segment { rot -0.99284 0 0.11943 0.7229 offset -0.41878 -0.88628 31001.01897 length 0.00773 color 0 0 1 }
Segment { rot -0.98003 0 0.19887 0.75438 offset -0.41797 -0.89189 31001.02401 length 0.00744 color 0 0 1 }
Segment { rot -0.60704 0 0.79467 1.28474 offset -0.41678 -0.89486 31001.02703 length 0.00179 color 0 0 1 }
Segment { rot -0.61608 0 0.78768 1.23211 offset -0.41487 -0.89566 31001.02851 length 0.00331 color 0 0 1 }
Segment { rot -0.70493 0 0.70928 1.34137 offset -0.41302 -0.89641 31001.03009 length 0.00178 color 0 0 1 }
Segment { rot -0.61358 0 0.78964 1.32146 offset -0.41054 -0.89722 31001.03215 length 0.00488 color 0 0 1 }
Segment { rot -0.48647 0 0.8737 1.17351 offset -0.40786 -0.89821 31001.03405 length 0.00203 color 0 0 1 }
Segment { rot -0.44223 0 0.8969 1.16974 offset -0.40486 -0.89964 31001.03558 length 0.00528 color 0 0 1 }
Segment { rot -0.31796 0 0.9481 1.0876 offset -0.40121 -0.90148 31001.03715 length 0.00349 color 0 0 1 }
Segment { rot -0.52186 0 0.85303 0.98397 offset -0.39908 -0.90281 31001.03805 length 0.00188 color 0 0 1 }
Segment { rot -0.58624 0 0.81014 1.02773 offset -0.39735 -0.90412 31001.03922 length 0.00304 color 0 0 1 }
Segment { rot -0.59921 0 0.80059 1.04051 offset -0.3961 -0.90505 31001.04014 length 0.00058 color 0 0 1 }
Segment { rot -0.83376 0 0.55213 1.46775 offset -0.39532 -0.90531 31001.04115 length 0.00208 color 0 0 1 }
Segment { rot 0.51278 0 0.85852 2.42057 offset -0.3929 -0.90295 31001.0409 length 0.00655 color 0 0 1 }
Segment { rot 0.46629 0 0.88463 2.4549 offset -0.38547 -0.89282 31001.03686 length 0.01985 color 0 0 1 }
Segment { rot 0.4664 0 0.88458 2.49514 offset -0.37742 -0.88141 31001.03261 length 0.00935 color 0 0 1 }
Segment { rot 0.42889 0 0.90336 2.5041 offset -0.3747 -0.87733 31001.03119 length 0.00086 color 0 0 1 }
Segment { rot 0.40085 0 0.91615 2.53336 offset -0.37213 -0.87332 31001.03006 length 0.00893 color 0 0 1 }
Segment { rot 0.53853 0 0.84261 2.55414 offset -0.36963 -0.86937 31001.02893 length 0.00069 color 0 0 1 }
Segment { rot 0.51096 0 0.8596 2.54353 offset -0.36864 -0.86768 31001.02834 length 0.00339 color 0 0 1 }
Segment { rot 0.52011 0 0.8541 2.56282 offset -0.36617 -0.86332 31001.02685 length 0.00706 color 0 0 1 }
Segment { rot 0.57866 0 0.81557 2.57118 offset -0.36443 -0.86019 31001.02578 length 0.00042 color 0 0 1 }
Segment { rot 0.78216 0 0.62308 2.65055 offset -0.36392 -0.85876 31001.02519 length 0.00284 color 0 0 1 }
Segment { rot 0.83887 0 0.54434 2.67316 offset -0.36318 -0.85633 31001.02416 length 0.00265 color 0 0 1 }
Segment { rot 0.67682 0 0.73615 2.70167 offset -0.36202 -0.85274 31001.02289 length 0.00532 color 0 0 1 }
Segment { rot 0.65802 0 0.753 2.67929 offset -0.36117 -0.85028 31001.02211 length 0.00012 color 0 0 1 }
Segment { rot 0.6053 0 0.796 2.53967 offset -0.36084 -0.84967 31001.02186 length 0.00135 color 0 0 1 }
Segment { rot 0.59374 0 0.80466 2.53695 offset -0.36039 -0.84884 31001.02152 length 0.00066 color 0 0 1 }
Segment { rot 0.57746 0 0.81642 2.53367 offset -0.35902 -0.84642 31001.02054 length 0.00523 color 0 0 1 }
Segment { rot 0.07282 0 0.99735 2.86037 offset -0.35742 -0.84295 31001.01965 length 0.00277 color 0 0 1 }
Segment { rot -0.30778 0 0.95146 2.50993 offset -0.35472 -0.8383 31001.02037 length 0.00821 color 0 0 1 }
Segment { rot -0.27139 0 0.96247 2.51813 offset -0.34903 -0.83009 31001.02207 length 0.01207 color 0 0 1 }
Segment { rot -0.30081 0 0.95368 2.44031 offset -0.34551 -0.82504 31001.02307 length 0.00039 color 0 0 1 }
Segment { rot -0.38441 0 0.92316 2.39877 offset -0.34419 -0.82346 31001.02361 length 0.00387 color 0 0 1 }
Segment { rot -0.48929 0 0.87212 2.43225 offset -0.34279 -0.82178 31001.02422 length 0.00067 color 0 0 1 }
Segment { rot -0.57896 0 0.81536 2.32695 offset -0.34202 -0.82086 31001.02474 length 0.00196 color 0 0 1 }
Segment { rot -0.57582 0 0.81758 2.35429 offset -0.33971 -0.81808 31001.02637 length 0.00596 color 0 0 1 }
Segment { rot -0.47251 0 0.88133 2.31233 offset -0.33791 -0.8159 31001.02762 length 0.00022 color 0 0 1 }
Segment { rot -0.48966 0 0.87192 2.33982 offset -0.33783 -0.81582 31001.02767 length 0.00003 color 0 0 1 }
Segment { rot -0.47887 0 0.87789 2.09243 offset -0.33615 -0.81472 31001.02858 length 0.00438 color 0 0 1 }
Segment { rot -0.13275 0 0.99115 2.10013 offset -0.33384 -0.81324 31001.02958 length 0.00152 color 0 0 1 }
Segment { rot -0.21326 0 0.977 2.09161 offset -0.332 -0.81216 31001.02992 length 0.0028 color 0 0 1 }
Segment { rot 0.11644 0 0.9932 2.61777 offset -0.33031 -0.81059 31001.03012 length 0.00203 color 0 0 1 }
Segment { rot 0.53946 0 0.84201 2.67348 offset -0.3286 -0.80689 31001.02929 length 0.00632 color 0 0 1 }
Segment { rot 0.97208 0 -0.23467 0.94824 offset -0.32751 -0.80438 31001.0281 length 0.00108 color 0 0 1 }
Segment { rot 0.98693 0 -0.16113 0.9793 offset -0.32772 -0.80515 31001.02701 length 0.00163 color 0 0 1 }
Segment { rot 0.97073 0 -0.24019 0.9841 offset -0.32818 -0.80657 31001.02492 length 0.00351 color 0 0 1 }
Segment { rot 0.9778 0 -0.20954 0.95391 offset -0.32955 -0.81099 31001.01875 length 0.01191 color 0 0 1 }
Segment { rot 0.96234 0 -0.27183 1.05658 offset -0.33183 -0.81706 31001.00953 length 0.01067 color 0 0 1 }
Segment { rot 0.95299 0 -0.303 1.20358 offset -0.33331 -0.81996 31001.00438 length 0.00154 color 0 0 1 }
Segment { rot 0.90034 0 -0.43518 1.17211 offset -0.33361 -0.82032 31001.00353 length 0.0004 color 0 0 1 }
Segment { rot 0.87213 0 -0.48928 1.14922 offset -0.33403 -0.82071 31001.00274 length 0.00155 color 0 0 1 }
Segment { rot 0.9116 0 -0.41107 1.16069 offset -0.33442 -0.82107 31001.00204 length 0.00022 color 0 0 1 }
Segment { rot 0.9199 0 -0.39215 1.23738 offset -0.3352 -0.82177 31001.0002 length 0.00401 color 0 0 1 }
Segment { rot -0.93621 0 0.35144 1.67122 offset -0.33592 -0.82242 31000.99854 length 0.00018 color 0 0 1 }
Segment { rot -0.95736 0 0.2889 1.67222 offset -0.33552 -0.82228 31000.99983 length 0.00254 color 0 0 1 }
Segment { rot -0.96146 0 0.27493 1.71475 offset -0.33496 -0.82205 31001.00171 length 0.00141 color 0 0 1 }
Segment { rot -0.92992 0 0.36775 1.60276 offset -0.33445 -0.82192 31001.00321 length 0.00178 color 0 0 1 }
Segment { rot -0.9491 0 0.31499 1.64735 offset -0.33408 -0.82188 31001.00415 length 0.00025 color 0 0 1 }
Segment { rot -0.95146 0 0.30778 1.64313 offset -0.33375 -0.82181 31001.00518 length 0.00191 color 0 0 1 }
Segment { rot -0.96496 0 0.2624 1.53741 offset -0.33331 -0.82175 31001.0066 length 0.00106 color 0 0 1 }
Segment { rot -0.97666 0 0.21477 1.53497 offset -0.33314 -0.82178 31001.00726 length 0.00031 color 0 0 1 }
Segment { rot -0.97471 0 0.22348 1.36079 offset -0.33297 -0.82191 31001.00799 length 0.00123 color 0 0 1 }
Segment { rot -0.9709 0 -0.2395 1.52109 offset -0.33324 -0.82212 31001.01022 length 0.00338 color 0 0 1 }
Segment { rot -0.70385 0 -0.71034 1.39898 offset -0.33495 -0.82252 31001.01314 length 0.00371 color 0 0 1 }
Segment { rot -0.73261 0 -0.68065 1.43101 offset -0.33742 -0.82309 31001.0157 length 0.0035 color 0 0 1 }
Segment { rot -0.68037 0 -0.73287 1.33646 offset -0.33861 -0.82333 31001.01698 length 0.00002 color 0 0 1 }
Segment { rot -0.6976 0 -0.71649 1.29128 offset -0.33924 -0.82358 31001.01758 length 0.00178 color 0 0 1 }
Segment { rot -0.72536 0 -0.68837 1.32313 offset -0.33993 -0.82386 31001.01827 length 0.00025 color 0 0 1 }
Segment { rot -0.90286 0 -0.42994 0.52801 offset -0.34036 -0.82524 31001.01907 length 0.00313 color 0 0 1 }
Segment { rot -0.84585 0 -0.53342 0.49481 offset -0.34094 -0.82744 31001.02017 length 0.00192 color 0 0 1 }
Segment { rot -0.91365 0 -0.40649 0.55332 offset -0.34204 -0.8317 31001.02248 length 0.00803 color 0 0 1 }
Segment { rot -0.94463 0 -0.32815 0.56646 offset -0.34341 -0.83758 31001.02589 length 0.00585 color 0 0 1 }
Segment { rot -0.96356 0 -0.26748 0.55687 offset -0.34445 -0.84319 31001.02925 length 0.0074 color 0 0 1 }
Segment { rot -0.94958 0 -0.31352 0.62325 offset -0.34503 -0.8466 31001.03132 length 0.00067 color 0 0 1 }
Segment { rot -0.9326 0 -0.36092 0.56266 offset -0.34519 -0.84727 31001.03175 length 0.00095 color 0 0 1 }
Segment { rot -0.85781 0 -0.51397 0.59203 offset -0.3462 -0.85035 31001.03352 length 0.00644 color 0 0 1 }
Segment { rot -0.85128 0 -0.52471 0.60524 offset -0.34713 -0.85305 31001.03508 length 0.00006 color 0 0 1 }
Segment { rot -0.82247 0 -0.56881 0.6394 offset -0.34803 -0.85516 31001.03638 length 0.00522 color 0 0 1 }
Segment { rot -0.82682 0 -0.56246 0.66644 offset -0.34903 -0.85752 31001.03783 length 0.00067 color 0 0 1 }
Segment { rot -0.86952 0 -0.4939 0.65643 offset -0.3492 -0.85793 31001.0381 length 0.00038 color 0 0 1 }
Segment { rot -0.35513 0 -0.93482 0.55835 offset -0.34995 -0.85926 31001.03846 length 0.00277 color 0 0 1 }
Segment { rot -0.48252 0 -0.87588 0.42756 offset -0.3509 -0.86112 31001.03887 length 0.00151 color 0 0 1 }
Segment { rot -0.51695 0 -0.85602 0.41055 offset -0.35131 -0.86216 31001.0391 length 0.00078 color 0 0 1 }
Segment { rot -0.51332 0 -0.8582 0.42012 offset -0.35166 -0.86309 31001.03931 length 0.00125 color 0 0 1 }
Segment { rot -0.56906 0 -0.8223 0.36048 offset -0.35208 -0.86428 31001.03958 length 0.00133 color 0 0 1 }
Segment { rot -0.72322 0 -0.69062 0.38043 offset -0.35246 -0.86561 31001.03992 length 0.00152 color 0 0 1 }
Segment { rot -0.74786 0 -0.66386 0.51943 offset -0.35331 -0.86802 31001.04085 length 0.00392 color 0 0 1 }
Segment { rot -0.73434 0 -0.67878 0.49704 offset -0.3542 -0.8704 31001.04185 length 0.00154 color 0 0 1 }
Segment { rot -0.81417 0 -0.58063 0.2047 offset -0.35472 -0.87332 31001.04249 length 0.00457 color 0 0 1 }
Segment { rot -0.92579 0 -0.37803 0.33962 offset -0.35532 -0.878 31001.04367 length 0.00519 color 0 0 1 }
Segment { rot -0.83485 0 -0.55047 0.51837 offset -0.35719 -0.88537 31001.04682 length 0.01135 color 0 0 1 }
Segment { rot -0.83339 0 -0.55268 0.59136 offset -0.35905 -0.89113 31001.04963 length 0.00199 color 0 0 1 }
Segment { rot -0.83629 0 -0.54828 0.5939 offset -0.35958 -0.89258 31001.05044 length 0.00151 color 0 0 1 }
Segment { rot -0.82204 0 -0.56943 0.56437 offset -0.36045 -0.89496 31001.05171 length 0.00415 color 0 0 1 }
Segment { rot -0.70778 0 -0.70643 1.03588 offset -0.36121 -0.89682 31001.05275 length 0.00042 color 0 0 1 }
Segment { rot -0.76483 0 -0.64423 0.98808 offset -0.36169 -0.89729 31001.05329 length 0.0013 color 0 0 1 }
Segment { rot -0.66735 0 0.74474 1.0443 offset -0.36196 -0.8977 31001.05378 length 0.00023 color 0 0 1 }
Segment { rot -0.6464 0 0.763 1.08273 offset -0.36108 -0.89832 31001.05453 length 0.00238 color 0 0 1 }
Segment { rot -0.65509 0 0.75555 1.05805 offset -0.3586 -0.90013 31001.05667 length 0.00512 color 0 0 1 }
Segment { rot -0.44172 0 0.89715 1.0935 offset -0.35674 -0.90148 31001.05821 length 0.00042 color 0 0 1 }
Segment { rot -0.48561 0 0.87418 1.08692 offset -0.3537 -0.90331 31001.05989 length 0.00744 color 0 0 1 }
Segment { rot -0.55891 0 0.82923 1.0335 offset -0.35042 -0.90533 31001.06176 length 0.00112 color 0 0 1 }
Segment { rot -0.46425 0 0.8857 0.72323 offset -0.34964 -0.90611 31001.06223 length 0.00132 color 0 0 1 }
Segment { rot -0.38237 0 0.92401 0.58218 offset -0.34891 -0.90717 31001.06257 length 0.00135 color 0 0 1 }
Segment { rot -0.37385 0 0.92749 0.59599 offset -0.34854 -0.90777 31001.06273 length 0.00009 color 0 0 1 }
Segment { rot -0.28594 0 0.95825 0.62007 offset -0.34786 -0.90877 31001.06293 length 0.00235 color 0 0 1 }
Segment { rot -0.23183 0 0.97276 0.59608 offset -0.34681 -0.91032 31001.06322 length 0.00144 color 0 0 1 }
Segment { rot -0.49438 0 0.86925 0.96936 offset -0.34618 -0.9111 31001.06345 length 0.00066 color 0 0 1 }
Segment { rot -0.54086 0 0.84111 0.93771 offset -0.3444 -0.91263 31001.06457 length 0.00454 color 0 0 1 }
Segment { rot -0.53431 0 0.84529 0.92838 offset -0.34285 -0.91399 31001.06557 length 0.00005 color 0 0 1 }
Segment { rot -0.97421 0 0.22566 1.03324 offset -0.34215 -0.9158 31001.06851 length 0.00698 color 0 0 1 }
Segment { rot -0.993 0 0.1181 0.95222 offset -0.34147 -0.91764 31001.07151 length 0.00021 color 0 0 1 }
Segment { rot -0.98806 0 0.15409 0.96683 offset -0.34125 -0.91862 31001.07291 length 0.00323 color 0 0 1 }
Segment { rot -0.98132 0 0.19237 0.94879 offset -0.34101 -0.91968 31001.07441 length 0.00046 color 0 0 1 }
Segment { rot -0.98954 0 0.14425 0.98991 offset -0.34097 -0.91985 31001.07465 length 0.00013 color 0 0 1 }
Segment { rot -0.25973 0 -0.96568 0.54145 offset -0.34183 -0.92139 31001.07494 length 0.00351 color 0 0 1 }
Segment { rot -0.33702 0 -0.9415 0.46805 offset -0.34317 -0.92387 31001.07535 length 0.0022 color 0 0 1 }
Segment { rot -0.59526 0 -0.80353 0.4574 offset -0.34369 -0.92497 31001.07555 length 0.00027 color 0 0 1 }
Segment { rot -0.44311 0 -0.89647 0.3973 offset -0.34385 -0.9254 31001.07564 length 0.00066 color 0 0 1 }
Segment { rot -0.16179 0 -0.98682 0.29649 offset -0.34419 -0.92646 31001.07573 length 0.00158 color 0 0 1 }
Segment { rot 0.5289 0 -0.84868 0.36018 offset -0.34553 -0.93069 31001.07508 length 0.00745 color 0 0 1 }
Segment { rot 0.5578 0 -0.82998 0.44761 offset -0.34708 -0.93528 31001.07409 length 0.00244 color 0 0 1 }
Segment { rot -0.0873 0 -0.99618 0.38803 offset -0.34759 -0.93655 31001.0738 length 0.00038 color 0 0 1 }
Segment { rot -0.36913 0 -0.92938 0.32601 offset -0.34779 -0.93712 31001.07386 length 0.00083 color 0 0 1 }
Segment { rot -0.10311 0 -0.99467 0.46459 offset -0.34929 -0.94028 31001.07405 length 0.00619 color 0 0 1 }
Segment { rot -0.05127 0 -0.99868 0.43134 offset -0.35083 -0.9434 31001.0742 length 0.00077 color 0 0 1 }
Segment { rot -0.14524 0 -0.9894 0.44813 offset -0.35201 -0.9459 31001.07436 length 0.00477 color 0 0 1 }
Segment { rot -0.09938 0 -0.99505 0.47756 offset -0.35444 -0.95076 31001.07465 length 0.00612 color 0 0 1 }
Segment { rot -0.89927 0 -0.43739 0.37088 offset -0.35602 -0.95455 31001.07516 length 0.00229 color 0 0 1 }
Segment { rot -0.76067 0 -0.64914 0.27438 offset -0.35645 -0.957 31001.07583 length 0.00288 color 0 0 1 }
Segment { rot -0.87003 0 -0.49299 0.29556 offset -0.35682 -0.95914 31001.07633 length 0.00159 color 0 0 1 }
Segment { rot -0.72423 0 -0.68956 0.39962 offset -0.35695 -0.95997 31001.07655 length 0.00016 color 0 0 1 }
Segment { rot 0.07371 0 -0.99728 1.11938 offset -0.35817 -0.96063 31001.07648 length 0.00267 color 0 0 1 }
Segment { rot 0.0977 0 -0.99522 1.20082 offset -0.36105 -0.96186 31001.07623 length 0.00362 color 0 0 1 }
Segment { rot 0.20001 0 -0.97979 1.191 offset -0.36279 -0.96254 31001.07605 length 0.00012 color 0 0 1 }
Segment { rot 0.21521 0 -0.97657 1.24335 offset -0.3638 -0.9629 31001.07583 length 0.00207 color 0 0 1 }
Segment { rot 0.13485 0 -0.99087 1.1697 offset -0.36553 -0.96356 31001.07551 length 0.00168 color 0 0 1 }
Segment { rot -0.99204 0 0.12591 2.33643 offset -0.36612 -0.96257 31001.07677 length 0.00379 color 0 0 1 }
Segment { rot -0.13641 0 -0.99065 1.88346 offset -0.36653 -0.96107 31001.0782 length 0.00123 color 0 0 1 }
Segment { rot 0.85236 0 -0.52296 2.0907 offset -0.36805 -0.95985 31001.07674 length 0.00417 color 0 0 1 }
Segment { rot 0.62919 0 -0.77725 2.11002 offset -0.36946 -0.95845 31001.07482 length 0.0014 color 0 0 1 }
Segment { rot 0.60003 0 -0.79997 2.04247 offset -0.37276 -0.95629 31001.07232 length 0.00794 color 0 0 1 }
Segment { rot -0.89729 0 -0.44143 0.66189 offset -0.37569 -0.9548 31001.07042 length 0.00079 color 0 0 1 }
Segment { rot -0.78143 0 -0.624 0.73627 offset -0.37594 -0.95537 31001.07082 length 0.0007 color 0 0 1 }
Segment { rot -0.99126 0 -0.13192 0.59588 offset -0.37619 -0.95675 31001.07176 length 0.00272 color 0 0 1 }
Segment { rot -0.98291 0 -0.18408 0.60139 offset -0.37629 -0.95788 31001.07252 length 0.00002 color 0 0 1 }
Segment { rot -0.97085 0 -0.2397 0.65774 offset -0.37642 -0.95859 31001.07305 length 0.00177 color 0 0 1 }
Segment { rot -0.14683 0 -0.98916 0.72167 offset -0.37681 -0.95958 31001.07361 length 0.00079 color 0 0 1 }
Segment { rot -0.07355 0 -0.99729 0.7771 offset -0.37741 -0.96023 31001.07368 length 0.001 color 0 0 1 }
Segment { rot 0.03145 0 -0.99951 0.78362 offset -0.37791 -0.96073 31001.0737 length 0.00041 color 0 0 1 }
Segment { rot -0.20494 0 -0.97878 1.11885 offset -0.37879 -0.96124 31001.07385 length 0.00166 color 0 0 1 }
Segment { rot -0.06041 0 -0.99817 1.17458 offset -0.38045 -0.962 31001.07406 length 0.00202 color 0 0 1 }
Segment { rot -0.01928 0 -0.99981 1.16076 offset -0.38245 -0.96285 31001.07413 length 0.00233 color 0 0 1 }
Segment { rot -0.74591 0 -0.66605 2.26531 offset -0.38392 -0.96281 31001.0746 length 0.00156 color 0 0 1 }
Segment { rot -0.72805 0 -0.68553 2.23542 offset -0.38461 -0.96198 31001.07536 length 0.00107 color 0 0 1 }
Segment { rot -0.77622 0 -0.63047 2.10612 offset -0.38497 -0.96158 31001.07576 length 0.00029 color 0 0 1 }
Segment { rot -0.78932 0 -0.61398 2.13106 offset -0.38577 -0.96077 31001.07678 length 0.00277 color 0 0 1 }
Segment { rot -0.97064 0 -0.24052 0.95108 offset -0.38665 -0.96049 31001.07833 length 0.00157 color 0 0 1 }
Segment { rot -0.97052 0 -0.24101 0.89941 offset -0.38685 -0.96109 31001.07913 length 0.00047 color 0 0 1 }
Segment { rot -0.98555 0 0.16939 0.89361 offset -0.38666 -0.96235 31001.08068 length 0.00356 color 0 0 1 }
Segment { rot -0.99933 0 -0.03649 0.79633 offset -0.38649 -0.96535 31001.08397 length 0.0054 color 0 0 1 }
Segment { rot -0.99501 0 0.09981 0.80789 offset -0.38655 -0.9673 31001.08596 length 0.00018 color 0 0 1 }
Segment { rot -0.98447 0 0.17555 0.83996 offset -0.38653 -0.96746 31001.08614 length 0.0003 color 0 0 1 }
Segment { rot -0.19268 0 0.98126 0.46905 offset -0.38624 -0.96811 31001.0863 length 0.00123 color 0 0 1 }
Segment { rot -0.27886 0 0.96033 0.46883 offset -0.38593 -0.96873 31001.08636 length 0.00015 color 0 0 1 }
Segment { rot -0.50994 0 0.86021 1.65307 offset -0.38575 -0.96878 31001.08646 length 0.00034 color 0 0 1 }
Segment { rot -0.51715 0 0.8559 1.5447 offset -0.38529 -0.96878 31001.08674 length 0.00073 color 0 0 1 }
Segment { rot -0.45129 0 0.89238 1.60669 offset -0.38399 -0.96875 31001.08743 length 0.00222 color 0 0 1 }
Segment { rot -0.43184 0 0.90195 1.6781 offset -0.38157 -0.96854 31001.08861 length 0.00318 color 0 0 1 }
Segment { rot -0.55223 0 0.83369 1.48228 offset -0.37997 -0.96839 31001.08941 length 0.00043 color 0 0 1 }
Segment { rot -0.13865 0 0.99034 0.95422 offset -0.37964 -0.96852 31001.08955 length 0.00037 color 0 0 1 }
Segment { rot -0.00069 0 1 1.33171 offset -0.37906 -0.96873 31001.08957 length 0.0009 color 0 0 1 }
Segment { rot 0.23581 0 0.9718 1.2412 offset -0.37858 -0.96885 31001.08956 length 0.00008 color 0 0 1 }
Segment { rot -0.30561 0 -0.95216 1.9492 offset -0.37912 -0.96862 31001.08974 length 0.00131 color 0 0 1 }
Segment { rot -0.89909 0 -0.43777 1.4907 offset -0.37999 -0.96843 31001.09051 length 0.00131 color 0 0 1 }
Segment { rot -0.93857 0 -0.34508 1.31455 offset -0.38121 -0.9692 31001.09365 length 0.00564 color 0 0 1 }
Segment { rot -0.66845 0 -0.74376 1.58594 offset -0.38224 -0.96991 31001.09629 length 0.00024 color 0 0 1 }
Segment { rot -0.76066 0 -0.64915 1.22102 offset -0.3824 -0.96995 31001.09645 length 0.00022 color 0 0 1 }
Segment { rot -0.84942 0 -0.52772 0.9835 offset -0.38294 -0.97059 31001.0973 length 0.00217 color 0 0 1 }
Segment { rot -0.89962 0 -0.43667 1.48404 offset -0.38347 -0.9712 31001.09817 length 0.00024 color 0 0 1 }
Segment { rot -0.91474 0 -0.40404 1.40283 offset -0.38382 -0.97133 31001.09894 length 0.00147 color 0 0 1 }
Segment { rot -0.92867 0 0.37092 1.1209 offset -0.38374 -0.97194 31001.10054 length 0.00223 color 0 0 1 }
Segment { rot 0.94019 0 0.34064 1.27159 offset -0.38327 -0.97251 31001.10119 length 0.00062 color 0 0 1 }
Segment { rot 0.95256 0 0.30435 1.25297 offset -0.38281 -0.97299 31001.0998 length 0.00244 color 0 0 1 }
Segment { rot 0.97112 0 0.23859 0.67358 offset -0.38232 -0.97411 31001.09812 length 0.0019 color 0 0 1 }
Segment { rot 0.00181 0 -1 0.78355 offset -0.38233 -0.97501 31001.09755 length 0.00044 color 0 0 1 }
Segment { rot -0.79428 0 -0.60756 1.81527 offset -0.38284 -0.97502 31001.09801 length 0.0012 color 0 0 1 }
Segment { rot -0.80697 0 -0.5906 1.87295 offset -0.3832 -0.97487 31001.09848 length 0.00004 color 0 0 1 }
Segment { rot -0.69549 0 -0.71854 1.94407 offset -0.38374 -0.97458 31001.09901 length 0.00157 color 0 0 1 }
Segment { rot -0.71627 0 -0.69782 1.97465 offset -0.38488 -0.97391 31001.10015 length 0.00192 color 0 0 1 }
Segment { rot -0.92993 0 -0.36774 2.07084 offset -0.38553 -0.97349 31001.10086 length 0.00019 color 0 0 1 }
Segment { rot -0.88436 0 -0.46681 2.12689 offset -0.38561 -0.97338 31001.10103 length 0.00025 color 0 0 1 }
Segment { rot -0.87119 0 -0.49094 2.03304 offset -0.38586 -0.97311 31001.10149 length 0.00093 color 0 0 1 }
Segment { rot -0.95971 0 -0.28098 1.91149 offset -0.38615 -0.97278 31001.10216 length 0.00068 color 0 0 1 }
Segment { rot 0.19058 0 -0.98167 2.20163 offset -0.38652 -0.97247 31001.10241 length 0.0007 color 0 0 1 }
Segment { rot 0.10913 0 -0.99403 2.04655 offset -0.38734 -0.97198 31001.1023 length 0.00122 color 0 0 1 }
Segment { rot 0.17499 0 0.98457 1.28298 offset -0.38587 -0.9723 31001.10188 length 0.00424 color 0 0 1 }
Segment { rot 0.21334 0 -0.97698 0.47591 offset -0.38431 -0.97377 31001.10143 length 0.00195 color 0 0 1 }
Segment { rot 0.233 0 -0.97248 0.41035 offset -0.38478 -0.97471 31001.10133 length 0.00017 color 0 0 1 }
Segment { rot -0.193 0 0.9812 1.28686 offset -0.38477 -0.9748 31001.10133 length 0.00008 color 0 0 1 }
Segment { rot -0.1654 0 0.98623 1.08925 offset -0.38469 -0.97484 31001.10134 length 0.00011 color 0 0 1 }
Segment { rot -0.2152 0 0.97657 1.4179 offset -0.3845 -0.97489 31001.10138 length 0.0003 color 0 0 1 }
Segment { rot -0.22824 0 0.9736 1.55842 offset -0.38413 -0.97491 31001.10147 length 0.00046 color 0 0 1 }
Segment { rot -0.81924 0 -0.57345 1.57951 offset -0.38427 -0.97491 31001.10203 length 0.00125 color 0 0 1 }
Segment { rot -0.82149 0 -0.57022 1.72889 offset -0.38474 -0.97487 31001.10271 length 0.00041 color 0 0 1 }
Segment { rot -0.89246 0 -0.45114 1.64285 offset -0.38492 -0.97483 31001.10299 length 0.00026 color 0 0 1 }
Segment { rot -0.75394 0 -0.65695 1.31369 offset -0.38512 -0.97488 31001.10328 length 0.00047 color 0 0 1 }
Segment { rot -0.67033 0 -0.74207 1.25402 offset -0.38564 -0.9751 31001.10378 length 0.00103 color 0 0 1 }
Segment { rot -0.81366 0 -0.58134 1.19693 offset -0.38605 -0.97529 31001.10417 length 0.00017 color 0 0 1 }
Segment { rot -0.88719 0 0.4614 2.08028 offset -0.38596 -0.97516 31001.10448 length 0.00065 color 0 0 1 }
Segment { rot -0.56949 0 0.822 2.07076 offset -0.38573 -0.97494 31001.1048 length 0.00027 color 0 0 1 }