#VRML V2.0 utf8
#Generated by NISTMonte
WorldInfo {
 title "NISTMonte Trajectory"
 info ["See http://www.cstl.nist.gov/div837/Division/home.html for more information"]
}
Viewpoint {
 fieldOfView 0.785398
 position 0 5 31000
 orientation -1 -0 -0 1.5708
 description "Y-Axis"
}
Viewpoint {
 fieldOfView 0.785398
 position 0 0 30995
 orientation 1 0 0 3.1415926
 description "Gun"
}
Viewpoint {
 fieldOfView 0.785398
 position -5 0 31000
 orientation 0 -1 0 1.5708
 description "X-Axis"
}




#Prototype for a trajectory segment
PROTO Segment [
 field SFRotation rot 1 0 0 0
 field SFVec3f offset 0 0 0
 field SFFloat length 0.1
 field SFColor color 1 1 1
]
{
 Transform {
  rotation IS rot
  translation IS offset
  children [
   Shape {
    geometry Cylinder {
     radius 0.001
     height IS length
    }
    appearance Appearance {
     material Material {
      emissiveColor IS color
     }
    }
   }
  ]
 }
}
Segment { rot -1 0 -0 1.5708 offset 0.00226 0.01076 31000.00693 length 0.01386 color 0 0 1 }
Segment { rot -0.9994 0 -0.03471 1.55327 offset 0.0022 0.01073 31000.01568 length 0.00364 color 0 0 1 }
Segment { rot -0.99941 0 0.03434 1.44612 offset 0.00234 0.00993 31000.02361 length 0.01234 color 0 0 1 }
Segment { rot -0.99983 0 0.01868 1.4564 offset 0.00267 0.00847 31000.03576 length 0.01213 color 0 0 1 }
Segment { rot -0.99996 0 -0.00886 1.57307 offset 0.00278 0.00778 31000.04198 length 0.00039 color 0 0 1 }
Segment { rot -0.99999 0 0.00371 1.58161 offset 0.00278 0.00779 31000.04314 length 0.00193 color 0 0 1 }
Segment { rot -0.99994 0 0.01102 1.55821 offset 0.00279 0.00779 31000.04466 length 0.00112 color 0 0 1 }
Segment { rot -0.99722 0 -0.07446 1.54355 offset 0.0024 0.00764 31000.05055 length 0.01069 color 0 0 1 }
Segment { rot -0.98818 0 -0.15327 1.61435 offset 0.00173 0.00757 31000.0576 length 0.00347 color 0 0 1 }
Segment { rot -0.99749 0 -0.07079 1.59156 offset 0.00082 0.00784 31000.06846 length 0.01834 color 0 0 1 }
Segment { rot -0.99205 0 -0.12582 1.60342 offset -0.00147 0.00845 31000.09056 length 0.02614 color 0 0 1 }
Segment { rot -0.99479 0 -0.1019 1.62389 offset -0.00341 0.00903 31000.10639 length 0.00577 color 0 0 1 }
Segment { rot -0.99339 0 -0.11478 1.62358 offset -0.00425 0.00944 31000.114 length 0.00958 color 0 0 1 }
Segment { rot -0.98808 0 -0.15394 1.58296 offset -0.00532 0.00973 31000.12209 length 0.00675 color 0 0 1 }
Segment { rot -0.98574 0 -0.16828 1.60133 offset -0.00855 0.01027 31000.14128 length 0.03219 color 0 0 1 }
Segment { rot -0.96696 0 -0.25493 1.54269 offset -0.01183 0.01069 31000.15933 length 0.00454 color 0 0 1 }
Segment { rot -0.99571 0 -0.09256 1.73742 offset -0.01285 0.01143 31000.16626 length 0.00966 color 0 0 1 }
Segment { rot -0.99957 0 -0.02939 1.71967 offset -0.01332 0.01239 31000.17204 length 0.00209 color 0 0 1 }
Segment { rot -0.99987 0 -0.016 1.71792 offset -0.0134 0.01299 31000.17611 length 0.00615 color 0 0 1 }
Segment { rot -0.99592 0 0.09022 1.82085 offset -0.0132 0.01415 31000.18191 length 0.00571 color 0 0 1 }
Segment { rot -0.99442 0 0.10552 1.85322 offset -0.01286 0.01511 31000.18555 length 0.00185 color 0 0 1 }
Segment { rot -0.98765 0 0.1567 1.74775 offset -0.01248 0.0157 31000.18825 length 0.00374 color 0 0 1 }
Segment { rot -0.99496 0 0.10032 1.64641 offset -0.01191 0.01624 31000.19287 length 0.00567 color 0 0 1 }
Segment { rot -0.99735 0 -0.07281 1.30562 offset -0.01167 0.01627 31000.19637 length 0.00142 color 0 0 1 }
Segment { rot -0.71519 0 -0.69893 1.06908 offset -0.01473 0.01373 31000.20013 length 0.00981 color 0 0 1 }
Segment { rot -0.73335 0 -0.67985 1.03472 offset -0.02416 0.00575 31000.21014 length 0.022 color 0 0 1 }
Segment { rot -0.75281 0 -0.65824 1.0571 offset -0.03569 -0.00424 31000.22291 length 0.01781 color 0 0 1 }
Segment { rot -0.68407 0 -0.72942 1.125 offset -0.04129 -0.00894 31000.2292 length 0.00148 color 0 0 1 }
Segment { rot -0.69784 0 -0.71625 1.11352 offset -0.04512 -0.01156 31000.23292 length 0.01042 color 0 0 1 }
Segment { rot -0.70882 0 -0.70539 1.10804 offset -0.05427 -0.01796 31000.24201 length 0.01838 color 0 0 1 }
Segment { rot -0.69631 0 -0.71774 1.12115 offset -0.06008 -0.02207 31000.24785 length 0.00002 color 0 0 1 }
Segment { rot -0.69136 0 -0.72251 1.09708 offset -0.06572 -0.02607 31000.25325 length 0.01754 color 0 0 1 }
Segment { rot -0.70444 0 -0.70976 1.08989 offset -0.07223 -0.03071 31000.25951 length 0.00276 color 0 0 1 }
Segment { rot -0.71446 0 -0.69968 1.08138 offset -0.08024 -0.03679 31000.26766 length 0.02314 color 0 0 1 }
Segment { rot -0.73325 0 -0.67996 1.13511 offset -0.09044 -0.04431 31000.27825 length 0.0099 color 0 0 1 }
Segment { rot -0.77489 0 -0.6321 1.18809 offset -0.09362 -0.04649 31000.2817 length 0.00046 color 0 0 1 }
Segment { rot -0.81039 0 -0.58589 1.21029 offset -0.09496 -0.04735 31000.28354 length 0.00441 color 0 0 1 }
Segment { rot -0.80458 0 -0.59384 1.15766 offset -0.09989 -0.05087 31000.29025 length 0.01368 color 0 0 1 }
Segment { rot -0.95873 0 -0.28433 1.50537 offset -0.10458 -0.05384 31000.29855 length 0.00682 color 0 0 1 }
Segment { rot -0.95118 0 -0.30865 1.47649 offset -0.1062 -0.05427 31000.30383 length 0.00426 color 0 0 1 }
Segment { rot -0.94053 0 -0.33972 1.5003 offset -0.1086 -0.05483 31000.31067 length 0.0103 color 0 0 1 }
Segment { rot -0.94084 0 -0.33886 1.53047 offset -0.11086 -0.05525 31000.31694 length 0.00306 color 0 0 1 }
Segment { rot -0.94946 0 -0.31387 1.47442 offset -0.11371 -0.05603 31000.32543 length 0.01492 color 0 0 1 }
Segment { rot -0.9391 0 -0.34365 1.48489 offset -0.12034 -0.05783 31000.34425 length 0.02514 color 0 0 1 }
Segment { rot -0.98222 0 -0.18771 1.43161 offset -0.12657 -0.06034 31000.36608 length 0.0207 color 0 0 1 }
Segment { rot -0.98906 0 -0.14754 1.42334 offset -0.12899 -0.06227 31000.37942 length 0.00669 color 0 0 1 }
Segment { rot -0.9972 0 -0.07479 1.48262 offset -0.12971 -0.06305 31000.38588 length 0.00641 color 0 0 1 }
Segment { rot -0.99768 0 -0.06802 1.47591 offset -0.13026 -0.06376 31000.39354 length 0.00901 color 0 0 1 }
Segment { rot -0.99998 0 0.00551 1.50539 offset -0.13054 -0.06443 31000.40174 length 0.00748 color 0 0 1 }
Segment { rot -0.99976 0 -0.02181 1.51427 offset -0.13054 -0.06471 31000.40623 length 0.00152 color 0 0 1 }
Segment { rot -0.98599 0 -0.16683 1.66418 offset -0.13219 -0.06384 31000.41665 length 0.01968 color 0 0 1 }
Segment { rot -0.95094 0 -0.30938 1.75894 offset -0.13441 -0.06256 31000.42813 length 0.00389 color 0 0 1 }
Segment { rot -0.92798 0 -0.37264 1.73887 offset -0.13695 -0.06131 31000.4348 length 0.01062 color 0 0 1 }
Segment { rot -0.95779 0 -0.28746 1.72002 offset -0.13981 -0.05995 31000.44266 length 0.00635 color 0 0 1 }
Segment { rot -0.94424 0 -0.32926 1.95549 offset -0.14089 -0.05925 31000.44619 length 0.00118 color 0 0 1 }
Segment { rot -0.93624 0 -0.35136 1.91086 offset -0.14485 -0.05522 31000.45679 length 0.02285 color 0 0 1 }
Segment { rot -0.93703 0 -0.34926 1.94917 offset -0.14879 -0.05123 31000.46729 length 0.00096 color 0 0 1 }
Segment { rot -0.93393 0 -0.35745 1.91741 offset -0.14919 -0.05082 31000.46832 length 0.00141 color 0 0 1 }
Segment { rot -0.92987 0 -0.36789 1.94747 offset -0.14964 -0.05035 31000.46948 length 0.00125 color 0 0 1 }
Segment { rot -0.94796 0 -0.31838 1.92284 offset -0.15005 -0.04989 31000.4706 length 0.0013 color 0 0 1 }
Segment { rot -0.92409 0 -0.38217 1.92377 offset -0.1521 -0.04788 31000.47567 length 0.01036 color 0 0 1 }
Segment { rot -0.99519 0 0.09799 1.992 offset -0.15358 -0.04438 31000.48395 length 0.00833 color 0 0 1 }
Segment { rot -0.97028 0 0.242 1.78933 offset -0.15062 -0.0403 31000.49812 length 0.02195 color 0 0 1 }
Segment { rot -0.98429 0 0.17653 1.77767 offset -0.14792 -0.0378 31000.50911 length 0.00123 color 0 0 1 }
Segment { rot -0.98969 0 0.14325 1.85363 offset -0.14703 -0.03607 31000.51514 length 0.01146 color 0 0 1 }
Segment { rot -0.98084 0 0.19482 1.8979 offset -0.14624 -0.03447 31000.52059 length 0.00001 color 0 0 1 }
Segment { rot -0.94035 0 0.34022 1.69346 offset -0.14581 -0.03432 31000.52177 length 0.00252 color 0 0 1 }
Segment { rot -0.9579 0 0.28711 1.71361 offset -0.14394 -0.03344 31000.52777 length 0.01017 color 0 0 1 }
Segment { rot -0.95532 0 0.29558 1.68616 offset -0.14046 -0.03192 31000.53916 length 0.01385 color 0 0 1 }
Segment { rot -0.9643 0 0.26481 1.59604 offset -0.13834 -0.03111 31000.54606 length 0.00067 color 0 0 1 }
Segment { rot -0.9029 0 0.42985 1.67201 offset -0.13813 -0.03108 31000.54662 length 0.00054 color 0 0 1 }
Segment { rot -0.95182 0 0.30667 1.71221 offset -0.13704 -0.03059 31000.54992 length 0.00647 color 0 0 1 }
Segment { rot -0.94629 0 0.32333 1.71011 offset -0.13257 -0.02863 31000.56317 length 0.02177 color 0 0 1 }
Segment { rot -0.99349 0 0.1139 1.74263 offset -0.12892 -0.02687 31000.57476 length 0.00284 color 0 0 1 }
Segment { rot -0.99361 0 0.11286 1.72141 offset -0.12818 -0.02584 31000.58132 length 0.01052 color 0 0 1 }
Segment { rot -0.99032 0 0.13881 1.71109 offset -0.12736 -0.02482 31000.58813 length 0.00335 color 0 0 1 }
Segment { rot -0.99416 0 0.10792 1.65384 offset -0.1268 -0.02433 31000.59278 length 0.00607 color 0 0 1 }
Segment { rot -0.98612 0 0.16606 1.55498 offset -0.12614 -0.02411 31000.59778 length 0.00406 color 0 0 1 }
Segment { rot -0.97579 0 0.21873 1.51611 offset -0.12437 -0.0245 31000.6062 length 0.01316 color 0 0 1 }
Segment { rot -0.99344 0 0.11433 1.75846 offset -0.12197 -0.02328 31000.62089 length 0.01697 color 0 0 1 }
Segment { rot -0.99423 0 0.10728 1.65516 offset -0.12062 -0.02138 31000.63288 length 0.00749 color 0 0 1 }
Segment { rot -0.99302 0 0.11795 1.51865 offset -0.11989 -0.02121 31000.63937 length 0.00561 color 0 0 1 }
Segment { rot -0.99701 0 0.07733 1.5325 offset -0.11908 -0.0216 31000.64839 length 0.01251 color 0 0 1 }
Segment { rot -0.99418 0 0.10771 1.46509 offset -0.11849 -0.02194 31000.65559 length 0.00197 color 0 0 1 }
Segment { rot -0.99923 0 -0.03933 0.8249 offset -0.11848 -0.02428 31000.65898 length 0.0066 color 0 0 1 }
Segment { rot -0.99888 0 -0.0473 0.81941 offset -0.11864 -0.02774 31000.66271 length 0.00357 color 0 0 1 }
Segment { rot -0.99969 0 -0.02489 0.78149 offset -0.11873 -0.03017 31000.66521 length 0.00341 color 0 0 1 }
Segment { rot -0.99909 0 -0.04273 0.77622 offset -0.11877 -0.03159 31000.66662 length 0.00061 color 0 0 1 }
Segment { rot -0.99998 0 0.00648 0.64788 offset -0.11877 -0.03388 31000.6684 length 0.0052 color 0 0 1 }
Segment { rot -0.99991 0 0.01308 0.61748 offset -0.11875 -0.03675 31000.67053 length 0.00195 color 0 0 1 }
Segment { rot -0.99895 0 0.04588 0.5951 offset -0.11871 -0.03852 31000.67176 length 0.00237 color 0 0 1 }
Segment { rot -0.98815 0 0.15352 0.53035 offset -0.11858 -0.04057 31000.67304 length 0.00248 color 0 0 1 }
Segment { rot -0.98849 0 0.1513 0.40961 offset -0.11847 -0.04188 31000.67376 length 0.00052 color 0 0 1 }
Segment { rot -0.96649 0 0.25672 0.39509 offset -0.11835 -0.04313 31000.67427 length 0.0022 color 0 0 1 }
Segment { rot -0.98093 0 0.19435 0.37981 offset -0.11817 -0.04499 31000.67501 length 0.00181 color 0 0 1 }
Segment { rot -0.96616 0 0.25795 0.44353 offset -0.11805 -0.0463 31000.67556 length 0.00103 color 0 0 1 }
Segment { rot -0.93608 0 0.35178 0.28996 offset -0.11795 -0.04717 31000.67588 length 0.00085 color 0 0 1 }
Segment { rot -0.97788 0 -0.20919 0.37431 offset -0.11849 -0.05472 31000.67874 length 0.01535 color 0 0 1 }
Segment { rot -0.98376 0 -0.17948 0.35797 offset -0.11911 -0.06222 31000.68162 length 0.00076 color 0 0 1 }
Segment { rot -0.9882 0 -0.15315 0.57092 offset -0.1194 -0.06533 31000.6835 length 0.00656 color 0 0 1 }
Segment { rot -0.87635 0 -0.48167 0.63457 offset -0.12147 -0.07318 31000.68853 length 0.01263 color 0 0 1 }
Segment { rot -0.91875 0 -0.39484 0.56488 offset -0.12378 -0.08028 31000.69298 length 0.00477 color 0 0 1 }
Segment { rot -0.93863 0 -0.34492 0.53802 offset -0.12461 -0.08388 31000.69505 length 0.00371 color 0 0 1 }
Segment { rot 0.96381 0 0.26658 0.29326 offset -0.12492 -0.0857 31000.69588 length 0.00046 color 0 0 1 }
Segment { rot 0.91477 0 0.40398 0.31353 offset -0.12465 -0.0879 31000.69523 length 0.00415 color 0 0 1 }
Segment { rot 0.93478 0 0.35523 0.36259 offset -0.12342 -0.09708 31000.69208 length 0.01542 color 0 0 1 }
Segment { rot 0.96402 0 0.26581 0.37955 offset -0.12233 -0.10535 31000.68912 length 0.0023 color 0 0 1 }
Segment { rot 0.92086 0 0.3899 0.3702 offset -0.12221 -0.10652 31000.68867 length 0.00021 color 0 0 1 }
Segment { rot 0.99576 0 0.09202 0.48253 offset -0.12216 -0.10716 31000.68835 length 0.00124 color 0 0 1 }
Segment { rot 0.99675 0 0.08051 0.41613 offset -0.1221 -0.1089 31000.68754 length 0.00261 color 0 0 1 }
Segment { rot 0.99967 0 0.02559 0.3907 offset -0.12205 -0.11024 31000.68696 length 0.0003 color 0 0 1 }
Segment { rot 0.99063 0 -0.1366 0.26624 offset -0.12208 -0.11115 31000.68669 length 0.00159 color 0 0 1 }
Segment { rot 0.99997 0 -0.00832 0.26423 offset -0.12211 -0.11363 31000.68602 length 0.00355 color 0 0 1 }
Segment { rot 0.91594 0 0.40132 0.68696 offset -0.12132 -0.11776 31000.68374 length 0.00625 color 0 0 1 }
Segment { rot 0.96957 0 0.2448 0.31252 offset -0.12021 -0.1241 31000.6807 length 0.00825 color 0 0 1 }
Segment { rot 0.69685 0 0.71721 0.47617 offset -0.11899 -0.13051 31000.67858 length 0.00558 color 0 0 1 }
Segment { rot 0.5608 0 0.82795 0.44789 offset -0.11219 -0.14776 31000.6737 length 0.03278 color 0 0 1 }
Segment { rot 0.58365 0 0.81201 0.46485 offset -0.10457 -0.16681 31000.66847 length 0.00956 color 0 0 1 }
Segment { rot 0.7033 0 0.71089 0.59279 offset -0.10172 -0.17341 31000.66612 length 0.00561 color 0 0 1 }
Segment { rot 0.76321 0 0.64615 0.58021 offset -0.09997 -0.17724 31000.66426 length 0.00361 color 0 0 1 }
Segment { rot -0.39277 0 0.91963 0.6411 offset -0.09796 -0.18075 31000.66409 length 0.00498 color 0 0 1 }
Segment { rot -0.09251 0 0.99571 0.63881 offset -0.09345 -0.18699 31000.66497 length 0.0106 color 0 0 1 }
Segment { rot 0.01481 0 0.99989 0.59064 offset -0.08887 -0.19339 31000.66524 length 0.00516 color 0 0 1 }
Segment { rot 0.03545 0 0.99937 0.54123 offset -0.08595 -0.19799 31000.66517 length 0.00573 color 0 0 1 }
Segment { rot 0.17519 0 0.98453 0.60901 offset -0.08356 -0.20178 31000.66495 length 0.00327 color 0 0 1 }
Segment { rot 0.03816 0 0.99927 0.62962 offset -0.07977 -0.20706 31000.66468 length 0.00974 color 0 0 1 }
Segment { rot -0.24219 0 0.97023 0.57986 offset -0.07539 -0.21338 31000.66495 length 0.00571 color 0 0 1 }
Segment { rot -0.28845 0 0.9575 0.58864 offset -0.07272 -0.21757 31000.66567 length 0.00433 color 0 0 1 }
Segment { rot -0.60165 0 0.79876 0.40927 offset -0.07073 -0.22181 31000.66666 length 0.00533 color 0 0 1 }
Segment { rot -0.60979 0 0.79256 0.45683 offset -0.06909 -0.22627 31000.6679 length 0.00449 color 0 0 1 }
Segment { rot -0.41469 0 0.90996 0.48137 offset -0.06743 -0.23014 31000.6689 length 0.00418 color 0 0 1 }
Segment { rot -0.39646 0 0.91805 0.46237 offset -0.06631 -0.23251 31000.66941 length 0.00115 color 0 0 1 }
Segment { rot -0.59668 0 0.80248 0.39479 offset -0.06439 -0.23806 31000.67076 length 0.01091 color 0 0 1 }
Segment { rot -0.66461 0 0.74719 0.42371 offset -0.06015 -0.25067 31000.67428 length 0.01664 color 0 0 1 }
Segment { rot -0.72064 0 0.69331 0.42011 offset -0.05713 -0.25978 31000.67705 length 0.00334 color 0 0 1 }
Segment { rot -0.66758 0 0.74454 0.40622 offset -0.05629 -0.26244 31000.67786 length 0.00247 color 0 0 1 }
Segment { rot -0.72012 0 0.69384 0.40439 offset -0.05535 -0.26551 31000.67879 length 0.00422 color 0 0 1 }
Segment { rot -0.7341 0 0.67905 0.41157 offset -0.05421 -0.26937 31000.68 length 0.00418 color 0 0 1 }
Segment { rot -0.92521 0 0.37947 0.29695 offset -0.05355 -0.27204 31000.68083 length 0.00157 color 0 0 1 }
Segment { rot -0.69836 0 0.71575 0.27711 offset -0.0533 -0.27361 31000.6812 length 0.00172 color 0 0 1 }
Segment { rot -0.79148 0 0.61119 0.31852 offset -0.05265 -0.27682 31000.68199 length 0.00501 color 0 0 1 }
Segment { rot -0.86694 0 0.49841 0.34193 offset -0.0517 -0.28184 31000.68343 length 0.00562 color 0 0 1 }
Segment { rot -0.98229 0 0.18738 0.37448 offset -0.05105 -0.28695 31000.68519 length 0.00528 color 0 0 1 }
Segment { rot -0.98665 0 0.16286 0.40904 offset -0.05055 -0.29397 31000.68809 length 0.00996 color 0 0 1 }
Segment { rot -0.87159 0 0.49024 0.34137 offset -0.05012 -0.29913 31000.69023 length 0.00126 color 0 0 1 }
Segment { rot -0.39748 0 0.91761 0.39764 offset -0.04698 -0.30761 31000.69173 length 0.0171 color 0 0 1 }
Segment { rot -0.35136 0 0.93624 0.38014 offset -0.04311 -0.31773 31000.69336 length 0.0048 color 0 0 1 }
Segment { rot -0.23068 0 0.97303 0.55383 offset -0.03577 -0.33076 31000.69521 length 0.0254 color 0 0 1 }
Segment { rot -0.21612 0 0.97637 0.53859 offset -0.02767 -0.34431 31000.69711 length 0.0064 color 0 0 1 }
Segment { rot 0.22053 0 0.97538 0.59545 offset -0.02323 -0.35134 31000.69683 length 0.01035 color 0 0 1 }
Segment { rot 0.21498 0 0.97662 0.61833 offset -0.0179 -0.35923 31000.69563 length 0.00884 color 0 0 1 }
Segment { rot 0.1859 0 0.98257 0.53564 offset -0.00996 -0.37215 31000.69406 length 0.02167 color 0 0 1 }
Segment { rot -0.48201 0 0.87617 0.20954 offset -0.0043 -0.38272 31000.69316 length 0.00256 color 0 0 1 }
Segment { rot -0.57284 0 -0.81967 1.41239 offset -0.01143 -0.38541 31000.69843 length 0.01819 color 0 0 1 }
Segment { rot -0.58037 0 -0.81435 1.43951 offset -0.02125 -0.38724 31000.70533 length 0.00611 color 0 0 1 }
Segment { rot -0.59648 0 -0.80263 1.4384 offset -0.02456 -0.38778 31000.70771 length 0.00211 color 0 0 1 }
Segment { rot -0.61393 0 -0.78936 1.39423 offset -0.03787 -0.39074 31000.71804 length 0.03209 color 0 0 1 }
Segment { rot -0.63499 0 -0.77252 1.42133 offset -0.05192 -0.39387 31000.72904 length 0.00416 color 0 0 1 }
Segment { rot -0.62368 0 -0.78168 1.54293 offset -0.05685 -0.39429 31000.73301 length 0.00855 color 0 0 1 }
Segment { rot -0.78959 0 -0.61363 1.78335 offset -0.06194 -0.3938 31000.73792 length 0.00583 color 0 0 1 }
Segment { rot -0.78841 0 -0.61515 1.84352 offset -0.06388 -0.3931 31000.74042 length 0.00064 color 0 0 1 }
Segment { rot -0.79654 0 -0.60459 1.83427 offset -0.06537 -0.39243 31000.74237 length 0.00444 color 0 0 1 }
Segment { rot -0.81574 0 -0.57841 1.80578 offset -0.06727 -0.3916 31000.74493 length 0.00215 color 0 0 1 }
Segment { rot -0.80504 0 -0.59322 1.81127 offset -0.06951 -0.39068 31000.748 length 0.00568 color 0 0 1 }
Segment { rot -0.78174 0 -0.62361 1.77367 offset -0.07274 -0.38947 31000.75222 length 0.00522 color 0 0 1 }
Segment { rot -0.78308 0 -0.62192 1.82015 offset -0.07974 -0.38674 31000.76102 length 0.01793 color 0 0 1 }
Segment { rot -0.83553 0 -0.54945 1.83113 offset -0.08603 -0.38409 31000.76918 length 0.00336 color 0 0 1 }
Segment { rot -0.80924 0 -0.58748 1.85572 offset -0.09045 -0.3819 31000.7754 length 0.01252 color 0 0 1 }
Segment { rot -0.85883 0 -0.51226 1.79554 offset -0.09574 -0.37936 31000.78321 length 0.00704 color 0 0 1 }
Segment { rot -0.88768 0 -0.46047 1.76213 offset -0.09949 -0.37773 31000.78999 length 0.00882 color 0 0 1 }
Segment { rot -0.90882 0 -0.41719 1.71344 offset -0.10275 -0.37646 31000.79659 length 0.00613 color 0 0 1 }
Segment { rot -0.91392 0 -0.4059 1.66814 offset -0.11259 -0.37396 31000.81865 length 0.04244 color 0 0 1 }
Segment { rot -0.83644 0 -0.54806 1.81533 offset -0.12347 -0.37085 31000.84149 length 0.00871 color 0 0 1 }
Segment { rot -0.81008 0 -0.58632 1.63333 offset -0.12599 -0.36977 31000.8453 length 0.00068 color 0 0 1 }
Segment { rot -0.82416 0 -0.56636 1.64812 offset -0.12655 -0.3697 31000.84609 length 0.00127 color 0 0 1 }
Segment { rot -0.86163 0 -0.50754 1.62532 offset -0.12973 -0.36935 31000.85141 length 0.01115 color 0 0 1 }
Segment { rot -0.86384 0 -0.50377 1.62413 offset -0.13311 -0.36898 31000.85716 length 0.00222 color 0 0 1 }
Segment { rot -0.86606 0 -0.49993 1.62472 offset -0.13564 -0.36871 31000.86154 length 0.0079 color 0 0 1 }
Segment { rot -0.85639 0 -0.51634 1.61637 offset -0.13793 -0.36847 31000.86547 length 0.00122 color 0 0 1 }
Segment { rot -0.86484 0 -0.50204 1.83197 offset -0.13898 -0.36805 31000.86726 length 0.00305 color 0 0 1 }
Segment { rot -0.8752 0 -0.48376 1.82641 offset -0.14116 -0.36688 31000.87115 length 0.00616 color 0 0 1 }
Segment { rot -0.87873 0 -0.47733 1.7897 offset -0.14578 -0.36462 31000.87961 length 0.01366 color 0 0 1 }
Segment { rot -0.92394 0 -0.38254 1.84029 offset -0.14959 -0.36268 31000.88698 length 0.0034 color 0 0 1 }
Segment { rot -0.7102 0 -0.704 1.19764 offset -0.15498 -0.36487 31000.89329 length 0.01451 color 0 0 1 }
Segment { rot -0.70116 0 -0.71301 1.20358 offset -0.16063 -0.368 31000.89897 length 0.0027 color 0 0 1 }
Segment { rot -0.59716 0 -0.80213 1.57294 offset -0.16348 -0.36848 31000.90131 length 0.00488 color 0 0 1 }
Segment { rot -0.86367 0 -0.50405 1.32248 offset -0.16633 -0.36892 31000.90429 length 0.00364 color 0 0 1 }
Segment { rot -0.87426 0 -0.48546 1.4002 offset -0.17274 -0.37133 31000.91577 length 0.0231 color 0 0 1 }
Segment { rot -0.85378 0 -0.52064 1.399 offset -0.17924 -0.37361 31000.9273 length 0.00377 color 0 0 1 }
Segment { rot -0.86857 0 -0.49557 1.36787 offset -0.1803 -0.37397 31000.92905 length 0.00038 color 0 0 1 }
Segment { rot -0.85865 0 -0.51257 1.40558 offset -0.18325 -0.37494 31000.93401 length 0.01133 color 0 0 1 }
Segment { rot -0.87519 0 -0.48378 1.38016 offset -0.18636 -0.37597 31000.93925 length 0.00104 color 0 0 1 }
Segment { rot -0.90709 0 -0.42093 1.34075 offset -0.18805 -0.37687 31000.9428 length 0.00701 color 0 0 1 }
Segment { rot -0.80096 0 -0.59872 1.31346 offset -0.19003 -0.37791 31000.94663 length 0.00189 color 0 0 1 }
Segment { rot -0.82641 0 -0.56307 1.31115 offset -0.19088 -0.37829 31000.9478 length 0.00109 color 0 0 1 }
Segment { rot -0.66203 0 -0.74948 1.24423 offset -0.1913 -0.37849 31000.94834 length 0.00034 color 0 0 1 }
Segment { rot -0.67411 0 -0.73863 1.25126 offset -0.19682 -0.38096 31000.95338 length 0.0154 color 0 0 1 }
Segment { rot -0.64177 0 -0.76689 1.26784 offset -0.20305 -0.38372 31000.959 length 0.00227 color 0 0 1 }
Segment { rot -0.52046 0 -0.85388 1.46752 offset -0.20484 -0.38418 31000.96029 length 0.00227 color 0 0 1 }
Segment { rot -0.47267 0 -0.88124 1.45184 offset -0.20581 -0.38429 31000.96087 length 0 color 0 0 1 }
Segment { rot -0.47865 0 -0.87801 1.49897 offset -0.20973 -0.38461 31000.96301 length 0.00896 color 0 0 1 }
Segment { rot -0.41148 0 -0.91142 1.46285 offset -0.21474 -0.38506 31000.96564 length 0.00239 color 0 0 1 }
Segment { rot -0.45508 0 -0.89045 1.50607 offset -0.21687 -0.38527 31000.96667 length 0.00237 color 0 0 1 }
Segment { rot -0.4633 0 -0.8862 1.57758 offset -0.21836 -0.38534 31000.96743 length 0.00098 color 0 0 1 }
Segment { rot -0.48127 0 -0.87657 1.5065 offset -0.2212 -0.38552 31000.96898 length 0.0055 color 0 0 1 }
Segment { rot -0.51446 0 -0.85752 1.52918 offset -0.22683 -0.38585 31000.97223 length 0.00753 color 0 0 1 }
Segment { rot -0.52134 0 -0.85335 1.5492 offset -0.23188 -0.38605 31000.97528 length 0.00428 color 0 0 1 }
Segment { rot -0.51595 0 -0.85662 1.21304 offset -0.24015 -0.38891 31000.98028 length 0.01607 color 0 0 1 }
Segment { rot -0.51272 0 -0.85856 1.20295 offset -0.25347 -0.39481 31000.98827 length 0.01716 color 0 0 1 }
Segment { rot -0.52379 0 -0.85185 1.20961 offset -0.26401 -0.39952 31000.99463 length 0.00919 color 0 0 1 }
Segment { rot -0.52092 0 -0.8536 1.19775 offset -0.27182 -0.40305 31000.99941 length 0.01045 color 0 0 1 }
Segment { rot -0.45566 0 -0.89015 1.06319 offset -0.27733 -0.4058 31001.00264 length 0.0035 color 0 0 1 }
Segment { rot -0.74276 0 -0.66956 1.21042 offset -0.28051 -0.40767 31001.00535 length 0.00579 color 0 0 1 }
Segment { rot -0.67384 0 -0.73888 1.04616 offset -0.28375 -0.40981 31001.00866 length 0.00446 color 0 0 1 }
Segment { rot -0.32307 0 -0.94638 1.39702 offset -0.28735 -0.41133 31001.01071 length 0.00467 color 0 0 1 }
Segment { rot -0.29405 0 -0.95579 1.39615 offset -0.29424 -0.41261 31001.0129 length 0.01001 color 0 0 1 }
Segment { rot -0.29398 0 -0.95581 1.39633 offset -0.30294 -0.41421 31001.01558 length 0.00848 color 0 0 1 }
Segment { rot -0.2877 0 -0.95772 1.4327 offset -0.31018 -0.41542 31001.01778 length 0.00686 color 0 0 1 }
Segment { rot -0.31836 0 -0.94797 1.46525 offset -0.31608 -0.41619 31001.01965 length 0.00559 color 0 0 1 }
Segment { rot -0.32196 0 -0.94675 1.45859 offset -0.32434 -0.41715 31001.02244 length 0.01195 color 0 0 1 }
Segment { rot -0.30147 0 -0.95348 1.45733 offset -0.33907 -0.41891 31001.02724 length 0.01923 color 0 0 1 }
Segment { rot -0.29528 0 -0.95541 1.46383 offset -0.34914 -0.42011 31001.03041 length 0.00202 color 0 0 1 }
Segment { rot -0.32169 0 -0.94685 1.48898 offset -0.35662 -0.42078 31001.03292 length 0.01382 color 0 0 1 }
Segment { rot -0.30736 0 -0.95159 1.55988 offset -0.36413 -0.42135 31001.03546 length 0.00208 color 0 0 1 }
Segment { rot -0.25549 0 -0.96681 1.5465 offset -0.36699 -0.42141 31001.03627 length 0.00386 color 0 0 1 }
Segment { rot -0.28381 0 -0.95888 1.53581 offset -0.37713 -0.42176 31001.03922 length 0.01728 color 0 0 1 }
Segment { rot -0.26005 0 -0.9656 1.52665 offset -0.38963 -0.42226 31001.0428 length 0.00875 color 0 0 1 }
Segment { rot -0.61885 0 -0.78551 1.61675 offset -0.39454 -0.42241 31001.04448 length 0.00174 color 0 0 1 }
Segment { rot -0.81674 0 -0.577 1.72157 offset -0.39704 -0.42189 31001.0476 length 0.00638 color 0 0 1 }
Segment { rot -0.8065 0 -0.59124 1.66018 offset -0.40089 -0.4211 31001.05293 length 0.00686 color 0 0 1 }
Segment { rot -0.83107 0 -0.55617 1.92366 offset -0.40491 -0.41947 31001.05868 length 0.00768 color 0 0 1 }
Segment { rot -0.77667 0 -0.62991 1.98591 offset -0.40963 -0.41624 31001.06503 length 0.00945 color 0 0 1 }
Segment { rot -0.76887 0 -0.6394 2.00131 offset -0.41299 -0.41388 31001.06915 length 0.00217 color 0 0 1 }
Segment { rot -0.68855 0 -0.72519 2.04264 offset -0.41419 -0.41303 31001.07045 length 0.00178 color 0 0 1 }
Segment { rot -0.73229 0 -0.681 2.06606 offset -0.41723 -0.41066 31001.07365 length 0.00824 color 0 0 1 }
Segment { rot -0.75773 0 -0.65256 2.07295 offset -0.42045 -0.40808 31001.07717 length 0.00261 color 0 0 1 }
Segment { rot -0.76506 0 -0.64395 2.04503 offset -0.42258 -0.40635 31001.07968 length 0.00483 color 0 0 1 }
Segment { rot -0.62069 0 -0.78406 2.05193 offset -0.42402 -0.40521 31001.08136 length 0.00016 color 0 0 1 }
Segment { rot -0.6516 0 -0.75856 2.08285 offset -0.42589 -0.40383 31001.08297 length 0.0055 color 0 0 1 }
Segment { rot -0.64812 0 -0.76153 2.07406 offset -0.42784 -0.40238 31001.08465 length 0.00041 color 0 0 1 }
Segment { rot -0.68011 0 -0.73311 2.08983 offset -0.43041 -0.40039 31001.08702 length 0.00764 color 0 0 1 }
Segment { rot -0.66106 0 -0.75033 2.09117 offset -0.4359 -0.39616 31001.09197 length 0.00938 color 0 0 1 }
Segment { rot -0.60036 0 -0.79973 2.15443 offset -0.44091 -0.39221 31001.09613 length 0.00587 color 0 0 1 }
Segment { rot -0.6453 0 -0.76393 2.06815 offset -0.45101 -0.3848 31001.10448 length 0.02428 color 0 0 1 }
Segment { rot -0.87057 0 -0.49204 1.78099 offset -0.46233 -0.37764 31001.11696 length 0.01314 color 0 0 1 }
Segment { rot -0.85318 0 -0.52162 1.78577 offset -0.46965 -0.37453 31001.12936 length 0.01634 color 0 0 1 }
Segment { rot -0.40439 0 -0.91459 1.98661 offset -0.47477 -0.37232 31001.13659 length 0.00229 color 0 0 1 }
Segment { rot -0.35828 0 -0.93361 2.00571 offset -0.47618 -0.37164 31001.13719 length 0.00105 color 0 0 1 }
Segment { rot -0.30723 0 -0.95163 2.19359 offset -0.47929 -0.3694 31001.13822 length 0.00691 color 0 0 1 }
Segment { rot -0.59791 0 -0.80157 2.61123 offset -0.48214 -0.367 31001.13922 length 0.00091 color 0 0 1 }
Segment { rot -0.61736 0 -0.78668 2.59066 offset -0.48321 -0.36477 31001.14005 length 0.00429 color 0 0 1 }
Segment { rot -0.39364 0 -0.91927 2.52934 offset -0.48482 -0.36183 31001.14105 length 0.00273 color 0 0 1 }
Segment { rot 0.01085 0 -0.99994 2.61328 offset -0.48592 -0.36006 31001.14136 length 0.00151 color 0 0 1 }
Segment { rot 0.36959 0 -0.92919 2.44767 offset -0.4863 -0.35941 31001.14135 length 0.00001 color 0 0 1 }
Segment { rot 0.47173 0 -0.88175 2.50698 offset -0.4866 -0.35894 31001.14119 length 0.00115 color 0 0 1 }
Segment { rot 0.26177 0 -0.96513 2.66396 offset -0.48825 -0.35579 31001.14066 length 0.00606 color 0 0 1 }
Segment { rot 0.40979 0 -0.91218 2.61371 offset -0.48994 -0.35243 31001.14014 length 0.00153 color 0 0 1 }
Segment { rot 0.59446 0 -0.80413 2.40568 offset -0.49047 -0.35153 31001.13985 length 0.00066 color 0 0 1 }
Segment { rot 0.65578 0 -0.75495 2.45332 offset -0.49103 -0.35067 31001.13939 length 0.00159 color 0 0 1 }
Segment { rot 0.66366 0 -0.74803 2.45407 offset -0.4933 -0.34699 31001.13739 length 0.00796 color 0 0 1 }
Segment { rot 0.70122 0 -0.71295 2.5284 offset -0.49521 -0.34387 31001.13569 length 0.0001 color 0 0 1 }
Segment { rot 0.98982 0 -0.14231 2.6393 offset -0.49544 -0.34114 31001.13421 length 0.00615 color 0 0 1 }
Segment { rot 0.92537 0 -0.37907 2.65821 offset -0.49577 -0.33783 31001.13244 length 0.00138 color 0 0 1 }
Segment { rot 0.87727 0 -0.48 2.4671 offset -0.49625 -0.33629 31001.13149 length 0.00239 color 0 0 1 }
Segment { rot 0.86974 0 -0.49351 2.45417 offset -0.49811 -0.33166 31001.1282 length 0.00959 color 0 0 1 }
Segment { rot 0.87251 0 -0.4886 2.48667 offset -0.50034 -0.32601 31001.12425 length 0.00489 color 0 0 1 }
Segment { rot 0.8409 0 -0.5412 2.499 offset -0.50145 -0.32312 31001.12235 length 0.00237 color 0 0 1 }
Segment { rot 0.90465 0 -0.42617 2.47196 offset -0.50201 -0.32165 31001.12138 length 0.00135 color 0 0 1 }
Segment { rot 0.88858 0 -0.45873 2.50903 offset -0.50249 -0.32024 31001.12043 length 0.00218 color 0 0 1 }
Segment { rot 0.9347 0 -0.35545 2.49962 offset -0.50324 -0.31762 31001.11864 length 0.00434 color 0 0 1 }
Segment { rot 0.94429 0 -0.3291 2.48825 offset -0.5045 -0.31275 31001.11516 length 0.0079 color 0 0 1 }
Segment { rot 0.5676 0 -0.8233 2.69909 offset -0.50563 -0.30873 31001.11265 length 0.00197 color 0 0 1 }
Segment { rot 0.73308 0 -0.68015 2.71026 offset -0.50837 -0.30021 31001.10984 length 0.01679 color 0 0 1 }
Segment { rot 0.5997 0 -0.80023 2.78797 offset -0.51109 -0.29144 31001.10701 length 0.00246 color 0 0 1 }
Segment { rot 0.74996 0 -0.66149 2.97701 offset -0.51149 -0.28973 31001.10669 length 0.00111 color 0 0 1 }
Segment { rot 0.89547 0 -0.44513 2.45784 offset -0.51224 -0.28728 31001.10524 length 0.0049 color 0 0 1 }
Segment { rot -0.89345 0 -0.44916 3.0086 offset -0.51297 -0.28476 31001.10392 length 0.00125 color 0 0 1 }
Segment { rot -0.82687 0 -0.56239 2.90792 offset -0.51321 -0.28263 31001.10429 length 0.00312 color 0 0 1 }
Segment { rot 0.45416 0 0.89092 2.87038 offset -0.51341 -0.2811 31001.10459 length 0.00003 color 0 0 1 }
Segment { rot 0.3647 0 0.93112 2.72042 offset -0.51164 -0.27685 31001.1039 length 0.00928 color 0 0 1 }
Segment { rot 0.3355 0 0.94204 2.5474 offset -0.50869 -0.27076 31001.10278 length 0.00448 color 0 0 1 }
Segment { rot 0.36498 0 0.93102 2.57358 offset -0.50426 -0.26344 31001.10109 length 0.01297 color 0 0 1 }
Segment { rot 0.28719 0 0.95787 2.5768 offset -0.49989 -0.25612 31001.09948 length 0.00438 color 0 0 1 }
Segment { rot 0.29727 0 0.95479 2.6788 offset -0.49334 -0.24288 31001.09745 length 0.02547 color 0 0 1 }
Segment { rot 0.78183 0 0.62349 2.32647 offset -0.48684 -0.22986 31001.09442 length 0.00473 color 0 0 1 }
Segment { rot 0.7639 0 0.64533 2.53179 offset -0.48452 -0.22546 31001.09159 length 0.00679 color 0 0 1 }
Segment { rot 0.59941 0 0.80044 2.5573 offset -0.48303 -0.22225 31001.08993 length 0.00104 color 0 0 1 }
Segment { rot 0.94553 0 0.32554 2.42511 offset -0.48188 -0.21855 31001.08707 length 0.00866 color 0 0 1 }
Segment { rot 0.95231 0 0.30512 2.42522 offset -0.48065 -0.21414 31001.08344 length 0.00303 color 0 0 1 }
Segment { rot 0.57845 0 0.81572 2.45885 offset -0.48032 -0.21297 31001.08248 length 0.00008 color 0 0 1 }
Segment { rot 0.52471 0 0.85128 2.37538 offset -0.47884 -0.21115 31001.08156 length 0.00496 color 0 0 1 }
Segment { rot 0.54595 0 0.83782 2.34266 offset -0.477 -0.20893 31001.08041 length 0.00126 color 0 0 1 }
Segment { rot 0.55342 0 0.8329 2.33843 offset -0.47264 -0.20387 31001.07752 length 0.01329 color 0 0 1 }
Segment { rot 0.67556 0 0.73731 2.38493 offset -0.46819 -0.19858 31001.07444 length 0.00185 color 0 0 1 }
Segment { rot 0.82087 0 0.57111 2.35001 offset -0.46717 -0.19696 31001.07323 length 0.00269 color 0 0 1 }
Segment { rot 0.73054 0 0.68287 2.67195 offset -0.46474 -0.19058 31001.07043 length 0.0122 color 0 0 1 }
Segment { rot 0.90998 0 0.41465 2.77185 offset -0.46244 -0.18256 31001.0675 length 0.00553 color 0 0 1 }
Segment { rot 0.87508 0 0.48398 2.75064 offset -0.46185 -0.17909 31001.06627 length 0.00192 color 0 0 1 }
Segment { rot 0.87691 0 0.48065 2.77686 offset -0.46055 -0.17207 31001.0639 length 0.01313 color 0 0 1 }
Segment { rot 0.98237 0 0.18697 2.68163 offset -0.45941 -0.16577 31001.06176 length 0.00038 color 0 0 1 }
Segment { rot 0.97034 0 0.24176 2.72694 offset -0.45938 -0.1655 31001.06164 length 0.0002 color 0 0 1 }
Segment { rot 0.96596 0 0.2587 2.72917 offset -0.4592 -0.16392 31001.06097 length 0.00325 color 0 0 1 }
Segment { rot 0.91874 0 -0.39486 2.86365 offset -0.4598 -0.15559 31001.05855 length 0.01423 color 0 0 1 }
Segment { rot -0.55651 0 -0.83084 2.61124 offset -0.46109 -0.14769 31001.0571 length 0.00247 color 0 0 1 }
Segment { rot -0.57221 0 -0.82011 2.60574 offset -0.46214 -0.14554 31001.05781 length 0.0025 color 0 0 1 }
Segment { rot -0.50261 0 -0.86451 2.63724 offset -0.46413 -0.14139 31001.05903 length 0.00704 color 0 0 1 }
Segment { rot -0.33391 0 -0.9426 2.23069 offset -0.46584 -0.13811 31001.05997 length 0.00063 color 0 0 1 }
Segment { rot -0.32737 0 -0.9449 2.15997 offset -0.46912 -0.13577 31001.06111 length 0.00775 color 0 0 1 }
Segment { rot -0.35546 0 -0.93469 2.17663 offset -0.47328 -0.13278 31001.06259 length 0.00292 color 0 0 1 }
Segment { rot -0.30927 0 -0.95098 2.18417 offset -0.47551 -0.13113 31001.06338 length 0.00286 color 0 0 1 }
Segment { rot -0.31522 0 -0.94902 2.25879 offset -0.47667 -0.13027 31001.06376 length 0.00012 color 0 0 1 }
Segment { rot -0.33409 0 -0.94254 2.27236 offset -0.47891 -0.12826 31001.06455 length 0.00609 color 0 0 1 }
Segment { rot -0.28276 0 -0.95919 2.16343 offset -0.48313 -0.12487 31001.06592 length 0.0051 color 0 0 1 }
Segment { rot -0.3433 0 -0.93923 2.1051 offset -0.48783 -0.12176 31001.0675 length 0.00662 color 0 0 1 }
Segment { rot -0.3194 0 -0.94762 2.06283 offset -0.49099 -0.1198 31001.06864 length 0.00117 color 0 0 1 }
Segment { rot -0.47022 0 -0.88255 2.05773 offset -0.49202 -0.1192 31001.06909 length 0.00139 color 0 0 1 }
Segment { rot -0.48529 0 -0.87435 2.07204 offset -0.49329 -0.11842 31001.06978 length 0.00188 color 0 0 1 }
Segment { rot -0.49207 0 -0.87056 2.10117 offset -0.49409 -0.11792 31001.07023 length 0.00022 color 0 0 1 }
Segment { rot -0.51338 0 -0.85816 2.10315 offset -0.4955 -0.11695 31001.07107 length 0.00359 color 0 0 1 }
Segment { rot -0.26085 0 -0.96538 2.07582 offset -0.49732 -0.11576 31001.072 length 0.00117 color 0 0 1 }
Segment { rot -0.25541 0 -0.96683 2.08665 offset -0.49871 -0.11495 31001.07236 length 0.00212 color 0 0 1 }
Segment { rot -0.38596 0 -0.92252 1.95429 offset -0.50082 -0.11389 31001.07311 length 0.00286 color 0 0 1 }
Segment { rot -0.63782 0 -0.77019 2.04198 offset -0.50217 -0.11328 31001.07373 length 0.00036 color 0 0 1 }
Segment { rot 0.89103 0 -0.45395 2.0087 offset -0.50259 -0.11289 31001.07324 length 0.00145 color 0 0 1 }
Segment { rot 0.93968 0 -0.34204 1.98042 offset -0.50292 -0.11254 31001.07258 length 0.00018 color 0 0 1 }
Segment { rot 0.87358 0 -0.48669 2.01148 offset -0.50371 -0.11176 31001.07112 length 0.00349 color 0 0 1 }
Segment { rot 0.89119 0 -0.45363 1.82443 offset -0.50499 -0.11073 31001.06875 length 0.0023 color 0 0 1 }
Segment { rot 0.87764 0 -0.47932 1.79831 offset -0.50921 -0.10865 31001.06095 length 0.01591 color 0 0 1 }
Segment { rot 0.87221 0 -0.48914 1.7902 offset -0.51395 -0.10638 31001.05232 length 0.00431 color 0 0 1 }
Segment { rot 0.99219 0 -0.12477 1.77452 offset -0.51504 -0.10582 31001.05002 length 0.00094 color 0 0 1 }
Segment { rot 0.99884 0 -0.04814 1.8599 offset -0.5151 -0.1057 31001.04949 length 0.00015 color 0 0 1 }
Segment { rot 0.98092 0 -0.19441 1.81019 offset -0.51525 -0.1055 31001.04868 length 0.00155 color 0 0 1 }
Segment { rot 0.9845 0 -0.17539 1.79523 offset -0.51553 -0.10514 31001.0472 length 0.00155 color 0 0 1 }
Segment { rot 0.99027 0 -0.13916 1.82033 offset -0.51594 -0.10446 31001.04449 length 0.0041 color 0 0 1 }
Segment { rot 0.98092 0 -0.19439 1.87173 offset -0.51628 -0.10385 31001.04218 length 0.00073 color 0 0 1 }
Segment { rot 0.92834 0 -0.37173 1.77045 offset -0.51748 -0.10312 31001.039 length 0.00623 color 0 0 1 }
Segment { rot 0.91994 0 -0.39206 2.52043 offset -0.51872 -0.10213 31001.03592 length 0.00091 color 0 0 1 }
Segment { rot 0.9301 0 -0.36729 2.47366 offset -0.51895 -0.10134 31001.03536 length 0.00108 color 0 0 1 }
Segment { rot 0.89523 0 -0.4456 2.36851 offset -0.51915 -0.10073 31001.03489 length 0.00051 color 0 0 1 }
Segment { rot 0.91074 0 -0.41299 2.3909 offset -0.52057 -0.09707 31001.03178 length 0.0095 color 0 0 1 }
Segment { rot 0.97498 0 0.22229 0.98577 offset -0.5216 -0.09451 31001.02749 length 0.0033 color 0 0 1 }
Segment { rot 0.97264 0 0.23232 0.9844 offset -0.52124 -0.09559 31001.0259 length 0.00062 color 0 0 1 }
Segment { rot 0.98146 0 0.19166 0.89521 offset -0.52075 -0.09757 31001.02344 length 0.00576 color 0 0 1 }
Segment { rot 0.96614 0 0.25801 0.87863 offset -0.52014 -0.09992 31001.0206 length 0.00172 color 0 0 1 }
Segment { rot 0.95226 0 0.30528 0.9227 offset -0.51995 -0.10053 31001.01987 length 0.00022 color 0 0 1 }
Segment { rot 0.97173 0 0.23608 1.37371 offset -0.51974 -0.10075 31001.01906 length 0.00153 color 0 0 1 }
Segment { rot 0.93529 0 0.35388 1.47398 offset -0.51806 -0.10131 31001.01436 length 0.00852 color 0 0 1 }
Segment { rot 0.93359 0 0.35834 1.53093 offset -0.516 -0.10179 31001.00893 length 0.00315 color 0 0 1 }
Segment { rot 0.92272 0 0.38547 1.57377 offset -0.51484 -0.10184 31001.00604 length 0.00307 color 0 0 1 }
Segment { rot 0.92866 0 0.37094 1.51808 offset -0.51394 -0.10188 31001.00385 length 0.00167 color 0 0 1 }
Segment { rot 0.99878 0 0.04942 1.76291 offset -0.51362 -0.10187 31001.00277 length 0.00063 color 0 0 1 }
Segment { rot 0.99917 0 0.04078 1.48575 offset -0.51354 -0.10195 31001.00076 length 0.00341 color 0 0 1 }
Segment { rot 0.99972 0 0.0235 1.50742 offset -0.51337 -0.10236 31000.9949 length 0.00835 color 0 0 1 }
Segment { rot 0.99849 0 0.05501 1.51417 offset -0.51306 -0.10284 31000.98694 length 0.00761 color 0 0 1 }
Segment { rot 0.99768 0 0.06806 1.49101 offset -0.51276 -0.10317 31000.98174 length 0.00284 color 0 0 1 }
Segment { rot 0.99753 0 0.07026 1.50851 offset -0.51252 -0.10341 31000.97832 length 0.00404 color 0 0 1 }
Segment { rot 0.99768 0 -0.06809 1.27746 offset -0.51244 -0.10382 31000.97537 length 0.00195 color 0 0 1 }
Segment { rot 0.99981 0 0.01954 1.21698 offset -0.51247 -0.10482 31000.97249 length 0.00416 color 0 0 1 }
Segment { rot 0.95774 0 0.28764 1.46999 offset -0.51218 -0.10562 31000.96974 length 0.0017 color 0 0 1 }
Segment { rot 0.9777 0 0.21001 1.44442 offset -0.51061 -0.10651 31000.96275 length 0.01274 color 0 0 1 }
Segment { rot 0.97372 0 0.22776 1.4566 offset -0.50854 -0.10769 31000.95337 length 0.00661 color 0 0 1 }
Segment { rot 0.97812 0 0.20803 1.70797 offset -0.50772 -0.10802 31000.94983 length 0.0007 color 0 0 1 }
Segment { rot 0.9884 0 0.1519 1.61385 offset -0.50745 -0.10792 31000.94823 length 0.00255 color 0 0 1 }
Segment { rot 0.99818 0 0.06026 1.56343 offset -0.50718 -0.10787 31000.94568 length 0.00259 color 0 0 1 }
Segment { rot 0.98701 0 -0.16063 1.29089 offset -0.50721 -0.10807 31000.94374 length 0.00136 color 0 0 1 }
Segment { rot 0.99503 0 -0.09954 1.36476 offset -0.50733 -0.1083 31000.94288 length 0.00046 color 0 0 1 }
Segment { rot 0.99607 0 -0.08859 1.34462 offset -0.50737 -0.1084 31000.94246 length 0.00041 color 0 0 1 }
Segment { rot 0.9824 0 -0.1868 1.37144 offset -0.50741 -0.10846 31000.94218 length 0.00017 color 0 0 1 }
Segment { rot 0.98868 0 -0.15005 1.36926 offset -0.5079 -0.10912 31000.93897 length 0.00644 color 0 0 1 }
Segment { rot 0.96538 0 -0.26083 1.75035 offset -0.50999 -0.10864 31000.92985 length 0.01264 color 0 0 1 }
Segment { rot 0.9072 0 -0.42069 1.7259 offset -0.51338 -0.10685 31000.92004 length 0.00847 color 0 0 1 }
Segment { rot 0.91386 0 -0.40604 1.83917 offset -0.51659 -0.10522 31000.91298 length 0.00741 color 0 0 1 }
Segment { rot 0.91188 0 -0.41045 1.87717 offset -0.51856 -0.10384 31000.90857 length 0.00265 color 0 0 1 }
Segment { rot 0.40538 0 -0.91415 1.75311 offset -0.51934 -0.10338 31000.9073 length 0.00058 color 0 0 1 }
Segment { rot 0.44935 0 -0.89336 1.78499 offset -0.52228 -0.10268 31000.90584 length 0.00613 color 0 0 1 }
Segment { rot 0.43472 0 -0.90057 1.42874 offset -0.52594 -0.10218 31000.90402 length 0.0022 color 0 0 1 }
Segment { rot 0.42105 0 -0.90704 1.37088 offset -0.52724 -0.10241 31000.90339 length 0.00074 color 0 0 1 }
Segment { rot 0.31257 0 -0.94989 1.36215 offset -0.52957 -0.10293 31000.90258 length 0.0043 color 0 0 1 }
Segment { rot 0.37088 0 -0.92868 1.19129 offset -0.53209 -0.1036 31000.90171 length 0.00121 color 0 0 1 }
Segment { rot 0.35451 0 -0.93505 1.115 offset -0.53268 -0.10386 31000.90148 length 0.00017 color 0 0 1 }
Segment { rot 0.35652 0 -0.93429 1.12541 offset -0.53285 -0.10395 31000.90142 length 0.00024 color 0 0 1 }
Segment { rot 0.30411 0 -0.95264 1.17518 offset -0.53369 -0.10432 31000.90114 length 0.00167 color 0 0 1 }
Segment { rot 0.38709 0 -0.92204 1.17814 offset -0.53509 -0.10494 31000.90063 length 0.00157 color 0 0 1 }
Segment { rot 0.41782 0 -0.90853 1.33876 offset -0.53735 -0.10566 31000.89961 length 0.0036 color 0 0 1 }
Segment { rot 0.45184 0 -0.8921 1.31825 offset -0.53917 -0.10614 31000.89877 length 0.00052 color 0 0 1 }
Segment { rot 0.44608 0 -0.89499 1.35468 offset -0.53944 -0.10622 31000.89863 length 0.00011 color 0 0 1 }
Segment { rot 0.37335 0 -0.92769 1.31731 offset -0.54022 -0.10643 31000.89831 length 0.00163 color 0 0 1 }
Segment { rot 0.45418 0 -0.89091 1.37011 offset -0.5414 -0.10674 31000.89779 length 0.00102 color 0 0 1 }
Segment { rot 0.63394 0 -0.77338 1.27548 offset -0.54227 -0.10701 31000.89721 length 0.00115 color 0 0 1 }
Segment { rot 0.71686 0 -0.69721 1.16792 offset -0.5427 -0.10717 31000.89686 length 0 color 0 0 1 }
Segment { rot 0.6684 0 -0.7438 1.09979 offset -0.54301 -0.10739 31000.89658 length 0.00095 color 0 0 1 }
Segment { rot 0.67797 0 -0.73509 1.26349 offset -0.54411 -0.10795 31000.89557 length 0.00225 color 0 0 1 }
Segment { rot 0.63866 0 -0.76949 1.29556 offset -0.5451 -0.10836 31000.89468 length 0.00054 color 0 0 1 }
Segment { rot 0.87569 0 -0.48287 1.24663 offset -0.54544 -0.10853 31000.89426 length 0.00061 color 0 0 1 }
Segment { rot 0.88105 0 -0.47302 1.19352 offset -0.54645 -0.10936 31000.89239 length 0.00396 color 0 0 1 }
Segment { rot 0.80048 0 -0.59935 1.12576 offset -0.54742 -0.11017 31000.89063 length 0.00038 color 0 0 1 }
Segment { rot 0.79065 0 -0.61227 1.16513 offset -0.54759 -0.11029 31000.89041 length 0.00021 color 0 0 1 }
Segment { rot 0.79998 0 -0.60003 1.19427 offset -0.54999 -0.11188 31000.88721 length 0.00841 color 0 0 1 }
Segment { rot 0.7768 0 -0.62975 1.22575 offset -0.55272 -0.11364 31000.88361 length 0.0013 color 0 0 1 }
Segment { rot 0.80815 0 -0.58898 1.21578 offset -0.55488 -0.11498 31000.8807 length 0.00643 color 0 0 1 }
Segment { rot 0.88058 0 -0.47389 1.05458 offset -0.55674 -0.1162 31000.8781 length 0.00041 color 0 0 1 }
Segment { rot 0.99412 0 -0.10831 0.85418 offset -0.55685 -0.1165 31000.87772 length 0.00061 color 0 0 1 }
Segment { rot 0.97737 0 -0.21154 0.74469 offset -0.55697 -0.11719 31000.87705 length 0.00134 color 0 0 1 }
Segment { rot 0.99406 0 -0.1088 0.79621 offset -0.55709 -0.11793 31000.87636 length 0.00069 color 0 0 1 }
Segment { rot 0.95081 0 0.30978 1.50792 offset -0.55694 -0.11821 31000.87555 length 0.00119 color 0 0 1 }
Segment { rot 0.95667 0 0.29119 1.43193 offset -0.55641 -0.11841 31000.87387 length 0.00235 color 0 0 1 }
Segment { rot 0.95163 0 0.30726 1.36196 offset -0.55524 -0.11915 31000.87018 length 0.00554 color 0 0 1 }
Segment { rot 0.9394 0 0.34283 1.41485 offset -0.5542 -0.11982 31000.86702 length 0.00125 color 0 0 1 }
Segment { rot 0.9467 0 0.32212 1.39169 offset -0.55378 -0.12003 31000.86582 length 0.00133 color 0 0 1 }
Segment { rot 0.94563 0 0.32525 1.3664 offset -0.55355 -0.12016 31000.86516 length 0.0001 color 0 0 1 }
Segment { rot 0.97885 0 0.20459 1.42336 offset -0.55321 -0.12041 31000.86356 length 0.0032 color 0 0 1 }
Segment { rot 0.60868 0 0.79342 2.04714 offset -0.55053 -0.11911 31000.8602 length 0.00669 color 0 0 1 }
Segment { rot 0.12702 0 0.9919 2.12125 offset -0.54705 -0.11688 31000.85825 length 0.00266 color 0 0 1 }
Segment { rot 0.23229 0 0.97265 2.13911 offset -0.54581 -0.11611 31000.85808 length 0.00027 color 0 0 1 }
Segment { rot 0.25847 0 0.96602 2.06084 offset -0.54474 -0.11551 31000.8578 length 0.00225 color 0 0 1 }
Segment { rot 0.30859 0 0.95119 2.11661 offset -0.54114 -0.11329 31000.85668 length 0.0065 color 0 0 1 }
Segment { rot 0.23564 0 0.97184 2.2259 offset -0.53845 -0.11157 31000.85581 length 0.00012 color 0 0 1 }
Segment { rot 0.25653 0 0.96654 2.19657 offset -0.53783 -0.1111 31000.85565 length 0.00146 color 0 0 1 }
Segment { rot 0.21553 0 0.9765 2.13221 offset -0.53652 -0.1102 31000.85534 length 0.00179 color 0 0 1 }
Segment { rot -0.11367 0 0.99352 2.09334 offset -0.53407 -0.10873 31000.85537 length 0.00398 color 0 0 1 }
Segment { rot -0.25944 0 0.96576 2.23803 offset -0.53188 -0.10735 31000.85569 length 0.00126 color 0 0 1 }
Segment { rot -0.20156 0 0.97948 2.18027 offset -0.53027 -0.10615 31000.85606 length 0.00282 color 0 0 1 }
Segment { rot -0.16321 0 0.98659 2.11578 offset -0.52914 -0.10534 31000.85629 length 0 color 0 0 1 }
Segment { rot -0.18436 0 0.98286 2.15177 offset -0.52882 -0.10513 31000.85635 length 0.00076 color 0 0 1 }
Segment { rot -0.24121 0 0.97047 2.29696 offset -0.52833 -0.10476 31000.85645 length 0.00049 color 0 0 1 }
Segment { rot -0.17819 0 0.984 2.24044 offset -0.52804 -0.10451 31000.85652 length 0.00029 color 0 0 1 }
Segment { rot -0.2008 0 0.97963 2.21861 offset -0.52772 -0.10426 31000.85658 length 0.00053 color 0 0 1 }
Segment { rot -0.26105 0 0.96533 2.01906 offset -0.52704 -0.10386 31000.85675 length 0.00108 color 0 0 1 }
Segment { rot 0.19613 0 0.98058 1.99943 offset -0.52333 -0.10212 31000.85623 length 0.00727 color 0 0 1 }
Segment { rot 0.15307 0 0.98822 2.03311 offset -0.51913 -0.10012 31000.85543 length 0.00216 color 0 0 1 }
Segment { rot 0.08286 0 0.99656 1.82479 offset -0.51433 -0.09864 31000.85496 length 0.00799 color 0 0 1 }
Segment { rot 0.14906 0 0.98883 2.23226 offset -0.50943 -0.09682 31000.85449 length 0.00267 color 0 0 1 }
Segment { rot 0.15883 0 0.98731 2.21275 offset -0.50598 -0.09417 31000.85394 length 0.00609 color 0 0 1 }
Segment { rot 0.07516 0 0.99717 2.22135 offset -0.5023 -0.09138 31000.85346 length 0.00321 color 0 0 1 }
Segment { rot 0.59384 0 0.80458 1.52585 offset -0.50021 -0.09045 31000.85276 length 0.00203 color 0 0 1 }
Segment { rot 0.39871 0 0.91708 1.82768 offset -0.49877 -0.09032 31000.85189 length 0.00142 color 0 0 1 }
Segment { rot 0.28223 0 0.95935 1.95215 offset -0.49466 -0.08868 31000.85059 length 0.00781 color 0 0 1 }
Segment { rot 0.24115 0 0.97049 1.9296 offset -0.48801 -0.086 31000.84878 length 0.00699 color 0 0 1 }
Segment { rot 0.05172 0 0.99866 1.92241 offset -0.48479 -0.08476 31000.84798 length 0.00009 color 0 0 1 }
Segment { rot 0.23893 0 0.97104 1.80111 offset -0.48426 -0.08463 31000.84786 length 0.00103 color 0 0 1 }
Segment { rot -0.01039 0 0.99995 1.82019 offset -0.48147 -0.08392 31000.84777 length 0.00475 color 0 0 1 }
Segment { rot 0.06288 0 0.99802 1.81837 offset -0.47891 -0.08327 31000.84778 length 0.00054 color 0 0 1 }
Segment { rot 0.08029 0 0.99677 1.85744 offset -0.47816 -0.08306 31000.84772 length 0.00103 color 0 0 1 }
Segment { rot 0.08915 0 0.99602 1.93433 offset -0.47767 -0.08291 31000.84768 length 0.00001 color 0 0 1 }
Segment { rot -0.97613 0 0.21719 2.09774 offset -0.47748 -0.08242 31000.8485 length 0.00194 color 0 0 1 }
Segment { rot -0.98588 0 0.16744 2.10156 offset -0.4773 -0.08192 31000.84934 length 0.00005 color 0 0 1 }
Segment { rot -0.99201 0 0.12618 1.92548 offset -0.47728 -0.08187 31000.84946 length 0.00019 color 0 0 1 }
Segment { rot -0.99575 0 0.09208 1.95339 offset -0.47716 -0.08137 31000.8507 length 0.0025 color 0 0 1 }
Segment { rot -0.99065 0 -0.1364 1.66594 offset -0.47732 -0.08072 31000.85377 length 0.00387 color 0 0 1 }
Segment { rot -0.94353 0 -0.33129 1.35895 offset -0.47822 -0.08095 31000.8575 length 0.00396 color 0 0 1 }
Segment { rot -0.97347 0 -0.22883 1.22842 offset -0.47889 -0.08141 31000.85944 length 0.00026 color 0 0 1 }
Segment { rot -0.95288 0 -0.30336 1.44688 offset -0.4791 -0.08153 31000.86013 length 0.0012 color 0 0 1 }
Segment { rot -0.96801 0 -0.25093 1.42686 offset -0.47975 -0.08188 31000.86252 length 0.00381 color 0 0 1 }
Segment { rot -0.67836 0 -0.73473 2.05848 offset -0.48058 -0.0819 31000.86467 length 0.00109 color 0 0 1 }
Segment { rot -0.72058 0 -0.69337 2.12951 offset -0.48112 -0.08147 31000.86519 length 0.00064 color 0 0 1 }
Segment { rot -0.61758 0 -0.78651 2.05725 offset -0.48195 -0.08087 31000.86589 length 0.00183 color 0 0 1 }
Segment { rot -0.60544 0 -0.79589 2.10394 offset -0.48325 -0.07995 31000.8669 length 0.00194 color 0 0 1 }
Segment { rot -0.5713 0 -0.82074 1.94344 offset -0.48461 -0.07913 31000.86788 length 0.00181 color 0 0 1 }
Segment { rot 0.953 0 -0.30297 0.20756 offset -0.48546 -0.08125 31000.86788 length 0.00501 color 0 0 1 }
Segment { rot 0.73896 0 -0.67375 0.53039 offset -0.4859 -0.08443 31000.86707 length 0.00169 color 0 0 1 }
Segment { rot 0.78686 0 -0.61713 0.48724 offset -0.48641 -0.08583 31000.86647 length 0.00154 color 0 0 1 }
Segment { rot 0.78084 0 0.62474 1.22913 offset -0.48629 -0.08671 31000.86576 length 0.00116 color 0 0 1 }
Segment { rot 0.74269 0 0.66964 1.40606 offset -0.48547 -0.08702 31000.8648 length 0.00144 color 0 0 1 }
Segment { rot 0.70412 0 0.71009 1.35829 offset -0.48399 -0.08744 31000.86328 length 0.0029 color 0 0 1 }
Segment { rot 0.22802 0 0.97366 1.49818 offset -0.48295 -0.08775 31000.86227 length 0.00006 color 0 0 1 }
Segment { rot 0.1105 0 0.99388 1.44175 offset -0.48239 -0.08782 31000.8622 length 0.00109 color 0 0 1 }
Segment { rot 0.23761 0 0.97136 1.54221 offset -0.48055 -0.08793 31000.86183 length 0.00266 color 0 0 1 }
Segment { rot 0.18528 0 0.98269 1.56309 offset -0.47903 -0.08797 31000.86147 length 0.00046 color 0 0 1 }
Segment { rot 0.18143 0 0.9834 1.60736 offset -0.47799 -0.08794 31000.86128 length 0.00165 color 0 0 1 }
Segment { rot 0.13736 0 0.99052 1.54218 offset -0.47652 -0.08793 31000.86103 length 0.00133 color 0 0 1 }
Segment { rot 0.10895 0 0.99405 1.4065 offset -0.47436 -0.0882 31000.86078 length 0.00307 color 0 0 1 }
Segment { rot 0.07461 0 0.99721 1.49977 offset -0.46957 -0.08869 31000.86037 length 0.0066 color 0 0 1 }
Segment { rot 0.0607 0 0.99816 1.32995 offset -0.46615 -0.08896 31000.86011 length 0.00029 color 0 0 1 }
Segment { rot -0.04167 0 0.99913 1.25924 offset -0.46557 -0.08913 31000.86012 length 0.00091 color 0 0 1 }
Segment { rot 0.04471 0 0.999 1.25355 offset -0.46498 -0.08932 31000.86013 length 0.00034 color 0 0 1 }
Segment { rot 0.09708 0 0.99528 1.17582 offset -0.46428 -0.0896 31000.86007 length 0.00118 color 0 0 1 }
Segment { rot 0.21161 0 0.97735 1.34339 offset -0.46159 -0.09034 31000.85956 length 0.00451 color 0 0 1 }
Segment { rot 0.18238 0 0.98323 1.42252 offset -0.45862 -0.09097 31000.85894 length 0.00169 color 0 0 1 }
Segment { rot 0.14696 0 0.98914 1.18864 offset -0.45725 -0.09132 31000.85871 length 0.00118 color 0 0 1 }
Segment { rot -0.11736 0 0.99309 0.95172 offset -0.45618 -0.09192 31000.85869 length 0.0013 color 0 0 1 }
Segment { rot -0.45358 0 0.89121 0.84253 offset -0.45522 -0.09273 31000.85897 length 0.00132 color 0 0 1 }
Segment { rot -0.36681 0 0.93029 0.89023 offset -0.4541 -0.09376 31000.85946 length 0.00187 color 0 0 1 }
Segment { rot -0.40894 0 0.91256 0.81249 offset -0.45281 -0.095 31000.86001 length 0.00188 color 0 0 1 }
Segment { rot -0.46165 0 0.88706 0.7944 offset -0.45186 -0.096 31000.86046 length 0.00103 color 0 0 1 }
Segment { rot -0.52047 0 0.85388 0.75593 offset -0.45153 -0.09637 31000.86063 length 0.00001 color 0 0 1 }
Segment { rot -0.47527 0 0.87984 0.74864 offset -0.45133 -0.09661 31000.86074 length 0.00067 color 0 0 1 }
Segment { rot -0.41334 0 0.91058 0.78516 offset -0.45059 -0.09745 31000.86109 length 0.00168 color 0 0 1 }
Segment { rot -0.7004 0 -0.71375 0.21952 offset -0.45006 -0.09811 31000.86134 length 0.00014 color 0 0 1 }
Segment { rot -0.87786 0 -0.47892 0.33458 offset -0.45019 -0.09891 31000.86158 length 0.00155 color 0 0 1 }
Segment { rot -0.58481 0 -0.81117 0.67515 offset -0.45039 -0.09977 31000.86186 length 0.0003 color 0 0 1 }
Segment { rot -0.57819 0 -0.8159 0.60913 offset -0.45052 -0.09998 31000.86195 length 0.00023 color 0 0 1 }
Segment { rot -0.37371 0 -0.92755 0.59644 offset -0.45092 -0.10061 31000.86213 length 0.00131 color 0 0 1 }
Segment { rot -0.04174 0 -0.99913 0.60732 offset -0.45142 -0.10139 31000.86227 length 0.00057 color 0 0 1 }
Segment { rot -0.99014 0 -0.14012 0.06738 offset -0.45159 -0.10226 31000.86232 length 0.00128 color 0 0 1 }
Segment { rot -0.66354 0 -0.74814 0.24226 offset -0.45161 -0.10296 31000.86237 length 0.00013 color 0 0 1 }
Segment { rot 0.14843 0 0.98892 0.24278 offset -0.45138 -0.10399 31000.86235 length 0.002 color 0 0 1 }
Segment { rot 0.32851 0 0.9445 0.30701 offset -0.45104 -0.10529 31000.86228 length 0.00067 color 0 0 1 }
Segment { rot 0.61917 0 0.78525 0.33029 offset -0.4506 -0.10691 31000.86197 length 0.00275 color 0 0 1 }
Segment { rot -0.94299 0 -0.33283 0.79446 offset -0.4504 -0.10867 31000.86213 length 0.00131 color 0 0 1 }
Segment { rot -0.92709 0 -0.37484 0.7397 offset -0.45066 -0.10944 31000.86284 length 0.00084 color 0 0 1 }
Segment { rot -0.81621 0 -0.57775 0.60244 offset -0.45093 -0.11016 31000.86333 length 0.00099 color 0 0 1 }
Segment { rot 0.56405 0 0.82574 2.27658 offset -0.45104 -0.11051 31000.86352 length 0.00017 color 0 0 1 }
Segment { rot 0.64841 0 0.7613 2.26204 offset -0.45064 -0.11008 31000.86319 length 0.00117 color 0 0 1 }
Segment { rot 0.48225 0 -0.87604 1.41438 offset -0.4504 -0.10973 31000.86285 length 0.00022 color 0 0 1 }
Segment { rot 0.39992 0 -0.91655 1.40354 offset -0.45061 -0.10977 31000.86274 length 0.00026 color 0 0 1 }
Segment { rot 0.43675 0 -0.89958 1.37789 offset -0.45125 -0.1099 31000.86244 length 0.00119 color 0 0 1 }
Segment { rot 0.55103 0 -0.83448 1.27488 offset -0.45214 -0.11015 31000.86194 length 0.0009 color 0 0 1 }
Segment { rot -0.64686 0 0.76261 1.42361 offset -0.4525 -0.11028 31000.86171 length 0 color 0 0 1 }
Segment { rot -0.59999 0 0.80001 1.21298 offset -0.45235 -0.11035 31000.86181 length 0.00038 color 0 0 1 }
Segment { rot -0.66773 0 0.7444 1.23119 offset -0.45175 -0.11063 31000.86233 length 0.00132 color 0 0 1 }
Segment { rot -0.16371 0 -0.98651 1.35114 offset -0.45138 -0.11087 31000.86276 length 0.00019 color 0 0 1 }
Segment { rot -0.14168 0 -0.98991 1.42995 offset -0.45164 -0.11092 31000.8628 length 0.00034 color 0 0 1 }
Segment { rot -0.2919 0 -0.95645 1.78754 offset -0.45191 -0.11092 31000.86286 length 0.00022 color 0 0 1 }
Segment { rot -0.99998 0 -0.00706 0.28026 offset -0.45201 -0.1113 31000.86301 length 0.00086 color 0 0 1 }
Segment { rot 0.09009 0 0.99593 0.8416 offset -0.45172 -0.11198 31000.8631 length 0.00079 color 0 0 1 }
Segment { rot -0.05932 0 0.99824 1.17479 offset -0.45134 -0.11228 31000.86308 length 0.00019 color 0 0 1 }
Segment { rot 0.48753 0 -0.87311 3.03313 offset -0.45127 -0.11217 31000.86308 length 0.00028 color 0 0 1 }
Segment { rot 0.30864 0 -0.95118 1.32282 offset -0.45167 -0.11214 31000.86294 length 0.00085 color 0 0 1 }
Segment { rot 0.24729 0 -0.96894 1.5308 offset -0.45227 -0.11225 31000.86276 length 0.00042 color 0 0 1 }
Segment { rot 0.58511 0 -0.81095 1.3961 offset -0.45258 -0.11228 31000.86264 length 0.00025 color 0 0 1 }