#VRML V2.0 utf8
#Generated by NISTMonte
WorldInfo {
 title "NISTMonte Trajectory"
 info ["See http://www.cstl.nist.gov/div837/Division/home.html for more information"]
}
Viewpoint {
 fieldOfView 0.785398
 position 0 5 20000
 orientation -1 -0 -0 1.5708
 description "Y-Axis"
}
Viewpoint {
 fieldOfView 0.785398
 position 0 0 19995
 orientation 1 0 0 3.1415926
 description "Gun"
}
Viewpoint {
 fieldOfView 0.785398
 position -5 0 20000
 orientation 0 -1 0 1.5708
 description "X-Axis"
}




#Prototype for a trajectory segment
PROTO Segment [
 field SFRotation rot 1 0 0 0
 field SFVec3f offset 0 0 0
 field SFFloat length 0.1
 field SFColor color 1 1 1
]
{
 Transform {
  rotation IS rot
  translation IS offset
  children [
   Shape {
    geometry Cylinder {
     radius 0.001
     height IS length
    }
    appearance Appearance {
     material Material {
      emissiveColor IS color
     }
    }
   }
  ]
 }
}
Segment { rot -1 0 -0 1.5708 offset 0.00045 -0.01131 20000.00128 length 0.00256 color 0 0 1 }
Segment { rot -0.96215 0 -0.27253 1.68362 offset -0.00109 -0.01067 20000.00802 length 0.01142 color 0 0 1 }
Segment { rot -0.96464 0 -0.26357 1.61383 offset -0.00462 -0.0097 20000.02071 length 0.015 color 0 0 1 }
Segment { rot -0.97584 0 -0.21847 1.59389 offset -0.00797 -0.00923 20000.03411 length 0.01266 color 0 0 1 }
Segment { rot -0.85418 0 -0.51997 1.30849 offset -0.01021 -0.00953 20000.04169 length 0.00342 color 0 0 1 }
Segment { rot -0.86955 0 -0.49385 1.46024 offset -0.01536 -0.01094 20000.05065 length 0.01746 color 0 0 1 }
Segment { rot -0.92183 0 -0.38761 1.39724 offset -0.02159 -0.01278 20000.06281 length 0.01017 color 0 0 1 }
Segment { rot -0.89373 0 -0.4486 1.52421 offset -0.02544 -0.01385 20000.07124 length 0.00853 color 0 0 1 }
Segment { rot -0.84602 0 -0.53315 1.3804 offset -0.03032 -0.01513 20000.07976 length 0.01137 color 0 0 1 }
Segment { rot -0.88016 0 -0.47468 1.26253 offset -0.04198 -0.02202 20000.10057 length 0.03837 color 0 0 1 }
Segment { rot -0.90366 0 -0.42825 1.3567 offset -0.05097 -0.02801 20000.11734 length 0.00152 color 0 0 1 }
Segment { rot -0.88233 0 -0.47064 1.28219 offset -0.05278 -0.02911 20000.12079 length 0.00659 color 0 0 1 }
Segment { rot -0.86269 0 -0.50573 1.23098 offset -0.05663 -0.0317 20000.12762 length 0.00993 color 0 0 1 }
Segment { rot -0.99072 0 -0.13592 1.33494 offset -0.059 -0.03336 20000.13169 length 0.00006 color 0 0 1 }
Segment { rot -0.99858 0 -0.05324 1.29514 offset -0.05909 -0.03382 20000.13332 length 0.00335 color 0 0 1 }
Segment { rot -0.99816 0 -0.06062 1.25297 offset -0.05919 -0.03433 20000.13507 length 0.0003 color 0 0 1 }
Segment { rot -0.99926 0 -0.03847 1.20604 offset -0.05923 -0.03475 20000.1362 length 0.00212 color 0 0 1 }
Segment { rot -0.99777 0 -0.0667 1.18146 offset -0.05978 -0.03827 20000.14482 length 0.01653 color 0 0 1 }
Segment { rot -0.99478 0 -0.10201 1.38944 offset -0.06045 -0.04168 20000.15398 length 0.00311 color 0 0 1 }
Segment { rot -0.9595 0 -0.28169 1.26006 offset -0.06244 -0.04406 20000.16175 length 0.01369 color 0 0 1 }
Segment { rot -0.98825 0 -0.15286 1.34943 offset -0.06456 -0.04658 20000.16988 length 0.0039 color 0 0 1 }
Segment { rot -0.99415 0 -0.10798 1.51878 offset -0.0654 -0.04727 20000.17677 length 0.01009 color 0 0 1 }
Segment { rot -0.99837 0 -0.05701 1.50963 offset -0.06603 -0.04762 20000.1833 length 0.00305 color 0 0 1 }
Segment { rot -0.99824 0 -0.05923 1.39703 offset -0.06633 -0.04834 20000.18837 length 0.00722 color 0 0 1 }
Segment { rot -0.9973 0 -0.07339 1.38761 offset -0.06655 -0.04899 20000.19207 length 0.0003 color 0 0 1 }
Segment { rot -0.99905 0 -0.04368 1.37681 offset -0.06658 -0.04911 20000.1927 length 0.00099 color 0 0 1 }
Segment { rot -0.99998 0 0.00678 1.38606 offset -0.06652 -0.05146 20000.20523 length 0.02451 color 0 0 1 }
Segment { rot -0.8362 0 0.54843 0.85812 offset -0.06588 -0.05458 20000.21812 length 0.00267 color 0 0 1 }
Segment { rot -0.80525 0 0.59293 0.83947 offset -0.06444 -0.0568 20000.22017 length 0.00402 color 0 0 1 }
Segment { rot -0.77829 0 0.62791 0.83838 offset -0.06301 -0.05892 20000.22205 length 0.00233 color 0 0 1 }
Segment { rot -0.75437 0 0.65645 0.83004 offset -0.06237 -0.05984 20000.22283 length 0.0004 color 0 0 1 }
Segment { rot -0.46709 0 0.88421 0.67836 offset -0.05983 -0.06339 20000.22423 length 0.0088 color 0 0 1 }
Segment { rot -0.37297 0 0.92784 0.76499 offset -0.05732 -0.06691 20000.22555 length 0.00024 color 0 0 1 }
Segment { rot -0.0907 0 0.99588 0.91926 offset -0.05572 -0.06816 20000.22572 length 0.00383 color 0 0 1 }
Segment { rot -0.11558 0 0.9933 0.93665 offset -0.05387 -0.06956 20000.2259 length 0.00083 color 0 0 1 }
Segment { rot -0.14931 0 0.98879 0.86542 offset -0.05138 -0.07167 20000.22626 length 0.00572 color 0 0 1 }
Segment { rot -0.19238 0 0.98132 0.90053 offset -0.04854 -0.07408 20000.22672 length 0.00179 color 0 0 1 }
Segment { rot -0.16804 0 0.98578 0.95889 offset -0.04492 -0.07672 20000.22736 length 0.00725 color 0 0 1 }
Segment { rot -0.1875 0 0.98226 0.98568 offset -0.03462 -0.08378 20000.22926 length 0.01803 color 0 0 1 }
Segment { rot -0.25242 0 0.96762 0.9315 offset -0.01168 -0.10071 20000.23473 length 0.04007 color 0 0 1 }
Segment { rot -0.21022 0 0.97765 0.7557 offset 0.00531 -0.11421 20000.2391 length 0.00426 color 0 0 1 }
Segment { rot -0.26308 0 0.96477 0.8238 offset 0.00962 -0.11853 20000.24019 length 0.00814 color 0 0 1 }
Segment { rot -0.21922 0 0.97568 0.73557 offset 0.01482 -0.12393 20000.2415 length 0.0071 color 0 0 1 }
Segment { rot -0.20118 0 0.97955 0.70505 offset 0.01882 -0.12857 20000.24236 length 0.00527 color 0 0 1 }
Segment { rot -0.02778 0 0.99961 0.73861 offset 0.02465 -0.13514 20000.24282 length 0.01235 color 0 0 1 }
Segment { rot -0.0009 0 1 0.71252 offset 0.03052 -0.14169 20000.24294 length 0.00526 color 0 0 1 }
Segment { rot -0.09989 0 0.995 0.74156 offset 0.03917 -0.15128 20000.24364 length 0.02062 color 0 0 1 }
Segment { rot -0.17718 0 0.98418 0.86567 offset 0.04994 -0.16221 20000.24502 length 0.01026 color 0 0 1 }
Segment { rot -0.20283 0 0.97921 0.84031 offset 0.0616 -0.17268 20000.24733 length 0.02142 color 0 0 1 }
Segment { rot -0.21736 0 0.97609 0.79957 offset 0.07028 -0.1807 20000.24915 length 0.0025 color 0 0 1 }
Segment { rot -0.21285 0 0.97708 0.79285 offset 0.07226 -0.18268 20000.24958 length 0.00316 color 0 0 1 }
Segment { rot -0.24874 0 0.96857 0.89517 offset 0.07532 -0.18541 20000.25032 length 0.00519 color 0 0 1 }
Segment { rot -0.22727 0 0.97383 0.87402 offset 0.07807 -0.18771 20000.25101 length 0.00211 color 0 0 1 }
Segment { rot -0.0148 0 0.99989 0.79551 offset 0.08194 -0.19141 20000.25124 length 0.00865 color 0 0 1 }
Segment { rot 0.01426 0 0.9999 0.81165 offset 0.09675 -0.20556 20000.25112 length 0.03233 color 0 0 1 }
Segment { rot -0.11559 0 0.9933 0.90651 offset 0.11138 -0.21898 20000.25129 length 0.00743 color 0 0 1 }
Segment { rot -0.16376 0 0.9865 0.83589 offset 0.11665 -0.22343 20000.25202 length 0.00645 color 0 0 1 }
Segment { rot -0.24771 0 0.96884 0.71985 offset 0.1255 -0.23324 20000.25407 length 0.02032 color 0 0 1 }
Segment { rot -0.38034 0 0.92485 0.60801 offset 0.13436 -0.24455 20000.2567 length 0.00897 color 0 0 1 }
Segment { rot -0.3651 0 0.93097 0.55284 offset 0.13723 -0.24911 20000.25788 length 0.00206 color 0 0 1 }
Segment { rot -0.51003 0 0.86016 0.51632 offset 0.1412 -0.25709 20000.26013 length 0.01634 color 0 0 1 }
Segment { rot -0.10228 0 0.99476 0.81483 offset 0.14666 -0.26608 20000.26239 length 0.00548 color 0 0 1 }
Segment { rot -0.04758 0 0.99887 0.92416 offset 0.15157 -0.27017 20000.26274 length 0.00734 color 0 0 1 }
Segment { rot -0.00698 0 0.99998 0.91666 offset 0.15561 -0.27324 20000.26288 length 0.00282 color 0 0 1 }
Segment { rot -0.03518 0 0.99938 0.78718 offset 0.16018 -0.27754 20000.26301 length 0.00977 color 0 0 1 }
Segment { rot -0.10351 0 0.99463 0.76247 offset 0.16523 -0.28267 20000.2633 length 0.00464 color 0 0 1 }
Segment { rot 0.03353 0 0.99944 0.79281 offset 0.16904 -0.28652 20000.26339 length 0.00621 color 0 0 1 }
Segment { rot 0.06142 0 0.99811 0.73366 offset 0.1758 -0.29376 20000.26304 length 0.01361 color 0 0 1 }
Segment { rot 0.03936 0 0.99923 0.55946 offset 0.18216 -0.30171 20000.26269 length 0.00685 color 0 0 1 }
Segment { rot 0.1025 0 0.99473 0.55891 offset 0.18499 -0.30625 20000.26251 length 0.00386 color 0 0 1 }
Segment { rot 0.05279 0 0.99861 0.56141 offset 0.18706 -0.30956 20000.26235 length 0.00395 color 0 0 1 }
Segment { rot -0.19514 0 0.98077 0.57038 offset 0.19455 -0.32146 20000.26357 length 0.02429 color 0 0 1 }
Segment { rot -0.25442 0 0.96709 0.61353 offset 0.20291 -0.33452 20000.26536 length 0.00694 color 0 0 1 }
Segment { rot -0.29631 0 0.95509 0.54746 offset 0.20503 -0.33767 20000.26593 length 0.00073 color 0 0 1 }
Segment { rot -0.59339 0 0.80492 0.36745 offset 0.20663 -0.34256 20000.26703 length 0.00981 color 0 0 1 }
Segment { rot -0.69117 0 0.72269 0.3548 offset 0.2093 -0.35182 20000.26927 length 0.00999 color 0 0 1 }
Segment { rot -0.89327 0 0.44952 0.50732 offset 0.21109 -0.35864 20000.27153 length 0.00488 color 0 0 1 }
Segment { rot -0.87567 0 0.48292 0.50903 offset 0.21544 -0.37495 20000.27952 length 0.03247 color 0 0 1 }
Segment { rot -0.84443 0 0.53566 0.53824 offset 0.22146 -0.39599 20000.28991 length 0.016 color 0 0 1 }
Segment { rot -0.79138 0 0.61133 0.5231 offset 0.22391 -0.40357 20000.2937 length 0.00165 color 0 0 1 }
Segment { rot -0.56582 0 0.82453 0.46038 offset 0.22532 -0.40713 20000.29482 length 0.00634 color 0 0 1 }
Segment { rot -0.13193 0 0.99126 0.4759 offset 0.22834 -0.4136 20000.29586 length 0.00819 color 0 0 1 }
Segment { rot -0.19942 0 0.97991 0.44607 offset 0.23063 -0.41817 20000.2962 length 0.00206 color 0 0 1 }
Segment { rot 0.90839 0 -0.41813 0.38936 offset 0.23078 -0.4208 20000.29565 length 0.00368 color 0 0 1 }
Segment { rot 0.91933 0 -0.39348 0.34175 offset 0.23023 -0.42431 20000.29443 length 0.00383 color 0 0 1 }
Segment { rot 0.8897 0 -0.45655 0.37821 offset 0.22979 -0.42716 20000.29347 length 0.00226 color 0 0 1 }
Segment { rot 0.82189 0 -0.56965 0.37311 offset 0.22883 -0.43167 20000.29199 length 0.00743 color 0 0 1 }
Segment { rot 0.71783 0 -0.69622 0.3484 offset 0.22599 -0.44328 20000.28875 length 0.01734 color 0 0 1 }
Segment { rot 0.66059 0 -0.75075 0.35604 offset 0.2234 -0.45334 20000.28615 length 0.00406 color 0 0 1 }
Segment { rot 0.45182 0 -0.89211 0.37301 offset 0.22259 -0.45605 20000.28554 length 0.00175 color 0 0 1 }
Segment { rot 0.2347 0 -0.97207 0.32897 offset 0.2223 -0.45689 20000.2854 length 0.00004 color 0 0 1 }
Segment { rot 0.23924 0 -0.97096 0.29456 offset 0.22086 -0.46177 20000.28504 length 0.01017 color 0 0 1 }
Segment { rot 0.1219 0 -0.99254 0.33175 offset 0.21833 -0.46984 20000.28456 length 0.00677 color 0 0 1 }
Segment { rot 0.27047 0 -0.96273 0.47686 offset 0.212 -0.48356 20000.28295 length 0.02368 color 0 0 1 }
Segment { rot 0.29524 0 -0.95542 0.42519 offset 0.20607 -0.4957 20000.28126 length 0.00357 color 0 0 1 }
Segment { rot 0.16254 0 -0.9867 0.43481 offset 0.20487 -0.49841 20000.28096 length 0.00239 color 0 0 1 }
Segment { rot 0.16656 0 -0.98603 0.50001 offset 0.20327 -0.50154 20000.2807 length 0.00466 color 0 0 1 }
Segment { rot 0.13025 0 -0.99148 0.49744 offset 0.20133 -0.50514 20000.2804 length 0.00354 color 0 0 1 }
Segment { rot 0.07153 0 -0.99744 0.43804 offset 0.1986 -0.51074 20000.28016 length 0.00895 color 0 0 1 }
Segment { rot -0.04882 0 -0.99881 0.39159 offset 0.19565 -0.51736 20000.28007 length 0.00555 color 0 0 1 }
Segment { rot 0.17571 0 -0.98444 0.3267 offset 0.19251 -0.52617 20000.27975 length 0.01319 color 0 0 1 }
Segment { rot 0.11827 0 -0.99298 0.34869 offset 0.18893 -0.53655 20000.2792 length 0.00879 color 0 0 1 }
Segment { rot 0.14795 0 -0.989 0.42588 offset 0.1836 -0.54924 20000.27845 length 0.01881 color 0 0 1 }
Segment { rot 0.18659 0 -0.98244 0.41308 offset 0.17905 -0.55945 20000.27774 length 0.00359 color 0 0 1 }
Segment { rot 0.1264 0 -0.99198 0.3779 offset 0.17525 -0.56896 20000.27721 length 0.01692 color 0 0 1 }
Segment { rot 0.12896 0 -0.99165 0.45512 offset 0.17185 -0.57744 20000.27678 length 0.00138 color 0 0 1 }
Segment { rot 0.33345 0 -0.94277 0.46356 offset 0.17097 -0.57928 20000.27653 length 0.00273 color 0 0 1 }
Segment { rot 0.26703 0 -0.96369 0.50741 offset 0.16639 -0.58799 20000.27522 length 0.01714 color 0 0 1 }
Segment { rot 0.10444 0 -0.99453 0.45652 offset 0.16141 -0.59745 20000.27401 length 0.00439 color 0 0 1 }
Segment { rot 0.08146 0 -0.99668 0.5013 offset 0.15927 -0.60157 20000.27381 length 0.0049 color 0 0 1 }
Segment { rot 0.49805 0 -0.86715 0.36814 offset 0.15758 -0.60529 20000.27341 length 0.00336 color 0 0 1 }
Segment { rot -0.37955 0 -0.92517 0.4091 offset 0.15338 -0.61602 20000.27462 length 0.01997 color 0 0 1 }
Segment { rot -0.17993 0 -0.98368 0.48747 offset 0.14887 -0.62679 20000.27628 length 0.00363 color 0 0 1 }
Segment { rot 0.0058 0 -0.99998 0.64198 offset 0.1446 -0.63298 20000.27641 length 0.01146 color 0 0 1 }
Segment { rot -0.02761 0 -0.99962 0.71854 offset 0.1391 -0.63993 20000.27645 length 0.00627 color 0 0 1 }
Segment { rot 0.02059 0 -0.99979 0.67679 offset 0.1309 -0.64993 20000.27638 length 0.0196 color 0 0 1 }
Segment { rot -0.0848 0 -0.9964 0.45242 offset 0.12334 -0.66051 20000.27638 length 0.00656 color 0 0 1 }
Segment { rot 0.26644 0 -0.96385 0.35123 offset 0.12023 -0.66823 20000.27603 length 0.01015 color 0 0 1 }
Segment { rot 0.63659 0 -0.7712 0.42606 offset 0.11748 -0.67605 20000.27468 length 0.00671 color 0 0 1 }
Segment { rot 0.61352 0 -0.78968 0.4078 offset 0.11418 -0.68564 20000.27207 length 0.01425 color 0 0 1 }
Segment { rot 0.64559 0 -0.76368 0.47752 offset 0.11092 -0.69479 20000.26946 length 0.00586 color 0 0 1 }
Segment { rot 0.46575 0 -0.88491 0.52844 offset 0.1085 -0.70007 20000.26787 length 0.00621 color 0 0 1 }
Segment { rot 0.42929 0 -0.90317 0.64374 offset 0.10562 -0.70497 20000.26642 length 0.00555 color 0 0 1 }
Segment { rot 0.38742 0 -0.9219 0.68263 offset 0.10241 -0.70947 20000.26499 length 0.00587 color 0 0 1 }
Segment { rot 0.45129 0 -0.89238 0.65296 offset 0.09781 -0.71597 20000.26281 length 0.01065 color 0 0 1 }
Segment { rot 0.46495 0 -0.88534 0.76974 offset 0.09396 -0.72133 20000.26084 length 0.00314 color 0 0 1 }
Segment { rot 0.43413 0 -0.90085 0.71602 offset 0.08404 -0.73388 20000.25602 length 0.03026 color 0 0 1 }
Segment { rot 0.41662 0 -0.90908 0.68892 offset 0.07089 -0.7509 20000.24979 length 0.01454 color 0 0 1 }
Segment { rot 0.24379 0 -0.96983 0.66191 offset 0.06536 -0.75827 20000.24753 length 0.00446 color 0 0 1 }
Segment { rot 0.05415 0 -0.99853 0.70843 offset 0.06264 -0.76166 20000.24712 length 0.0043 color 0 0 1 }
Segment { rot -0.11536 0 -0.99332 0.57949 offset 0.05709 -0.76968 20000.24752 length 0.01525 color 0 0 1 }
Segment { rot -0.05346 0 -0.99857 0.68339 offset 0.04926 -0.78059 20000.2482 length 0.0117 color 0 0 1 }
Segment { rot 0.1421 0 -0.98985 0.65582 offset 0.04516 -0.78567 20000.24834 length 0.00137 color 0 0 1 }
Segment { rot 0.06617 0 -0.99781 0.53574 offset 0.04288 -0.78936 20000.24816 length 0.00733 color 0 0 1 }
Segment { rot -0.21692 0 -0.97619 0.43863 offset 0.03594 -0.8036 20000.24916 length 0.02448 color 0 0 1 }
Segment { rot -0.39344 0 -0.91935 0.48478 offset 0.02505 -0.82667 20000.25278 length 0.02711 color 0 0 1 }
Segment { rot -0.20447 0 -0.97887 0.60577 offset 0.01855 -0.83968 20000.2554 length 0.00248 color 0 0 1 }
Segment { rot 0.32681 0 -0.94509 0.92899 offset 0.0049 -0.85095 20000.25107 length 0.03425 color 0 0 1 }
Segment { rot 0.36746 0 -0.93004 1.07695 offset -0.01079 -0.86278 20000.24551 length 0.00665 color 0 0 1 }
Segment { rot 0.51381 0 -0.8579 1.04073 offset -0.01526 -0.86555 20000.24338 length 0.00473 color 0 0 1 }
Segment { rot 0.44513 0 -0.89547 1.3773 offset -0.02082 -0.86758 20000.24044 length 0.00867 color 0 0 1 }
Segment { rot 0.42616 0 -0.90465 1.42236 offset -0.02676 -0.86877 20000.23754 length 0.00476 color 0 0 1 }
Segment { rot 0.47706 0 -0.87887 1.39243 offset -0.03257 -0.86988 20000.23455 length 0.00851 color 0 0 1 }
Segment { rot 0.48508 0 -0.87447 1.40737 offset -0.03718 -0.87081 20000.23203 length 0.00217 color 0 0 1 }
Segment { rot 0.49571 0 -0.86849 1.39277 offset -0.04274 -0.87194 20000.22887 length 0.01081 color 0 0 1 }
Segment { rot 0.53138 0 -0.84713 1.39144 offset -0.05402 -0.87432 20000.22205 length 0.01599 color 0 0 1 }
Segment { rot 0.53962 0 -0.84191 1.37912 offset -0.06421 -0.87656 20000.21561 length 0.00853 color 0 0 1 }
Segment { rot 0.63608 0 -0.77162 1.3715 offset -0.06813 -0.87748 20000.21303 length 0.00103 color 0 0 1 }
Segment { rot 0.81329 0 -0.58186 1.13551 offset -0.06951 -0.87837 20000.21133 length 0.00375 color 0 0 1 }
Segment { rot 0.86137 0 -0.50798 1.12406 offset -0.07282 -0.88135 20000.20601 length 0.01014 color 0 0 1 }
Segment { rot 0.83556 0 -0.54941 1.09472 offset -0.07585 -0.8842 20000.201 length 0.00288 color 0 0 1 }
Segment { rot 0.81578 0 -0.57837 1.07196 offset -0.07711 -0.88539 20000.19914 length 0.0022 color 0 0 1 }
Segment { rot 0.81958 0 -0.57296 1.1407 offset -0.08097 -0.88856 20000.19363 length 0.01268 color 0 0 1 }
Segment { rot 0.80325 0 -0.59565 1.13199 offset -0.08461 -0.89147 20000.18845 length 0.00126 color 0 0 1 }
Segment { rot 0.85383 0 -0.52056 0.98035 offset -0.08731 -0.89477 20000.18413 length 0.0109 color 0 0 1 }
Segment { rot 0.85298 0 -0.52195 0.99174 offset -0.09558 -0.90522 20000.17059 length 0.02708 color 0 0 1 }
Segment { rot 0.85329 0 -0.52144 1.05675 offset -0.10583 -0.91732 20000.15383 length 0.0191 color 0 0 1 }
Segment { rot 0.84684 0 -0.53185 1.14252 offset -0.11077 -0.92253 20000.14578 length 0.00247 color 0 0 1 }
Segment { rot 0.5903 0 -0.80718 1.35213 offset -0.11139 -0.92305 20000.14481 length 0.00007 color 0 0 1 }
Segment { rot 0.51588 0 -0.85666 1.3438 offset -0.11543 -0.92414 20000.14237 length 0.0096 color 0 0 1 }
Segment { rot 0.50453 0 -0.8634 1.32405 offset -0.12407 -0.92657 20000.13725 length 0.01106 color 0 0 1 }
Segment { rot 0.47156 0 -0.88183 1.35821 offset -0.14272 -0.93136 20000.12705 length 0.03254 color 0 0 1 }
Segment { rot 0.63189 0 -0.77505 1.49517 offset -0.15912 -0.93502 20000.11762 length 0.00612 color 0 0 1 }
Segment { rot 0.65075 0 -0.75929 1.47022 offset -0.16759 -0.93606 20000.11046 length 0.01616 color 0 0 1 }
Segment { rot 0.78241 0 -0.62276 1.329 offset -0.18556 -0.94158 20000.09031 length 0.03927 color 0 0 1 }
Segment { rot 0.74077 0 -0.67176 1.33332 offset -0.19898 -0.94684 20000.07369 length 0.00474 color 0 0 1 }
Segment { rot 0.76603 0 -0.6428 1.34935 offset -0.20158 -0.94776 20000.07073 length 0.00335 color 0 0 1 }
Segment { rot 0.80274 0 -0.59633 1.36938 offset -0.20947 -0.95047 20000.06027 length 0.02342 color 0 0 1 }
Segment { rot 0.84827 0 -0.52957 1.38073 offset -0.22186 -0.95483 20000.04218 length 0.02131 color 0 0 1 }
Segment { rot 0.8359 0 -0.54888 1.39723 offset -0.22805 -0.95705 20000.0323 length 0.00243 color 0 0 1 }
Segment { rot 0.90764 0 -0.41974 1.44018 offset -0.22888 -0.95731 20000.03094 length 0.00081 color 0 0 1 }
Segment { rot 0.95306 0 -0.3028 1.52042 offset -0.22937 -0.95742 20000.02956 length 0.00213 color 0 0 1 }
Segment { rot 0.96473 0 -0.26323 1.5396 offset -0.22995 -0.9575 20000.02761 length 0.00193 color 0 0 1 }
Segment { rot 0.96038 0 -0.2787 1.48908 offset -0.23217 -0.95811 20000.0199 length 0.01416 color 0 0 1 }
Segment { rot 0.95175 0 -0.30688 1.47255 offset -0.23446 -0.9588 20000.0121 length 0.00217 color 0 0 1 }
Segment { rot 0.88177 0 -0.47168 0.86006 offset -0.23511 -0.95947 20000.01049 length 0.00174 color 0 0 1 }
Segment { rot 0.90863 0 -0.4176 0.84853 offset -0.2377 -0.96485 20000.00496 length 0.01454 color 0 0 1 }