#VRML V2.0 utf8
#Generated by NISTMonte
WorldInfo {
 title "NISTMonte Trajectory"
 info ["See http://www.cstl.nist.gov/div837/Division/home.html for more information"]
}
Viewpoint {
 fieldOfView 0.785398
 position 0 5 31000
 orientation -1 -0 -0 1.5708
 description "Y-Axis"
}
Viewpoint {
 fieldOfView 0.785398
 position 0 0 30995
 orientation 1 0 0 3.1415926
 description "Gun"
}
Viewpoint {
 fieldOfView 0.785398
 position -5 0 31000
 orientation 0 -1 0 1.5708
 description "X-Axis"
}




#Prototype for a trajectory segment
PROTO Segment [
 field SFRotation rot 1 0 0 0
 field SFVec3f offset 0 0 0
 field SFFloat length 0.1
 field SFColor color 1 1 1
]
{
 Transform {
  rotation IS rot
  translation IS offset
  children [
   Shape {
    geometry Cylinder {
     radius 0.001
     height IS length
    }
    appearance Appearance {
     material Material {
      emissiveColor IS color
     }
    }
   }
  ]
 }
}
Segment { rot -1 0 -0 1.5708 offset -0.01521 -0.00996 31000.00094 length 0.00188 color 0 0 1 }
Segment { rot -1 0 -0.00254 1.6412 offset -0.01523 -0.00959 31000.00714 length 0.01055 color 0 0 1 }
Segment { rot -0.99975 0 0.02233 1.8652 offset -0.01512 -0.00756 31000.01787 length 0.01143 color 0 0 1 }
Segment { rot -0.99874 0 0.05027 1.87412 offset -0.01495 -0.00562 31000.02425 length 0.00192 color 0 0 1 }
Segment { rot -0.99919 0 0.04018 1.82491 offset -0.01487 -0.00511 31000.02602 length 0.00175 color 0 0 1 }
Segment { rot -0.99994 0 -0.01062 1.80922 offset -0.01486 -0.0044 31000.02887 length 0.00412 color 0 0 1 }
Segment { rot -0.99999 0 0.0043 1.80097 offset -0.01487 -0.00345 31000.03285 length 0.00407 color 0 0 1 }
Segment { rot -0.99749 0 -0.07086 1.88317 offset -0.01487 -0.00293 31000.03501 length 0.00038 color 0 0 1 }
Segment { rot -0.99999 0 0.00516 1.92036 offset -0.01487 -0.00191 31000.03783 length 0.00563 color 0 0 1 }
Segment { rot -0.99937 0 -0.03554 1.93216 offset -0.01489 -0.0006 31000.04138 length 0.00192 color 0 0 1 }
Segment { rot -0.95778 0 0.28749 1.93563 offset -0.01403 0.00093 31000.04526 length 0.00669 color 0 0 1 }
Segment { rot -0.86099 0 0.50861 1.82828 offset -0.01105 0.0032 31000.05178 length 0.00846 color 0 0 1 }
Segment { rot -0.83575 0 0.54911 1.80439 offset -0.00883 0.00433 31000.05551 length 0.00051 color 0 0 1 }
Segment { rot -0.85741 0 0.51464 1.85465 offset -0.00781 0.0049 31000.05719 length 0.0036 color 0 0 1 }
Segment { rot -0.86178 0 0.50729 1.83774 offset -0.00648 0.00564 31000.05942 length 0.00179 color 0 0 1 }
Segment { rot -0.88447 0 0.4666 1.95109 offset -0.00595 0.00596 31000.06034 length 0.00044 color 0 0 1 }
Segment { rot -0.9477 0 0.31916 1.90137 offset -0.00567 0.00623 31000.06105 length 0.00118 color 0 0 1 }
Segment { rot -0.93333 0 0.35901 1.75727 offset -0.00489 0.00674 31000.06316 length 0.00344 color 0 0 1 }
Segment { rot -0.99773 0 0.0674 1.81313 offset -0.00366 0.00933 31000.0739 length 0.01891 color 0 0 1 }
Segment { rot -0.99788 0 0.06502 1.77961 offset -0.00263 0.01293 31000.08931 length 0.01281 color 0 0 1 }
Segment { rot -0.97497 0 0.22235 1.75789 offset -0.00162 0.01477 31000.09823 length 0.00555 color 0 0 1 }
Segment { rot -0.99705 0 0.07676 1.70079 offset -0.00083 0.0156 31000.10326 length 0.0048 color 0 0 1 }
Segment { rot -0.98589 0 0.16738 1.6396 offset -0.00016 0.01611 31000.10848 length 0.0058 color 0 0 1 }
Segment { rot -0.98983 0 0.14226 1.62715 offset 0.0006 0.01642 31000.11331 length 0.004 color 0 0 1 }
Segment { rot -0.9725 0 0.23291 1.60619 offset 0.00148 0.01662 31000.11777 length 0.00511 color 0 0 1 }
Segment { rot -0.98383 0 0.1791 1.5986 offset 0.0023 0.01675 31000.12145 length 0.00245 color 0 0 1 }
Segment { rot -0.97999 0 0.19904 1.52974 offset 0.00285 0.01671 31000.12433 length 0.00341 color 0 0 1 }
Segment { rot -0.96565 0 0.25986 1.54053 offset 0.00332 0.01663 31000.12646 length 0.00097 color 0 0 1 }
Segment { rot -0.96931 0 0.24586 1.58358 offset 0.00371 0.01663 31000.128 length 0.0022 color 0 0 1 }
Segment { rot -0.9797 0 0.20049 1.6397 offset 0.00468 0.01688 31000.13245 length 0.00694 color 0 0 1 }
Segment { rot -0.98689 0 0.16137 1.68543 offset 0.00537 0.01712 31000.13585 length 0.00001 color 0 0 1 }
Segment { rot -0.98713 0 0.1599 1.65378 offset 0.00546 0.01716 31000.13636 length 0.00102 color 0 0 1 }
Segment { rot -0.98245 0 0.18651 1.62926 offset 0.00628 0.01744 31000.14078 length 0.008 color 0 0 1 }
Segment { rot -0.99838 0 -0.05685 1.76671 offset 0.00695 0.01793 31000.14599 length 0.00262 color 0 0 1 }
Segment { rot -0.99604 0 -0.08887 1.70154 offset 0.00676 0.01836 31000.1486 length 0.0027 color 0 0 1 }
Segment { rot -0.98905 0 -0.14757 1.71296 offset 0.00656 0.01861 31000.15049 length 0.00113 color 0 0 1 }
Segment { rot -0.99981 0 -0.01954 1.65655 offset 0.00646 0.01876 31000.15179 length 0.00151 color 0 0 1 }
Segment { rot -0.99699 0 -0.07756 1.6795 offset 0.00636 0.01894 31000.15365 length 0.00223 color 0 0 1 }
Segment { rot -0.99595 0 -0.08994 1.75649 offset 0.00602 0.01959 31000.15754 length 0.0057 color 0 0 1 }
Segment { rot -0.99096 0 0.13417 1.89145 offset 0.00693 0.02297 31000.16887 length 0.01814 color 0 0 1 }
Segment { rot -0.99978 0 -0.02099 1.44828 offset 0.00808 0.02581 31000.17759 length 0.00039 color 0 0 1 }
Segment { rot -0.98596 0 0.16695 1.39576 offset 0.00811 0.02574 31000.17802 length 0.00049 color 0 0 1 }
Segment { rot -0.99551 0 0.09461 1.28139 offset 0.00858 0.02435 31000.18277 length 0.00944 color 0 0 1 }
Segment { rot -0.9966 0 0.08233 1.29182 offset 0.00907 0.02281 31000.18795 length 0.00141 color 0 0 1 }
Segment { rot -0.99585 0 0.09097 1.23197 offset 0.00932 0.02185 31000.19079 length 0.00461 color 0 0 1 }
Segment { rot -0.99556 0 0.09411 1.04985 offset 0.00975 0.0197 31000.19535 length 0.00555 color 0 0 1 }
Segment { rot -0.99654 0 0.08313 0.94267 offset 0.01015 0.0168 31000.19983 length 0.00518 color 0 0 1 }
Segment { rot -0.99626 0 -0.08637 0.85708 offset 0.01015 0.01358 31000.20387 length 0.00518 color 0 0 1 }
Segment { rot -0.99779 0 -0.06643 0.92012 offset 0.00994 0.01145 31000.2064 length 0.00145 color 0 0 1 }
Segment { rot -0.97475 0 -0.22332 0.98372 offset 0.00973 0.01049 31000.20774 length 0.00188 color 0 0 1 }
Segment { rot -0.96762 0 -0.25241 0.88354 offset 0.00938 0.00939 31000.20919 length 0.00183 color 0 0 1 }
Segment { rot -0.93762 0 -0.34765 0.88326 offset 0.00915 0.00869 31000.21 length 0.00037 color 0 0 1 }
Segment { rot -0.90699 0 -0.42115 0.86575 offset 0.00894 0.00825 31000.21048 length 0.00099 color 0 0 1 }
Segment { rot -0.91826 0 -0.39599 0.85014 offset 0.00872 0.00779 31000.21097 length 0.00042 color 0 0 1 }
Segment { rot -0.88834 0 -0.45919 0.81229 offset 0.00857 0.00748 31000.21128 length 0.00052 color 0 0 1 }
Segment { rot -0.87228 0 -0.48901 0.78845 offset 0.00795 0.0062 31000.21241 length 0.00312 color 0 0 1 }
Segment { rot -0.84649 0 -0.5324 0.83492 offset 0.00727 0.00488 31000.21358 length 0.00068 color 0 0 1 }
Segment { rot -0.97497 0 -0.22234 1.07791 offset 0.00712 0.0046 31000.21388 length 0.0002 color 0 0 1 }
Segment { rot -0.94499 0 -0.32711 0.91254 offset 0.00704 0.00442 31000.21413 length 0.00043 color 0 0 1 }
Segment { rot -0.96175 0 -0.27394 0.76993 offset 0.00686 0.00381 31000.21473 length 0.00132 color 0 0 1 }
Segment { rot -0.94479 0 -0.32768 0.77115 offset 0.00608 0.00128 31000.21707 length 0.00575 color 0 0 1 }
Segment { rot -0.96558 0 -0.26011 0.75315 offset 0.00463 -0.00403 31000.2219 length 0.00889 color 0 0 1 }
Segment { rot -0.95886 0 -0.28389 0.69576 offset 0.00368 -0.00796 31000.22538 length 0.0018 color 0 0 1 }
Segment { rot -0.91839 0 -0.39568 0.50309 offset 0.00351 -0.00866 31000.22594 length 0.00003 color 0 0 1 }
Segment { rot -0.93994 0 -0.34135 0.44072 offset 0.00346 -0.00899 31000.22609 length 0.00071 color 0 0 1 }
Segment { rot -0.88656 0 -0.46261 0.50052 offset 0.00317 -0.01025 31000.22669 length 0.00214 color 0 0 1 }
Segment { rot -0.82565 0 -0.56418 0.48654 offset 0.00212 -0.01392 31000.22834 length 0.00618 color 0 0 1 }
Segment { rot -0.87679 0 0.48088 0.09031 offset 0.00136 -0.01808 31000.22964 length 0.00287 color 0 0 1 }
Segment { rot 0.85469 0 -0.51915 0.41999 offset 0.00042 -0.02385 31000.2281 length 0.00949 color 0 0 1 }
Segment { rot 0.83291 0 -0.55341 0.35607 offset -0.00068 -0.02866 31000.2263 length 0.00102 color 0 0 1 }
Segment { rot 0.99992 0 -0.01275 0.27771 offset -0.00079 -0.03226 31000.22526 length 0.00648 color 0 0 1 }
Segment { rot 0.62972 0 -0.77682 0.44192 offset -0.00102 -0.03595 31000.2242 length 0.00128 color 0 0 1 }
Segment { rot 0.67127 0 -0.74121 0.46396 offset -0.00173 -0.03788 31000.22358 length 0.00302 color 0 0 1 }
Segment { rot 0.62394 0 -0.78147 0.41719 offset -0.00235 -0.03957 31000.22303 length 0.00075 color 0 0 1 }
Segment { rot 0.53045 0 -0.84771 0.40692 offset -0.00251 -0.04002 31000.22291 length 0.00024 color 0 0 1 }
Segment { rot 0.55917 0 -0.82905 0.39281 offset -0.00264 -0.04041 31000.22282 length 0.00061 color 0 0 1 }
Segment { rot 0.33678 0 -0.94158 0.2461 offset -0.00343 -0.04359 31000.22251 length 0.00599 color 0 0 1 }
Segment { rot 0.34047 0 -0.94025 0.32998 offset -0.00419 -0.04673 31000.22224 length 0.00049 color 0 0 1 }
Segment { rot 0.38281 0 -0.92383 0.31662 offset -0.00432 -0.04716 31000.22218 length 0.00042 color 0 0 1 }
Segment { rot -0.34967 0 -0.93687 0.26661 offset -0.00454 -0.04796 31000.22222 length 0.00125 color 0 0 1 }
Segment { rot -0.8292 0 0.55896 0.1587 offset -0.00367 -0.05997 31000.22379 length 0.02311 color 0 0 1 }
Segment { rot -0.35005 0 0.93673 0.11473 offset -0.0024 -0.07372 31000.2254 length 0.00472 color 0 0 1 }
Segment { rot 0.53076 0 0.84752 0.11288 offset -0.00212 -0.07631 31000.22547 length 0.0005 color 0 0 1 }
Segment { rot 0.90178 0 -0.4322 0.32802 offset -0.00229 -0.07788 31000.22506 length 0.00278 color 0 0 1 }
Segment { rot 0.89307 0 -0.44991 0.38212 offset -0.00288 -0.0814 31000.22386 length 0.00474 color 0 0 1 }
Segment { rot 0.97466 0 -0.22367 0.22522 offset -0.00338 -0.08553 31000.22264 length 0.00397 color 0 0 1 }
Segment { rot 0.99854 0 -0.05407 0.32672 offset -0.00352 -0.08954 31000.22151 length 0.00438 color 0 0 1 }
Segment { rot 0.99366 0 0.1124 0.32479 offset -0.00355 -0.09171 31000.22077 length 0.0002 color 0 0 1 }
Segment { rot 0.95618 0 0.29277 0.42138 offset -0.00345 -0.09252 31000.22044 length 0.00156 color 0 0 1 }
Segment { rot 0.92828 0 0.37188 0.29126 offset -0.00304 -0.0961 31000.21933 length 0.006 color 0 0 1 }
Segment { rot 0.94681 0 0.3218 0.25313 offset -0.00271 -0.09913 31000.21849 length 0.00032 color 0 0 1 }
Segment { rot 0.81819 0 0.57495 0.36848 offset -0.00193 -0.10271 31000.21737 length 0.00734 color 0 0 1 }
Segment { rot 0.89805 0 0.43989 0.40191 offset -0.00116 -0.10621 31000.21626 length 0.00018 color 0 0 1 }
Segment { rot 0.89425 0 0.44758 0.38262 offset -0.00069 -0.10881 31000.21532 length 0.00542 color 0 0 1 }
Segment { rot 0.50182 0 0.86497 0.40269 offset -0.00012 -0.11164 31000.21435 length 0.00068 color 0 0 1 }
Segment { rot 0.42543 0 0.90499 0.38885 offset 0.00037 -0.11298 31000.21411 length 0.00221 color 0 0 1 }
Segment { rot 0.39783 0 0.91746 0.41437 offset 0.00204 -0.1172 31000.21337 length 0.00699 color 0 0 1 }
Segment { rot 0.42162 0 0.90677 0.42374 offset 0.00496 -0.12438 31000.21205 length 0.00874 color 0 0 1 }
Segment { rot 0.50797 0 0.86137 0.3947 offset 0.00741 -0.13063 31000.21081 length 0.00492 color 0 0 1 }
Segment { rot 0.53795 0 0.84298 0.46628 offset 0.00853 -0.13364 31000.21013 length 0.00165 color 0 0 1 }
Segment { rot 0.45612 0 0.88992 0.74184 offset 0.00961 -0.13532 31000.20954 length 0.00255 color 0 0 1 }
Segment { rot 0.40947 0 0.91232 0.70652 offset 0.01352 -0.14029 31000.20774 length 0.01061 color 0 0 1 }
Segment { rot 0.3995 0 0.91673 0.84113 offset 0.01706 -0.14471 31000.20616 length 0.00116 color 0 0 1 }
Segment { rot 0.4071 0 0.91338 0.88712 offset 0.01812 -0.14569 31000.20569 length 0.00187 color 0 0 1 }
Segment { rot 0.35109 0 0.93634 0.95789 offset 0.02311 -0.14954 31000.20377 length 0.01131 color 0 0 1 }
Segment { rot 0.28264 0 0.95923 1.12116 offset 0.02805 -0.15309 31000.20197 length 0.0014 color 0 0 1 }
Segment { rot 0.10273 0 0.99471 1.61157 offset 0.03004 -0.15334 31000.20164 length 0.00279 color 0 0 1 }
Segment { rot 0.21777 0 0.976 1.72438 offset 0.03418 -0.15285 31000.20089 length 0.00571 color 0 0 1 }
Segment { rot 0.25116 0 0.96795 1.77298 offset 0.04002 -0.15176 31000.19947 length 0.00651 color 0 0 1 }
Segment { rot 0.88326 0 0.46888 0.92976 offset 0.04456 -0.15341 31000.19594 length 0.00771 color 0 0 1 }
Segment { rot 0.62478 0 -0.7808 0.43559 offset 0.04448 -0.15992 31000.19199 length 0.00927 color 0 0 1 }
Segment { rot 0.57939 0 -0.81505 0.38968 offset 0.04282 -0.16451 31000.19068 length 0.00085 color 0 0 1 }
Segment { rot 0.63001 0 -0.77659 0.32492 offset 0.04253 -0.1655 31000.19046 length 0.00125 color 0 0 1 }
Segment { rot 0.56202 0 -0.82712 0.37572 offset 0.04217 -0.16672 31000.19019 length 0.00134 color 0 0 1 }
Segment { rot 0.2712 0 -0.96252 0.20945 offset 0.04196 -0.16738 31000.19005 length 0.00008 color 0 0 1 }
Segment { rot 0.27555 0 -0.96129 0.18288 offset 0.04157 -0.16955 31000.18994 length 0.00433 color 0 0 1 }
Segment { rot 0.50384 0 -0.8638 0.07576 offset 0.04109 -0.17334 31000.18977 length 0.00332 color 0 0 1 }
Segment { rot 0.04535 0 -0.99897 0.06559 offset 0.04092 -0.17585 31000.1897 length 0.00172 color 0 0 1 }
Segment { rot -0.44225 0 -0.89689 0.04628 offset 0.04084 -0.17739 31000.18971 length 0.00135 color 0 0 1 }
Segment { rot 0.00472 0 -0.99999 0.66031 offset 0.04051 -0.17844 31000.18973 length 0.00097 color 0 0 1 }
Segment { rot 0.29603 0 -0.95518 0.66203 offset 0.03904 -0.18039 31000.18936 length 0.00399 color 0 0 1 }
Segment { rot 0.2415 0 -0.9704 0.6282 offset 0.03766 -0.18227 31000.18895 length 0.00074 color 0 0 1 }
Segment { rot 0.18956 0 -0.98187 0.66579 offset 0.03662 -0.18365 31000.18873 length 0.00275 color 0 0 1 }
Segment { rot 0.56234 0 -0.82691 0.88121 offset 0.03578 -0.18473 31000.18857 length 0 color 0 0 1 }
Segment { rot 0.54531 0 -0.83823 0.87232 offset 0.03315 -0.18737 31000.18686 length 0.0082 color 0 0 1 }
Segment { rot 0.43047 0 -0.9026 0.86438 offset 0.0282 -0.19219 31000.18404 length 0.00674 color 0 0 1 }
Segment { rot 0.40284 0 -0.91527 0.86847 offset 0.02447 -0.1957 31000.18231 length 0.00408 color 0 0 1 }
Segment { rot 0.32055 0 -0.94723 0.90881 offset 0.02254 -0.19743 31000.18151 length 0.00134 color 0 0 1 }
Segment { rot 0.15033 0 -0.98864 0.83433 offset 0.02168 -0.19817 31000.18129 length 0.00099 color 0 0 1 }
Segment { rot 0.16443 0 -0.98639 0.85831 offset 0.02048 -0.19923 31000.1811 length 0.00222 color 0 0 1 }
Segment { rot 0.18345 0 -0.98303 0.84393 offset 0.01369 -0.20535 31000.17985 length 0.01625 color 0 0 1 }
Segment { rot 0.27128 0 -0.9625 0.85648 offset 0.0071 -0.21131 31000.17856 length 0.0017 color 0 0 1 }
Segment { rot 0.05254 0 -0.99862 1.03028 offset 0.00427 -0.2132 31000.17827 length 0.00517 color 0 0 1 }
Segment { rot -0.00154 0 -1 1.03395 offset 0.00096 -0.21518 31000.17815 length 0.00254 color 0 0 1 }
Segment { rot 0.02672 0 -0.99964 1.05349 offset -0.00204 -0.21692 31000.1781 length 0.00441 color 0 0 1 }
Segment { rot -0.03248 0 -0.99947 2.04608 offset -0.00398 -0.218 31000.17805 length 0.00004 color 0 0 1 }
Segment { rot 0.04544 0 -0.99897 1.97549 offset -0.00499 -0.21757 31000.17801 length 0.00215 color 0 0 1 }
Segment { rot 0.05973 0 -0.99821 2.01923 offset -0.00627 -0.217 31000.17794 length 0.00065 color 0 0 1 }
Segment { rot 0.08557 0 -0.99633 2.07357 offset -0.00826 -0.21592 31000.17778 length 0.00389 color 0 0 1 }
Segment { rot -0.07881 0 -0.99689 1.76866 offset -0.0105 -0.21488 31000.17768 length 0.00112 color 0 0 1 }
Segment { rot -0.00406 0 -0.99999 1.85186 offset -0.01108 -0.21476 31000.17772 length 0.00006 color 0 0 1 }
Segment { rot 0.00762 0 -0.99997 1.97111 offset -0.01353 -0.21373 31000.1777 length 0.00524 color 0 0 1 }
Segment { rot -0.41142 0 -0.91145 2.08395 offset -0.01712 -0.21198 31000.17822 length 0.00297 color 0 0 1 }
Segment { rot -0.93076 0 -0.36563 1.86517 offset -0.0184 -0.21116 31000.17901 length 0.0006 color 0 0 1 }
Segment { rot -0.97532 0 -0.22078 1.86682 offset -0.01851 -0.21106 31000.17933 length 0.0001 color 0 0 1 }
Segment { rot -0.99585 0 -0.09101 1.81452 offset -0.0191 -0.20947 31000.18569 length 0.01308 color 0 0 1 }
Segment { rot -0.99405 0 -0.10892 1.87188 offset -0.01978 -0.20761 31000.1929 length 0.00187 color 0 0 1 }
Segment { rot -0.49048 0 -0.87145 1.68067 offset -0.02114 -0.20718 31000.1945 length 0.00292 color 0 0 1 }
Segment { rot -0.37529 0 -0.92691 1.70901 offset -0.02337 -0.20687 31000.1956 length 0.0021 color 0 0 1 }
Segment { rot -0.33885 0 -0.94084 1.74464 offset -0.02578 -0.20646 31000.19651 length 0.00313 color 0 0 1 }
Segment { rot -0.31697 0 -0.94844 1.78365 offset -0.02731 -0.20617 31000.19706 length 0.00018 color 0 0 1 }
Segment { rot -0.39356 0 -0.9193 1.74707 offset -0.02813 -0.20601 31000.19741 length 0.00163 color 0 0 1 }
Segment { rot -0.3651 0 -0.93097 1.81286 offset -0.03051 -0.20543 31000.19837 length 0.00363 color 0 0 1 }
Segment { rot -0.43283 0 -0.90148 1.78513 offset -0.0339 -0.20457 31000.19985 length 0.00398 color 0 0 1 }
Segment { rot -0.45384 0 -0.89108 2.07693 offset -0.03787 -0.20277 31000.20182 length 0.00568 color 0 0 1 }
Segment { rot -0.77997 0 -0.62581 2.58315 offset -0.04081 -0.19954 31000.20385 length 0.00437 color 0 0 1 }
Segment { rot -0.77736 0 -0.62906 2.69621 offset -0.04158 -0.19754 31000.20481 length 0.00033 color 0 0 1 }
Segment { rot -0.73836 0 -0.67441 2.695 offset -0.04186 -0.19666 31000.20512 length 0.00162 color 0 0 1 }
Segment { rot -0.76823 0 -0.64018 2.66434 offset -0.04219 -0.19564 31000.20549 length 0.00065 color 0 0 1 }
Segment { rot -0.99093 0 0.13435 1.7875 offset -0.04193 -0.19476 31000.20825 length 0.00546 color 0 0 1 }
Segment { rot -0.99663 0 -0.08204 1.15307 offset -0.04176 -0.1952 31000.21318 length 0.00503 color 0 0 1 }
Segment { rot -0.94656 0 -0.32252 0.41508 offset -0.04198 -0.19647 31000.21558 length 0.00055 color 0 0 1 }
Segment { rot -0.97569 0 -0.21917 0.42497 offset -0.04203 -0.19689 31000.21576 length 0.00037 color 0 0 1 }
Segment { rot 0.62108 0 0.78374 1.64265 offset -0.04186 -0.19704 31000.21569 length 0.00048 color 0 0 1 }
Segment { rot 0.67436 0 0.7384 1.6443 offset -0.03995 -0.19685 31000.21397 length 0.00468 color 0 0 1 }
Segment { rot 0.73868 0 0.67406 1.36241 offset -0.03803 -0.19675 31000.21218 length 0.00061 color 0 0 1 }
Segment { rot 0.83762 0 0.54626 1.42413 offset -0.03753 -0.19689 31000.2115 length 0.00111 color 0 0 1 }
Segment { rot 0.83652 0 0.54794 1.40251 offset -0.03649 -0.1972 31000.2099 length 0.00276 color 0 0 1 }
Segment { rot 0.83382 0 0.55204 1.37192 offset -0.03568 -0.19745 31000.20867 length 0.00023 color 0 0 1 }
Segment { rot 0.82282 0 0.5683 1.34731 offset -0.03385 -0.19819 31000.20601 length 0.0064 color 0 0 1 }
Segment { rot 0.77153 0 0.63619 1.31307 offset -0.03182 -0.199 31000.20313 length 0.00084 color 0 0 1 }
Segment { rot 0.76131 0 0.64839 1.31823 offset -0.03129 -0.19922 31000.2025 length 0.00088 color 0 0 1 }
Segment { rot 0.76104 0 0.64871 1.2832 offset -0.02973 -0.19991 31000.20067 length 0.00413 color 0 0 1 }
Segment { rot 0.75489 0 0.65585 1.22205 offset -0.02525 -0.20227 31000.19549 length 0.01035 color 0 0 1 }
Segment { rot 0.49907 0 0.86656 1.47616 offset -0.01993 -0.20427 31000.19059 length 0.00495 color 0 0 1 }
Segment { rot 0.56373 0 0.82596 1.6274 offset -0.01736 -0.20447 31000.18906 length 0.00106 color 0 0 1 }
Segment { rot 0.62229 0 0.78279 1.50241 offset -0.01621 -0.2045 31000.1882 length 0.00181 color 0 0 1 }
Segment { rot 0.62599 0 0.77983 1.43879 offset -0.01484 -0.20468 31000.18711 length 0.00171 color 0 0 1 }
Segment { rot 0.81403 0 0.58083 1.56741 offset -0.01163 -0.20481 31000.183 length 0.00879 color 0 0 1 }
Segment { rot 0.75935 0 0.65068 1.66326 offset -0.00853 -0.20474 31000.17879 length 0.00167 color 0 0 1 }
Segment { rot 0.73102 0 0.68236 1.63717 offset -0.0075 -0.20462 31000.17763 length 0.00144 color 0 0 1 }
Segment { rot 0.70441 0 0.70979 1.68301 offset -0.00692 -0.20456 31000.17702 length 0.00025 color 0 0 1 }
Segment { rot 0.76216 0 0.64739 1.64288 offset -0.00651 -0.20451 31000.17655 length 0.00101 color 0 0 1 }
Segment { rot 0.86229 0 0.50641 1.45783 offset -0.00554 -0.20461 31000.17507 length 0.00255 color 0 0 1 }
Segment { rot 0.79424 0 0.60761 1.34239 offset -0.00443 -0.20494 31000.17336 length 0.00161 color 0 0 1 }
Segment { rot 0.76514 0 0.64386 1.30244 offset -0.00298 -0.20554 31000.17159 length 0.00313 color 0 0 1 }
Segment { rot 0.96515 0 0.26172 1.73374 offset -0.00159 -0.20569 31000.16888 length 0.00325 color 0 0 1 }
Segment { rot 0.91634 0 0.40041 2.07661 offset -0.00031 -0.20423 31000.16536 length 0.00492 color 0 0 1 }
Segment { rot 0.99769 0 -0.06793 1.9266 offset 0.00054 -0.20299 31000.16325 length 0.00031 color 0 0 1 }
Segment { rot 0.99955 0 -0.02985 1.92012 offset 0.00048 -0.20233 31000.16146 length 0.00349 color 0 0 1 }
Segment { rot 0.99875 0 -0.05002 1.9533 offset 0.00022 -0.20001 31000.15554 length 0.00924 color 0 0 1 }
Segment { rot 0.99993 0 -0.01162 1.90006 offset -0.00001 -0.19781 31000.14987 length 0.00295 color 0 0 1 }
Segment { rot 0.96834 0 0.24964 0.97825 offset 0.00021 -0.19796 31000.14757 length 0.00224 color 0 0 1 }
Segment { rot 0.51014 0 0.86009 2.60685 offset 0.00058 -0.19831 31000.14659 length 0.00064 color 0 0 1 }
Segment { rot 0.27895 0 0.96031 2.66661 offset 0.00142 -0.19662 31000.1463 length 0.00317 color 0 0 1 }
Segment { rot 0.16406 0 0.98645 2.61785 offset 0.00243 -0.19465 31000.14605 length 0.00129 color 0 0 1 }
Segment { rot 0.09213 0 0.99575 2.54296 offset 0.00465 -0.19129 31000.14582 length 0.00678 color 0 0 1 }
Segment { rot -0.63679 0 0.77104 2.00574 offset 0.00686 -0.18831 31000.14589 length 0.00086 color 0 0 1 }
Segment { rot -0.60955 0 0.79275 1.98879 offset 0.00719 -0.18811 31000.14617 length 0.00011 color 0 0 1 }
Segment { rot -0.56889 0 0.82241 1.97364 offset 0.00815 -0.18761 31000.14683 length 0.00242 color 0 0 1 }
Segment { rot -0.52457 0 0.85137 1.89943 offset 0.01001 -0.18676 31000.14804 length 0.00234 color 0 0 1 }
Segment { rot -0.46128 0 0.88726 1.86049 offset 0.01107 -0.18634 31000.14869 length 0.00029 color 0 0 1 }
Segment { rot -0.56618 0 0.82428 1.93266 offset 0.01213 -0.18587 31000.1494 length 0.00244 color 0 0 1 }
Segment { rot -0.78138 0 0.62405 1.79618 offset 0.01318 -0.1854 31000.15018 length 0.00035 color 0 0 1 }
Segment { rot 0.2658 0 -0.96403 1.46706 offset 0.01289 -0.1854 31000.1502 length 0.00084 color 0 0 1 }
Segment { rot 0.21239 0 -0.97719 1.40682 offset 0.01219 -0.1855 31000.15002 length 0.00061 color 0 0 1 }
Segment { rot 0.2221 0 -0.97502 1.35787 offset 0.01074 -0.1858 31000.1497 length 0.00241 color 0 0 1 }
Segment { rot -0.90858 0 -0.4177 0.65511 offset 0.00959 -0.18606 31000.14944 length 0.00001 color 0 0 1 }
Segment { rot -0.96538 0 -0.26084 0.5688 offset 0.00927 -0.18797 31000.15062 length 0.00452 color 0 0 1 }
Segment { rot -0.98034 0 -0.19734 0.48788 offset 0.00889 -0.1905 31000.15212 length 0.00143 color 0 0 1 }
Segment { rot -0.98731 0 -0.15883 0.52429 offset 0.00873 -0.19221 31000.15306 length 0.00248 color 0 0 1 }
Segment { rot -0.99933 0 -0.03668 0.39291 offset 0.00861 -0.19448 31000.15417 length 0.0026 color 0 0 1 }
Segment { rot -0.99136 0 0.13113 0.42671 offset 0.00864 -0.19652 31000.15505 length 0.00186 color 0 0 1 }
Segment { rot -0.91096 0 0.41249 0.6308 offset 0.00886 -0.19794 31000.15581 length 0.00143 color 0 0 1 }
Segment { rot -0.95367 0 -0.30087 0.52959 offset 0.00895 -0.19902 31000.15647 length 0.00116 color 0 0 1 }
Segment { rot -0.97105 0 -0.23887 0.50771 offset 0.0088 -0.2 31000.15701 length 0.0011 color 0 0 1 }
Segment { rot 0.70909 0 -0.70512 0.95153 offset 0.0076 -0.20163 31000.15613 length 0.00396 color 0 0 1 }
Segment { rot 0.74842 0 -0.66322 0.8927 offset 0.00568 -0.20372 31000.15411 length 0.00301 color 0 0 1 }
Segment { rot 0.74593 0 -0.66603 0.88024 offset 0.00427 -0.20545 31000.15252 length 0.00246 color 0 0 1 }
Segment { rot 0.73984 0 -0.67278 0.86348 offset 0.00341 -0.20654 31000.15156 length 0.00093 color 0 0 1 }
Segment { rot 0.71622 0 -0.69787 0.87915 offset 0.00227 -0.2079 31000.15038 length 0.00334 color 0 0 1 }
Segment { rot 0.59536 0 -0.80346 0.90223 offset 0.00134 -0.209 31000.14943 length 0.00012 color 0 0 1 }
Segment { rot 0.5083 0 -0.86118 0.80816 offset 0.00108 -0.20929 31000.14927 length 0.00072 color 0 0 1 }
Segment { rot 0.67772 0 -0.73532 0.80802 offset -0.00025 -0.21097 31000.14812 length 0.00416 color 0 0 1 }
Segment { rot 0.6385 0 -0.76962 0.84922 offset -0.00221 -0.21339 31000.14639 length 0.00296 color 0 0 1 }
Segment { rot 0.63922 0 -0.76903 0.83836 offset -0.00329 -0.21462 31000.1455 length 0.00077 color 0 0 1 }
Segment { rot 0.91231 0 0.4095 0.33707 offset -0.00346 -0.21525 31000.1452 length 0.00077 color 0 0 1 }
Segment { rot 0.91831 0 0.39586 0.4341 offset -0.00324 -0.21652 31000.14469 length 0.00201 color 0 0 1 }
Segment { rot 0.93962 0 0.34223 0.37473 offset -0.00296 -0.21828 31000.14399 length 0.00182 color 0 0 1 }
Segment { rot 0.79497 0 0.60665 0.15633 offset -0.00284 -0.21919 31000.14367 length 0.00012 color 0 0 1 }
Segment { rot 0.46177 0 0.887 0.208 offset -0.00241 -0.22148 31000.14344 length 0.00456 color 0 0 1 }
Segment { rot 0.53914 0 0.84222 0.18561 offset -0.0017 -0.2256 31000.14304 length 0.00384 color 0 0 1 }
Segment { rot 0.67045 0 0.74196 0.18075 offset -0.00137 -0.22768 31000.14282 length 0.00038 color 0 0 1 }
Segment { rot -0.84679 0 0.53193 0.83828 offset -0.00017 -0.22985 31000.14466 length 0.00593 color 0 0 1 }
Segment { rot -0.80544 0 0.59268 0.76509 offset 0.00108 -0.23197 31000.14664 length 0.00038 color 0 0 1 }
Segment { rot -0.82876 0 0.55961 0.828 offset 0.00117 -0.23214 31000.14677 length 0.00008 color 0 0 1 }
Segment { rot -0.84075 0 0.54142 0.9206 offset 0.00199 -0.23328 31000.14803 length 0.00371 color 0 0 1 }
Segment { rot -0.79571 0 0.60567 0.95436 offset 0.00367 -0.23543 31000.15043 length 0.00356 color 0 0 1 }
Segment { rot -0.69225 0 0.72166 0.81828 offset 0.0052 -0.23731 31000.15221 length 0.00247 color 0 0 1 }
Segment { rot -0.76825 0 0.64015 0.7755 offset 0.00598 -0.23837 31000.153 length 0.0006 color 0 0 1 }
Segment { rot -0.79255 0 0.6098 0.80151 offset 0.00705 -0.24006 31000.15437 length 0.00425 color 0 0 1 }
Segment { rot -0.70575 0 0.70846 0.77286 offset 0.00826 -0.24194 31000.15586 length 0.00113 color 0 0 1 }
Segment { rot -0.79757 0 0.60323 0.74266 offset 0.00859 -0.24245 31000.15621 length 0.00027 color 0 0 1 }
Segment { rot -0.56687 0 0.82381 1.03281 offset 0.00914 -0.24291 31000.15662 length 0.0014 color 0 0 1 }
Segment { rot -0.53133 0 0.84717 0.92169 offset 0.01053 -0.24406 31000.15752 length 0.00264 color 0 0 1 }
Segment { rot -0.50509 0 0.86307 0.78618 offset 0.01151 -0.24497 31000.15813 length 0.0003 color 0 0 1 }
Segment { rot -0.41131 0 0.9115 0.69811 offset 0.01221 -0.24586 31000.15846 length 0.00206 color 0 0 1 }
Segment { rot 0.5283 0 0.84906 1.53419 offset 0.0131 -0.24666 31000.15855 length 0.00069 color 0 0 1 }
Segment { rot 0.91685 0 0.39923 1.4643 offset 0.01359 -0.24673 31000.15791 length 0.00099 color 0 0 1 }
Segment { rot 0.87691 0 0.48066 1.44155 offset 0.01405 -0.24685 31000.15699 length 0.00108 color 0 0 1 }
Segment { rot 0.98683 0 -0.16179 1.77425 offset 0.01366 -0.24609 31000.15257 length 0.00817 color 0 0 1 }
Segment { rot 0.99243 0 -0.12285 1.78606 offset 0.01295 -0.24516 31000.14814 length 0.00099 color 0 0 1 }
Segment { rot 0.99442 0 0.10552 1.87753 offset 0.013 -0.24473 31000.14662 length 0.00218 color 0 0 1 }
Segment { rot 0.99422 0 -0.1074 1.85714 offset 0.01292 -0.24388 31000.14384 length 0.00366 color 0 0 1 }
Segment { rot 0.99684 0 -0.07941 1.79855 offset 0.01253 -0.24276 31000.13952 length 0.0053 color 0 0 1 }
Segment { rot 0.99994 0 -0.01097 1.78423 offset 0.01232 -0.24207 31000.13648 length 0.00094 color 0 0 1 }
Segment { rot 0.99515 0 -0.09842 1.86539 offset 0.01227 -0.24181 31000.13552 length 0.00105 color 0 0 1 }
Segment { rot 0.98965 0 -0.14347 1.86139 offset 0.01221 -0.24165 31000.135 length 0.00005 color 0 0 1 }
Segment { rot 0.96914 0 0.2465 1.67303 offset 0.01242 -0.24156 31000.13415 length 0.00171 color 0 0 1 }
Segment { rot 0.96639 0 0.25707 1.67156 offset 0.01276 -0.24142 31000.13284 length 0.00102 color 0 0 1 }
Segment { rot 0.96127 0 0.27561 1.77509 offset 0.01291 -0.24136 31000.13228 length 0.00014 color 0 0 1 }
Segment { rot 0.99592 0 0.09028 1.41748 offset 0.01308 -0.2416 31000.13054 length 0.00342 color 0 0 1 }
Segment { rot 0.99843 0 0.05609 1.39582 offset 0.01331 -0.24212 31000.1274 length 0.00296 color 0 0 1 }
Segment { rot 0.99716 0 0.07528 1.39416 offset 0.0135 -0.24264 31000.1245 length 0.00294 color 0 0 1 }
Segment { rot 0.9529 0 -0.30327 1.53324 offset 0.01317 -0.24295 31000.12165 length 0.00295 color 0 0 1 }
Segment { rot 0.92294 0 -0.38495 1.57516 offset 0.01239 -0.24301 31000.11945 length 0.00171 color 0 0 1 }
Segment { rot 0.82886 0 -0.55945 1.46991 offset 0.01173 -0.24306 31000.11818 length 0.00117 color 0 0 1 }
Segment { rot 0.58193 0 -0.81324 1.37763 offset 0.01114 -0.24318 31000.11751 length 0.00066 color 0 0 1 }
Segment { rot 0.53498 0 -0.84486 1.3813 offset 0.01059 -0.24331 31000.11713 length 0.0007 color 0 0 1 }
Segment { rot -0.23383 0 0.97228 1.64665 offset 0.01055 -0.24336 31000.11701 length 0.00053 color 0 0 1 }
Segment { rot -0.19997 0 0.9798 1.61637 offset 0.01124 -0.24332 31000.11716 length 0.00088 color 0 0 1 }
Segment { rot -0.20016 0 0.97976 1.64938 offset 0.01206 -0.24327 31000.11733 length 0.00081 color 0 0 1 }
Segment { rot -0.14354 0 0.98964 1.6783 offset 0.01357 -0.24311 31000.11757 length 0.00227 color 0 0 1 }
Segment { rot -0.17253 0 0.985 1.65154 offset 0.01638 -0.24285 31000.11803 length 0.00345 color 0 0 1 }
Segment { rot -0.22084 0 0.97531 1.55031 offset 0.01829 -0.24272 31000.11837 length 0.00044 color 0 0 1 }
Segment { rot -0.26203 0 0.96506 1.64824 offset 0.01902 -0.24268 31000.11856 length 0.00107 color 0 0 1 }
Segment { rot -0.3719 0 0.92827 1.63247 offset 0.02051 -0.24258 31000.11909 length 0.00209 color 0 0 1 }
Segment { rot -0.86564 0 0.50068 2.16974 offset 0.02185 -0.242 31000.12012 length 0.0018 color 0 0 1 }
Segment { rot -0.86268 0 0.50575 2.13657 offset 0.02226 -0.24145 31000.12083 length 0.00019 color 0 0 1 }
Segment { rot -0.83795 0 0.54574 2.14863 offset 0.02295 -0.24062 31000.1219 length 0.00283 color 0 0 1 }
Segment { rot -0.88453 0 0.46649 2.03261 offset 0.02373 -0.23971 31000.12314 length 0.00065 color 0 0 1 }
Segment { rot -0.82684 0 0.56244 2.13506 offset 0.02462 -0.23871 31000.12451 length 0.00318 color 0 0 1 }
Segment { rot -0.61831 0 0.78594 2.20758 offset 0.02577 -0.23748 31000.12594 length 0.00126 color 0 0 1 }
Segment { rot -0.62872 0 0.77763 2.27094 offset 0.02651 -0.23675 31000.12652 length 0.00113 color 0 0 1 }
Segment { rot -0.48414 0 0.87499 2.40046 offset 0.02707 -0.2361 31000.12692 length 0.00075 color 0 0 1 }
Segment { rot -0.17559 0 0.98446 1.10703 offset 0.02794 -0.23615 31000.12716 length 0.00147 color 0 0 1 }
Segment { rot -0.16487 0 0.98631 1.19859 offset 0.02871 -0.23653 31000.12729 length 0.00028 color 0 0 1 }
Segment { rot -0.48042 0 0.87704 0.89863 offset 0.02889 -0.23663 31000.12734 length 0.00015 color 0 0 1 }
Segment { rot 0.83593 0 0.54884 1.96659 offset 0.0296 -0.23618 31000.12637 length 0.00259 color 0 0 1 }
Segment { rot 0.91838 0 0.3957 2.74079 offset 0.03044 -0.23461 31000.12496 length 0.00232 color 0 0 1 }
Segment { rot 0.64683 0 -0.76263 2.35308 offset 0.03056 -0.23347 31000.12449 length 0.00021 color 0 0 1 }
Segment { rot 0.89604 0 -0.44397 2.19279 offset 0.03047 -0.23334 31000.12438 length 0.00018 color 0 0 1 }
Segment { rot 0.96895 0 0.24726 1.74336 offset 0.03045 -0.23328 31000.12426 length 0.00011 color 0 0 1 }
Segment { rot 0.96414 0 0.26541 1.73845 offset 0.03085 -0.23302 31000.12281 length 0.00295 color 0 0 1 }
Segment { rot 0.98677 0 -0.16213 2.13542 offset 0.0311 -0.23224 31000.12057 length 0.00201 color 0 0 1 }
Segment { rot 0.9765 0 -0.21552 2.00018 offset 0.03048 -0.23067 31000.11753 length 0.00495 color 0 0 1 }
Segment { rot -0.35717 0 -0.93404 1.56004 offset 0.02989 -0.22964 31000.11537 length 0.00021 color 0 0 1 }
Segment { rot -0.38338 0 -0.92359 1.41306 offset 0.02964 -0.22967 31000.11548 length 0.00034 color 0 0 1 }
Segment { rot -0.84339 0 -0.53731 1.23134 offset 0.02924 -0.22986 31000.11593 length 0.00097 color 0 0 1 }
Segment { rot 0.53859 0 0.84257 2.17221 offset 0.0293 -0.22977 31000.11612 length 0.00089 color 0 0 1 }
Segment { rot 0.53403 0 0.84546 2.25283 offset 0.03107 -0.22812 31000.115 length 0.00445 color 0 0 1 }
Segment { rot 0.31036 0 0.95062 2.31854 offset 0.03261 -0.22663 31000.11405 length 0.00024 color 0 0 1 }
Segment { rot 0.99937 0 -0.03556 0.67779 offset 0.03269 -0.22668 31000.11392 length 0.00032 color 0 0 1 }
Segment { rot 0.9853 0 -0.17084 0.72065 offset 0.03259 -0.22745 31000.11326 length 0.00173 color 0 0 1 }
Segment { rot 0.97668 0 -0.21468 0.77927 offset 0.03246 -0.22824 31000.11256 length 0.0004 color 0 0 1 }
Segment { rot 0.99989 0 0.0151 0.63318 offset 0.03244 -0.22857 31000.11228 length 0.00046 color 0 0 1 }
Segment { rot 0.97417 0 0.22584 0.80648 offset 0.0325 -0.22903 31000.11187 length 0.00079 color 0 0 1 }
Segment { rot -0.14042 0 0.99009 1.10543 offset 0.03276 -0.2294 31000.11162 length 0.00043 color 0 0 1 }
Segment { rot -0.11543 0 0.99332 1.17822 offset 0.03309 -0.22955 31000.11166 length 0.00032 color 0 0 1 }
Segment { rot -0.03632 0 0.99934 1.23568 offset 0.03338 -0.22967 31000.11169 length 0.00032 color 0 0 1 }
Segment { rot -0.02124 0 0.99977 1.09921 offset 0.03362 -0.22976 31000.11169 length 0.00019 color 0 0 1 }
Segment { rot -0.80728 0 0.59016 1.31062 offset 0.03421 -0.23003 31000.11239 length 0.00177 color 0 0 1 }
Segment { rot -0.75916 0 0.65091 1.25251 offset 0.03484 -0.23032 31000.11323 length 0.00041 color 0 0 1 }
Segment { rot -0.7035 0 0.71069 1.22935 offset 0.03547 -0.23064 31000.11387 length 0.00149 color 0 0 1 }
Segment { rot -0.93529 0 -0.35388 0.97269 offset 0.0357 -0.23139 31000.11505 length 0.00178 color 0 0 1 }
Segment { rot -0.8363 0 -0.54828 1.05434 offset 0.03541 -0.23193 31000.11579 length 0.00014 color 0 0 1 }
Segment { rot -0.08804 0 -0.99612 1.49446 offset 0.03426 -0.23205 31000.11594 length 0.00226 color 0 0 1 }
Segment { rot -0.00876 0 -0.99996 1.46511 offset 0.03208 -0.23225 31000.11605 length 0.00212 color 0 0 1 }
Segment { rot 0.08214 0 -0.99662 1.53797 offset 0.03056 -0.23237 31000.11602 length 0.00096 color 0 0 1 }
Segment { rot -0.05285 0 -0.9986 1.56066 offset 0.03005 -0.23239 31000.11599 length 0.00007 color 0 0 1 }
Segment { rot -0.22365 0 0.97467 1.89206 offset 0.03016 -0.23234 31000.11602 length 0.00032 color 0 0 1 }
Segment { rot 0.11941 0 -0.99284 1.73864 offset 0.03029 -0.23229 31000.11605 length 0.00003 color 0 0 1 }
Segment { rot 0.06447 0 -0.99792 1.77129 offset 0.02999 -0.23223 31000.11603 length 0.00059 color 0 0 1 }
Segment { rot -0.86573 0 0.50052 1.76395 offset 0.0299 -0.23209 31000.11636 length 0.00081 color 0 0 1 }
Segment { rot -0.20304 0 0.97917 2.38774 offset 0.03021 -0.23189 31000.11672 length 0.00033 color 0 0 1 }
Segment { rot 0.24833 0 0.96867 2.55442 offset 0.0304 -0.23164 31000.11673 length 0.00031 color 0 0 1 }
Segment { rot -0.06 0 0.9982 2.86924 offset 0.03082 -0.23033 31000.11672 length 0.00246 color 0 0 1 }
Segment { rot -0.46964 0 0.88286 3.00291 offset 0.03125 -0.22833 31000.1168 length 0.00164 color 0 0 1 }
Segment { rot -0.80479 0 -0.59356 1.12325 offset 0.0312 -0.22764 31000.11705 length 0.00054 color 0 0 1 }
Segment { rot -0.68834 0 -0.72539 1.027 offset 0.03059 -0.22815 31000.11769 length 0.00151 color 0 0 1 }
Segment { rot -0.83582 0 -0.54901 0.85658 offset 0.02982 -0.229 31000.11858 length 0.00142 color 0 0 1 }
Segment { rot 0.98417 0 0.1772 0.68541 offset 0.02953 -0.22947 31000.11903 length 0 color 0 0 1 }
Segment { rot 0.17874 0 -0.9839 1.96492 offset 0.02834 -0.22896 31000.11882 length 0.00262 color 0 0 1 }