#VRML V2.0 utf8
#Generated by NISTMonte
WorldInfo {
 title "NISTMonte Trajectory"
 info ["See http://www.cstl.nist.gov/div837/Division/home.html for more information"]
}
Viewpoint {
 fieldOfView 0.785398
 position 0 5 31000
 orientation -1 -0 -0 1.5708
 description "Y-Axis"
}
Viewpoint {
 fieldOfView 0.785398
 position 0 0 30995
 orientation 1 0 0 3.1415926
 description "Gun"
}
Viewpoint {
 fieldOfView 0.785398
 position -5 0 31000
 orientation 0 -1 0 1.5708
 description "X-Axis"
}




#Prototype for a trajectory segment
PROTO Segment [
 field SFRotation rot 1 0 0 0
 field SFVec3f offset 0 0 0
 field SFFloat length 0.1
 field SFColor color 1 1 1
]
{
 Transform {
  rotation IS rot
  translation IS offset
  children [
   Shape {
    geometry Cylinder {
     radius 0.001
     height IS length
    }
    appearance Appearance {
     material Material {
      emissiveColor IS color
     }
    }
   }
  ]
 }
}
Segment { rot -1 0 -0 1.5708 offset -0.0012 -0.0074 31000.00032 length 0.00063 color 0 0 1 }
Segment { rot -1 0 -0.00161 1.54704 offset -0.0012 -0.00742 31000.00154 length 0.00182 color 0 0 1 }
Segment { rot -0.99942 0 -0.03407 1.52115 offset -0.00131 -0.0076 31000.00561 length 0.00633 color 0 0 1 }
Segment { rot -0.99062 0 -0.13661 1.56127 offset -0.00144 -0.00776 31000.0089 length 0.00025 color 0 0 1 }
Segment { rot -0.97554 0 -0.21981 1.67017 offset -0.00191 -0.00755 31000.01105 length 0.00417 color 0 0 1 }
Segment { rot -0.92995 0 -0.36768 1.66706 offset -0.00402 -0.00691 31000.01725 length 0.00903 color 0 0 1 }
Segment { rot -0.93082 0 -0.36548 1.71535 offset -0.00625 -0.00625 31000.0229 length 0.00319 color 0 0 1 }
Segment { rot 0.42015 0 -0.90746 2.44395 offset -0.00738 -0.00529 31000.0241 length 0.00191 color 0 0 1 }
Segment { rot 0.19013 0 -0.98176 2.41609 offset -0.00911 -0.0032 31000.02362 length 0.00361 color 0 0 1 }
Segment { rot 0.14455 0 -0.9895 2.39689 offset -0.01175 -0.00025 31000.02318 length 0.00435 color 0 0 1 }
Segment { rot 0.11553 0 -0.9933 2.41775 offset -0.014 0.00225 31000.02287 length 0.0024 color 0 0 1 }
Segment { rot 0.65746 0 -0.75349 2.29982 offset -0.01678 0.00551 31000.02104 length 0.00709 color 0 0 1 }
Segment { rot 0.69554 0 -0.71849 2.32036 offset -0.02084 0.01055 31000.0173 length 0.00786 color 0 0 1 }
Segment { rot 0.70858 0 -0.70564 2.32538 offset -0.02396 0.01463 31000.01425 length 0.00409 color 0 0 1 }
Segment { rot 0.70626 0 -0.70795 2.36213 offset -0.02748 0.01957 31000.01072 length 0.00996 color 0 0 1 }
Segment { rot 0.73837 0 -0.67439 2.37387 offset -0.0309 0.02456 31000.00722 length 0.00402 color 0 0 1 }
Segment { rot 0.73349 0 -0.6797 2.35487 offset -0.03264 0.02716 31000.00533 length 0.00329 color 0 0 1 }
Segment { rot 0.6934 0 -0.72056 2.26191 offset -0.03514 0.03029 31000.00283 length 0.00617 color 0 0 1 }
Segment { rot 0.67507 0 -0.73775 2.26708 offset -0.0375 0.03299 31000.00059 length 0.00228 color 0 0 1 }