#VRML V2.0 utf8
#Generated by NISTMonte
WorldInfo {
 title "NISTMonte Trajectory"
 info ["See http://www.cstl.nist.gov/div837/Division/home.html for more information"]
}
Viewpoint {
 fieldOfView 0.785398
 position 0 5 31000
 orientation -1 -0 -0 1.5708
 description "Y-Axis"
}
Viewpoint {
 fieldOfView 0.785398
 position 0 0 30995
 orientation 1 0 0 3.1415926
 description "Gun"
}
Viewpoint {
 fieldOfView 0.785398
 position -5 0 31000
 orientation 0 -1 0 1.5708
 description "X-Axis"
}




#Prototype for a trajectory segment
PROTO Segment [
 field SFRotation rot 1 0 0 0
 field SFVec3f offset 0 0 0
 field SFFloat length 0.1
 field SFColor color 1 1 1
]
{
 Transform {
  rotation IS rot
  translation IS offset
  children [
   Shape {
    geometry Cylinder {
     radius 0.001
     height IS length
    }
    appearance Appearance {
     material Material {
      emissiveColor IS color
     }
    }
   }
  ]
 }
}
Segment { rot -1 0 -0 1.5708 offset 0.00188 -0.01818 31000.00967 length 0.01935 color 0 0 1 }
Segment { rot -0.99524 0 0.09742 1.63404 offset 0.00205 -0.01807 31000.02116 length 0.00364 color 0 0 1 }
Segment { rot -0.85492 0 -0.51875 0.80354 offset 0.00211 -0.01818 31000.02316 length 0.00066 color 0 0 1 }
Segment { rot -0.99763 0 -0.06879 0.74344 offset 0.00194 -0.01909 31000.02399 length 0.00184 color 0 0 1 }
Segment { rot -0.99456 0 -0.10414 0.84958 offset 0.00187 -0.02003 31000.02491 length 0.0008 color 0 0 1 }
Segment { rot -0.99608 0 -0.08844 0.87219 offset 0.00175 -0.02111 31000.02617 length 0.00254 color 0 0 1 }
Segment { rot -0.9919 0 -0.12705 0.87096 offset 0.00161 -0.02229 31000.02758 length 0.00114 color 0 0 1 }
Segment { rot -0.99368 0 -0.11228 0.95465 offset 0.00076 -0.02769 31000.03507 length 0.0174 color 0 0 1 }
Segment { rot -0.98285 0 -0.18439 0.86789 offset -0.00008 -0.03288 31000.04231 length 0.0005 color 0 0 1 }
Segment { rot -0.54661 0 -0.83738 0.83068 offset -0.00466 -0.038 31000.04547 length 0.0147 color 0 0 1 }
Segment { rot -0.53385 0 -0.84558 0.90288 offset -0.01257 -0.0461 31000.05056 length 0.01015 color 0 0 1 }
Segment { rot -0.52242 0 -0.85269 1.01374 offset -0.01888 -0.05139 31000.05449 length 0.00811 color 0 0 1 }
Segment { rot -0.72784 0 0.68575 0.34907 offset -0.01997 -0.06093 31000.05825 length 0.01574 color 0 0 1 }
Segment { rot -0.70452 0 0.70969 0.35427 offset -0.01805 -0.06859 31000.06027 length 0.00057 color 0 0 1 }
Segment { rot -0.72249 0 0.69138 0.40806 offset -0.01635 -0.07431 31000.06205 length 0.01188 color 0 0 1 }
Segment { rot -0.74578 0 0.66619 0.43341 offset -0.01336 -0.08417 31000.06527 length 0.00971 color 0 0 1 }
Segment { rot -0.69417 0 0.71981 0.41346 offset -0.00688 -0.10481 31000.07174 length 0.03546 color 0 0 1 }
Segment { rot -0.69191 0 0.72199 0.40565 offset -0.00143 -0.12207 31000.07699 length 0.00224 color 0 0 1 }
Segment { rot -0.66269 0 0.74889 0.45174 offset 0.00011 -0.12647 31000.07838 length 0.00749 color 0 0 1 }
Segment { rot -0.69385 0 0.72012 0.44168 offset 0.00173 -0.131 31000.07984 length 0.00257 color 0 0 1 }
Segment { rot -0.54455 0 0.83873 0.29734 offset 0.00247 -0.1335 31000.08044 length 0.00279 color 0 0 1 }
Segment { rot -0.47159 0 0.88182 0.35702 offset 0.00391 -0.13815 31000.08125 length 0.00709 color 0 0 1 }
Segment { rot -0.46251 0 0.88662 0.35062 offset 0.00583 -0.14404 31000.08227 length 0.00546 color 0 0 1 }
Segment { rot -0.36231 0 0.93206 0.375 offset 0.00758 -0.1491 31000.08306 length 0.00537 color 0 0 1 }
Segment { rot -0.45469 0 0.89065 0.378 offset 0.01062 -0.15761 31000.0845 length 0.01295 color 0 0 1 }
Segment { rot -0.52057 0 0.85382 0.33832 offset 0.01356 -0.16633 31000.08608 length 0.00573 color 0 0 1 }
Segment { rot -0.68459 0 0.72892 0.4247 offset 0.01533 -0.17195 31000.08748 length 0.00639 color 0 0 1 }
Segment { rot -0.71873 0 0.69529 0.38294 offset 0.01645 -0.1754 31000.08854 length 0.00117 color 0 0 1 }
Segment { rot -0.48947 0 0.87202 0.37757 offset 0.02075 -0.18794 31000.09102 length 0.02581 color 0 0 1 }
Segment { rot -0.49431 0 0.86929 0.36634 offset 0.02997 -0.21514 31000.09623 length 0.03257 color 0 0 1 }
Segment { rot -0.39868 0 0.91709 0.36975 offset 0.03596 -0.23294 31000.09952 length 0.00557 color 0 0 1 }
Segment { rot -0.40752 0 0.9132 0.36368 offset 0.03763 -0.23769 31000.10025 length 0.00459 color 0 0 1 }
Segment { rot -0.37451 0 0.92722 0.45499 offset 0.03905 -0.24131 31000.10086 length 0.0033 color 0 0 1 }
Segment { rot -0.40873 0 0.91266 0.41057 offset 0.04039 -0.24448 31000.10143 length 0.00367 color 0 0 1 }
Segment { rot -0.83101 0 0.55625 0.39106 offset 0.04277 -0.25361 31000.10428 length 0.01611 color 0 0 1 }
Segment { rot -0.77781 0 0.6285 0.374 offset 0.04567 -0.26592 31000.10832 length 0.01046 color 0 0 1 }
Segment { rot -0.84993 0 0.52689 0.44399 offset 0.04897 -0.27914 31000.11318 length 0.01849 color 0 0 1 }
Segment { rot -0.83126 0 0.55588 0.44045 offset 0.05151 -0.28922 31000.11723 length 0.00382 color 0 0 1 }
Segment { rot -0.67989 0 0.73331 0.46193 offset 0.05266 -0.29286 31000.11855 length 0.00425 color 0 0 1 }
Segment { rot -0.97976 0 0.20016 0.64747 offset 0.05443 -0.30187 31000.12446 length 0.01782 color 0 0 1 }
Segment { rot -0.97882 0 0.20474 0.66932 offset 0.0556 -0.30955 31000.13018 length 0.00147 color 0 0 1 }
Segment { rot -0.98916 0 0.14683 0.66086 offset 0.05616 -0.31421 31000.13376 length 0.01034 color 0 0 1 }
Segment { rot -0.76897 0 -0.63928 0.40293 offset 0.05536 -0.32294 31000.13843 length 0.0101 color 0 0 1 }
Segment { rot -0.76208 0 -0.64748 0.47929 offset 0.05339 -0.32968 31000.14078 length 0.00473 color 0 0 1 }
Segment { rot -0.75305 0 -0.65796 0.48147 offset 0.05235 -0.33274 31000.14199 length 0.00217 color 0 0 1 }
Segment { rot -0.74992 0 -0.66153 0.50087 offset 0.05157 -0.33496 31000.14288 length 0.00285 color 0 0 1 }
Segment { rot -0.72508 0 -0.68866 0.45515 offset 0.05085 -0.337 31000.14368 length 0.00177 color 0 0 1 }
Segment { rot -0.73164 0 -0.68169 0.46764 offset 0.05054 -0.3379 31000.144 length 0.00024 color 0 0 1 }
Segment { rot -0.87547 0 -0.48328 0.469 offset 0.04982 -0.34082 31000.14529 length 0.0063 color 0 0 1 }
Segment { rot -0.92511 0 -0.37969 0.34594 offset 0.0487 -0.34674 31000.14757 length 0.00661 color 0 0 1 }
Segment { rot -0.88675 0 -0.46226 0.38943 offset 0.04735 -0.35476 31000.15039 length 0.01062 color 0 0 1 }
Segment { rot -0.9198 0 -0.3924 0.32298 offset 0.04538 -0.36757 31000.15461 length 0.01666 color 0 0 1 }
Segment { rot -0.83874 0 -0.54454 0.28931 offset 0.04354 -0.38041 31000.15828 length 0.01032 color 0 0 1 }
Segment { rot -0.89308 0 -0.4499 0.29979 offset 0.04256 -0.38661 31000.15986 length 0.00262 color 0 0 1 }
Segment { rot -0.59067 0 -0.80691 0.2607 offset 0.04225 -0.38849 31000.1603 length 0.00131 color 0 0 1 }
Segment { rot -0.51474 0 -0.85735 0.26585 offset 0.04089 -0.39438 31000.16114 length 0.01088 color 0 0 1 }
Segment { rot -0.37704 0 -0.9262 0.24488 offset 0.03889 -0.40296 31000.16219 length 0.00687 color 0 0 1 }
Segment { rot -0.43588 0 -0.90001 0.35118 offset 0.03791 -0.40694 31000.16261 length 0.00138 color 0 0 1 }
Segment { rot -0.44741 0 -0.89433 0.34083 offset 0.03732 -0.40877 31000.1629 length 0.0025 color 0 0 1 }
Segment { rot -0.75214 0 -0.65901 0.39306 offset 0.03369 -0.42188 31000.16681 length 0.02584 color 0 0 1 }
Segment { rot -0.75205 0 -0.65911 0.44257 offset 0.02991 -0.43548 31000.17112 length 0.00368 color 0 0 1 }
Segment { rot -0.52979 0 -0.84813 0.47071 offset 0.02745 -0.44164 31000.17292 length 0.01009 color 0 0 1 }
Segment { rot -0.29992 0 -0.95397 0.42119 offset 0.02541 -0.44635 31000.17417 length 0.00048 color 0 0 1 }
Segment { rot -0.39595 0 -0.91827 0.47184 offset 0.02204 -0.45356 31000.17561 length 0.01569 color 0 0 1 }
Segment { rot -0.64847 0 -0.76124 0.53762 offset 0.01756 -0.46321 31000.17805 length 0.00619 color 0 0 1 }
Segment { rot -0.69325 0 -0.72069 0.63867 offset 0.01003 -0.47769 31000.18516 length 0.02947 color 0 0 1 }
Segment { rot -0.64927 0 -0.76056 0.64486 offset 0.00361 -0.48967 31000.19132 length 0.00037 color 0 0 1 }
Segment { rot -0.64743 0 -0.76213 0.62804 offset 0.00191 -0.49275 31000.19277 length 0.00725 color 0 0 1 }
Segment { rot -0.64014 0 -0.76826 0.64764 offset -0.00512 -0.50498 31000.19866 length 0.02333 color 0 0 1 }
Segment { rot -0.63411 0 -0.77324 0.70851 offset -0.01071 -0.51456 31000.20331 length 0.00071 color 0 0 1 }
Segment { rot -0.62698 0 -0.77903 0.69271 offset -0.01125 -0.51538 31000.20375 length 0.00145 color 0 0 1 }
Segment { rot -0.6411 0 -0.76746 0.67952 offset -0.01203 -0.51662 31000.20439 length 0.00175 color 0 0 1 }
Segment { rot -0.79134 0 -0.61138 0.71862 offset -0.01483 -0.52176 31000.20782 length 0.01184 color 0 0 1 }
Segment { rot -0.77965 0 -0.62622 0.72148 offset -0.01817 -0.52794 31000.21209 length 0.00461 color 0 0 1 }
Segment { rot -0.78558 0 -0.61876 0.69479 offset -0.01917 -0.52976 31000.21334 length 0.00022 color 0 0 1 }
Segment { rot -0.78335 0 -0.62158 0.71807 offset -0.01939 -0.53018 31000.21362 length 0.0009 color 0 0 1 }
Segment { rot -0.75688 0 -0.65355 0.72764 offset -0.02221 -0.53505 31000.21691 length 0.01213 color 0 0 1 }
Segment { rot -0.75872 0 -0.65141 0.7239 offset -0.02736 -0.54393 31000.22288 length 0.01162 color 0 0 1 }
Segment { rot -0.77001 0 -0.63803 0.74612 offset -0.03002 -0.54854 31000.22598 length 0.00069 color 0 0 1 }
Segment { rot -0.77934 0 -0.6266 0.72216 offset -0.03078 -0.5499 31000.22693 length 0.00295 color 0 0 1 }
Segment { rot -0.75772 0 -0.65258 0.69528 offset -0.03197 -0.55208 31000.22836 length 0.0028 color 0 0 1 }
Segment { rot -0.97448 0 0.22448 0.90721 offset -0.032 -0.5551 31000.23146 length 0.0063 color 0 0 1 }
Segment { rot -0.95461 0 0.29786 0.75171 offset -0.0313 -0.55753 31000.23432 length 0.00135 color 0 0 1 }
Segment { rot -0.916 0 0.40119 0.91745 offset -0.02987 -0.56049 31000.23772 length 0.00813 color 0 0 1 }
Segment { rot -0.92599 0 0.37756 0.96253 offset -0.02821 -0.56365 31000.24159 length 0.0024 color 0 0 1 }
Segment { rot -0.90378 0 0.42799 0.95204 offset -0.02626 -0.56696 31000.24583 length 0.00906 color 0 0 1 }
Segment { rot -0.91318 0 0.40755 0.9598 offset -0.02411 -0.57056 31000.25043 length 0.00338 color 0 0 1 }
Segment { rot -0.941 0 0.33841 1.09465 offset -0.02142 -0.57477 31000.25761 length 0.01415 color 0 0 1 }
Segment { rot -0.95158 0 0.30741 1.05313 offset -0.01656 -0.58308 31000.27199 length 0.02046 color 0 0 1 }
Segment { rot -0.93349 0 0.3586 0.72714 offset -0.01312 -0.59034 31000.28228 length 0.00589 color 0 0 1 }
Segment { rot -0.92939 0 0.36909 0.77132 offset -0.01193 -0.59391 31000.28534 length 0.00381 color 0 0 1 }
Segment { rot -0.93605 0 0.35187 0.74282 offset -0.01088 -0.597 31000.28806 length 0.00468 color 0 0 1 }
Segment { rot -0.71605 0 0.69805 0.52609 offset -0.00709 -0.6067 31000.29286 length 0.01843 color 0 0 1 }
Segment { rot -0.77989 0 0.62592 0.74817 offset -0.00181 -0.61821 31000.29873 length 0.00967 color 0 0 1 }
Segment { rot -0.20607 0 0.97854 0.34269 offset 0.00119 -0.62443 31000.3015 length 0.00569 color 0 0 1 }
Segment { rot -0.25117 0 0.96794 0.19794 offset 0.00255 -0.62929 31000.3018 length 0.00443 color 0 0 1 }
Segment { rot -0.24965 0 0.96834 0.18445 offset 0.00345 -0.63413 31000.30204 length 0.00543 color 0 0 1 }
Segment { rot -0.021 0 0.99978 0.16033 offset 0.00428 -0.63896 31000.30217 length 0.00438 color 0 0 1 }
Segment { rot 0.58044 0 0.8143 0.1517 offset 0.00508 -0.64474 31000.30185 length 0.00732 color 0 0 1 }
Segment { rot 0.66394 0 0.74779 0.15721 offset 0.00607 -0.65288 31000.30106 length 0.00918 color 0 0 1 }
Segment { rot 0.8353 0 0.54979 0.1409 offset 0.00674 -0.65918 31000.30037 length 0.00357 color 0 0 1 }
Segment { rot 0.83795 0 0.54575 0.13334 offset 0.00753 -0.66981 31000.29917 length 0.01788 color 0 0 1 }
Segment { rot 0.92436 0 0.38151 0.0942 offset 0.00836 -0.68367 31000.29773 length 0.01006 color 0 0 1 }
Segment { rot 0.20571 0 0.97861 0.41656 offset 0.00876 -0.6892 31000.29725 length 0.00113 color 0 0 1 }
Segment { rot -0.80603 0 0.59188 0.7752 offset 0.01514 -0.70032 31000.30558 length 0.0297 color 0 0 1 }
Segment { rot -0.78889 0 0.61454 0.76907 offset 0.02234 -0.71269 31000.3153 length 0.00492 color 0 0 1 }
Segment { rot -0.77709 0 0.62939 0.77869 offset 0.02412 -0.71564 31000.31756 length 0.0033 color 0 0 1 }
Segment { rot -0.81024 0 0.5861 0.86806 offset 0.02544 -0.71766 31000.31927 length 0.00263 color 0 0 1 }
Segment { rot -0.81833 0 0.57475 0.90262 offset 0.02732 -0.72029 31000.32192 length 0.00573 color 0 0 1 }
Segment { rot -0.78672 0 0.61731 0.88203 offset 0.02877 -0.72227 31000.32396 length 0.00066 color 0 0 1 }
Segment { rot -0.82802 0 0.56069 0.9039 offset 0.03058 -0.72481 31000.32661 length 0.00751 color 0 0 1 }
Segment { rot -0.84202 0 0.53945 0.90093 offset 0.03536 -0.73171 31000.33393 length 0.01478 color 0 0 1 }
Segment { rot -0.84862 0 0.529 0.90883 offset 0.03878 -0.73674 31000.33928 length 0.00142 color 0 0 1 }
Segment { rot -0.83904 0 0.54407 0.84298 offset 0.0467 -0.74966 31000.35151 length 0.03754 color 0 0 1 }
Segment { rot -0.84569 0 0.53368 0.85823 offset 0.05453 -0.76247 31000.36359 length 0.00099 color 0 0 1 }
Segment { rot -0.84913 0 0.52818 0.85627 offset 0.05583 -0.76461 31000.36569 length 0.00556 color 0 0 1 }
Segment { rot -0.82213 0 0.56931 0.76673 offset 0.05873 -0.76969 31000.37004 length 0.00903 color 0 0 1 }
Segment { rot -0.80884 0 0.58803 0.79136 offset 0.06102 -0.77379 31000.37332 length 0.00242 color 0 0 1 }
Segment { rot -0.82925 0 0.55888 0.77367 offset 0.06257 -0.77657 31000.37557 length 0.00537 color 0 0 1 }
Segment { rot -0.8255 0 0.56441 0.69538 offset 0.0645 -0.78036 31000.37842 length 0.00487 color 0 0 1 }
Segment { rot -0.83777 0 0.54603 0.7206 offset 0.06637 -0.78428 31000.38121 length 0.00546 color 0 0 1 }
Segment { rot -0.85127 0 0.52473 0.74239 offset 0.06811 -0.7879 31000.38395 length 0.00426 color 0 0 1 }
Segment { rot -0.93035 0 0.36668 0.91677 offset 0.06928 -0.79034 31000.38623 length 0.00287 color 0 0 1 }
Segment { rot -0.92709 0 0.37485 0.98111 offset 0.0705 -0.79264 31000.38927 length 0.00514 color 0 0 1 }
Segment { rot -0.95287 0 0.30337 0.91834 offset 0.07136 -0.79422 31000.39144 length 0.00051 color 0 0 1 }
Segment { rot -0.95909 0 0.28311 0.95735 offset 0.07174 -0.79517 31000.39271 length 0.00273 color 0 0 1 }
Segment { rot -0.95611 0 0.29301 0.96826 offset 0.07231 -0.79655 31000.39461 length 0.00211 color 0 0 1 }
Segment { rot -0.95973 0 0.28093 0.96745 offset 0.0738 -0.8002 31000.39968 length 0.01073 color 0 0 1 }
Segment { rot -0.96874 0 0.24806 0.93086 offset 0.07641 -0.80732 31000.40924 length 0.01368 color 0 0 1 }
Segment { rot -0.9638 0 0.26664 0.89618 offset 0.07828 -0.81293 31000.41639 length 0.00487 color 0 0 1 }
Segment { rot -0.99596 0 0.08979 1.80912 offset 0.07937 -0.81288 31000.42468 length 0.01335 color 0 0 1 }
Segment { rot -0.99816 0 0.06071 1.90655 offset 0.08008 -0.81054 31000.43332 length 0.00462 color 0 0 1 }
Segment { rot -0.99723 0 0.07436 2.03054 offset 0.08022 -0.80975 31000.43556 length 0.00015 color 0 0 1 }
Segment { rot -0.9789 0 0.20434 2.06636 offset 0.08183 -0.80547 31000.44332 length 0.01786 color 0 0 1 }
Segment { rot -0.98322 0 0.18241 2.0893 offset 0.08357 -0.80079 31000.45175 length 0.00174 color 0 0 1 }
Segment { rot -0.97292 0 0.23113 2.07654 offset 0.08545 -0.79617 31000.45984 length 0.01727 color 0 0 1 }
Segment { rot -0.96896 0 0.24723 2.11957 offset 0.09055 -0.78371 31000.48032 length 0.03175 color 0 0 1 }
Segment { rot -0.96418 0 0.26523 2.06722 offset 0.094 -0.77523 31000.4938 length 0.00083 color 0 0 1 }
Segment { rot -0.96344 0 0.26791 2.11 offset 0.09472 -0.77363 31000.49641 length 0.00547 color 0 0 1 }
Segment { rot -0.97004 0 0.24294 2.06655 offset 0.09616 -0.77042 31000.50191 length 0.00758 color 0 0 1 }
Segment { rot -0.96192 0 0.27332 2.06865 offset 0.09731 -0.76795 31000.50632 length 0.0028 color 0 0 1 }
Segment { rot -0.96587 0 0.25903 2.03679 offset 0.09787 -0.76685 31000.50834 length 0.00192 color 0 0 1 }
Segment { rot -0.88595 0 -0.46377 2.63348 offset 0.09806 -0.76632 31000.50921 length 0.00022 color 0 0 1 }
Segment { rot -0.89658 0 -0.44288 2.68067 offset 0.09735 -0.76309 31000.51066 length 0.007 color 0 0 1 }
Segment { rot -0.88834 0 -0.45918 2.62839 offset 0.09551 -0.75551 31000.51428 length 0.01021 color 0 0 1 }
Segment { rot -0.86514 0 -0.50153 2.55368 offset 0.09428 -0.75084 31000.51663 length 0.00053 color 0 0 1 }
Segment { rot -0.82645 0 -0.56301 2.48295 offset 0.09254 -0.7468 31000.5192 length 0.00968 color 0 0 1 }
Segment { rot -0.84873 0 -0.52883 2.36741 offset 0.08756 -0.73656 31000.52697 length 0.01793 color 0 0 1 }
Segment { rot -0.83585 0 -0.54896 2.35026 offset 0.08364 -0.72906 31000.53321 length 0.00309 color 0 0 1 }
Segment { rot -0.82094 0 -0.57102 2.35329 offset 0.08272 -0.72741 31000.53459 length 0.0016 color 0 0 1 }
Segment { rot -0.81865 0 -0.57429 2.34554 offset 0.08218 -0.72649 31000.53536 length 0.00103 color 0 0 1 }
Segment { rot -0.871 0 -0.49128 2.40223 offset 0.08133 -0.72471 31000.53679 length 0.00384 color 0 0 1 }
Segment { rot -0.04662 0 -0.99891 2.25164 offset 0.0799 -0.72264 31000.53796 length 0.00205 color 0 0 1 }
Segment { rot -0.92461 0 -0.3809 1.913 offset 0.07877 -0.72169 31000.53879 length 0.00184 color 0 0 1 }
Segment { rot -0.9233 0 -0.38408 1.97378 offset 0.075 -0.71755 31000.54788 length 0.0195 color 0 0 1 }
Segment { rot -0.91524 0 -0.4029 1.9798 offset 0.07115 -0.7133 31000.55707 length 0.00218 color 0 0 1 }
Segment { rot -0.91108 0 -0.41223 1.97391 offset 0.06969 -0.71176 31000.56033 length 0.0056 color 0 0 1 }
Segment { rot -0.91356 0 -0.4067 2.05365 offset 0.06793 -0.70978 31000.56423 length 0.00383 color 0 0 1 }
Segment { rot -0.85069 0 -0.52567 2.03399 offset 0.06682 -0.70849 31000.56646 length 0.00179 color 0 0 1 }
Segment { rot -0.88989 0 -0.45618 1.76699 offset 0.0647 -0.70735 31000.57045 length 0.0076 color 0 0 1 }
Segment { rot -0.94463 0 -0.32813 1.86732 offset 0.06228 -0.70594 31000.57585 length 0.0046 color 0 0 1 }
Segment { rot -0.9564 0 -0.29206 2.11266 offset 0.06065 -0.70339 31000.58091 length 0.00729 color 0 0 1 }
Segment { rot -0.97566 0 -0.21931 2.11509 offset 0.05965 -0.70125 31000.58431 length 0.001 color 0 0 1 }
Segment { rot -0.9667 0 -0.25592 2.18977 offset 0.05879 -0.69888 31000.5876 length 0.00729 color 0 0 1 }
Segment { rot -0.98879 0 -0.14931 2.17846 offset 0.05771 -0.69525 31000.59262 length 0.00529 color 0 0 1 }
Segment { rot -0.98499 0 0.17261 1.90607 offset 0.05888 -0.69072 31000.60329 length 0.01834 color 0 0 1 }
Segment { rot -0.98436 0 0.17616 1.89546 offset 0.06112 -0.68628 31000.61599 length 0.00894 color 0 0 1 }
Segment { rot -0.98212 0 0.18826 1.89419 offset 0.0621 -0.68444 31000.62139 length 0.00265 color 0 0 1 }
Segment { rot -0.99621 0 0.08693 1.91515 offset 0.06245 -0.68355 31000.62392 length 0.00278 color 0 0 1 }
Segment { rot -0.99004 0 0.14082 1.94686 offset 0.06258 -0.68303 31000.62534 length 0.00025 color 0 0 1 }
Segment { rot -0.99648 0 0.08385 1.93329 offset 0.06302 -0.68108 31000.63046 length 0.01073 color 0 0 1 }
Segment { rot -0.9506 0 0.31041 1.92676 offset 0.06347 -0.67914 31000.63556 length 0.00023 color 0 0 1 }
Segment { rot -0.95394 0 0.29999 1.85281 offset 0.06472 -0.67792 31000.63953 length 0.00845 color 0 0 1 }
Segment { rot -0.98686 0 0.16156 1.90635 offset 0.06599 -0.67664 31000.64371 length 0.00066 color 0 0 1 }
Segment { rot -0.97214 0 0.2344 1.8885 offset 0.06611 -0.67644 31000.6443 length 0.00061 color 0 0 1 }
Segment { rot -0.97013 0 0.24259 1.86607 offset 0.06627 -0.67623 31000.64494 length 0.00078 color 0 0 1 }
Segment { rot -0.96603 0 0.25841 1.79481 offset 0.06689 -0.67564 31000.64731 length 0.00426 color 0 0 1 }
Segment { rot -0.95191 0 0.30638 1.73156 offset 0.06962 -0.67401 31000.65612 length 0.01449 color 0 0 1 }
Segment { rot -0.96427 0 0.26493 1.72879 offset 0.0738 -0.67165 31000.67017 length 0.01521 color 0 0 1 }
Segment { rot -0.96623 0 0.25769 1.72462 offset 0.07663 -0.66995 31000.68057 length 0.00661 color 0 0 1 }
Segment { rot -0.96778 0 0.25181 1.70641 offset 0.07829 -0.669 31000.68686 length 0.00653 color 0 0 1 }
Segment { rot -0.96948 0 0.24519 1.74409 offset 0.07954 -0.66825 31000.69172 length 0.00364 color 0 0 1 }
Segment { rot -0.94125 0 0.33772 1.77233 offset 0.0802 -0.6678 31000.69406 length 0.0013 color 0 0 1 }
Segment { rot -0.95761 0 0.28807 1.74441 offset 0.0824 -0.66646 31000.70127 length 0.01403 color 0 0 1 }
Segment { rot -0.97605 0 0.21754 1.77187 offset 0.08523 -0.66446 31000.71167 length 0.00791 color 0 0 1 }
Segment { rot -0.98635 0 0.16464 1.75939 offset 0.08652 -0.66316 31000.71809 length 0.00544 color 0 0 1 }
Segment { rot -0.94375 0 0.33065 1.57966 offset 0.08781 -0.66263 31000.72315 length 0.00514 color 0 0 1 }
Segment { rot -0.94376 0 0.33062 1.61229 offset 0.08914 -0.66254 31000.72695 length 0.00292 color 0 0 1 }
Segment { rot -0.94172 0 0.3364 1.59556 offset 0.09255 -0.66227 31000.73652 length 0.01739 color 0 0 1 }
Segment { rot -0.92877 0 0.37065 1.63848 offset 0.09554 -0.66204 31000.74488 length 0.00039 color 0 0 1 }
Segment { rot -0.86908 0 0.49467 1.65211 offset 0.09757 -0.6617 31000.7485 length 0.00794 color 0 0 1 }
Segment { rot -0.81527 0 0.57908 1.62755 offset 0.10061 -0.66127 31000.75347 length 0.00375 color 0 0 1 }
Segment { rot -0.87812 0 0.47844 1.74063 offset 0.10193 -0.66109 31000.75542 length 0.00098 color 0 0 1 }
Segment { rot -0.99715 0 -0.0754 1.55562 offset 0.10194 -0.66105 31000.75876 length 0.00586 color 0 0 1 }
Segment { rot -0.99628 0 -0.08613 1.54192 offset 0.1014 -0.6612 31000.76531 length 0.00729 color 0 0 1 }
Segment { rot -0.99888 0 -0.04732 1.59038 offset 0.10104 -0.66128 31000.77002 length 0.00215 color 0 0 1 }
Segment { rot -0.99265 0 -0.12098 1.61839 offset 0.10072 -0.66115 31000.7733 length 0.00444 color 0 0 1 }
Segment { rot -0.99363 0 -0.11269 1.64173 offset 0.10004 -0.66079 31000.77916 length 0.00738 color 0 0 1 }
Segment { rot -0.99125 0 -0.13201 1.63709 offset 0.09956 -0.6605 31000.78324 length 0.00085 color 0 0 1 }
Segment { rot -0.99342 0 -0.11453 1.62326 offset 0.09946 -0.66045 31000.78406 length 0.00081 color 0 0 1 }
Segment { rot -0.99554 0 -0.09429 1.53427 offset 0.09917 -0.66052 31000.78706 length 0.00522 color 0 0 1 }
Segment { rot -0.99536 0 -0.09624 1.56813 offset 0.09858 -0.66063 31000.79323 length 0.00718 color 0 0 1 }
Segment { rot -0.99927 0 0.03825 1.59648 offset 0.09878 -0.66027 31000.81104 length 0.02851 color 0 0 1 }
Segment { rot -0.93264 0 -0.36082 1.08761 offset 0.09668 -0.66375 31000.83212 length 0.01655 color 0 0 1 }
Segment { rot -0.91227 0 -0.4096 1.12277 offset 0.09273 -0.66913 31000.84187 length 0.0071 color 0 0 1 }
Segment { rot -0.91484 0 -0.40381 1.39238 offset 0.09108 -0.67082 31000.84554 length 0.00167 color 0 0 1 }
Segment { rot -0.92019 0 -0.39147 1.28466 offset 0.08995 -0.67156 31000.84817 length 0.00425 color 0 0 1 }
Segment { rot -0.91343 0 -0.40699 1.28229 offset 0.08762 -0.67328 31000.85349 length 0.00788 color 0 0 1 }
Segment { rot -0.96926 0 -0.24604 1.2077 offset 0.08541 -0.67543 31000.85957 length 0.0058 color 0 0 1 }
Segment { rot -0.91317 0 -0.40758 1.3383 offset 0.08275 -0.67762 31000.86666 length 0.01005 color 0 0 1 }
Segment { rot -0.94945 0 -0.31392 1.25157 offset 0.08069 -0.67885 31000.87133 length 0.00044 color 0 0 1 }
Segment { rot -0.95732 0 -0.28903 1.2574 offset 0.07976 -0.67989 31000.87439 length 0.00629 color 0 0 1 }
Segment { rot -0.99634 0 0.08546 1.16604 offset 0.07891 -0.68091 31000.87738 length 0.00028 color 0 0 1 }
Segment { rot -0.99622 0 0.08685 1.12691 offset 0.07916 -0.68228 31000.88027 length 0.00614 color 0 0 1 }
Segment { rot -0.99659 0 0.08255 1.19758 offset 0.07944 -0.68378 31000.88348 length 0.00097 color 0 0 1 }
Segment { rot -0.99617 0 0.08747 0.79674 offset 0.08005 -0.69032 31000.89041 length 0.01822 color 0 0 1 }
Segment { rot -0.99632 0 0.08574 0.8081 offset 0.0808 -0.6987 31000.899 length 0.00583 color 0 0 1 }
Segment { rot -0.99336 0 0.11506 0.82768 offset 0.08099 -0.70083 31000.90122 length 0.00034 color 0 0 1 }
Segment { rot -0.99993 0 0.01186 0.81445 offset 0.08101 -0.7012 31000.90162 length 0.00075 color 0 0 1 }
Segment { rot -0.99603 0 -0.08904 0.89957 offset 0.08092 -0.70233 31000.90299 length 0.00281 color 0 0 1 }
Segment { rot -0.99445 0 -0.10522 0.92451 offset 0.08055 -0.70512 31000.90661 length 0.00636 color 0 0 1 }
Segment { rot -0.99709 0 -0.07624 0.91094 offset 0.07995 -0.71041 31000.91347 length 0.01099 color 0 0 1 }
Segment { rot -0.99972 0 0.02373 0.8778 offset 0.07963 -0.71417 31000.91826 length 0.00122 color 0 0 1 }
Segment { rot -0.98879 0 -0.14933 0.79873 offset 0.07929 -0.71689 31000.9211 length 0.00669 color 0 0 1 }
Segment { rot -0.8869 0 -0.46196 0.96467 offset 0.07843 -0.71997 31000.92443 length 0.00264 color 0 0 1 }
Segment { rot -0.90007 0 -0.43575 0.97464 offset 0.07747 -0.72143 31000.92634 length 0.00254 color 0 0 1 }
Segment { rot -0.87056 0 -0.49207 1.06297 offset 0.07639 -0.72285 31000.92838 length 0.0029 color 0 0 1 }
Segment { rot -0.88591 0 -0.46386 1.08289 offset 0.07547 -0.7239 31000.93005 length 0.00145 color 0 0 1 }
Segment { rot -0.95946 0 -0.28185 0.83201 offset 0.07401 -0.72798 31000.93456 length 0.01112 color 0 0 1 }
Segment { rot -0.96382 0 -0.26654 0.80799 offset 0.07248 -0.73306 31000.93986 length 0.00389 color 0 0 1 }
Segment { rot -0.9517 0 -0.30703 0.81998 offset 0.07178 -0.7354 31000.94223 length 0.00292 color 0 0 1 }
Segment { rot -0.96758 0 -0.25258 0.86737 offset 0.07067 -0.73904 31000.94625 length 0.00816 color 0 0 1 }
Segment { rot -0.99244 0 0.12273 1.03022 offset 0.06999 -0.74219 31000.95011 length 0.002 color 0 0 1 }
Segment { rot -0.99781 0 0.0662 0.96626 offset 0.07013 -0.74308 31000.9515 length 0.00131 color 0 0 1 }
Segment { rot -0.9989 0 0.04687 0.98748 offset 0.07018 -0.74369 31000.95241 length 0.00088 color 0 0 1 }
Segment { rot -0.99983 0 0.01868 1.18337 offset 0.0702 -0.74405 31000.95306 length 0.00061 color 0 0 1 }
Segment { rot -0.99928 0 -0.03786 1.26208 offset 0.07011 -0.74502 31000.95603 length 0.00566 color 0 0 1 }
Segment { rot -0.99805 0 -0.0624 1.28088 offset 0.06992 -0.74628 31000.96006 length 0.0028 color 0 0 1 }
Segment { rot -0.99112 0 -0.13295 1.08743 offset 0.06952 -0.74793 31000.96375 length 0.00536 color 0 0 1 }
Segment { rot -0.99489 0 -0.10094 1.16768 offset 0.06893 -0.75034 31000.96882 length 0.00593 color 0 0 1 }
Segment { rot -0.99648 0 -0.08388 1.19741 offset 0.06834 -0.75297 31000.97526 length 0.00804 color 0 0 1 }
Segment { rot -0.99798 0 -0.06349 1.19461 offset 0.06786 -0.7555 31000.98169 length 0.00581 color 0 0 1 }
Segment { rot -0.99828 0 -0.05855 1.18637 offset 0.06768 -0.75658 31000.98441 length 0.00004 color 0 0 1 }
Segment { rot -0.99715 0 0.07545 1.42764 offset 0.06808 -0.75735 31000.98971 length 0.0107 color 0 0 1 }
Segment { rot -0.99588 0 0.09071 1.4035 offset 0.06849 -0.75813 31000.99512 length 0.00027 color 0 0 1 }
Segment { rot -0.98377 0 0.17941 1.38654 offset 0.06869 -0.75835 31000.99625 length 0.00206 color 0 0 1 }
Segment { rot -0.98065 0 0.19579 1.35916 offset 0.07056 -0.76039 31001.00573 length 0.0177 color 0 0 1 }
Segment { rot -0.97576 0 0.21886 1.33686 offset 0.07272 -0.76276 31001.01629 length 0.00438 color 0 0 1 }
Segment { rot -0.95357 0 0.30116 1.24539 offset 0.07356 -0.76369 31001.01956 length 0.00263 color 0 0 1 }
Segment { rot -0.96276 0 0.27037 1.23705 offset 0.0742 -0.76444 31001.02166 length 0.00201 color 0 0 1 }
Segment { rot -0.96469 0 0.2634 1.23572 offset 0.07522 -0.76579 31001.0254 length 0.0062 color 0 0 1 }
Segment { rot -0.99717 0 0.07519 1.51374 offset 0.07621 -0.76697 31001.03107 length 0.00572 color 0 0 1 }
Segment { rot -0.99163 0 0.12908 1.49325 offset 0.07698 -0.76747 31001.0382 length 0.00867 color 0 0 1 }
Segment { rot -0.99259 0 0.12149 1.39246 offset 0.07776 -0.76813 31001.04427 length 0.00366 color 0 0 1 }
Segment { rot -0.99308 0 0.11743 1.41365 offset 0.07989 -0.77103 31001.06222 length 0.03294 color 0 0 1 }
Segment { rot -0.99317 0 0.11664 1.36431 offset 0.08181 -0.77363 31001.07847 length 0.00022 color 0 0 1 }
Segment { rot -0.98633 0 0.1648 1.3771 offset 0.0819 -0.77375 31001.07905 length 0.00097 color 0 0 1 }
Segment { rot -0.97739 0 0.21144 1.39055 offset 0.08207 -0.77392 31001.07996 length 0.00091 color 0 0 1 }
Segment { rot -0.97115 0 0.23848 1.36861 offset 0.08224 -0.77407 31001.08069 length 0.00063 color 0 0 1 }
Segment { rot -0.97032 0 0.24183 1.37151 offset 0.08237 -0.77417 31001.0812 length 0.00044 color 0 0 1 }
Segment { rot -0.80777 0 -0.5895 0.86837 offset 0.08162 -0.77537 31001.08251 length 0.00357 color 0 0 1 }
Segment { rot -0.91638 0 -0.4003 0.80299 offset 0.08063 -0.77698 31001.08404 length 0.00131 color 0 0 1 }
Segment { rot -0.91444 0 -0.40473 0.83759 offset 0.08031 -0.7777 31001.08475 length 0.00082 color 0 0 1 }
Segment { rot -0.77496 0 -0.63201 0.62048 offset 0.07993 -0.77856 31001.08535 length 0.00144 color 0 0 1 }
Segment { rot -0.78559 0 -0.61875 0.61014 offset 0.07825 -0.78241 31001.08747 length 0.00796 color 0 0 1 }
Segment { rot -0.70331 0 -0.71089 0.64019 offset 0.07486 -0.78942 31001.09122 length 0.00934 color 0 0 1 }
Segment { rot -0.63172 0 -0.7752 0.69102 offset 0.0689 -0.79936 31001.09642 length 0.01609 color 0 0 1 }
Segment { rot -0.63326 0 -0.77394 0.55736 offset 0.06374 -0.80801 31001.10063 length 0.00579 color 0 0 1 }
Segment { rot -0.71528 0 -0.69884 0.54855 offset 0.06242 -0.81078 31001.10173 length 0.00073 color 0 0 1 }
Segment { rot -0.71747 0 -0.69659 0.54963 offset 0.06143 -0.81312 31001.10276 length 0.00475 color 0 0 1 }
Segment { rot -0.71296 0 -0.70121 0.54416 offset 0.0597 -0.81717 31001.10452 length 0.00474 color 0 0 1 }
Segment { rot -0.6222 0 -0.78286 0.54748 offset 0.05855 -0.81982 31001.10563 length 0.00145 color 0 0 1 }
Segment { rot -0.6036 0 -0.79728 0.51088 offset 0.05746 -0.82221 31001.10647 length 0.00406 color 0 0 1 }
Segment { rot -0.61685 0 -0.78708 0.48904 offset 0.05379 -0.83086 31001.10933 length 0.01558 color 0 0 1 }
Segment { rot -0.61655 0 -0.78731 0.485 offset 0.05027 -0.83926 31001.11208 length 0.00345 color 0 0 1 }
Segment { rot -0.60347 0 -0.79738 0.47517 offset 0.04921 -0.84184 31001.1129 length 0.00238 color 0 0 1 }
Segment { rot -0.59199 0 -0.80594 0.46845 offset 0.04864 -0.84322 31001.11333 length 0.00072 color 0 0 1 }
Segment { rot -0.59397 0 -0.80449 0.47125 offset 0.04745 -0.84614 31001.11421 length 0.00582 color 0 0 1 }
Segment { rot -0.39165 0 -0.92012 0.52319 offset 0.04404 -0.85315 31001.11599 length 0.01019 color 0 0 1 }
Segment { rot -0.98475 0 0.17398 1.86999 offset 0.04173 -0.85751 31001.11718 length 0.0004 color 0 0 1 }
Segment { rot -0.99693 0 0.07832 2.13155 offset 0.04181 -0.85708 31001.11795 length 0.0014 color 0 0 1 }
Segment { rot -0.98267 0 0.18537 2.21878 offset 0.04192 -0.85644 31001.11888 length 0.00087 color 0 0 1 }
Segment { rot -0.99987 0 -0.01618 2.21977 offset 0.04197 -0.85576 31001.11977 length 0.00137 color 0 0 1 }
Segment { rot -0.95215 0 -0.30564 2.19628 offset 0.04103 -0.85313 31001.12325 length 0.00759 color 0 0 1 }
Segment { rot -0.97676 0 -0.21435 2.30535 offset 0.03861 -0.8447 31001.13289 length 0.01852 color 0 0 1 }
Segment { rot -0.98698 0 -0.16083 2.26639 offset 0.03694 -0.83744 31001.14084 length 0.00328 color 0 0 1 }
Segment { rot -0.98004 0 -0.1988 2.21627 offset 0.03661 -0.83594 31001.14268 length 0.00151 color 0 0 1 }
Segment { rot -0.89858 0 -0.43882 2.19999 offset 0.03599 -0.83464 31001.14431 length 0.00286 color 0 0 1 }
Segment { rot -0.88876 0 -0.45837 2.09873 offset 0.03402 -0.83194 31001.14818 length 0.00739 color 0 0 1 }
Segment { rot -0.8808 0 -0.47349 2.0671 offset 0.03115 -0.82847 31001.15363 length 0.00674 color 0 0 1 }
Segment { rot -0.89478 0 -0.44651 2.08747 offset 0.02951 -0.82656 31001.15672 length 0.00125 color 0 0 1 }
Segment { rot -0.89555 0 -0.44496 2.10968 offset 0.02896 -0.82585 31001.15782 length 0.00158 color 0 0 1 }
Segment { rot -0.94855 0 -0.31664 2.18934 offset 0.02764 -0.82315 31001.16148 length 0.00791 color 0 0 1 }
Segment { rot -0.95638 0 -0.29213 2.1605 offset 0.02575 -0.81887 31001.16737 length 0.00713 color 0 0 1 }
Segment { rot -0.9539 0 -0.30013 2.16391 offset 0.02425 -0.81547 31001.17222 length 0.00509 color 0 0 1 }
Segment { rot -0.85944 0 -0.51123 2.75239 offset 0.02344 -0.81316 31001.17454 length 0.00191 color 0 0 1 }
Segment { rot -0.8563 0 -0.51648 2.63554 offset 0.02313 -0.81184 31001.17506 length 0.00099 color 0 0 1 }
Segment { rot -0.91143 0 -0.41145 2.63658 offset 0.02297 -0.81127 31001.17533 length 0.00031 color 0 0 1 }
Segment { rot -0.94959 0 -0.31349 2.67794 offset 0.02239 -0.80765 31001.17706 length 0.0078 color 0 0 1 }
Segment { rot -0.95199 0 -0.30612 2.66155 offset 0.02154 -0.80226 31001.17966 length 0.0043 color 0 0 1 }
Segment { rot -0.96677 0 -0.25564 2.62161 offset 0.02103 -0.7989 31001.18141 length 0.00334 color 0 0 1 }
Segment { rot -0.97011 0 -0.24266 2.67494 offset 0.02066 -0.79621 31001.18282 length 0.00278 color 0 0 1 }
Segment { rot -0.97906 0 -0.20356 2.65562 offset 0.02047 -0.79461 31001.18361 length 0.00081 color 0 0 1 }
Segment { rot -0.98169 0 -0.19047 2.64911 offset 0.02041 -0.79402 31001.18392 length 0.00055 color 0 0 1 }
Segment { rot 0.50666 0 0.86214 1.49534 offset 0.0236 -0.79406 31001.18216 length 0.00748 color 0 0 1 }
Segment { rot 0.45408 0 0.89096 1.46264 offset 0.03121 -0.79487 31001.17802 length 0.00993 color 0 0 1 }
Segment { rot 0.39098 0 0.9204 1.46457 offset 0.03582 -0.79544 31001.17569 length 0.00047 color 0 0 1 }
Segment { rot 0.20115 0 0.97956 1.33773 offset 0.03915 -0.79621 31001.17496 length 0.00653 color 0 0 1 }
Segment { rot 0.24637 0 0.96918 1.39199 offset 0.04653 -0.79776 31001.17324 length 0.00896 color 0 0 1 }
Segment { rot 0.1436 0 0.98964 1.40204 offset 0.05165 -0.79871 31001.17203 length 0.00174 color 0 0 1 }
Segment { rot 0.10114 0 0.99487 1.42253 offset 0.05311 -0.79895 31001.17184 length 0.00123 color 0 0 1 }
Segment { rot 0.06975 0 0.99756 1.40922 offset 0.05473 -0.7992 31001.17171 length 0.00206 color 0 0 1 }
Segment { rot 0.19389 0 0.98102 1.41279 offset 0.0651 -0.80089 31001.16979 length 0.01931 color 0 0 1 }
Segment { rot 0.30062 0 0.95375 1.08441 offset 0.07478 -0.80259 31001.16784 length 0.00078 color 0 0 1 }
Segment { rot 0.2846 0 0.95865 0.9812 offset 0.07649 -0.80374 31001.16733 length 0.00347 color 0 0 1 }
Segment { rot 0.3293 0 0.94423 1.05067 offset 0.07937 -0.80561 31001.16639 length 0.00365 color 0 0 1 }
Segment { rot 0.34595 0 0.93825 1.12517 offset 0.08478 -0.80851 31001.16443 length 0.00925 color 0 0 1 }
Segment { rot 0.41547 0 0.90961 1.11596 offset 0.08955 -0.81096 31001.16259 length 0.0021 color 0 0 1 }
Segment { rot 0.42142 0 0.90687 0.90205 offset 0.09207 -0.81287 31001.16143 length 0.00467 color 0 0 1 }
Segment { rot 0.3037 0 0.95277 0.92044 offset 0.09465 -0.81505 31001.16036 length 0.00242 color 0 0 1 }
Segment { rot 0.34326 0 0.93924 1.01563 offset 0.10077 -0.81922 31001.15817 length 0.01303 color 0 0 1 }
Segment { rot 0.31043 0 0.95059 1.00533 offset 0.10693 -0.82329 31001.15596 length 0.00237 color 0 0 1 }
Segment { rot 0.22859 0 0.97352 0.99306 offset 0.11079 -0.82588 31001.15496 length 0.00713 color 0 0 1 }
Segment { rot 0.26846 0 0.96329 0.90998 offset 0.11568 -0.82943 31001.15373 length 0.00522 color 0 0 1 }
Segment { rot 0.31061 0 0.95054 0.91356 offset 0.1193 -0.83235 31001.15264 length 0.00433 color 0 0 1 }
Segment { rot 0.38037 0 0.92483 0.87223 offset 0.12615 -0.83842 31001.14996 length 0.01475 color 0 0 1 }
Segment { rot 0.27725 0 0.9608 0.84481 offset 0.13343 -0.84506 31001.14722 length 0.00573 color 0 0 1 }
Segment { rot 0.41495 0 0.90985 0.92031 offset 0.13565 -0.8471 31001.14655 length 0.00046 color 0 0 1 }
Segment { rot 0.43015 0 0.90276 0.91294 offset 0.13793 -0.84904 31001.14547 length 0.00591 color 0 0 1 }
Segment { rot 0.36567 0 0.93075 0.93764 offset 0.1423 -0.85263 31001.14358 length 0.00603 color 0 0 1 }
Segment { rot 0.83794 0 0.54576 1.12521 offset 0.14541 -0.85516 31001.14138 length 0.00345 color 0 0 1 }
Segment { rot 0.88403 0 0.46744 0.97021 offset 0.14654 -0.85632 31001.13954 length 0.00146 color 0 0 1 }
Segment { rot 0.61672 0 -0.78718 2.40522 offset 0.14579 -0.85528 31001.1382 length 0.00392 color 0 0 1 }
Segment { rot 0.63405 0 -0.77329 2.39828 offset 0.14422 -0.85307 31001.13695 length 0.00206 color 0 0 1 }
Segment { rot 0.63944 0 -0.76884 2.37899 offset 0.14348 -0.85204 31001.13634 length 0.00075 color 0 0 1 }
Segment { rot 0.56355 0 -0.82608 2.35657 offset 0.14211 -0.85035 31001.13538 length 0.00401 color 0 0 1 }
Segment { rot 0.4798 0 -0.87738 2.07327 offset 0.13544 -0.84549 31001.13157 length 0.0143 color 0 0 1 }
Segment { rot 0.46436 0 -0.88565 2.15619 offset 0.12966 -0.84183 31001.12842 length 0.00076 color 0 0 1 }
Segment { rot 0.57547 0 -0.81782 2.22591 offset 0.12737 -0.83973 31001.12685 length 0.00621 color 0 0 1 }
Segment { rot 0.55844 0 -0.82954 2.16109 offset 0.12513 -0.83766 31001.12529 length 0.00064 color 0 0 1 }
Segment { rot 0.43459 0 -0.90063 2.0592 offset 0.12366 -0.83675 31001.12453 length 0.00316 color 0 0 1 }
Segment { rot -0.09326 0 -0.99564 2.05513 offset 0.12077 -0.83514 31001.12408 length 0.0037 color 0 0 1 }
Segment { rot -0.1124 0 -0.99366 2.04622 offset 0.11866 -0.83403 31001.12429 length 0.00109 color 0 0 1 }
Segment { rot -0.09147 0 -0.99581 2.04451 offset 0.11662 -0.83298 31001.12448 length 0.00352 color 0 0 1 }
Segment { rot -0.10311 0 -0.99467 2.05703 offset 0.11485 -0.83206 31001.12465 length 0.00049 color 0 0 1 }
Segment { rot -0.11543 0 -0.99332 2.07843 offset 0.11431 -0.83177 31001.12471 length 0.00074 color 0 0 1 }
Segment { rot -0.12188 0 -0.99254 2.15795 offset 0.11189 -0.83018 31001.125 length 0.00509 color 0 0 1 }
Segment { rot -0.12109 0 -0.99264 2.14977 offset 0.10536 -0.82585 31001.1258 length 0.01067 color 0 0 1 }
Segment { rot -0.21003 0 -0.9777 2.03388 offset 0.10017 -0.82255 31001.12651 length 0.00172 color 0 0 1 }
Segment { rot -0.22865 0 -0.97351 2.10337 offset 0.09937 -0.82214 31001.12668 length 0.00012 color 0 0 1 }
Segment { rot -0.30555 0 -0.95218 2.07282 offset 0.0969 -0.82071 31001.12747 length 0.00579 color 0 0 1 }
Segment { rot -0.54342 0 -0.83946 1.75213 offset 0.09405 -0.81923 31001.12852 length 0.00105 color 0 0 1 }
Segment { rot -0.5059 0 -0.86259 1.81474 offset 0.09267 -0.81886 31001.12936 length 0.00227 color 0 0 1 }
Segment { rot -0.45016 0 -0.89295 1.7245 offset 0.08948 -0.81819 31001.13105 length 0.00506 color 0 0 1 }
Segment { rot -0.39066 0 -0.92054 1.7528 offset 0.0864 -0.81764 31001.13253 length 0.00187 color 0 0 1 }
Segment { rot -0.39156 0 -0.92015 1.86073 offset 0.08511 -0.81733 31001.13308 length 0.001 color 0 0 1 }
Segment { rot -0.3239 0 -0.94609 1.96862 offset 0.08388 -0.81683 31001.13354 length 0.00182 color 0 0 1 }
Segment { rot -0.32201 0 -0.94674 1.98397 offset 0.08256 -0.81623 31001.13399 length 0.00122 color 0 0 1 }
Segment { rot -0.27629 0 -0.96107 2.10419 offset 0.08152 -0.81568 31001.13431 length 0.00122 color 0 0 1 }
Segment { rot -0.40496 0 -0.91433 2.20471 offset 0.07878 -0.81357 31001.13545 length 0.00609 color 0 0 1 }
Segment { rot -0.48639 0 -0.87374 2.23159 offset 0.07602 -0.8113 31001.13674 length 0.00151 color 0 0 1 }
Segment { rot -0.49438 0 -0.86925 2.20925 offset 0.07492 -0.81035 31001.13735 length 0.00164 color 0 0 1 }
Segment { rot -0.48469 0 -0.87469 2.20806 offset 0.07242 -0.80822 31001.13875 length 0.00549 color 0 0 1 }
Segment { rot -0.51202 0 -0.85897 2.22015 offset 0.06943 -0.80566 31001.14044 length 0.00308 color 0 0 1 }
Segment { rot -0.55393 0 -0.83257 2.31149 offset 0.06738 -0.80363 31001.14174 length 0.00324 color 0 0 1 }
Segment { rot -0.37565 0 -0.92676 2.15716 offset 0.06383 -0.8007 31001.14344 length 0.00663 color 0 0 1 }
Segment { rot -0.33256 0 -0.94308 2.17829 offset 0.05552 -0.79463 31001.1465 length 0.01485 color 0 0 1 }
Segment { rot 0.41015 0 -0.91202 2.2413 offset 0.04693 -0.78792 31001.14725 length 0.00795 color 0 0 1 }
Segment { rot 0.49727 0 -0.86759 2.24176 offset 0.04283 -0.7843 31001.14525 length 0.00371 color 0 0 1 }
Segment { rot 0.82217 0 -0.56924 2.61648 offset 0.0411 -0.78175 31001.14386 length 0.00323 color 0 0 1 }
Segment { rot 0.85329 0 -0.52143 2.62868 offset 0.04009 -0.77845 31001.14229 length 0.00435 color 0 0 1 }
Segment { rot 0.82507 0 -0.56503 2.54623 offset 0.03952 -0.77654 31001.14137 length 0.00005 color 0 0 1 }
Segment { rot 0.79903 0 -0.60129 2.45473 offset 0.03873 -0.77494 31001.14032 length 0.0041 color 0 0 1 }
Segment { rot 0.76433 0 -0.64482 2.47437 offset 0.03761 -0.77267 31001.13887 length 0.00175 color 0 0 1 }
Segment { rot 0.77461 0 -0.63244 2.45455 offset 0.0347 -0.76704 31001.13532 length 0.01277 color 0 0 1 }
Segment { rot 0.77555 0 -0.63128 2.40002 offset 0.03096 -0.76008 31001.13074 length 0.0055 color 0 0 1 }
Segment { rot 0.75824 0 -0.65198 2.42967 offset 0.02968 -0.75785 31001.12917 length 0.00051 color 0 0 1 }
Segment { rot 0.7607 0 -0.6491 2.39217 offset 0.02915 -0.75696 31001.12855 length 0.0019 color 0 0 1 }
Segment { rot 0.76355 0 -0.64575 2.40098 offset 0.02723 -0.75373 31001.12628 length 0.00688 color 0 0 1 }
Segment { rot 0.93954 0 -0.34244 2.58027 offset 0.02488 -0.74724 31001.12218 length 0.00933 color 0 0 1 }
Segment { rot 0.75453 0 -0.65627 2.53857 offset 0.02393 -0.74307 31001.11973 length 0.00053 color 0 0 1 }
Segment { rot 0.77473 0 -0.63229 2.60758 offset 0.02361 -0.74227 31001.11935 length 0.00137 color 0 0 1 }
Segment { rot 0.48622 0 -0.87384 2.45791 offset 0.02328 -0.74152 31001.11902 length 0.0004 color 0 0 1 }
Segment { rot 0.60232 0 -0.79825 2.62354 offset 0.02277 -0.74048 31001.11865 length 0.00205 color 0 0 1 }
Segment { rot 0.64666 0 -0.76277 2.61039 offset 0.02222 -0.73926 31001.11822 length 0.00075 color 0 0 1 }
Segment { rot 0.7419 0 -0.67051 2.62682 offset 0.02179 -0.73819 31001.11778 length 0.00172 color 0 0 1 }
Segment { rot 0.86516 0 -0.5015 2.62241 offset 0.02148 -0.73738 31001.11744 length 0.00015 color 0 0 1 }
Segment { rot 0.81955 0 -0.573 2.58558 offset 0.02061 -0.7349 31001.11618 length 0.00568 color 0 0 1 }
Segment { rot 0.79729 0 -0.60359 2.68922 offset 0.01955 -0.73183 31001.11469 length 0.00148 color 0 0 1 }
Segment { rot 0.99169 0 -0.12862 2.78899 offset 0.01926 -0.72901 31001.11365 length 0.00459 color 0 0 1 }
Segment { rot 0.989 0 0.1479 2.80909 offset 0.0193 -0.72392 31001.11186 length 0.00621 color 0 0 1 }
Segment { rot 0.96423 0 -0.26506 2.93387 offset 0.01925 -0.71727 31001.1101 length 0.00759 color 0 0 1 }
Segment { rot 0.98724 0 -0.15924 2.65733 offset 0.01902 -0.71337 31001.10926 length 0.0004 color 0 0 1 }
Segment { rot 0.99676 0 -0.08049 2.27391 offset 0.01899 -0.71299 31001.10892 length 0.00063 color 0 0 1 }
Segment { rot 0.97586 0 0.2184 2.01827 offset 0.01938 -0.71189 31001.10686 length 0.00414 color 0 0 1 }
Segment { rot 0.95033 0 0.31125 2.01009 offset 0.0215 -0.70842 31001.09982 length 0.01215 color 0 0 1 }
Segment { rot 0.94555 0 0.32547 2.0038 offset 0.02322 -0.70582 31001.09457 length 0.00007 color 0 0 1 }
Segment { rot 0.91219 0 0.40976 2.21884 offset 0.02372 -0.7049 31001.09345 length 0.00299 color 0 0 1 }
Segment { rot 0.89139 0 0.45323 2.21 offset 0.02427 -0.70389 31001.09223 length 0.00036 color 0 0 1 }
Segment { rot 0.99932 0 -0.03678 1.82034 offset 0.02421 -0.70291 31001.08865 length 0.00714 color 0 0 1 }
Segment { rot 0.99988 0 0.01556 1.84194 offset 0.02408 -0.70198 31001.08502 length 0.00035 color 0 0 1 }
Segment { rot 0.97515 0 0.22153 1.76992 offset 0.02411 -0.70191 31001.08475 length 0.00022 color 0 0 1 }
Segment { rot 0.9908 0 0.1353 1.71365 offset 0.02448 -0.70151 31001.08208 length 0.00523 color 0 0 1 }
Segment { rot 0.99436 0 0.10609 1.67766 offset 0.02509 -0.70088 31001.07712 length 0.00484 color 0 0 1 }
Segment { rot 0.99629 0 0.08604 1.64569 offset 0.02561 -0.7004 31001.07168 length 0.00613 color 0 0 1 }
Segment { rot 0.99657 0 0.08272 1.64826 offset 0.02628 -0.69978 31001.06369 length 0.00996 color 0 0 1 }
Segment { rot 0.99952 0 -0.03085 1.6179 offset 0.02668 -0.69938 31001.05839 length 0.0007 color 0 0 1 }
Segment { rot 0.99313 0 -0.11702 1.78059 offset 0.02665 -0.69933 31001.05789 length 0.00032 color 0 0 1 }
Segment { rot 0.65556 0 -0.75514 1.57318 offset 0.02602 -0.69929 31001.0572 length 0.00163 color 0 0 1 }
Segment { rot 0.64886 0 -0.76091 1.62728 offset 0.02473 -0.69924 31001.0561 length 0.00177 color 0 0 1 }
Segment { rot 0.6649 0 -0.74693 1.53304 offset 0.02185 -0.6993 31001.05356 length 0.00592 color 0 0 1 }
Segment { rot 0.58815 0 -0.80875 1.48022 offset 0.01802 -0.6996 31001.05041 length 0.00402 color 0 0 1 }
Segment { rot 0.58747 0 -0.80925 1.48259 offset 0.01403 -0.70004 31001.04751 length 0.00589 color 0 0 1 }
Segment { rot -0.99369 0 -0.11216 0.68859 offset 0.01151 -0.70186 31001.04706 length 0.00404 color 0 0 1 }
Segment { rot -0.9974 0 -0.07213 0.79021 offset 0.01133 -0.70391 31001.04883 length 0.00139 color 0 0 1 }
Segment { rot -0.99757 0 0.06972 0.67334 offset 0.01131 -0.70476 31001.04961 length 0.00093 color 0 0 1 }
Segment { rot -0.99932 0 -0.0368 1.27302 offset 0.01119 -0.70628 31001.05365 length 0.00785 color 0 0 1 }
Segment { rot -0.99816 0 0.06063 1.32078 offset 0.01113 -0.70772 31001.05854 length 0.00236 color 0 0 1 }
Segment { rot -0.99862 0 0.05254 1.31198 offset 0.01132 -0.70867 31001.06216 length 0.00513 color 0 0 1 }
Segment { rot -0.99884 0 0.04825 1.29279 offset 0.01152 -0.70972 31001.06602 length 0.0029 color 0 0 1 }
Segment { rot -0.99983 0 0.01819 1.26671 offset 0.0116 -0.71031 31001.06802 length 0.00126 color 0 0 1 }
Segment { rot -0.99397 0 0.10968 1.24253 offset 0.01178 -0.71101 31001.07012 length 0.00319 color 0 0 1 }
Segment { rot -0.9953 0 0.0968 1.16542 offset 0.01204 -0.71194 31001.07258 length 0.0021 color 0 0 1 }
Segment { rot -0.994 0 0.10936 1.29576 offset 0.01226 -0.71269 31001.07473 length 0.00248 color 0 0 1 }
Segment { rot -0.99471 0 0.10273 1.28504 offset 0.0125 -0.71334 31001.07697 length 0.00222 color 0 0 1 }
Segment { rot -0.99852 0 0.05442 1.17524 offset 0.01265 -0.71395 31001.07874 length 0.00154 color 0 0 1 }
Segment { rot -0.99858 0 0.05333 1.19097 offset 0.01272 -0.71453 31001.08016 length 0.00153 color 0 0 1 }
Segment { rot -0.99999 0 -0.00445 1.12323 offset 0.01276 -0.71528 31001.08183 length 0.00213 color 0 0 1 }
Segment { rot -0.9983 0 -0.05822 1.0782 offset 0.01264 -0.71678 31001.08474 length 0.00443 color 0 0 1 }
Segment { rot -0.99999 0 0.00415 0.94036 offset 0.01253 -0.71795 31001.08685 length 0.00041 color 0 0 1 }
Segment { rot -0.99984 0 0.01799 0.93145 offset 0.01256 -0.71946 31001.08889 length 0.00466 color 0 0 1 }
Segment { rot -0.93133 0 0.36416 0.92613 offset 0.01277 -0.72122 31001.09121 length 0.00121 color 0 0 1 }
Segment { rot -0.94733 0 0.32027 0.91506 offset 0.01328 -0.72239 31001.09265 length 0.00264 color 0 0 1 }
Segment { rot -0.947 0 0.32122 0.93365 offset 0.01493 -0.72622 31001.09751 length 0.01016 color 0 0 1 }
Segment { rot -0.90929 0 0.41617 0.92872 offset 0.01765 -0.73177 31001.10446 length 0.00846 color 0 0 1 }
Segment { rot -0.93097 0 0.36509 1.00005 offset 0.01935 -0.73482 31001.10828 length 0.00188 color 0 0 1 }
Segment { rot -0.96441 0 0.26439 0.99085 offset 0.02017 -0.73662 31001.11093 length 0.00474 color 0 0 1 }
Segment { rot -0.89589 0 -0.44427 1.30688 offset 0.02024 -0.7382 31001.11376 length 0.00212 color 0 0 1 }
Segment { rot -0.90846 0 -0.41797 1.28408 offset 0.0191 -0.73896 31001.11616 length 0.00341 color 0 0 1 }
Segment { rot -0.97319 0 -0.23 1.32355 offset 0.01739 -0.74057 31001.12199 length 0.00919 color 0 0 1 }
Segment { rot -0.97513 0 -0.22162 1.33982 offset 0.01598 -0.7421 31001.12802 length 0.00357 color 0 0 1 }
Segment { rot -0.99032 0 -0.13881 1.27222 offset 0.01518 -0.74344 31001.1327 length 0.00632 color 0 0 1 }
Segment { rot -0.98981 0 -0.1424 1.29254 offset 0.01464 -0.74461 31001.13652 length 0.00174 color 0 0 1 }
Segment { rot -0.99559 0 -0.09377 1.30975 offset 0.0144 -0.74519 31001.13865 length 0.00271 color 0 0 1 }
Segment { rot -0.99773 0 -0.0673 1.27624 offset 0.01415 -0.7461 31001.14178 length 0.00382 color 0 0 1 }
Segment { rot -0.99985 0 -0.01743 1.30839 offset 0.01397 -0.74748 31001.14669 length 0.0064 color 0 0 1 }
Segment { rot -0.98012 0 -0.19839 1.37742 offset 0.01387 -0.74836 31001.15003 length 0.00052 color 0 0 1 }
Segment { rot -0.98702 0 -0.16057 1.3591 offset 0.01296 -0.74956 31001.15554 length 0.01091 color 0 0 1 }
Segment { rot -0.99133 0 -0.13142 1.42376 offset 0.01199 -0.75084 31001.16172 length 0.00185 color 0 0 1 }
Segment { rot -0.94973 0 -0.31307 1.51247 offset 0.01186 -0.75098 31001.16265 length 0.00005 color 0 0 1 }
Segment { rot -0.93165 0 -0.36336 1.51558 offset 0.01143 -0.75104 31001.16376 length 0.00234 color 0 0 1 }
Segment { rot -0.94144 0 -0.33719 1.55664 offset 0.01098 -0.75111 31001.1649 length 0.00011 color 0 0 1 }
Segment { rot -0.94249 0 -0.33424 1.55693 offset 0.0103 -0.75114 31001.16683 length 0.004 color 0 0 1 }
Segment { rot -0.94251 0 -0.33417 1.56788 offset 0.00906 -0.75117 31001.17031 length 0.00338 color 0 0 1 }
Segment { rot -0.94118 0 -0.33791 1.64759 offset 0.00621 -0.75065 31001.17826 length 0.01356 color 0 0 1 }
Segment { rot -0.94186 0 -0.336 1.70461 offset 0.00374 -0.75006 31001.18515 length 0.00112 color 0 0 1 }
Segment { rot -0.93925 0 -0.34324 1.68909 offset 0.00218 -0.74951 31001.18943 length 0.00805 color 0 0 1 }
Segment { rot -0.87334 0 -0.48711 2.10905 offset -0.00037 -0.74759 31001.1953 length 0.00565 color 0 0 1 }
Segment { rot -0.93533 0 -0.35379 2.01803 offset -0.00249 -0.74486 31001.19991 length 0.0059 color 0 0 1 }
Segment { rot -0.94815 0 -0.31783 1.94141 offset -0.00344 -0.74358 31001.20242 length 0.00006 color 0 0 1 }
Segment { rot -0.97605 0 -0.21755 1.90634 offset -0.00365 -0.74324 31001.20335 length 0.00195 color 0 0 1 }
Segment { rot -0.96753 0 -0.25275 1.9413 offset -0.00418 -0.74242 31001.2055 length 0.00277 color 0 0 1 }
Segment { rot -0.99579 0 0.09164 1.32941 offset -0.00409 -0.74304 31001.21127 length 0.00935 color 0 0 1 }
Segment { rot -0.99809 0 0.06181 1.3456 offset -0.00365 -0.74425 31001.21618 length 0.00081 color 0 0 1 }
Segment { rot -0.96958 0 0.24476 1.43086 offset -0.00313 -0.74462 31001.21853 length 0.00407 color 0 0 1 }
Segment { rot -0.97073 0 0.24016 1.4545 offset -0.00157 -0.74542 31001.22479 length 0.00893 color 0 0 1 }
Segment { rot -0.98034 0 0.19731 1.46852 offset 0 -0.74621 31001.23161 length 0.00517 color 0 0 1 }
Segment { rot -0.98876 0 0.14951 1.50039 offset 0.00055 -0.74649 31001.23438 length 0.00049 color 0 0 1 }
Segment { rot -0.99085 0 0.135 1.49308 offset 0.00098 -0.74673 31001.23755 length 0.00593 color 0 0 1 }
Segment { rot -0.83897 0 0.54417 1.05616 offset 0.00345 -0.74911 31001.24366 length 0.00873 color 0 0 1 }
Segment { rot -0.817 0 0.57663 1.12855 offset 0.00574 -0.75145 31001.24717 length 0.00087 color 0 0 1 }
Segment { rot -0.78631 0 0.61784 1.18626 offset 0.00843 -0.75324 31001.25063 length 0.0086 color 0 0 1 }
Segment { rot -0.73369 0 0.67949 1.2753 offset 0.01338 -0.75597 31001.25644 length 0.00764 color 0 0 1 }
Segment { rot -0.28916 0 0.95728 1.31242 offset 0.0189 -0.75792 31001.26004 length 0.00657 color 0 0 1 }
Segment { rot -0.2836 0 0.95894 1.34309 offset 0.02287 -0.75899 31001.26124 length 0.00199 color 0 0 1 }
Segment { rot -0.01656 0 0.99986 1.45944 offset 0.02398 -0.75923 31001.26152 length 0.00035 color 0 0 1 }
Segment { rot -0.08662 0 0.99624 1.32756 offset 0.02921 -0.76051 31001.26196 length 0.01045 color 0 0 1 }
Segment { rot -0.09275 0 0.99569 1.31515 offset 0.03454 -0.76184 31001.26242 length 0.00058 color 0 0 1 }
Segment { rot -0.14009 0 0.99014 1.34254 offset 0.03643 -0.76229 31001.26268 length 0.00335 color 0 0 1 }
Segment { rot -0.10203 0 0.99478 1.29413 offset 0.03824 -0.76273 31001.26293 length 0.0004 color 0 0 1 }
Segment { rot 0.06436 0 0.99793 1.12798 offset 0.03846 -0.7628 31001.26294 length 0.00006 color 0 0 1 }
Segment { rot 0.12887 0 0.99166 1.21729 offset 0.04072 -0.76364 31001.26265 length 0.0048 color 0 0 1 }
Segment { rot 0.74309 0 0.66919 0.7349 offset 0.04326 -0.76498 31001.26202 length 0.00137 color 0 0 1 }
Segment { rot 0.62981 0 0.77675 0.89985 offset 0.04366 -0.76558 31001.26161 length 0.00028 color 0 0 1 }
Segment { rot 0.85012 0 0.52659 0.45714 offset 0.04378 -0.76582 31001.26148 length 0.00034 color 0 0 1 }
Segment { rot -0.52437 0 -0.85149 0.83626 offset 0.04362 -0.76619 31001.26154 length 0.00064 color 0 0 1 }
Segment { rot -0.45495 0 -0.89052 0.84278 offset 0.04339 -0.76643 31001.26168 length 0.00008 color 0 0 1 }
Segment { rot -0.38878 0 -0.92133 1.0182 offset 0.03927 -0.7692 31001.26342 length 0.01045 color 0 0 1 }
Segment { rot -0.29689 0 -0.95491 1.01847 offset 0.03478 -0.77219 31001.26527 length 0.00097 color 0 0 1 }
Segment { rot -0.73612 0 -0.67685 1.43037 offset 0.03403 -0.77252 31001.26577 length 0.00105 color 0 0 1 }
Segment { rot -0.6998 0 -0.71434 1.56959 offset 0.03023 -0.7726 31001.26953 length 0.00965 color 0 0 1 }
Segment { rot -0.62405 0 -0.78138 1.45845 offset 0.02585 -0.77274 31001.27365 length 0.0024 color 0 0 1 }
Segment { rot -0.5988 0 -0.8009 1.38058 offset 0.02175 -0.77364 31001.27677 length 0.00807 color 0 0 1 }
Segment { rot -0.8977 0 -0.4406 1.19997 offset 0.01821 -0.77473 31001.2799 length 0.0018 color 0 0 1 }
Segment { rot -0.92094 0 -0.3897 1.29701 offset 0.01707 -0.77561 31001.28247 length 0.0041 color 0 0 1 }
Segment { rot -0.94404 0 -0.32982 1.28981 offset 0.01612 -0.77632 31001.28479 length 0.00111 color 0 0 1 }
Segment { rot -0.92315 0 -0.38443 1.37225 offset 0.01588 -0.7765 31001.28546 length 0.00035 color 0 0 1 }
Segment { rot -0.90897 0 -0.41687 1.36829 offset 0.01552 -0.77668 31001.28624 length 0.00142 color 0 0 1 }
Segment { rot -0.9341 0 -0.357 1.34018 offset 0.01427 -0.77746 31001.2894 length 0.00555 color 0 0 1 }
Segment { rot -0.89443 0 -0.4472 1.24149 offset 0.01226 -0.77889 31001.294 length 0.00491 color 0 0 1 }
Segment { rot -0.73012 0 -0.68332 1.34141 offset 0.01041 -0.77996 31001.29695 length 0.00245 color 0 0 1 }
Segment { rot -0.78985 0 -0.61329 1.27047 offset 0.00761 -0.78124 31001.30038 length 0.00679 color 0 0 1 }
Segment { rot -0.77505 0 -0.6319 1.21021 offset 0.00549 -0.78232 31001.3031 length 0.00042 color 0 0 1 }
Segment { rot 0.489 0 -0.87228 1.11809 offset 0.00513 -0.78253 31001.30312 length 0.00062 color 0 0 1 }
Segment { rot 0.50527 0 -0.86296 1.14376 offset 0.00488 -0.78267 31001.30297 length 0.00002 color 0 0 1 }
Segment { rot 0.44937 0 -0.89335 1.14045 offset 0.00479 -0.78272 31001.30293 length 0.00019 color 0 0 1 }
Segment { rot 0.45006 0 -0.893 1.13096 offset 0.00461 -0.78281 31001.30284 length 0.00024 color 0 0 1 }
Segment { rot 0.13275 0 -0.99115 1.16832 offset 0.00404 -0.78306 31001.30273 length 0.00104 color 0 0 1 }
Segment { rot -0.54833 0 -0.83626 0.81446 offset 0.00237 -0.78462 31001.30345 length 0.00396 color 0 0 1 }
Segment { rot -0.5718 0 -0.8204 0.74799 offset 0.00099 -0.78621 31001.30437 length 0.00063 color 0 0 1 }
Segment { rot -0.60228 0 -0.79828 0.71847 offset 0.00077 -0.7865 31001.30452 length 0.00016 color 0 0 1 }
Segment { rot -0.52756 0 -0.84952 0.75983 offset 0.00064 -0.78667 31001.30461 length 0.0003 color 0 0 1 }
Segment { rot 0.70877 0 -0.70544 0.23479 offset 0.00027 -0.78848 31001.30437 length 0.00349 color 0 0 1 }
Segment { rot 0.61405 0 -0.78927 0.29563 offset -0.00051 -0.79222 31001.3037 length 0.00428 color 0 0 1 }
Segment { rot 0.73284 0 -0.68041 0.36554 offset -0.00185 -0.79751 31001.30241 length 0.00693 color 0 0 1 }
Segment { rot 0.99661 0 0.08226 0.51493 offset -0.0026 -0.80263 31001.30044 length 0.00434 color 0 0 1 }
Segment { rot 0.97673 0 0.21446 0.56898 offset -0.00229 -0.80616 31001.29835 length 0.00391 color 0 0 1 }
Segment { rot -0.9926 0 -0.12144 1.819 offset -0.00233 -0.80725 31001.2995 length 0.00453 color 0 0 1 }
Segment { rot -1 0 -0.00199 1.73382 offset -0.0026 -0.80668 31001.3018 length 0.00025 color 0 0 1 }
Segment { rot -0.99568 0 0.09285 2.5882 offset -0.00255 -0.80578 31001.30246 length 0.00205 color 0 0 1 }
Segment { rot -0.99974 0 -0.02284 2.64627 offset -0.00251 -0.80416 31001.3034 length 0.00172 color 0 0 1 }
Segment { rot -0.98659 0 -0.16322 2.64917 offset -0.00255 -0.803 31001.30402 length 0.00091 color 0 0 1 }
Segment { rot -0.98145 0 -0.19172 2.68272 offset -0.00272 -0.8012 31001.30491 length 0.00312 color 0 0 1 }
Segment { rot -0.97674 0 -0.21444 2.64826 offset -0.00298 -0.79871 31001.30617 length 0.00249 color 0 0 1 }
Segment { rot -0.97915 0 -0.20315 2.65411 offset -0.00311 -0.79753 31001.30678 length 0.00018 color 0 0 1 }
Segment { rot -0.94984 0 -0.31274 2.6374 offset -0.00334 -0.79615 31001.30751 length 0.00297 color 0 0 1 }
Segment { rot -0.95645 0 -0.29188 2.62284 offset -0.00392 -0.79276 31001.30933 length 0.00482 color 0 0 1 }
Segment { rot -0.99755 0 -0.07002 2.645 offset -0.00432 -0.78916 31001.31129 length 0.00342 color 0 0 1 }
Segment { rot -0.99999 0 0.00487 2.57461 offset -0.00438 -0.78753 31001.31218 length 0.0003 color 0 0 1 }
Segment { rot -0.99913 0 0.04168 2.59094 offset -0.00432 -0.78513 31001.31365 length 0.00534 color 0 0 1 }
Segment { rot -0.99989 0 -0.01498 2.59601 offset -0.00427 -0.78171 31001.31575 length 0.00269 color 0 0 1 }
Segment { rot -0.99999 0 0.00385 2.62311 offset -0.00428 -0.77941 31001.3171 length 0.00266 color 0 0 1 }
Segment { rot -0.65734 0 -0.75359 1.88326 offset -0.00481 -0.77802 31001.31823 length 0.00149 color 0 0 1 }
Segment { rot -0.63742 0 -0.77052 1.97309 offset -0.00722 -0.77676 31001.32024 length 0.00528 color 0 0 1 }
Segment { rot -0.60676 0 -0.79489 2.07419 offset -0.01063 -0.77466 31001.32296 length 0.00441 color 0 0 1 }
Segment { rot -0.7797 0 -0.62616 2.16661 offset -0.01295 -0.77274 31001.32512 length 0.00306 color 0 0 1 }
Segment { rot -0.83575 0 -0.54912 2.15391 offset -0.01681 -0.76821 31001.33076 length 0.01335 color 0 0 1 }
Segment { rot -0.74009 0 -0.67251 2.12411 offset -0.02025 -0.76418 31001.33585 length 0.00136 color 0 0 1 }
Segment { rot 0.28494 0 0.95855 1.1873 offset -0.01902 -0.7645 31001.3358 length 0.00365 color 0 0 1 }
Segment { rot 0.47012 0 0.88261 1.12502 offset -0.0172 -0.76529 31001.33521 length 0.00049 color 0 0 1 }
Segment { rot 0.31139 0 0.95028 1.02108 offset -0.01683 -0.76551 31001.33504 length 0.00045 color 0 0 1 }
Segment { rot 0.40213 0 0.91558 0.96876 offset -0.01639 -0.76582 31001.33487 length 0.00067 color 0 0 1 }
Segment { rot 0.41824 0 0.90834 0.96554 offset -0.01568 -0.76636 31001.33455 length 0.00122 color 0 0 1 }
Segment { rot 0.6061 0 0.79539 0.78012 offset -0.01387 -0.76843 31001.33331 length 0.00485 color 0 0 1 }
Segment { rot 0.68567 0 0.72792 0.80695 offset -0.01213 -0.77065 31001.33192 length 0.00144 color 0 0 1 }
Segment { rot 0.47065 0 0.88232 0.76211 offset -0.01162 -0.77131 31001.33149 length 0.00045 color 0 0 1 }
Segment { rot 0.50913 0 0.86069 0.80341 offset -0.01128 -0.7717 31001.3313 length 0.00065 color 0 0 1 }
Segment { rot -0.18717 0 0.98233 0.31007 offset -0.01077 -0.77289 31001.33124 length 0.00204 color 0 0 1 }
Segment { rot -0.76219 0 0.64735 0.29708 offset -0.01045 -0.77398 31001.33132 length 0.00024 color 0 0 1 }
Segment { rot -0.3914 0 0.92022 0.47237 offset -0.0103 -0.77435 31001.3314 length 0.00058 color 0 0 1 }
Segment { rot -0.57878 0 0.81548 0.444 offset -0.00971 -0.77583 31001.33179 length 0.00272 color 0 0 1 }
Segment { rot -0.6812 0 0.7321 0.54376 offset -0.00864 -0.7784 31001.33268 length 0.00314 color 0 0 1 }
Segment { rot -0.28398 0 0.95883 0.18577 offset -0.00784 -0.78087 31001.33329 length 0.00228 color 0 0 1 }
Segment { rot -0.93802 0 0.34658 0.2942 offset -0.0076 -0.78231 31001.33344 length 0.00067 color 0 0 1 }
Segment { rot 0.9985 0 -0.05466 2.76302 offset -0.00758 -0.78235 31001.33342 length 0.0006 color 0 0 1 }
Segment { rot 0.79498 0 -0.60664 2.67357 offset -0.00765 -0.78185 31001.33322 length 0.00048 color 0 0 1 }
Segment { rot -0.55222 0 0.8337 0.93378 offset -0.00653 -0.78269 31001.33392 length 0.00353 color 0 0 1 }
Segment { rot -0.93282 0 -0.36035 1.57621 offset -0.00555 -0.78374 31001.33523 length 0.00113 color 0 0 1 }
Segment { rot -0.93184 0 -0.36286 1.7308 offset -0.00589 -0.78367 31001.33611 length 0.00076 color 0 0 1 }
Segment { rot -0.7498 0 -0.66166 1.83717 offset -0.007 -0.78321 31001.33756 length 0.00304 color 0 0 1 }
Segment { rot -0.7599 0 -0.65004 1.88307 offset -0.00826 -0.78267 31001.339 length 0.00094 color 0 0 1 }
Segment { rot -0.5231 0 -0.85227 1.25349 offset -0.00914 -0.78275 31001.33971 length 0.00145 color 0 0 1 }
Segment { rot -0.56265 0 -0.8267 1.2911 offset -0.00973 -0.78298 31001.34007 length 0.00001 color 0 0 1 }
Segment { rot -0.64441 0 -0.76468 1.1745 offset -0.00976 -0.78299 31001.3401 length 0.00008 color 0 0 1 }
Segment { rot -0.30577 0 -0.9521 2.3172 offset -0.01036 -0.78245 31001.3403 length 0.00164 color 0 0 1 }
Segment { rot -0.24875 0 -0.96857 2.1973 offset -0.01198 -0.78112 31001.34076 length 0.00265 color 0 0 1 }
Segment { rot -0.37465 0 -0.92717 2.289 offset -0.01394 -0.77947 31001.3414 length 0.00265 color 0 0 1 }
Segment { rot -0.17386 0 -0.98477 2.31588 offset -0.01495 -0.77852 31001.34179 length 0.00022 color 0 0 1 }
Segment { rot -0.73059 0 0.68282 1.97031 offset -0.01465 -0.77822 31001.3422 length 0.00121 color 0 0 1 }
Segment { rot -0.85359 0 0.52095 1.96877 offset -0.01411 -0.77786 31001.34286 length 0.00065 color 0 0 1 }
Segment { rot -0.84006 0 0.5425 2.07443 offset -0.01388 -0.77766 31001.34323 length 0.00031 color 0 0 1 }
Segment { rot -0.88146 0 0.47226 2.30667 offset -0.01376 -0.77748 31001.34344 length 0.00031 color 0 0 1 }
Segment { rot -0.06419 0 0.99794 1.36875 offset -0.01346 -0.77743 31001.34356 length 0.0005 color 0 0 1 }
Segment { rot -0.70194 0 0.71224 1.2701 offset -0.01315 -0.77751 31001.34364 length 0.00019 color 0 0 1 }
Segment { rot -0.54895 0 0.83585 1.09656 offset -0.01272 -0.77776 31001.34394 length 0.00099 color 0 0 1 }
Segment { rot -0.46104 0 0.88738 1.39401 offset -0.00969 -0.77852 31001.34557 length 0.00608 color 0 0 1 }
Segment { rot -0.85768 0 0.51419 1.10601 offset -0.00659 -0.77949 31001.34769 length 0.00194 color 0 0 1 }
Segment { rot -0.98134 0 0.19227 1.4497 offset -0.00609 -0.77996 31001.34875 length 0.00065 color 0 0 1 }
Segment { rot -0.95814 0 0.2863 1.46273 offset -0.006 -0.78001 31001.34914 length 0.00014 color 0 0 1 }
Segment { rot -0.92653 0 0.37622 1.36594 offset -0.00578 -0.78013 31001.34971 length 0.00111 color 0 0 1 }
Segment { rot -0.99931 0 0.0372 1.30121 offset -0.00551 -0.78068 31001.35179 length 0.00327 color 0 0 1 }
Segment { rot -0.98887 0 0.1488 1.23627 offset -0.00539 -0.78127 31001.35381 length 0.00094 color 0 0 1 }
Segment { rot -0.93852 0 0.34522 1.33061 offset -0.00526 -0.78147 31001.35441 length 0.00036 color 0 0 1 }
Segment { rot -0.9574 0 0.28878 1.24593 offset -0.00509 -0.78164 31001.35494 length 0.0008 color 0 0 1 }
Segment { rot -0.99879 0 0.04922 1.37031 offset -0.00497 -0.78183 31001.3556 length 0.00062 color 0 0 1 }
Segment { rot -0.96988 0 0.24359 0.71351 offset -0.00492 -0.78206 31001.35605 length 0.00045 color 0 0 1 }
Segment { rot -0.88411 0 0.46727 0.78381 offset -0.00471 -0.7826 31001.35651 length 0.00103 color 0 0 1 }
Segment { rot -0.89594 0 0.44417 0.6589 offset -0.00448 -0.78315 31001.35697 length 0.00048 color 0 0 1 }
Segment { rot -0.7756 0 0.63122 0.67763 offset -0.00437 -0.78342 31001.35715 length 0.00019 color 0 0 1 }
Segment { rot -0.82155 0 0.57014 0.78944 offset -0.00374 -0.78453 31001.35805 length 0.00294 color 0 0 1 }
Segment { rot -0.83408 0 0.55164 0.74364 offset -0.00307 -0.78572 31001.35903 length 0.00041 color 0 0 1 }
Segment { rot -0.44355 0 0.89625 0.69167 offset -0.00296 -0.78591 31001.35916 length 0.0001 color 0 0 1 }
Segment { rot -0.50845 0 0.86109 0.7772 offset -0.00282 -0.78608 31001.35924 length 0.00037 color 0 0 1 }
Segment { rot 0.67403 0 -0.73871 1.98422 offset -0.00317 -0.78594 31001.35888 length 0.00136 color 0 0 1 }
Segment { rot 0.90151 0 -0.43276 2.60692 offset -0.00367 -0.7855 31001.35837 length 0.00039 color 0 0 1 }
Segment { rot 0.9236 0 -0.38336 2.65683 offset -0.00375 -0.78517 31001.35821 length 0.00036 color 0 0 1 }
Segment { rot 0.3812 0 -0.92449 2.75007 offset -0.00397 -0.78452 31001.35805 length 0.00105 color 0 0 1 }
Segment { rot 0.27517 0 -0.9614 2.77738 offset -0.00419 -0.78394 31001.35797 length 0.0002 color 0 0 1 }
Segment { rot 0.22662 0 -0.97398 2.82314 offset -0.00446 -0.78309 31001.3579 length 0.00161 color 0 0 1 }
Segment { rot -0.98773 0 -0.15615 0.70928 offset -0.00473 -0.78245 31001.35795 length 0.00034 color 0 0 1 }
Segment { rot -0.3955 0 -0.91846 0.48016 offset -0.0049 -0.78292 31001.35813 length 0.00075 color 0 0 1 }
Segment { rot -0.83549 0 -0.54951 0.50001 offset -0.0051 -0.78336 31001.35825 length 0.00025 color 0 0 1 }
Segment { rot -0.79616 0 -0.60509 0.33485 offset -0.00514 -0.78353 31001.35831 length 0.00013 color 0 0 1 }
Segment { rot 0.48182 0 0.87627 0.32645 offset -0.00498 -0.78417 31001.35824 length 0.00122 color 0 0 1 }
Segment { rot -0.53637 0 -0.84399 2.81742 offset -0.00481 -0.78474 31001.35814 length 0.00001 color 0 0 1 }
Segment { rot -0.99311 0 -0.11715 2.45352 offset -0.00482 -0.78469 31001.35818 length 0.00012 color 0 0 1 }