#VRML V2.0 utf8
#Generated by NISTMonte
WorldInfo {
 title "NISTMonte Trajectory"
 info ["See http://www.cstl.nist.gov/div837/Division/home.html for more information"]
}
Viewpoint {
 fieldOfView 0.785398
 position 0 5 31000
 orientation -1 -0 -0 1.5708
 description "Y-Axis"
}
Viewpoint {
 fieldOfView 0.785398
 position 0 0 30995
 orientation 1 0 0 3.1415926
 description "Gun"
}
Viewpoint {
 fieldOfView 0.785398
 position -5 0 31000
 orientation 0 -1 0 1.5708
 description "X-Axis"
}




#Prototype for a trajectory segment
PROTO Segment [
 field SFRotation rot 1 0 0 0
 field SFVec3f offset 0 0 0
 field SFFloat length 0.1
 field SFColor color 1 1 1
]
{
 Transform {
  rotation IS rot
  translation IS offset
  children [
   Shape {
    geometry Cylinder {
     radius 0.001
     height IS length
    }
    appearance Appearance {
     material Material {
      emissiveColor IS color
     }
    }
   }
  ]
 }
}
Segment { rot -1 0 -0 1.5708 offset -0.00886 0.00643 31000.00239 length 0.00478 color 0 0 1 }
Segment { rot -0.99998 0 0.00638 1.59517 offset -0.00884 0.0065 31000.00762 length 0.00568 color 0 0 1 }
Segment { rot -0.99828 0 -0.05862 1.60341 offset -0.00885 0.00658 31000.01086 length 0.0008 color 0 0 1 }
Segment { rot -0.99725 0 0.07417 1.34539 offset -0.00843 0.00523 31000.01717 length 0.01216 color 0 0 1 }
Segment { rot -0.99877 0 0.04954 1.32378 offset -0.00776 0.0027 31000.02775 length 0.00964 color 0 0 1 }
Segment { rot -0.94587 0 0.32456 1.35322 offset -0.00698 0.00114 31000.03402 length 0.00347 color 0 0 1 }
Segment { rot -0.9174 0 0.39796 1.27238 offset -0.004 -0.00111 31000.04123 length 0.01278 color 0 0 1 }
Segment { rot -0.90209 0 0.43155 1.251 offset -0.00084 -0.00355 31000.04836 length 0.00356 color 0 0 1 }
Segment { rot -0.88282 0 0.46971 1.21324 offset 0.00113 -0.00509 31000.0522 length 0.0056 color 0 0 1 }
Segment { rot -0.89155 0 0.45292 1.22978 offset 0.00582 -0.00878 31000.06132 length 0.01621 color 0 0 1 }
Segment { rot -0.90699 0 0.42115 1.33908 offset 0.01159 -0.01279 31000.07311 length 0.01127 color 0 0 1 }
Segment { rot -0.9125 0 0.40908 1.34868 offset 0.01831 -0.01652 31000.08792 length 0.02212 color 0 0 1 }
Segment { rot -0.71406 0 0.70009 1.38963 offset 0.02501 -0.01955 31000.1001 length 0.00665 color 0 0 1 }
Segment { rot -0.87271 0 0.48824 1.36946 offset 0.02918 -0.02094 31000.1058 length 0.00788 color 0 0 1 }
Segment { rot -0.83601 0 0.54872 1.27221 offset 0.03163 -0.02204 31000.11003 length 0.00216 color 0 0 1 }
Segment { rot -0.85207 0 0.52342 1.26898 offset 0.03706 -0.02525 31000.11881 length 0.01945 color 0 0 1 }
Segment { rot -0.85111 0 0.52499 1.2543 offset 0.04225 -0.02835 31000.12725 length 0.00132 color 0 0 1 }
Segment { rot -0.85417 0 0.51999 1.22001 offset 0.0454 -0.03054 31000.13242 length 0.01156 color 0 0 1 }
Segment { rot -0.86366 0 0.50408 1.23738 offset 0.04934 -0.03329 31000.13897 length 0.00467 color 0 0 1 }
Segment { rot -0.8454 0 0.53414 1.2461 offset 0.05066 -0.03419 31000.14121 length 0.00083 color 0 0 1 }
Segment { rot -0.90836 0 0.4182 1.34956 offset 0.05138 -0.03459 31000.14265 length 0.00251 color 0 0 1 }
Segment { rot -0.91668 0 0.39962 1.15553 offset 0.05239 -0.03542 31000.14491 length 0.00273 color 0 0 1 }
Segment { rot -0.99725 0 -0.07406 0.74947 offset 0.05289 -0.03607 31000.14615 length 0.00027 color 0 0 1 }
Segment { rot -0.98623 0 -0.16539 0.72497 offset 0.05285 -0.03638 31000.14643 length 0.00058 color 0 0 1 }
Segment { rot -0.98639 0 -0.16444 0.72647 offset 0.0523 -0.04014 31000.14972 length 0.00948 color 0 0 1 }
Segment { rot -0.99999 0 0.00547 0.75709 offset 0.05178 -0.04392 31000.15304 length 0.00063 color 0 0 1 }
Segment { rot -0.99993 0 0.01204 0.75097 offset 0.05178 -0.0443 31000.15341 length 0.00044 color 0 0 1 }
Segment { rot -1 0 0.00263 0.79116 offset 0.05179 -0.04663 31000.15575 length 0.00616 color 0 0 1 }
Segment { rot -0.99997 0 -0.00833 0.78792 offset 0.05178 -0.05036 31000.15951 length 0.00443 color 0 0 1 }
Segment { rot -0.99286 0 -0.11927 0.71455 offset 0.05166 -0.05301 31000.16202 length 0.00288 color 0 0 1 }
Segment { rot -0.99501 0 -0.09979 0.67465 offset 0.05132 -0.05687 31000.16516 length 0.00711 color 0 0 1 }
Segment { rot -0.99247 0 -0.12252 0.70419 offset 0.05108 -0.05985 31000.16754 length 0.00052 color 0 0 1 }
Segment { rot -0.99712 0 -0.07588 0.76126 offset 0.05097 -0.06127 31000.16887 length 0.00338 color 0 0 1 }
Segment { rot -0.98187 0 -0.18956 0.75495 offset 0.05077 -0.06314 31000.17063 length 0.00178 color 0 0 1 }
Segment { rot -0.99149 0 -0.13017 0.73599 offset 0.05058 -0.0644 31000.17178 length 0.00164 color 0 0 1 }
Segment { rot -0.99829 0 -0.05838 0.69991 offset 0.05049 -0.06537 31000.17263 length 0.00094 color 0 0 1 }
Segment { rot -0.97961 0 0.20089 1.17 offset 0.05096 -0.06675 31000.1753 length 0.00526 color 0 0 1 }
Segment { rot -0.97105 0 0.23886 1.18526 offset 0.0521 -0.06889 31000.18033 length 0.0059 color 0 0 1 }
Segment { rot -0.99907 0 0.04301 1.08713 offset 0.05298 -0.07272 31000.18815 length 0.0117 color 0 0 1 }
Segment { rot -0.99917 0 0.04076 1.0688 offset 0.05321 -0.07557 31000.19357 length 0.00055 color 0 0 1 }
Segment { rot -0.99894 0 0.04604 0.99882 offset 0.05324 -0.076 31000.19427 length 0.0011 color 0 0 1 }
Segment { rot -0.99866 0 -0.05168 1.05754 offset 0.05323 -0.07658 31000.19523 length 0.00114 color 0 0 1 }
Segment { rot -0.99955 0 -0.02991 1.09321 offset 0.05306 -0.07936 31000.20056 length 0.01089 color 0 0 1 }
Segment { rot -0.99982 0 -0.01893 1.08937 offset 0.05285 -0.08369 31000.20889 length 0.00791 color 0 0 1 }
Segment { rot -0.99995 0 0.01023 1.01379 offset 0.0528 -0.08638 31000.21377 length 0.00324 color 0 0 1 }
Segment { rot -0.99769 0 -0.06796 1.10509 offset 0.05265 -0.08843 31000.21752 length 0.00531 color 0 0 1 }
Segment { rot -0.99925 0 -0.0388 1.09326 offset 0.05241 -0.09068 31000.22192 length 0.00458 color 0 0 1 }
Segment { rot -0.99922 0 0.03953 1.08522 offset 0.05244 -0.09318 31000.22669 length 0.00621 color 0 0 1 }
Segment { rot -0.99952 0 0.03111 1.07811 offset 0.05256 -0.09475 31000.22967 length 0.00053 color 0 0 1 }
Segment { rot -0.99947 0 0.03258 1.17884 offset 0.05261 -0.09542 31000.23121 length 0.00282 color 0 0 1 }
Segment { rot -0.99457 0 0.10408 1.15708 offset 0.0527 -0.09617 31000.233 length 0.00107 color 0 0 1 }
Segment { rot -0.99425 0 0.10713 1.18094 offset 0.05345 -0.09906 31000.23996 length 0.01407 color 0 0 1 }
Segment { rot -0.99542 0 0.09563 1.19859 offset 0.05417 -0.10183 31000.24667 length 0.00053 color 0 0 1 }
Segment { rot -0.99796 0 0.06391 1.18789 offset 0.05434 -0.10287 31000.24926 length 0.00507 color 0 0 1 }
Segment { rot -0.9996 0 0.0282 1.15361 offset 0.05479 -0.10837 31000.26188 length 0.02248 color 0 0 1 }
Segment { rot -0.97873 0 0.20515 1.19058 offset 0.05517 -0.11311 31000.27259 length 0.00096 color 0 0 1 }
Segment { rot -0.97799 0 0.20868 1.19866 offset 0.05555 -0.11383 31000.27439 length 0.00299 color 0 0 1 }
Segment { rot -0.97749 0 0.21099 1.15565 offset 0.05649 -0.11573 31000.27877 length 0.00674 color 0 0 1 }
Segment { rot -0.84553 0 0.53393 0.5897 offset 0.05944 -0.12351 31000.28542 length 0.01545 color 0 0 1 }
Segment { rot -0.80441 0 0.59408 0.58443 offset 0.06247 -0.13182 31000.29005 length 0.00452 color 0 0 1 }
Segment { rot -0.87117 0 0.49097 0.77291 offset 0.06459 -0.13658 31000.2935 length 0.00804 color 0 0 1 }
Segment { rot -0.93159 0 0.3635 0.93439 offset 0.0678 -0.1432 31000.30066 length 0.01258 color 0 0 1 }
Segment { rot -0.94212 0 0.33528 0.94368 offset 0.07034 -0.14844 31000.30732 length 0.00512 color 0 0 1 }
Segment { rot -0.9374 0 0.34826 0.96333 offset 0.07108 -0.15003 31000.30939 length 0.0003 color 0 0 1 }
Segment { rot -0.88381 0 0.46785 0.89734 offset 0.07313 -0.15353 31000.3133 length 0.01097 color 0 0 1 }
Segment { rot -0.86934 0 0.49421 0.70489 offset 0.07535 -0.15747 31000.31747 length 0.00137 color 0 0 1 }
Segment { rot -0.92116 0 0.38919 0.67692 offset 0.07561 -0.15811 31000.31795 length 0.00031 color 0 0 1 }
Segment { rot -0.938 0 0.34663 0.75834 offset 0.07711 -0.16269 31000.32199 length 0.01227 color 0 0 1 }
Segment { rot -0.94642 0 0.32294 0.68268 offset 0.07929 -0.16989 31000.32807 length 0.0071 color 0 0 1 }
Segment { rot -0.95813 0 0.28634 0.5907 offset 0.08025 -0.17385 31000.33096 length 0.00289 color 0 0 1 }
Segment { rot -0.95771 0 0.28774 0.6053 offset 0.08055 -0.17543 31000.33198 length 0.00093 color 0 0 1 }
Segment { rot -0.99352 0 -0.11362 0.40135 offset 0.08058 -0.1768 31000.33265 length 0.00214 color 0 0 1 }
Segment { rot -0.9976 0 -0.06924 0.4728 offset 0.0805 -0.17881 31000.33359 length 0.00232 color 0 0 1 }
Segment { rot -0.97618 0 -0.21698 0.29479 offset 0.08046 -0.1799 31000.33413 length 0.00012 color 0 0 1 }
Segment { rot -0.97569 0 -0.21917 0.25293 offset 0.08036 -0.18161 31000.33457 length 0.00343 color 0 0 1 }
Segment { rot -0.94672 0 -0.32206 0.26523 offset 0.08022 -0.18382 31000.33513 length 0.00113 color 0 0 1 }
Segment { rot -0.997 0 0.07741 0.21698 offset 0.08017 -0.18453 31000.3353 length 0.00035 color 0 0 1 }
Segment { rot -0.99952 0 -0.03086 0.22029 offset 0.08017 -0.18531 31000.33548 length 0.00124 color 0 0 1 }
Segment { rot -0.99014 0 0.14007 0.19813 offset 0.08017 -0.18604 31000.33564 length 0.00027 color 0 0 1 }
Segment { rot -0.9997 0 0.02465 0.28252 offset 0.08019 -0.18844 31000.33632 length 0.00471 color 0 0 1 }
Segment { rot -0.99487 0 0.1012 0.39531 offset 0.08026 -0.19203 31000.33753 length 0.00288 color 0 0 1 }
Segment { rot -0.99138 0 0.131 0.37894 offset 0.08054 -0.19764 31000.33977 length 0.00921 color 0 0 1 }
Segment { rot -0.97363 0 0.22812 0.31817 offset 0.08134 -0.20954 31000.34391 length 0.01605 color 0 0 1 }
Segment { rot -0.93789 0 0.34692 0.28163 offset 0.08192 -0.21724 31000.34637 length 0.00015 color 0 0 1 }
Segment { rot -0.91668 0 0.39963 0.361 offset 0.08212 -0.2186 31000.34684 length 0.00276 color 0 0 1 }
Segment { rot -0.89985 0 0.4362 0.41993 offset 0.08263 -0.22148 31000.34792 length 0.00349 color 0 0 1 }
Segment { rot -0.97315 0 0.23016 0.40204 offset 0.08294 -0.22315 31000.34859 length 0.00017 color 0 0 1 }
Segment { rot -0.99963 0 0.02725 0.36489 offset 0.08296 -0.22449 31000.34911 length 0.00271 color 0 0 1 }
Segment { rot -0.98789 0 0.15517 0.5924 offset 0.08358 -0.2315 31000.35341 length 0.01384 color 0 0 1 }
Segment { rot -0.99869 0 0.05117 0.5614 offset 0.08421 -0.23815 31000.35779 length 0.00214 color 0 0 1 }
Segment { rot -0.99736 0 0.07268 0.46249 offset 0.08428 -0.24044 31000.35905 length 0.00309 color 0 0 1 }
Segment { rot -0.97727 0 -0.212 0.41345 offset 0.08378 -0.24781 31000.36231 length 0.01307 color 0 0 1 }
Segment { rot -0.9805 0 -0.19652 0.44921 offset 0.08284 -0.25786 31000.3668 length 0.00902 color 0 0 1 }
Segment { rot -0.95979 0 -0.28071 0.45843 offset 0.08218 -0.26384 31000.36963 length 0.00428 color 0 0 1 }
Segment { rot -0.91995 0 -0.39203 0.40165 offset 0.08127 -0.26965 31000.37205 length 0.00845 color 0 0 1 }
Segment { rot -0.95016 0 -0.31177 0.51892 offset 0.0803 -0.27534 31000.37455 length 0.00415 color 0 0 1 }
Segment { rot -0.93835 0 -0.34568 0.53247 offset 0.07933 -0.28033 31000.37729 length 0.00741 color 0 0 1 }
Segment { rot -0.97107 0 -0.2388 0.52588 offset 0.07852 -0.28472 31000.37974 length 0.00278 color 0 0 1 }
Segment { rot -0.93802 0 -0.34658 0.58139 offset 0.07832 -0.28607 31000.3805 length 0.00036 color 0 0 1 }
Segment { rot -0.90971 0 -0.41525 0.69224 offset 0.07485 -0.2962 31000.38812 length 0.02591 color 0 0 1 }
Segment { rot -0.90342 0 -0.42875 0.65869 offset 0.07093 -0.30762 31000.39665 length 0.00366 color 0 0 1 }
Segment { rot -0.82341 0 -0.56745 0.58929 offset 0.06998 -0.3103 31000.39835 length 0.00298 color 0 0 1 }
Segment { rot -0.8485 0 -0.5292 0.59322 offset 0.06948 -0.31163 31000.39908 length 0.00022 color 0 0 1 }
Segment { rot -0.89043 0 -0.45511 0.69272 offset 0.06894 -0.31306 31000.40012 length 0.00348 color 0 0 1 }
Segment { rot -0.87474 0 -0.4846 0.60788 offset 0.06623 -0.32094 31000.40509 length 0.01592 color 0 0 1 }
Segment { rot -0.84897 0 -0.52845 0.50226 offset 0.06275 -0.33189 31000.41113 length 0.01007 color 0 0 1 }
Segment { rot -0.84787 0 -0.53021 0.52153 offset 0.06145 -0.33636 31000.41321 length 0.00011 color 0 0 1 }
Segment { rot -0.83962 0 -0.54317 0.57177 offset 0.05936 -0.34236 31000.41645 length 0.01415 color 0 0 1 }
Segment { rot -0.86404 0 -0.50343 0.58929 offset 0.05632 -0.35113 31000.4213 length 0.0068 color 0 0 1 }
Segment { rot -0.8496 0 -0.52742 0.60423 offset 0.0546 -0.35609 31000.42418 length 0.00517 color 0 0 1 }
Segment { rot -0.84162 0 -0.54008 0.62678 offset 0.05274 -0.361 31000.42712 length 0.00687 color 0 0 1 }
Segment { rot -0.88835 0 -0.45918 0.63861 offset 0.05102 -0.36562 31000.43003 length 0.00458 color 0 0 1 }
Segment { rot -0.80502 0 -0.59324 0.62398 offset 0.05028 -0.36771 31000.43139 length 0.00064 color 0 0 1 }
Segment { rot -0.80612 0 -0.59175 0.74419 offset 0.04989 -0.3685 31000.43193 length 0.00142 color 0 0 1 }
Segment { rot -0.85426 0 -0.51984 0.74235 offset 0.04931 -0.36965 31000.43281 length 0.00171 color 0 0 1 }
Segment { rot -0.83288 0 -0.55346 0.75288 offset 0.04726 -0.37363 31000.43592 length 0.0092 color 0 0 1 }
Segment { rot -0.87621 0 -0.48193 0.62656 offset 0.04463 -0.37955 31000.44017 length 0.00633 color 0 0 1 }
Segment { rot 0.34454 0 0.93877 1.02788 offset 0.04535 -0.38316 31000.4412 length 0.00403 color 0 0 1 }
Segment { rot 0.33885 0 0.94084 1.00705 offset 0.05034 -0.38647 31000.43939 length 0.00848 color 0 0 1 }
Segment { rot 0.32199 0 0.94674 1.04148 offset 0.05624 -0.39029 31000.43732 length 0.00618 color 0 0 1 }
Segment { rot 0.14986 0 0.98871 1.20194 offset 0.05925 -0.39204 31000.43639 length 0.00104 color 0 0 1 }
Segment { rot -0.15509 0 0.9879 1.13172 offset 0.06248 -0.39354 31000.43675 length 0.00615 color 0 0 1 }
Segment { rot -0.17343 0 0.98485 1.12411 offset 0.06557 -0.39501 31000.43724 length 0.00076 color 0 0 1 }
Segment { rot -0.16051 0 0.98703 1.11644 offset 0.06731 -0.39587 31000.43752 length 0.00315 color 0 0 1 }
Segment { rot -0.17699 0 0.98421 1.09386 offset 0.07281 -0.39871 31000.43849 length 0.00938 color 0 0 1 }
Segment { rot -0.16626 0 0.98608 1.07396 offset 0.07715 -0.401 31000.43927 length 0.00056 color 0 0 1 }
Segment { rot -0.17533 0 0.98451 1.09334 offset 0.07951 -0.40224 31000.43968 length 0.00483 color 0 0 1 }
Segment { rot -0.13967 0 0.9902 1.13985 offset 0.08486 -0.40486 31000.44052 length 0.00722 color 0 0 1 }
Segment { rot -0.13803 0 0.99043 1.25538 offset 0.0899 -0.40696 31000.44123 length 0.00381 color 0 0 1 }
Segment { rot -0.2165 0 0.97628 1.41963 offset 0.09472 -0.40802 31000.44215 length 0.00628 color 0 0 1 }
Segment { rot -0.29224 0 0.95635 1.51358 offset 0.10122 -0.4087 31000.44388 length 0.00726 color 0 0 1 }
Segment { rot -0.27577 0 0.96122 1.50825 offset 0.10609 -0.409 31000.44534 length 0.00294 color 0 0 1 }
Segment { rot -0.36206 0 0.93216 1.49828 offset 0.10779 -0.40911 31000.44586 length 0.00061 color 0 0 1 }
Segment { rot -0.37466 0 0.92716 1.58903 offset 0.10972 -0.4091 31000.44663 length 0.00355 color 0 0 1 }
Segment { rot -0.47986 0 0.87734 1.37174 offset 0.11218 -0.40926 31000.44774 length 0.00189 color 0 0 1 }
Segment { rot -0.5832 0 0.81233 1.50678 offset 0.11801 -0.40984 31000.45179 length 0.01238 color 0 0 1 }
Segment { rot -0.66706 0 0.74501 1.32921 offset 0.12464 -0.41077 31000.45684 length 0.00447 color 0 0 1 }
Segment { rot -0.73876 0 0.67396 1.51873 offset 0.13092 -0.41167 31000.46339 length 0.01384 color 0 0 1 }
Segment { rot -0.77876 0 0.62732 1.65038 offset 0.13816 -0.4117 31000.47171 length 0.00826 color 0 0 1 }
Segment { rot -0.81373 0 0.58125 1.54326 offset 0.14618 -0.41163 31000.48252 length 0.01869 color 0 0 1 }
Segment { rot -0.82602 0 0.56363 1.54451 offset 0.15174 -0.41189 31000.49032 length 0.00049 color 0 0 1 }
Segment { rot -0.75857 0 0.65159 1.65279 offset 0.15511 -0.41149 31000.49428 length 0.00993 color 0 0 1 }
Segment { rot -0.72807 0 0.6855 1.59485 offset 0.15899 -0.41106 31000.49873 length 0.0019 color 0 0 1 }
Segment { rot -0.73689 0 0.67602 1.58714 offset 0.16156 -0.41099 31000.50152 length 0.0057 color 0 0 1 }
Segment { rot -0.74208 0 0.67031 1.5868 offset 0.16592 -0.41089 31000.50631 length 0.00725 color 0 0 1 }
Segment { rot -0.88609 0 0.46352 1.2977 offset 0.16864 -0.41101 31000.50956 length 0.00131 color 0 0 1 }
Segment { rot -0.89264 0 0.45078 1.33311 offset 0.16925 -0.41135 31000.51074 length 0.00145 color 0 0 1 }
Segment { rot -0.88266 0 0.47 1.27309 offset 0.1699 -0.41174 31000.51201 length 0.0015 color 0 0 1 }
Segment { rot -0.86483 0 0.50206 1.34538 offset 0.17509 -0.41418 31000.521 length 0.01983 color 0 0 1 }
Segment { rot -0.86415 0 0.50324 1.15772 offset 0.18207 -0.41824 31000.533 length 0.0092 color 0 0 1 }
Segment { rot -0.842 0 0.53948 1.11193 offset 0.18617 -0.4219 31000.53973 length 0.00818 color 0 0 1 }
Segment { rot -0.8554 0 0.51797 1.13242 offset 0.18957 -0.425 31000.54516 length 0.00606 color 0 0 1 }
Segment { rot -0.93791 0 0.34687 1.00959 offset 0.19104 -0.42638 31000.54764 length 0.00034 color 0 0 1 }
Segment { rot -0.90959 0 0.4155 1.01915 offset 0.19255 -0.42863 31000.55097 length 0.00825 color 0 0 1 }
Segment { rot -0.89302 0 0.45002 0.98669 offset 0.19508 -0.43236 31000.55629 length 0.0057 color 0 0 1 }
Segment { rot -0.4584 0 -0.88875 1.44652 offset 0.1886 -0.435 31000.56231 length 0.01712 color 0 0 1 }
Segment { rot -0.42477 0 -0.9053 1.46824 offset 0.18071 -0.4361 31000.56636 length 0.00074 color 0 0 1 }
Segment { rot -0.43433 0 -0.90075 1.45455 offset 0.1785 -0.43638 31000.56743 length 0.0042 color 0 0 1 }
Segment { rot -0.40834 0 -0.91283 1.48714 offset 0.17614 -0.43666 31000.56854 length 0.00104 color 0 0 1 }
Segment { rot -0.36966 0 -0.92917 1.58643 offset 0.17491 -0.4367 31000.56906 length 0.00163 color 0 0 1 }
Segment { rot -0.42997 0 -0.90284 1.58367 offset 0.17122 -0.43664 31000.57076 length 0.0065 color 0 0 1 }
Segment { rot -0.44473 0 -0.89567 1.48389 offset 0.16646 -0.43678 31000.57306 length 0.00408 color 0 0 1 }
Segment { rot -0.47455 0 -0.88023 1.54956 offset 0.16352 -0.43698 31000.57457 length 0.00257 color 0 0 1 }
Segment { rot -0.48896 0 -0.87231 1.45244 offset 0.16056 -0.43726 31000.5762 length 0.00422 color 0 0 1 }
Segment { rot -0.48338 0 -0.87541 1.53457 offset 0.1579 -0.43754 31000.57769 length 0.0019 color 0 0 1 }
Segment { rot -0.84131 0 -0.54055 1.29065 offset 0.15631 -0.43798 31000.57933 length 0.00294 color 0 0 1 }
Segment { rot -0.86953 0 -0.49388 1.32743 offset 0.15432 -0.439 31000.58268 length 0.00512 color 0 0 1 }
Segment { rot -0.87573 0 -0.48281 1.35248 offset 0.15212 -0.44007 31000.58661 length 0.00413 color 0 0 1 }
Segment { rot -0.84829 0 -0.52953 1.30782 offset 0.15097 -0.44061 31000.58866 length 0.00069 color 0 0 1 }
Segment { rot -0.81391 0 -0.581 1.28776 offset 0.14803 -0.44208 31000.59281 length 0.0099 color 0 0 1 }
Segment { rot -0.98409 0 -0.17769 1.63634 offset 0.14493 -0.44334 31000.59854 length 0.00379 color 0 0 1 }
Segment { rot -0.98461 0 -0.17478 1.6634 offset 0.1443 -0.44305 31000.60209 length 0.00345 color 0 0 1 }
Segment { rot -0.97564 0 -0.21936 1.79437 offset 0.1434 -0.44227 31000.60645 length 0.0056 color 0 0 1 }
Segment { rot -0.96322 0 -0.26871 1.77854 offset 0.14258 -0.44148 31000.60989 length 0.00163 color 0 0 1 }
Segment { rot -0.96935 0 -0.24567 1.74362 offset 0.14211 -0.44113 31000.61166 length 0.00211 color 0 0 1 }
Segment { rot -0.97347 0 -0.2288 1.74507 offset 0.14176 -0.44088 31000.61308 length 0.00085 color 0 0 1 }
Segment { rot -0.98091 0 -0.19445 1.69693 offset 0.14159 -0.44075 31000.61387 length 0.0008 color 0 0 1 }
Segment { rot -0.98557 0 -0.16929 1.67246 offset 0.14128 -0.44056 31000.61561 length 0.00275 color 0 0 1 }
Segment { rot -0.98853 0 -0.151 1.79393 offset 0.14104 -0.44041 31000.617 length 0.0001 color 0 0 1 }
Segment { rot -0.99193 0 -0.12678 1.78667 offset 0.14009 -0.43876 31000.62446 length 0.01528 color 0 0 1 }
Segment { rot -0.99199 0 -0.12628 1.7681 offset 0.13901 -0.43692 31000.63291 length 0.00215 color 0 0 1 }
Segment { rot -0.99631 0 -0.08584 1.75255 offset 0.13884 -0.43664 31000.63429 length 0.00069 color 0 0 1 }
Segment { rot -0.99402 0 -0.1092 1.7518 offset 0.13872 -0.43641 31000.63554 length 0.00186 color 0 0 1 }
Segment { rot -0.98398 0 -0.17828 1.56174 offset 0.13848 -0.43625 31000.63719 length 0.0015 color 0 0 1 }
Segment { rot -0.95201 0 -0.30606 1.96593 offset 0.13669 -0.434 31000.64309 length 0.01176 color 0 0 1 }
Segment { rot -0.88034 0 -0.47435 1.98153 offset 0.13273 -0.42962 31000.65253 length 0.01057 color 0 0 1 }
Segment { rot -0.86164 0 -0.50752 1.98518 offset 0.13029 -0.42739 31000.65703 length 0.0006 color 0 0 1 }
Segment { rot -0.55601 0 -0.83117 0.82273 offset 0.12836 -0.42927 31000.65846 length 0.00589 color 0 0 1 }
Segment { rot -0.59318 0 -0.80507 0.95123 offset 0.12559 -0.43214 31000.66038 length 0.00297 color 0 0 1 }
Segment { rot -0.80846 0 -0.58855 1.07625 offset 0.12204 -0.43536 31000.66463 length 0.00993 color 0 0 1 }
Segment { rot -0.79564 0 -0.60577 1.01911 offset 0.11793 -0.43928 31000.67019 length 0.00597 color 0 0 1 }
Segment { rot -0.84146 0 -0.54032 1.01628 offset 0.11633 -0.44091 31000.6723 length 0.00023 color 0 0 1 }
Segment { rot -0.83484 0 -0.55049 1.02121 offset 0.11549 -0.44185 31000.67359 length 0.00339 color 0 0 1 }
Segment { rot -0.73696 0 -0.67593 1.60412 offset 0.11393 -0.4427 31000.67562 length 0.00225 color 0 0 1 }
Segment { rot -0.7329 0 -0.68034 1.7179 offset 0.11058 -0.4421 31000.67925 length 0.00772 color 0 0 1 }
Segment { rot -0.86943 0 -0.49405 1.86456 offset 0.10769 -0.44136 31000.68255 length 0.00121 color 0 0 1 }
Segment { rot -0.59215 0 -0.80583 1.41255 offset 0.10565 -0.44153 31000.68434 length 0.0044 color 0 0 1 }
Segment { rot -0.67925 0 -0.73391 0.89643 offset 0.10241 -0.4435 31000.687 length 0.0052 color 0 0 1 }
Segment { rot -0.63766 0 -0.77031 0.88529 offset 0.09953 -0.4466 31000.68953 length 0.00466 color 0 0 1 }
Segment { rot -0.64091 0 -0.76761 0.90258 offset 0.09775 -0.44848 31000.69101 length 0.0013 color 0 0 1 }
Segment { rot -0.67003 0 -0.74233 0.9251 offset 0.09454 -0.45175 31000.69389 length 0.00952 color 0 0 1 }
Segment { rot -0.65355 0 -0.75689 1.09763 offset 0.09 -0.45577 31000.69791 length 0.00509 color 0 0 1 }
Segment { rot -0.68791 0 -0.7258 1.09522 offset 0.08424 -0.4598 31000.70322 length 0.01253 color 0 0 1 }
Segment { rot -0.7702 0 -0.63781 1.12858 offset 0.07877 -0.46373 31000.70879 length 0.00497 color 0 0 1 }
Segment { rot -0.91631 0 -0.40047 0.80224 offset 0.07697 -0.46567 31000.71135 length 0.00253 color 0 0 1 }
Segment { rot -0.9216 0 -0.38815 0.75773 offset 0.07647 -0.46692 31000.71251 length 0.00104 color 0 0 1 }
Segment { rot -0.92327 0 -0.38415 0.86474 offset 0.07578 -0.46852 31000.71415 length 0.00376 color 0 0 1 }
Segment { rot -0.90518 0 -0.42502 0.91861 offset 0.07458 -0.47092 31000.71688 length 0.00391 color 0 0 1 }
Segment { rot -0.99996 0 0.00935 1.08319 offset 0.07392 -0.47218 31000.71842 length 0.00031 color 0 0 1 }
Segment { rot -0.99978 0 -0.02079 1.07087 offset 0.0739 -0.47268 31000.71935 length 0.0018 color 0 0 1 }
Segment { rot -0.99973 0 -0.02344 1.13381 offset 0.07383 -0.47415 31000.72235 length 0.0049 color 0 0 1 }
Segment { rot -0.99623 0 0.08676 1.1201 offset 0.07422 -0.47762 31000.72958 length 0.01117 color 0 0 1 }
Segment { rot -0.99125 0 0.13198 1.1138 offset 0.0751 -0.48173 31000.73797 length 0.00762 color 0 0 1 }
Segment { rot -0.99454 0 0.10439 1.25052 offset 0.07583 -0.48429 31000.74398 length 0.00554 color 0 0 1 }
Segment { rot -0.97624 0 0.21668 1.25 offset 0.07682 -0.48626 31000.74982 length 0.00696 color 0 0 1 }
Segment { rot -0.98049 0 0.19658 1.23729 offset 0.07802 -0.48821 31000.75546 length 0.00523 color 0 0 1 }
Segment { rot -0.98421 0 0.17698 1.28873 offset 0.0786 -0.48921 31000.75838 length 0.00105 color 0 0 1 }
Segment { rot -0.97611 0 0.21727 1.32332 offset 0.07871 -0.48938 31000.75897 length 0.00018 color 0 0 1 }
Segment { rot -0.98105 0 0.19375 1.16394 offset 0.07924 -0.49055 31000.76166 length 0.00579 color 0 0 1 }
Segment { rot -0.99748 0 0.07088 1.22767 offset 0.07986 -0.49221 31000.76572 length 0.00309 color 0 0 1 }
Segment { rot -0.99713 0 0.0757 1.2263 offset 0.08018 -0.49378 31000.77009 length 0.00621 color 0 0 1 }
Segment { rot -0.99784 0 0.06572 1.29636 offset 0.08064 -0.49586 31000.77665 length 0.00761 color 0 0 1 }
Segment { rot -0.99793 0 0.06439 1.27195 offset 0.08092 -0.49708 31000.78092 length 0.00129 color 0 0 1 }
Segment { rot -0.998 0 0.06324 1.28143 offset 0.08105 -0.49766 31000.78284 length 0.00272 color 0 0 1 }
Segment { rot -0.99546 0 0.09523 1.28307 offset 0.08122 -0.49834 31000.78512 length 0.00206 color 0 0 1 }
Segment { rot -0.82999 0 0.55777 1.08216 offset 0.08273 -0.49998 31000.7882 length 0.00573 color 0 0 1 }
Segment { rot -0.79252 0 0.60985 1.02268 offset 0.08496 -0.50214 31000.79137 length 0.00316 color 0 0 1 }
Segment { rot -0.70514 0 0.70907 1.10094 offset 0.08681 -0.50371 31000.79347 length 0.00327 color 0 0 1 }
Segment { rot -0.67908 0 0.73406 1.01825 offset 0.08786 -0.50446 31000.79451 length 0.00004 color 0 0 1 }
Segment { rot -0.55308 0 0.83313 0.98958 offset 0.0892 -0.50552 31000.7954 length 0.00382 color 0 0 1 }
Segment { rot -0.73132 0 0.68204 0.92298 offset 0.09257 -0.50883 31000.79847 length 0.00751 color 0 0 1 }
Segment { rot -0.6848 0 0.72873 0.82898 offset 0.09687 -0.51394 31000.80278 length 0.00841 color 0 0 1 }
Segment { rot -0.39494 0 0.91871 0.75129 offset 0.10014 -0.51795 31000.80534 length 0.00321 color 0 0 1 }
Segment { rot -0.23911 0 0.97099 0.8012 offset 0.10125 -0.51922 31000.8058 length 0.00029 color 0 0 1 }
Segment { rot 0.13233 0 0.99121 0.67973 offset 0.10196 -0.52008 31000.80574 length 0.00194 color 0 0 1 }
Segment { rot 0.1453 0 0.98939 0.7073 offset 0.10279 -0.52111 31000.80563 length 0.0007 color 0 0 1 }
Segment { rot 0.35336 0 0.93549 0.74543 offset 0.10684 -0.5258 31000.80415 length 0.01205 color 0 0 1 }
Segment { rot 0.35945 0 0.93317 0.73903 offset 0.11149 -0.5312 31000.80239 length 0.00263 color 0 0 1 }
Segment { rot 0.25045 0 0.96813 0.58879 offset 0.1125 -0.53247 31000.80202 length 0.0007 color 0 0 1 }
Segment { rot 0.67974 0 0.73345 0.97271 offset 0.11372 -0.53371 31000.80102 length 0.0034 color 0 0 1 }
Segment { rot 0.70299 0 0.7112 0.81813 offset 0.11555 -0.53572 31000.79927 length 0.00308 color 0 0 1 }
Segment { rot 0.68394 0 0.72954 0.78448 offset 0.11692 -0.53756 31000.79795 length 0.00223 color 0 0 1 }
Segment { rot 0.59738 0 0.80196 0.72631 offset 0.11777 -0.53873 31000.7972 length 0.00103 color 0 0 1 }
Segment { rot 0.65925 0 0.75193 0.74333 offset 0.11834 -0.53955 31000.79674 length 0.00116 color 0 0 1 }
Segment { rot -0.84141 0 0.5404 0.97544 offset 0.12024 -0.54198 31000.79897 length 0.00715 color 0 0 1 }
Segment { rot -0.81859 0 0.57438 0.96242 offset 0.12185 -0.544 31000.80148 length 0.00004 color 0 0 1 }
Segment { rot -0.71492 0 0.69921 0.88994 offset 0.12434 -0.54688 31000.80403 length 0.00913 color 0 0 1 }
Segment { rot -0.4746 0 0.8802 1.12927 offset 0.13081 -0.5519 31000.80872 length 0.01004 color 0 0 1 }
Segment { rot -0.53584 0 0.84432 1.35926 offset 0.13546 -0.55421 31000.81129 length 0.00157 color 0 0 1 }
Segment { rot -0.62041 0 0.78428 1.45451 offset 0.13629 -0.55441 31000.81185 length 0.00048 color 0 0 1 }
Segment { rot -0.68894 0 0.72482 1.20548 offset 0.13699 -0.5547 31000.81248 length 0.00151 color 0 0 1 }
Segment { rot -0.73579 0 0.6772 1.26242 offset 0.13773 -0.55508 31000.81322 length 0.00072 color 0 0 1 }
Segment { rot -0.80997 0 0.58647 1.4492 offset 0.13868 -0.55534 31000.81445 length 0.00244 color 0 0 1 }
Segment { rot -0.78259 0 0.62254 1.54971 offset 0.14086 -0.55554 31000.81729 length 0.00474 color 0 0 1 }
Segment { rot -0.82555 0 0.56434 1.47835 offset 0.1438 -0.55583 31000.82128 length 0.0052 color 0 0 1 }
Segment { rot -0.86256 0 0.50595 1.37932 offset 0.14568 -0.55623 31000.82414 length 0.0017 color 0 0 1 }
Segment { rot -0.90157 0 0.43264 1.40912 offset 0.14698 -0.55672 31000.82667 length 0.00407 color 0 0 1 }
Segment { rot -0.86634 0 0.49945 1.41624 offset 0.14978 -0.55765 31000.83184 length 0.00784 color 0 0 1 }
Segment { rot -0.85073 0 0.5256 1.24876 offset 0.15508 -0.5604 31000.84065 length 0.01353 color 0 0 1 }
Segment { rot -0.95524 0 0.29583 1.32363 offset 0.15873 -0.56277 31000.847 length 0.00193 color 0 0 1 }
Segment { rot -0.9214 0 0.38862 1.29533 offset 0.15913 -0.56309 31000.84817 length 0.00062 color 0 0 1 }
Segment { rot -0.97213 0 0.23444 1.36557 offset 0.15947 -0.56338 31000.84941 length 0.00202 color 0 0 1 }
Segment { rot -0.96886 0 0.24762 1.35043 offset 0.16035 -0.56417 31000.85288 length 0.00531 color 0 0 1 }
Segment { rot -0.96739 0 0.25331 1.25609 offset 0.16258 -0.5668 31000.86147 length 0.01322 color 0 0 1 }
Segment { rot -0.96762 0 0.25243 1.35192 offset 0.16429 -0.56894 31000.86798 length 0.0009 color 0 0 1 }
Segment { rot -0.95504 0 0.29647 1.44385 offset 0.16445 -0.56906 31000.86858 length 0.00037 color 0 0 1 }
Segment { rot -0.94763 0 0.31936 1.41864 offset 0.16494 -0.56929 31000.87004 length 0.00274 color 0 0 1 }
Segment { rot -0.93885 0 0.34434 1.43352 offset 0.16571 -0.56964 31000.87225 length 0.002 color 0 0 1 }
Segment { rot -0.93202 0 0.3624 1.42842 offset 0.16655 -0.56997 31000.87446 length 0.00277 color 0 0 1 }
Segment { rot -0.93532 0 0.35379 1.44555 offset 0.16753 -0.57034 31000.87701 length 0.00272 color 0 0 1 }
Segment { rot -0.95838 0 0.28551 1.44912 offset 0.16806 -0.57053 31000.87845 length 0.00037 color 0 0 1 }
Segment { rot -0.97168 0 0.2363 1.43131 offset 0.16823 -0.57062 31000.8791 length 0.00099 color 0 0 1 }
Segment { rot -0.97461 0 0.22392 1.41993 offset 0.16835 -0.5707 31000.87963 length 0.00012 color 0 0 1 }
Segment { rot -0.95522 0 0.29589 1.21451 offset 0.16846 -0.57083 31000.88 length 0.0007 color 0 0 1 }
Segment { rot -0.89214 0 0.45176 1.3374 offset 0.16945 -0.57142 31000.88206 length 0.00403 color 0 0 1 }
Segment { rot -0.89426 0 0.44755 1.3842 offset 0.17041 -0.57192 31000.88396 length 0.00033 color 0 0 1 }
Segment { rot -0.99342 0 0.11454 1.56524 offset 0.17077 -0.57196 31000.88664 length 0.0051 color 0 0 1 }
Segment { rot -0.98994 0 0.14146 1.54907 offset 0.1713 -0.57201 31000.89086 length 0.00342 color 0 0 1 }
Segment { rot -0.9332 0 0.35936 1.7918 offset 0.17204 -0.57174 31000.89383 length 0.0028 color 0 0 1 }
Segment { rot -0.915 0 0.40345 1.88853 offset 0.17321 -0.57088 31000.89666 length 0.00357 color 0 0 1 }
Segment { rot -0.89344 0 0.44918 2.0292 offset 0.17396 -0.57025 31000.89834 length 0.00033 color 0 0 1 }
Segment { rot 0.09217 0 0.99574 1.05422 offset 0.17442 -0.5704 31000.89844 length 0.00091 color 0 0 1 }
Segment { rot 0.03291 0 0.99946 1.00269 offset 0.17579 -0.57125 31000.89837 length 0.00231 color 0 0 1 }
Segment { rot 0.0077 0 0.99997 0.96197 offset 0.17935 -0.57367 31000.89831 length 0.00631 color 0 0 1 }
Segment { rot -0.01979 0 0.9998 0.90132 offset 0.18327 -0.57653 31000.89832 length 0.00339 color 0 0 1 }
Segment { rot 0.08997 0 0.99594 0.99724 offset 0.18537 -0.57808 31000.89828 length 0.00186 color 0 0 1 }
Segment { rot 0.1426 0 0.98978 1.02116 offset 0.19086 -0.5815 31000.89753 length 0.01115 color 0 0 1 }
Segment { rot 0.03475 0 0.9994 1.39965 offset 0.1965 -0.58457 31000.89682 length 0.0019 color 0 0 1 }
Segment { rot 0.01973 0 0.99981 1.35029 offset 0.19858 -0.58499 31000.89676 length 0.00235 color 0 0 1 }
Segment { rot 0.0967 0 0.99531 1.48412 offset 0.20105 -0.58537 31000.89661 length 0.00266 color 0 0 1 }
Segment { rot -0.04984 0 0.99876 1.50543 offset 0.20348 -0.58555 31000.89654 length 0.00224 color 0 0 1 }
Segment { rot 0.0898 0 0.99596 1.57078 offset 0.20858 -0.58563 31000.89624 length 0.00799 color 0 0 1 }
Segment { rot 0.0176 0 0.99985 1.69729 offset 0.21501 -0.58531 31000.89583 length 0.00495 color 0 0 1 }
Segment { rot -0.0085 0 0.99996 1.68325 offset 0.21905 -0.58482 31000.89581 length 0.00319 color 0 0 1 }
Segment { rot -0.09208 0 0.99575 1.48027 offset 0.22065 -0.58465 31000.89582 length 0.00003 color 0 0 1 }
Segment { rot 0.07037 0 0.99752 1.83599 offset 0.22114 -0.58452 31000.89579 length 0.00099 color 0 0 1 }
Segment { rot 0.21172 0 0.97733 1.71528 offset 0.2224 -0.58427 31000.89559 length 0.00161 color 0 0 1 }
Segment { rot 0.07578 0 0.99712 1.75928 offset 0.22569 -0.58367 31000.89523 length 0.00514 color 0 0 1 }
Segment { rot 0.02159 0 0.99977 1.68673 offset 0.22917 -0.58308 31000.89501 length 0.00194 color 0 0 1 }
Segment { rot -0.0091 0 0.99996 1.70686 offset 0.23294 -0.58258 31000.89502 length 0.00566 color 0 0 1 }
Segment { rot -0.01198 0 0.99993 1.68252 offset 0.23762 -0.58199 31000.89507 length 0.00378 color 0 0 1 }
Segment { rot -0.08396 0 0.99647 1.72078 offset 0.24033 -0.58165 31000.89516 length 0.0017 color 0 0 1 }
Segment { rot -0.04724 0 0.99888 1.76502 offset 0.2432 -0.58113 31000.89533 length 0.00413 color 0 0 1 }
Segment { rot -0.14045 0 0.99009 1.71056 offset 0.24533 -0.58071 31000.89544 length 0.00022 color 0 0 1 }
Segment { rot -0.1711 0 0.98525 1.74531 offset 0.24606 -0.58059 31000.89556 length 0.00128 color 0 0 1 }
Segment { rot -0.27459 0 0.96156 1.73675 offset 0.24764 -0.58031 31000.89594 length 0.00202 color 0 0 1 }
Segment { rot -0.20383 0 0.97901 1.71848 offset 0.25135 -0.57972 31000.89679 length 0.00569 color 0 0 1 }
Segment { rot -0.19005 0 0.98177 1.66777 offset 0.25424 -0.57929 31000.89739 length 0.00028 color 0 0 1 }
Segment { rot -0.21031 0 0.97763 1.56499 offset 0.25506 -0.57928 31000.89756 length 0.00139 color 0 0 1 }
Segment { rot -0.2448 0 0.96957 1.63839 offset 0.25599 -0.57927 31000.89777 length 0.0005 color 0 0 1 }
Segment { rot -0.22312 0 0.97479 1.65164 offset 0.25638 -0.57924 31000.89786 length 0.0003 color 0 0 1 }
Segment { rot -0.14833 0 0.98894 1.66992 offset 0.25691 -0.57919 31000.89796 length 0.00077 color 0 0 1 }
Segment { rot -0.17205 0 0.98509 1.76943 offset 0.25766 -0.57907 31000.89808 length 0.00077 color 0 0 1 }
Segment { rot -0.05557 0 0.99845 1.83314 offset 0.25877 -0.5788 31000.89818 length 0.00155 color 0 0 1 }
Segment { rot -0.11986 0 0.99279 1.29648 offset 0.25972 -0.57865 31000.89825 length 0.00041 color 0 0 1 }
Segment { rot -0.18006 0 0.98366 1.41179 offset 0.26047 -0.5788 31000.89837 length 0.00114 color 0 0 1 }
Segment { rot -0.17162 0 0.98516 1.42884 offset 0.26492 -0.57945 31000.89915 length 0.008 color 0 0 1 }
Segment { rot -0.27259 0 0.96213 1.46124 offset 0.27205 -0.58039 31000.90075 length 0.00676 color 0 0 1 }
Segment { rot -0.38999 0 0.92082 1.48106 offset 0.27604 -0.58083 31000.90198 length 0.00164 color 0 0 1 }
Segment { rot -0.3911 0 0.92035 1.50406 offset 0.27875 -0.58105 31000.90314 length 0.00428 color 0 0 1 }
Segment { rot -0.14772 0 0.98903 1.32123 offset 0.28375 -0.58197 31000.90442 length 0.00634 color 0 0 1 }
Segment { rot -0.29625 0 0.95511 1.17096 offset 0.28681 -0.58277 31000.90488 length 0.00004 color 0 0 1 }
Segment { rot -0.34251 0 0.93951 1.48218 offset 0.28716 -0.5828 31000.90501 length 0.00071 color 0 0 1 }
Segment { rot -0.58619 0 0.81018 0.37975 offset 0.28761 -0.58318 31000.90521 length 0.00074 color 0 0 1 }
Segment { rot -0.62854 0 0.77778 0.31252 offset 0.28842 -0.58633 31000.90586 length 0.00591 color 0 0 1 }
Segment { rot -0.68641 0 0.72721 0.27084 offset 0.2895 -0.59099 31000.90679 length 0.00383 color 0 0 1 }
Segment { rot -0.5849 0 0.81111 0.31508 offset 0.2899 -0.59293 31000.90716 length 0.00019 color 0 0 1 }
Segment { rot -0.54041 0 0.8414 0.34436 offset 0.29031 -0.5943 31000.90742 length 0.00273 color 0 0 1 }
Segment { rot -0.15265 0 0.98828 0.30122 offset 0.29077 -0.59581 31000.90768 length 0.00045 color 0 0 1 }
Segment { rot 0.02038 0 0.99979 0.29367 offset 0.29212 -0.60028 31000.90767 length 0.00889 color 0 0 1 }
Segment { rot -0.05031 0 0.99873 0.32844 offset 0.29408 -0.60652 31000.90767 length 0.00419 color 0 0 1 }
Segment { rot 0.37678 0 0.9263 0.44399 offset 0.29751 -0.61476 31000.90659 length 0.01387 color 0 0 1 }
Segment { rot 0.31636 0 0.94864 0.43417 offset 0.30073 -0.62207 31000.90531 length 0.0023 color 0 0 1 }
Segment { rot 0.43062 0 0.90254 0.60875 offset 0.30171 -0.62393 31000.90491 length 0.002 color 0 0 1 }
Segment { rot 0.48572 0 0.87412 0.61073 offset 0.30256 -0.6253 31000.90448 length 0.00133 color 0 0 1 }
Segment { rot 0.46809 0 0.88368 0.44587 offset 0.30309 -0.62632 31000.90419 length 0.00106 color 0 0 1 }
Segment { rot 0.49106 0 0.87112 0.46246 offset 0.30427 -0.62905 31000.90353 length 0.00503 color 0 0 1 }
Segment { rot 0.44181 0 0.89711 0.49297 offset 0.3055 -0.63182 31000.90286 length 0.00119 color 0 0 1 }
Segment { rot 0.39074 0 0.9205 0.46599 offset 0.30607 -0.63303 31000.9026 length 0.00154 color 0 0 1 }
Segment { rot 0.15905 0 0.98727 0.42994 offset 0.30645 -0.63386 31000.90245 length 0.00031 color 0 0 1 }
Segment { rot -0.15518 0 0.98789 0.44012 offset 0.3074 -0.63591 31000.90258 length 0.00421 color 0 0 1 }
Segment { rot 0.21175 0 0.97732 0.40188 offset 0.30864 -0.63865 31000.90264 length 0.00183 color 0 0 1 }
Segment { rot 0.25085 0 0.96803 0.40797 offset 0.30951 -0.64075 31000.90243 length 0.00273 color 0 0 1 }
Segment { rot 0.01839 0 0.99983 0.45136 offset 0.31044 -0.64282 31000.90229 length 0.00184 color 0 0 1 }
Segment { rot 0.37159 0 0.9284 0.60237 offset 0.31115 -0.64414 31000.90216 length 0.00118 color 0 0 1 }
Segment { rot -0.02297 0 0.99974 0.63519 offset 0.31147 -0.64465 31000.90203 length 0.00006 color 0 0 1 }
Segment { rot 0.07746 0 0.997 0.70182 offset 0.3132 -0.64669 31000.9019 length 0.0053 color 0 0 1 }
Segment { rot 0.20195 0 0.9794 0.70763 offset 0.31494 -0.64876 31000.90176 length 0.00011 color 0 0 1 }
Segment { rot 0.26721 0 0.96364 0.74453 offset 0.31557 -0.64947 31000.90159 length 0.00183 color 0 0 1 }
Segment { rot 0.25097 0 0.968 0.73612 offset 0.31692 -0.651 31000.90123 length 0.00231 color 0 0 1 }
Segment { rot 0.26647 0 0.96384 0.77686 offset 0.31937 -0.65366 31000.90056 length 0.00505 color 0 0 1 }
Segment { rot 0.17711 0 0.98419 0.80887 offset 0.32108 -0.65546 31000.90009 length 0 color 0 0 1 }
Segment { rot 0.49331 0 0.86985 1.14857 offset 0.3229 -0.6564 31000.89906 length 0.00457 color 0 0 1 }
Segment { rot 0.98996 0 0.14132 1.36483 offset 0.32482 -0.6575 31000.89725 length 0.00162 color 0 0 1 }
Segment { rot 0.99819 0 -0.06011 1.10946 offset 0.32492 -0.65776 31000.89628 length 0.00041 color 0 0 1 }
Segment { rot 0.99855 0 -0.05386 1.25555 offset 0.32485 -0.65824 31000.8949 length 0.00253 color 0 0 1 }
Segment { rot 0.98648 0 -0.1639 1.18637 offset 0.32466 -0.65894 31000.89294 length 0.00164 color 0 0 1 }
Segment { rot 0.98089 0 -0.19458 1.08236 offset 0.32442 -0.65956 31000.89161 length 0.00134 color 0 0 1 }
Segment { rot 0.96045 0 -0.27845 1.23889 offset 0.32418 -0.66002 31000.89062 length 0.00092 color 0 0 1 }
Segment { rot 0.98644 0 -0.16413 1.46355 offset 0.32384 -0.66032 31000.88886 length 0.00272 color 0 0 1 }
Segment { rot 0.97871 0 -0.20525 1.40957 offset 0.32354 -0.66053 31000.88716 length 0.00077 color 0 0 1 }
Segment { rot 0.9662 0 -0.25778 1.44602 offset 0.32273 -0.66095 31000.88404 length 0.00573 color 0 0 1 }
Segment { rot 0.97664 0 -0.21487 1.39952 offset 0.32193 -0.66136 31000.88098 length 0.00065 color 0 0 1 }
Segment { rot 0.9755 0 -0.22 1.5606 offset 0.32168 -0.66142 31000.87987 length 0.00164 color 0 0 1 }
Segment { rot 0.99131 0 -0.13154 1.47944 offset 0.32148 -0.66144 31000.87895 length 0.00024 color 0 0 1 }
Segment { rot 0.99593 0 -0.09014 1.51595 offset 0.32142 -0.66148 31000.87826 length 0.00116 color 0 0 1 }
Segment { rot 0.96287 0 0.26995 1.52115 offset 0.32203 -0.66164 31000.8753 length 0.00494 color 0 0 1 }
Segment { rot 0.87028 0 0.49255 1.73916 offset 0.32395 -0.66133 31000.8707 length 0.00518 color 0 0 1 }
Segment { rot 0.86907 0 0.49468 1.65475 offset 0.3256 -0.66083 31000.86779 length 0.00159 color 0 0 1 }
Segment { rot 0.9026 0 0.43048 1.68827 offset 0.32629 -0.66068 31000.86649 length 0.00137 color 0 0 1 }
Segment { rot 0.83066 0 0.55677 1.673 offset 0.32679 -0.66056 31000.86556 length 0.00077 color 0 0 1 }
Segment { rot 0.7506 0 0.66075 1.675 offset 0.33051 -0.65997 31000.86126 length 0.01065 color 0 0 1 }
Segment { rot 0.53052 0 0.84767 1.74426 offset 0.33409 -0.65939 31000.85724 length 0.00021 color 0 0 1 }
Segment { rot 0.61263 0 0.79037 1.80135 offset 0.33547 -0.65899 31000.85618 length 0.00336 color 0 0 1 }
Segment { rot 0.64203 0 0.76668 1.78593 offset 0.33759 -0.65837 31000.85449 length 0.00219 color 0 0 1 }
Segment { rot 0.63496 0 0.77254 1.81694 offset 0.33948 -0.65779 31000.85292 length 0.00285 color 0 0 1 }
Segment { rot 0.03182 0 0.99949 1.72837 offset 0.34097 -0.65738 31000.85203 length 0.00085 color 0 0 1 }
Segment { rot 0.32431 0 0.94595 1.69822 offset 0.34157 -0.65729 31000.85195 length 0.0004 color 0 0 1 }
Segment { rot 0.36123 0 0.93248 1.67028 offset 0.34202 -0.65723 31000.85179 length 0.00056 color 0 0 1 }
Segment { rot -0.30699 0 0.95171 1.92124 offset 0.3452 -0.65609 31000.85263 length 0.00653 color 0 0 1 }
Segment { rot -0.31862 0 0.94788 1.92353 offset 0.35067 -0.65397 31000.85443 length 0.00575 color 0 0 1 }
Segment { rot -0.39261 0 0.91971 1.73618 offset 0.35875 -0.65198 31000.85765 length 0.01219 color 0 0 1 }
Segment { rot -0.40533 0 0.91417 1.71575 offset 0.36475 -0.6509 31000.86022 length 0.00103 color 0 0 1 }
Segment { rot -0.41886 0 0.90805 1.49621 offset 0.36684 -0.65096 31000.86117 length 0.00358 color 0 0 1 }
Segment { rot -0.53408 0 0.84543 1.501 offset 0.36918 -0.65115 31000.86238 length 0.00172 color 0 0 1 }
Segment { rot 0.92711 0 -0.37479 1.16019 offset 0.36903 -0.65223 31000.86067 length 0.00509 color 0 0 1 }
Segment { rot 0.94198 0 -0.33567 1.1093 offset 0.3668 -0.65525 31000.8547 length 0.00902 color 0 0 1 }
Segment { rot 0.97164 0 -0.23647 1.28313 offset 0.36543 -0.65727 31000.85085 length 0.0001 color 0 0 1 }
Segment { rot 0.88572 0 -0.46423 1.43057 offset 0.36505 -0.6574 31000.85009 length 0.00162 color 0 0 1 }
Segment { rot 0.95522 0 -0.29589 1.53726 offset 0.36442 -0.65754 31000.84857 length 0.0017 color 0 0 1 }
Segment { rot -0.06357 0 -0.99798 2.10908 offset 0.36321 -0.65699 31000.84781 length 0.00225 color 0 0 1 }
Segment { rot -0.41457 0 -0.91002 2.35324 offset 0.36176 -0.65589 31000.84809 length 0.00149 color 0 0 1 }
Segment { rot -0.45129 0 -0.89238 2.3298 offset 0.35893 -0.65286 31000.8495 length 0.00728 color 0 0 1 }
Segment { rot -0.47943 0 -0.87758 2.19464 offset 0.35327 -0.64766 31000.8525 length 0.00925 color 0 0 1 }
Segment { rot -0.69244 0 -0.72147 2.1637 offset 0.3499 -0.64488 31000.85437 length 0.00027 color 0 0 1 }
Segment { rot -0.69881 0 -0.71531 2.25914 offset 0.34948 -0.64442 31000.85478 length 0.0012 color 0 0 1 }
Segment { rot -0.82823 0 -0.56039 2.30617 offset 0.34868 -0.64328 31000.8558 length 0.00227 color 0 0 1 }
Segment { rot -0.8295 0 -0.55851 2.25119 offset 0.3477 -0.64178 31000.85725 length 0.00234 color 0 0 1 }
Segment { rot -0.85396 0 -0.52033 2.21469 offset 0.34708 -0.64089 31000.85818 length 0.00051 color 0 0 1 }
Segment { rot -0.91796 0 -0.39667 1.23078 offset 0.34678 -0.64091 31000.8588 length 0.00103 color 0 0 1 }
Segment { rot -0.925 0 -0.37997 1.21995 offset 0.34637 -0.64129 31000.85979 length 0.00124 color 0 0 1 }
Segment { rot -0.86696 0 -0.49838 1.30576 offset 0.34594 -0.64161 31000.86068 length 0.00084 color 0 0 1 }
Segment { rot -0.8778 0 -0.47903 1.21268 offset 0.34525 -0.64211 31000.86194 length 0.0022 color 0 0 1 }
Segment { rot -0.82509 0 -0.565 1.16309 offset 0.34468 -0.64256 31000.86296 length 0.0003 color 0 0 1 }
Segment { rot -0.84158 0 -0.54013 1.24944 offset 0.34421 -0.64286 31000.86368 length 0.00154 color 0 0 1 }
Segment { rot -0.73736 0 -0.6755 1.22261 offset 0.34378 -0.64312 31000.86433 length 0.00011 color 0 0 1 }
Segment { rot -0.68008 0 -0.73313 1.23633 offset 0.34213 -0.6439 31000.86587 length 0.00466 color 0 0 1 }
Segment { rot -0.69123 0 -0.72264 1.27983 offset 0.34035 -0.64474 31000.86753 length 0.0005 color 0 0 1 }
Segment { rot -0.57355 0 -0.81917 1.27423 offset 0.33925 -0.64515 31000.86834 length 0.00234 color 0 0 1 }
Segment { rot -0.66452 0 -0.74727 1.05098 offset 0.33785 -0.64587 31000.86942 length 0.00151 color 0 0 1 }
Segment { rot -0.80314 0 -0.59579 1.08973 offset 0.33654 -0.64696 31000.87095 length 0.00309 color 0 0 1 }
Segment { rot -0.81842 0 -0.57462 1.11474 offset 0.335 -0.64829 31000.87309 length 0.00283 color 0 0 1 }
Segment { rot -0.73396 0 -0.67919 0.8466 offset 0.33412 -0.6491 31000.87428 length 0.00056 color 0 0 1 }
Segment { rot -0.72899 0 -0.68453 0.87356 offset 0.33385 -0.64945 31000.87458 length 0.00051 color 0 0 1 }
Segment { rot -0.63703 0 -0.77084 0.89441 offset 0.33213 -0.65127 31000.87603 length 0.00528 color 0 0 1 }
Segment { rot -0.64542 0 -0.76383 0.85974 offset 0.33018 -0.65333 31000.87765 length 0.00125 color 0 0 1 }
Segment { rot 0.94766 0 0.31928 2.19578 offset 0.32994 -0.65345 31000.87758 length 0.00098 color 0 0 1 }
Segment { rot 0.85648 0 0.51618 2.36585 offset 0.33064 -0.65203 31000.87625 length 0.00318 color 0 0 1 }
Segment { rot 0.91867 0 -0.39504 2.22127 offset 0.33116 -0.65079 31000.87516 length 0.00036 color 0 0 1 }
Segment { rot 0.93245 0 -0.36129 2.12688 offset 0.33066 -0.64992 31000.87389 length 0.00288 color 0 0 1 }
Segment { rot 0.95074 0 -0.30998 2.14126 offset 0.33019 -0.64909 31000.87266 length 0.00024 color 0 0 1 }
Segment { rot 0.95862 0 -0.2847 2.11335 offset 0.32976 -0.64819 31000.87123 length 0.00325 color 0 0 1 }
Segment { rot 0.2669 0 0.96372 1.729 offset 0.33004 -0.64724 31000.86971 length 0.00141 color 0 0 1 }
Segment { rot 0.19502 0 0.9808 1.9286 offset 0.33106 -0.647 31000.86945 length 0.00078 color 0 0 1 }
Segment { rot 0.18959 0 0.98186 1.95953 offset 0.33187 -0.64667 31000.86929 length 0.00099 color 0 0 1 }
Segment { rot 0.12673 0 0.99194 2.088 offset 0.3325 -0.64638 31000.86918 length 0.00042 color 0 0 1 }
Segment { rot 0.14601 0 0.98928 2.1342 offset 0.33422 -0.64529 31000.86893 length 0.00369 color 0 0 1 }
Segment { rot 0.00269 0 1 2.18792 offset 0.33739 -0.64315 31000.8687 length 0.00398 color 0 0 1 }
Segment { rot -0.0886 0 0.99607 2.21423 offset 0.33957 -0.64158 31000.86875 length 0.00139 color 0 0 1 }
Segment { rot 0.40297 0 0.91521 0.96468 offset 0.34058 -0.64152 31000.86859 length 0.00122 color 0 0 1 }
Segment { rot 0.26561 0 0.96408 1.05064 offset 0.34108 -0.64189 31000.86838 length 0.00009 color 0 0 1 }
Segment { rot -0.38388 0 -0.92338 1.47704 offset 0.34075 -0.64194 31000.86852 length 0.0008 color 0 0 1 }
Segment { rot 0.32887 0 -0.94438 1.90527 offset 0.34016 -0.6419 31000.8686 length 0.00051 color 0 0 1 }
Segment { rot -0.29999 0 -0.95394 2.47788 offset 0.33981 -0.64165 31000.86856 length 0.00042 color 0 0 1 }
Segment { rot -0.13764 0 -0.99048 2.35038 offset 0.33865 -0.64045 31000.86874 length 0.00296 color 0 0 1 }
Segment { rot 0.90772 0 0.41958 2.60301 offset 0.3377 -0.63902 31000.86868 length 0.0009 color 0 0 1 }
Segment { rot 0.87498 0 -0.48415 2.49777 offset 0.33753 -0.63789 31000.86798 length 0.00186 color 0 0 1 }
Segment { rot 0.83979 0 -0.54292 2.46423 offset 0.33646 -0.63533 31000.86626 length 0.00468 color 0 0 1 }
Segment { rot 0.65793 0 -0.75308 2.52149 offset 0.33562 -0.63341 31000.86498 length 0.00023 color 0 0 1 }
Segment { rot 0.50409 0 -0.86365 2.54987 offset 0.33555 -0.63329 31000.86493 length 0.00007 color 0 0 1 }
Segment { rot -0.81804 0 0.57516 1.14721 offset 0.33571 -0.6334 31000.86517 length 0.00068 color 0 0 1 }
Segment { rot -0.82533 0 0.56466 1.21543 offset 0.33593 -0.63357 31000.86549 length 0.00015 color 0 0 1 }
Segment { rot -0.10456 0 0.99452 1.02316 offset 0.33615 -0.63371 31000.86557 length 0.00042 color 0 0 1 }
Segment { rot -0.77691 0 0.62961 1.61966 offset 0.33689 -0.63377 31000.86628 length 0.00179 color 0 0 1 }
Segment { rot -0.70839 0 0.70582 1.35999 offset 0.33774 -0.63381 31000.86727 length 0.00084 color 0 0 1 }
Segment { rot -0.75965 0 0.65033 1.40232 offset 0.33885 -0.63412 31000.86851 length 0.00255 color 0 0 1 }
Segment { rot 0.99465 0 0.10326 1.29677 offset 0.33967 -0.63434 31000.86944 length 0.00005 color 0 0 1 }
Segment { rot 0.9987 0 0.05105 1.24064 offset 0.33968 -0.63445 31000.86911 length 0.00064 color 0 0 1 }
Segment { rot -0.98791 0 -0.15502 1.50746 offset 0.33959 -0.6346 31000.86954 length 0.00147 color 0 0 1 }
Segment { rot -0.79026 0 -0.61278 1.75894 offset 0.33946 -0.63464 31000.87028 length 0.00004 color 0 0 1 }
Segment { rot -0.90544 0 0.42447 2.15605 offset 0.33953 -0.63451 31000.87046 length 0.00046 color 0 0 1 }
Segment { rot -0.95349 0 0.30142 2.10923 offset 0.33972 -0.63417 31000.87098 length 0.00084 color 0 0 1 }
Segment { rot -0.93646 0 0.35077 1.66021 offset 0.33985 -0.63394 31000.8714 length 0.00015 color 0 0 1 }
Segment { rot -0.95556 0 0.29478 1.66759 offset 0.33988 -0.63394 31000.87148 length 0.00003 color 0 0 1 }
Segment { rot -0.95753 0 0.28835 1.5892 offset 0.3399 -0.63393 31000.87154 length 0.00009 color 0 0 1 }
Segment { rot -0.95513 0 0.29618 1.64959 offset 0.34003 -0.6339 31000.87197 length 0.00081 color 0 0 1 }
Segment { rot -0.80592 0 0.59203 1.96089 offset 0.3405 -0.63363 31000.87282 length 0.00125 color 0 0 1 }
Segment { rot -0.40918 0 0.91245 1.45709 offset 0.34103 -0.63342 31000.87337 length 0.00043 color 0 0 1 }
Segment { rot -0.40417 0 0.91469 1.76509 offset 0.34152 -0.63338 31000.87359 length 0.00066 color 0 0 1 }
Segment { rot 0.04529 0 0.99897 1.20201 offset 0.34247 -0.63357 31000.87369 length 0.0014 color 0 0 1 }
Segment { rot -0.24671 0 0.96909 1.18526 offset 0.34325 -0.63387 31000.87369 length 0.00029 color 0 0 1 }
Segment { rot 0.99889 0 0.04705 1.98177 offset 0.3434 -0.63377 31000.87337 length 0.00078 color 0 0 1 }
Segment { rot 0.99769 0 0.06795 1.95755 offset 0.34343 -0.63351 31000.87275 length 0.00056 color 0 0 1 }
Segment { rot 0.62266 0 -0.7825 2.17097 offset 0.34226 -0.63237 31000.87155 length 0.00368 color 0 0 1 }
Segment { rot 0.62096 0 -0.78384 2.12282 offset 0.34099 -0.63127 31000.87054 length 0.00024 color 0 0 1 }
Segment { rot 0.63438 0 -0.77302 2.14132 offset 0.34068 -0.63101 31000.87029 length 0.00071 color 0 0 1 }
Segment { rot 0.72226 0 -0.69163 2.04934 offset 0.34044 -0.63081 31000.87009 length 0.00004 color 0 0 1 }
Segment { rot 0.62975 0 -0.7768 2.20843 offset 0.34021 -0.63059 31000.86989 length 0.00072 color 0 0 1 }
Segment { rot 0.44442 0 -0.89582 1.98697 offset 0.33933 -0.63005 31000.86939 length 0.00158 color 0 0 1 }
Segment { rot 0.80029 0 0.59961 0.94574 offset 0.33872 -0.62978 31000.86902 length 0.00015 color 0 0 1 }
Segment { rot 0.74716 0 0.66465 0.96353 offset 0.33925 -0.63033 31000.86842 length 0.0018 color 0 0 1 }
Segment { rot 0.68755 0 0.72614 0.85878 offset 0.3403 -0.63151 31000.86734 length 0.00203 color 0 0 1 }
Segment { rot -0.37237 0 0.92808 1.53917 offset 0.34099 -0.63218 31000.86687 length 0.00029 color 0 0 1 }
Segment { rot 0.37805 0 -0.92579 1.56712 offset 0.34102 -0.63218 31000.86688 length 0.00022 color 0 0 1 }
Segment { rot 0.24857 0 -0.96861 1.48584 offset 0.34088 -0.63219 31000.86683 length 0.00007 color 0 0 1 }
Segment { rot 0.76243 0 -0.64708 2.18464 offset 0.34071 -0.63203 31000.86666 length 0.00053 color 0 0 1 }
Segment { rot 0.79317 0 -0.609 2.39669 offset 0.34053 -0.63181 31000.86643 length 0.00021 color 0 0 1 }
Segment { rot 0.99876 0 -0.04973 0.07627 offset 0.34048 -0.63223 31000.86634 length 0.001 color 0 0 1 }
Segment { rot 0.57623 0 -0.81729 2.15285 offset 0.34044 -0.63269 31000.86627 length 0.00012 color 0 0 1 }
Segment { rot 0.73 0 -0.68345 2.10356 offset 0.3403 -0.63258 31000.86615 length 0.00031 color 0 0 1 }
Segment { rot -0.47649 0 0.87918 1.00111 offset 0.3403 -0.63257 31000.8661 length 0.00024 color 0 0 1 }
Segment { rot -0.9387 0 -0.34475 2.21064 offset 0.34039 -0.63263 31000.86615 length 0.00001 color 0 0 1 }
Segment { rot -0.82859 0 -0.55985 2.72082 offset 0.34038 -0.6326 31000.86616 length 0.00005 color 0 0 1 }