#VRML V2.0 utf8
#Generated by NISTMonte
WorldInfo {
 title "NISTMonte Trajectory"
 info ["See http://www.cstl.nist.gov/div837/Division/home.html for more information"]
}
Viewpoint {
 fieldOfView 0.785398
 position 0 5 31000
 orientation -1 -0 -0 1.5708
 description "Y-Axis"
}
Viewpoint {
 fieldOfView 0.785398
 position 0 0 30995
 orientation 1 0 0 3.1415926
 description "Gun"
}
Viewpoint {
 fieldOfView 0.785398
 position -5 0 31000
 orientation 0 -1 0 1.5708
 description "X-Axis"
}




#Prototype for a trajectory segment
PROTO Segment [
 field SFRotation rot 1 0 0 0
 field SFVec3f offset 0 0 0
 field SFFloat length 0.1
 field SFColor color 1 1 1
]
{
 Transform {
  rotation IS rot
  translation IS offset
  children [
   Shape {
    geometry Cylinder {
     radius 0.001
     height IS length
    }
    appearance Appearance {
     material Material {
      emissiveColor IS color
     }
    }
   }
  ]
 }
}
Segment { rot -1 0 -0 1.5708 offset 0.00636 0.00363 31000.0037 length 0.00741 color 0 0 1 }
Segment { rot -0.99904 0 0.0438 1.53146 offset 0.00661 0.0034 31000.01328 length 0.01177 color 0 0 1 }
Segment { rot -0.99954 0 0.03045 1.55922 offset 0.00698 0.00313 31000.02268 length 0.00706 color 0 0 1 }
Segment { rot -0.99997 0 0.008 1.54896 offset 0.00713 0.00297 31000.03174 length 0.01106 color 0 0 1 }
Segment { rot -0.94851 0 -0.31673 1.60004 offset 0.00596 0.00296 31000.0409 length 0.00765 color 0 0 1 }
Segment { rot -0.94864 0 -0.31636 1.57644 offset 0.00423 0.00308 31000.0461 length 0.00332 color 0 0 1 }
Segment { rot -0.96548 0 -0.26048 1.6256 offset 0.00291 0.00326 31000.05063 length 0.00613 color 0 0 1 }
Segment { rot -0.98051 0 -0.19647 1.53406 offset 0.00161 0.00333 31000.05607 length 0.00507 color 0 0 1 }
Segment { rot -0.97123 0 -0.23813 1.48018 offset 0.00107 0.00322 31000.05873 length 0.00037 color 0 0 1 }
Segment { rot -0.81407 0 -0.58077 1.53312 offset -0.00048 0.00311 31000.06102 length 0.00518 color 0 0 1 }
Segment { rot -0.84409 0 -0.5362 1.52443 offset -0.00313 0.00291 31000.06494 length 0.00429 color 0 0 1 }
Segment { rot -0.84726 0 -0.53118 1.64899 offset -0.0045 0.00284 31000.06709 length 0.00081 color 0 0 1 }
Segment { rot -0.85857 0 -0.5127 1.65123 offset -0.01055 0.00379 31000.0772 length 0.02283 color 0 0 1 }
Segment { rot -0.87119 0 -0.49095 1.7008 offset -0.01722 0.00493 31000.08846 length 0.00345 color 0 0 1 }
Segment { rot -0.84751 0 -0.53079 1.67571 offset -0.01852 0.00525 31000.09069 length 0.00174 color 0 0 1 }
Segment { rot -0.85202 0 -0.52351 1.70359 offset -0.01995 0.00559 31000.09299 length 0.00372 color 0 0 1 }
Segment { rot -0.84186 0 -0.53969 1.43856 offset -0.02179 0.00562 31000.09594 length 0.00329 color 0 0 1 }
Segment { rot -0.86344 0 -0.50446 1.43194 offset -0.02461 0.00486 31000.10063 length 0.00776 color 0 0 1 }
Segment { rot -0.87234 0 -0.48891 1.35432 offset -0.02675 0.00423 31000.10431 length 0.00084 color 0 0 1 }
Segment { rot -0.85129 0 -0.52469 1.31818 offset -0.02903 0.00312 31000.10804 length 0.0082 color 0 0 1 }
Segment { rot -0.81951 0 -0.57307 1.32337 offset -0.03391 0.00086 31000.11542 length 0.01005 color 0 0 1 }
Segment { rot -0.82243 0 -0.56887 1.26805 offset -0.03794 -0.00105 31000.1212 length 0.00456 color 0 0 1 }
Segment { rot -0.82308 0 -0.56792 1.25659 offset -0.03926 -0.00177 31000.1231 length 0.00028 color 0 0 1 }
Segment { rot -0.92264 0 -0.38565 1.30297 offset -0.04356 -0.00482 31000.13332 length 0.02271 color 0 0 1 }
Segment { rot -0.91219 0 -0.40976 1.10625 offset -0.04841 -0.0086 31000.14483 length 0.00346 color 0 0 1 }
Segment { rot -0.9097 0 -0.41527 1.08682 offset -0.0491 -0.00944 31000.14636 length 0.0003 color 0 0 1 }
Segment { rot -0.99731 0 -0.07328 0.87157 offset -0.0494 -0.01235 31000.14985 length 0.00883 color 0 0 1 }
Segment { rot -0.97794 0 -0.20887 0.84864 offset -0.04968 -0.01531 31000.15335 length 0.00037 color 0 0 1 }
Segment { rot -0.98778 0 -0.15584 0.8886 offset -0.04974 -0.01562 31000.15371 length 0.00059 color 0 0 1 }
Segment { rot -0.99195 0 -0.12667 1.1339 offset -0.05063 -0.01895 31000.16062 length 0.01487 color 0 0 1 }
Segment { rot -0.99568 0 -0.09288 1.074 offset -0.05202 -0.02524 31000.17308 length 0.01321 color 0 0 1 }
Segment { rot -0.99769 0 -0.06791 1.09654 offset -0.05261 -0.02874 31000.17953 length 0.00151 color 0 0 1 }
Segment { rot -0.998 0 -0.0632 1.08587 offset -0.05276 -0.02995 31000.18184 length 0.00373 color 0 0 1 }
Segment { rot -0.99752 0 -0.07031 1.10844 offset -0.05308 -0.03237 31000.18659 length 0.00696 color 0 0 1 }
Segment { rot -0.99755 0 -0.06994 1.13862 offset -0.05374 -0.03682 31000.19596 length 0.01382 color 0 0 1 }
Segment { rot -0.9843 0 -0.1765 1.58958 offset -0.05425 -0.0397 31000.20261 length 0.0008 color 0 0 1 }
Segment { rot -0.97191 0 -0.23534 1.55712 offset -0.05469 -0.03972 31000.20453 length 0.00315 color 0 0 1 }
Segment { rot 0.24184 0 0.97032 1.8706 offset -0.05092 -0.03842 31000.20503 length 0.00893 color 0 0 1 }
Segment { rot 0.22606 0 0.97411 1.90611 offset -0.04444 -0.03626 31000.20346 length 0.00508 color 0 0 1 }
Segment { rot 0.27293 0 0.96203 1.91974 offset -0.04062 -0.03487 31000.2025 length 0.00327 color 0 0 1 }
Segment { rot 0.22837 0 0.97358 1.82978 offset -0.03758 -0.03388 31000.20171 length 0.00331 color 0 0 1 }
Segment { rot 0.19256 0 0.98129 1.86617 offset -0.03464 -0.03303 31000.20107 length 0.00294 color 0 0 1 }
Segment { rot 0.2276 0 0.97376 1.82152 offset -0.02614 -0.03073 31000.19914 length 0.01509 color 0 0 1 }
Segment { rot 0.21114 0 0.97746 1.83261 offset -0.01826 -0.02865 31000.19731 length 0.00161 color 0 0 1 }
Segment { rot 0.21538 0 0.97653 1.77856 offset -0.01554 -0.02802 31000.19671 length 0.0041 color 0 0 1 }
Segment { rot 0.48136 0 0.87652 1.45534 offset -0.01335 -0.02762 31000.19616 length 0.00053 color 0 0 1 }
Segment { rot 0.53189 0 0.84681 1.50364 offset -0.00998 -0.0279 31000.19406 length 0.00744 color 0 0 1 }
Segment { rot 0.51554 0 0.85686 1.48521 offset -0.00064 -0.02877 31000.18835 length 0.01452 color 0 0 1 }
Segment { rot 0.47158 0 0.88182 1.12933 offset 0.00887 -0.03117 31000.18285 length 0.0083 color 0 0 1 }
Segment { rot 0.3468 0 0.93794 0.97145 offset 0.01242 -0.03312 31000.181 length 0.00063 color 0 0 1 }
Segment { rot 0.36588 0 0.93066 0.98172 offset 0.01406 -0.0343 31000.18036 length 0.00361 color 0 0 1 }
Segment { rot 0.65833 0 0.75273 1.10456 offset 0.01757 -0.03671 31000.17796 length 0.00629 color 0 0 1 }
Segment { rot 0.73841 0 0.67435 0.94325 offset 0.02378 -0.04254 31000.17162 length 0.01502 color 0 0 1 }
Segment { rot 0.6825 0 0.73089 0.88149 offset 0.0301 -0.04946 31000.16505 length 0.00789 color 0 0 1 }
Segment { rot 0.68251 0 0.73088 0.89382 offset 0.03242 -0.05207 31000.16289 length 0.00032 color 0 0 1 }
Segment { rot 0.69928 0 0.71484 0.87504 offset 0.03305 -0.05279 31000.16228 length 0.00195 color 0 0 1 }
Segment { rot 0.71952 0 0.69447 0.9754 offset 0.03451 -0.05432 31000.1608 length 0.00322 color 0 0 1 }
Segment { rot 0.71751 0 0.69654 0.98274 offset 0.03721 -0.05692 31000.15801 length 0.00614 color 0 0 1 }
Segment { rot -0.90992 0 -0.41479 1.3138 offset 0.03868 -0.05882 31000.15685 length 0.00153 color 0 0 1 }
Segment { rot -0.93266 0 -0.36076 1.32597 offset 0.03671 -0.06017 31000.16182 length 0.0095 color 0 0 1 }
Segment { rot -0.91567 0 -0.40194 1.30845 offset 0.03459 -0.06162 31000.16716 length 0.00235 color 0 0 1 }
Segment { rot -0.9259 0 -0.37776 1.30627 offset 0.03323 -0.06258 31000.17043 length 0.005 color 0 0 1 }
Segment { rot -0.92505 0 -0.37986 1.28097 offset 0.03146 -0.06391 31000.17476 length 0.00472 color 0 0 1 }
Segment { rot -0.93531 0 -0.35383 1.2939 offset 0.02951 -0.06546 31000.17972 length 0.00637 color 0 0 1 }
Segment { rot -0.92753 0 -0.37375 1.1949 offset 0.02751 -0.0673 31000.18487 length 0.00528 color 0 0 1 }
Segment { rot -0.93648 0 -0.35072 1.16624 offset 0.02314 -0.07248 31000.19637 length 0.02143 color 0 0 1 }
Segment { rot -0.93812 0 -0.34631 1.135 offset 0.01771 -0.07936 31000.21095 length 0.0126 color 0 0 1 }
Segment { rot -0.87687 0 -0.48073 0.93371 offset 0.01342 -0.08557 31000.22052 length 0.01195 color 0 0 1 }
Segment { rot -0.90027 0 -0.43534 0.83658 offset 0.01054 -0.09031 31000.2259 length 0.00351 color 0 0 1 }
Segment { rot -0.89553 0 -0.44499 0.82834 offset 0.00987 -0.09171 31000.2273 length 0.00066 color 0 0 1 }
Segment { rot -0.8305 0 -0.55701 0.77354 offset 0.00873 -0.09382 31000.22905 length 0.00527 color 0 0 1 }
Segment { rot -0.88975 0 -0.45644 0.90175 offset 0.00706 -0.09681 31000.23183 length 0.00358 color 0 0 1 }
Segment { rot -0.89819 0 -0.43961 0.90864 offset 0.0058 -0.09903 31000.23435 length 0.00361 color 0 0 1 }
Segment { rot -0.75721 0 -0.65317 0.84897 offset 0.00112 -0.10561 31000.24033 length 0.01653 color 0 0 1 }
Segment { rot -0.75614 0 -0.65441 0.89327 offset -0.00389 -0.11224 31000.24613 length 0.00375 color 0 0 1 }
Segment { rot -0.76141 0 -0.64827 0.89128 offset -0.00515 -0.1138 31000.24759 length 0.0012 color 0 0 1 }
Segment { rot -0.69442 0 -0.71957 0.77538 offset -0.00622 -0.11526 31000.24869 length 0.00306 color 0 0 1 }
Segment { rot -0.79286 0 -0.6094 0.87166 offset -0.00764 -0.11725 31000.25028 length 0.00279 color 0 0 1 }
Segment { rot -0.7988 0 -0.6016 0.87092 offset -0.01334 -0.12522 31000.25783 length 0.02195 color 0 0 1 }
Segment { rot -0.78215 0 -0.62309 0.84946 offset -0.01853 -0.13248 31000.26471 length 0.00058 color 0 0 1 }
Segment { rot -0.72491 0 -0.68885 0.67761 offset -0.02012 -0.13529 31000.26641 length 0.00672 color 0 0 1 }
Segment { rot -0.74356 0 -0.66867 0.72303 offset -0.02165 -0.13805 31000.26802 length 0.00036 color 0 0 1 }
Segment { rot -0.66249 0 -0.74907 0.72099 offset -0.02273 -0.1397 31000.269 length 0.00404 color 0 0 1 }
Segment { rot -0.92206 0 -0.38705 0.58836 offset -0.02444 -0.144 31000.27159 length 0.00669 color 0 0 1 }
Segment { rot -0.99497 0 0.10021 0.56617 offset -0.02513 -0.14732 31000.27365 length 0.0013 color 0 0 1 }
Segment { rot -0.99938 0 0.03515 0.64251 offset -0.02509 -0.148 31000.27409 length 0.00033 color 0 0 1 }
Segment { rot -0.94965 0 -0.31332 0.81012 offset -0.0253 -0.14879 31000.27485 length 0.00191 color 0 0 1 }
Segment { rot -0.91625 0 -0.40061 0.73336 offset -0.02575 -0.15009 31000.27603 length 0.00171 color 0 0 1 }
Segment { rot -0.92075 0 -0.39016 0.74721 offset -0.02613 -0.15115 31000.27692 length 0.00118 color 0 0 1 }
Segment { rot -0.87338 0 -0.48704 0.79472 offset -0.02687 -0.15276 31000.27834 length 0.00337 color 0 0 1 }
Segment { rot -0.5009 0 -0.86551 0.64868 offset -0.03063 -0.15878 31000.28122 length 0.01214 color 0 0 1 }
Segment { rot -0.44638 0 -0.89484 0.66449 offset -0.03448 -0.16457 31000.28339 length 0.00243 color 0 0 1 }
Segment { rot -0.51503 0 -0.85717 0.65339 offset -0.0356 -0.16622 31000.284 length 0.00173 color 0 0 1 }
Segment { rot -0.57037 0 -0.82139 0.66872 offset -0.03698 -0.16834 31000.28492 length 0.00366 color 0 0 1 }
Segment { rot -0.59464 0 -0.80399 0.95179 offset -0.03886 -0.17061 31000.28626 length 0.00289 color 0 0 1 }
Segment { rot -0.60299 0 -0.79775 0.90323 offset -0.04293 -0.17454 31000.28932 length 0.00997 color 0 0 1 }
Segment { rot -0.62444 0 -0.78107 0.93889 offset -0.04872 -0.18013 31000.29382 length 0.00847 color 0 0 1 }
Segment { rot -0.50572 0 -0.8627 0.92031 offset -0.0523 -0.18343 31000.29649 length 0.00266 color 0 0 1 }
Segment { rot -0.56773 0 -0.82321 0.98057 offset -0.05362 -0.18457 31000.2973 length 0.00118 color 0 0 1 }
Segment { rot -0.24025 0 -0.97071 1.55111 offset -0.05406 -0.18489 31000.29759 length 0.00009 color 0 0 1 }
Segment { rot -0.20916 0 -0.97788 1.59253 offset -0.06076 -0.18475 31000.29902 length 0.01361 color 0 0 1 }
Segment { rot -0.51382 0 -0.8579 1.728 offset -0.07046 -0.18403 31000.30227 length 0.0072 color 0 0 1 }
Segment { rot -0.53013 0 -0.84792 1.95645 offset -0.07684 -0.18188 31000.30618 length 0.00847 color 0 0 1 }
Segment { rot -0.49993 0 -0.86607 1.96637 offset -0.08054 -0.1801 31000.30848 length 0.00094 color 0 0 1 }
Segment { rot -0.48852 0 -0.87256 1.83981 offset -0.08355 -0.17909 31000.31017 length 0.00625 color 0 0 1 }
Segment { rot 0.50413 0 -0.86363 1.07577 offset -0.08842 -0.17966 31000.31033 length 0.00589 color 0 0 1 }
Segment { rot 0.50734 0 -0.86174 1.08844 offset -0.09522 -0.18383 31000.30634 length 0.01195 color 0 0 1 }
Segment { rot 0.47758 0 -0.87859 1.08904 offset -0.1002 -0.18685 31000.30343 length 0.00107 color 0 0 1 }
Segment { rot 0.64884 0 -0.76093 1.12453 offset -0.10595 -0.19046 31000.29865 length 0.01557 color 0 0 1 }
Segment { rot 0.58948 0 -0.80778 1.16032 offset -0.11194 -0.19416 31000.29362 length 0.00174 color 0 0 1 }
Segment { rot 0.70703 0 -0.70718 1.17353 offset -0.11351 -0.19506 31000.29223 length 0.00282 color 0 0 1 }
Segment { rot 0.69848 0 -0.71563 1.16738 offset -0.11575 -0.19639 31000.29002 length 0.00401 color 0 0 1 }
Segment { rot 0.63687 0 -0.77097 1.17416 offset -0.11974 -0.19863 31000.28653 length 0.00751 color 0 0 1 }
Segment { rot 0.58347 0 -0.81213 1.15076 offset -0.12525 -0.20164 31000.28228 length 0.00766 color 0 0 1 }
Segment { rot 0.57374 0 -0.81904 1.13228 offset -0.12835 -0.20335 31000.28006 length 0.00071 color 0 0 1 }
Segment { rot 0.59671 0 -0.80246 1.06503 offset -0.13028 -0.20465 31000.27864 length 0.00473 color 0 0 1 }
Segment { rot 0.88556 0 -0.46452 1.11977 offset -0.13294 -0.20684 31000.27549 length 0.0048 color 0 0 1 }
Segment { rot 0.87512 0 -0.48391 1.05728 offset -0.1348 -0.20889 31000.27202 length 0.00409 color 0 0 1 }
Segment { rot 0.93846 0 -0.3454 1.10235 offset -0.13666 -0.21135 31000.26776 length 0.00645 color 0 0 1 }
Segment { rot 0.9719 0 -0.23541 1.06491 offset -0.13792 -0.21343 31000.26398 length 0.00254 color 0 0 1 }
Segment { rot 0.98119 0 -0.19304 1.07597 offset -0.1382 -0.2141 31000.26279 length 0.00025 color 0 0 1 }
Segment { rot 0.9327 0 -0.36067 0.74183 offset -0.13856 -0.2152 31000.2618 length 0.00281 color 0 0 1 }
Segment { rot 0.94328 0 -0.332 0.80075 offset -0.13934 -0.21749 31000.25968 length 0.00363 color 0 0 1 }
Segment { rot 0.97224 0 -0.234 0.77463 offset -0.14094 -0.22387 31000.25359 length 0.01431 color 0 0 1 }
Segment { rot 0.97524 0 -0.22115 0.77184 offset -0.14271 -0.23178 31000.24607 length 0.0078 color 0 0 1 }
Segment { rot 0.99324 0 -0.11609 0.90411 offset -0.14335 -0.23484 31000.24308 length 0.00087 color 0 0 1 }
Segment { rot 0.99582 0 -0.09138 0.89824 offset -0.1434 -0.23516 31000.24267 length 0.00017 color 0 0 1 }
Segment { rot 0.99843 0 -0.05596 0.90217 offset -0.14351 -0.23676 31000.24066 length 0.00496 color 0 0 1 }
Segment { rot 0.99207 0 -0.12569 1.03144 offset -0.14372 -0.23877 31000.23793 length 0.00185 color 0 0 1 }
Segment { rot 0.99425 0 -0.10707 1.04531 offset -0.14445 -0.24263 31000.23135 length 0.01348 color 0 0 1 }
Segment { rot 0.9955 0 -0.09475 0.76723 offset -0.14544 -0.25 31000.22172 length 0.01109 color 0 0 1 }
Segment { rot 0.9924 0 -0.12308 0.76245 offset -0.14656 -0.26048 31000.21173 length 0.01795 color 0 0 1 }
Segment { rot 0.98704 0 -0.16045 0.82215 offset -0.14784 -0.26991 31000.20246 length 0.00864 color 0 0 1 }
Segment { rot 0.99131 0 -0.13157 0.68238 offset -0.14841 -0.27352 31000.19879 length 0.00172 color 0 0 1 }
Segment { rot 0.98509 0 -0.17202 0.73374 offset -0.14867 -0.27536 31000.19722 length 0.00315 color 0 0 1 }
Segment { rot 0.99765 0 -0.06845 0.7 offset -0.14893 -0.27796 31000.19497 length 0.00375 color 0 0 1 }
Segment { rot 0.99958 0 0.02897 0.67456 offset -0.14896 -0.28193 31000.19174 length 0.00649 color 0 0 1 }
Segment { rot 0.99662 0 0.08214 0.63286 offset -0.14874 -0.28699 31000.18787 length 0.00625 color 0 0 1 }
Segment { rot 0.95661 0 0.29136 0.80005 offset -0.14741 -0.29346 31000.18214 length 0.01135 color 0 0 1 }
Segment { rot 0.93345 0 0.35872 0.78949 offset -0.14574 -0.29875 31000.17699 length 0.00378 color 0 0 1 }
Segment { rot 0.94004 0 0.34106 0.82708 offset -0.14483 -0.30124 31000.17455 length 0.00343 color 0 0 1 }
Segment { rot 0.92865 0 0.37096 0.8179 offset -0.14251 -0.30716 31000.16864 length 0.01393 color 0 0 1 }
Segment { rot 0.94316 0 0.33235 1.02753 offset -0.14048 -0.31218 31000.16352 length 0.00098 color 0 0 1 }
Segment { rot 0.94905 0 0.31514 1.02195 offset -0.13987 -0.31335 31000.1617 length 0.00352 color 0 0 1 }
Segment { rot 0.95582 0 0.29396 1.06026 offset -0.13909 -0.31485 31000.15928 length 0.00238 color 0 0 1 }
Segment { rot 0.8618 0 0.50725 0.53973 offset -0.13863 -0.31596 31000.15802 length 0.00121 color 0 0 1 }
Segment { rot 0.85538 0 0.518 0.54348 offset -0.13807 -0.31776 31000.15709 length 0.00301 color 0 0 1 }
Segment { rot 0.75983 0 0.65012 0.61023 offset -0.13758 -0.31924 31000.15632 length 0.00047 color 0 0 1 }
Segment { rot 0.64347 0 0.76547 0.64554 offset -0.13217 -0.32866 31000.15175 length 0.0231 color 0 0 1 }
Segment { rot 0.6189 0 0.78547 0.56783 offset -0.12653 -0.33852 31000.14703 length 0.00151 color 0 0 1 }
Segment { rot 0.53443 0 0.84521 0.64185 offset -0.12133 -0.34689 31000.14368 length 0.01932 color 0 0 1 }
Segment { rot 0.52158 0 0.8532 0.61738 offset -0.11638 -0.35474 31000.14056 length 0.00026 color 0 0 1 }
Segment { rot 0.49433 0 0.86927 0.61475 offset -0.11586 -0.35559 31000.14026 length 0.00183 color 0 0 1 }
Segment { rot 0.38352 0 0.92353 0.68604 offset -0.1122 -0.36056 31000.13867 length 0.01093 color 0 0 1 }
Segment { rot 0.3963 0 0.91812 0.71366 offset -0.10842 -0.36553 31000.13709 length 0.00195 color 0 0 1 }
Segment { rot 0.40726 0 0.91331 0.74404 offset -0.10551 -0.36903 31000.1358 length 0.0075 color 0 0 1 }
Segment { rot -0.10367 0 0.99461 0.84303 offset -0.10096 -0.37379 31000.135 length 0.00602 color 0 0 1 }
Segment { rot -0.11564 0 0.99329 0.90713 offset -0.0984 -0.37604 31000.13527 length 0.00083 color 0 0 1 }
Segment { rot -0.17067 0 0.98533 0.93352 offset -0.09786 -0.37646 31000.13534 length 0.00053 color 0 0 1 }
Segment { rot -0.18272 0 0.98317 0.92267 offset -0.09419 -0.37928 31000.13602 length 0.00882 color 0 0 1 }
Segment { rot -0.21207 0 0.97725 0.94661 offset -0.0897 -0.3827 31000.13689 length 0.00261 color 0 0 1 }
Segment { rot -0.0497 0 0.99876 0.78684 offset -0.08691 -0.38522 31000.1372 length 0.00499 color 0 0 1 }
Segment { rot -0.01687 0 0.99986 0.78984 offset -0.08496 -0.38717 31000.13729 length 0.00052 color 0 0 1 }
Segment { rot 0.1142 0 0.99346 0.67989 offset -0.07767 -0.3962 31000.13648 length 0.02275 color 0 0 1 }
Segment { rot 0.17207 0 0.98508 0.71965 offset -0.06856 -0.40736 31000.13531 length 0.00617 color 0 0 1 }
Segment { rot 0.14491 0 0.98945 0.72147 offset -0.06625 -0.41004 31000.13492 length 0.00096 color 0 0 1 }
Segment { rot 0.10703 0 0.99426 0.80279 offset -0.06571 -0.41062 31000.13485 length 0.00062 color 0 0 1 }
Segment { rot -0.05198 0 0.99865 0.75372 offset -0.06422 -0.41219 31000.13489 length 0.00371 color 0 0 1 }
Segment { rot -0.04002 0 0.9992 0.78454 offset -0.062 -0.41449 31000.13499 length 0.00269 color 0 0 1 }
Segment { rot -0.11503 0 0.99336 0.77324 offset -0.06095 -0.41555 31000.13504 length 0.00031 color 0 0 1 }
Segment { rot -0.12367 0 0.99232 0.74922 offset -0.05814 -0.41859 31000.13539 length 0.00799 color 0 0 1 }
Segment { rot -0.14682 0 0.98916 0.66333 offset -0.05383 -0.42359 31000.13597 length 0.00528 color 0 0 1 }
Segment { rot 0.14835 0 0.98893 0.66639 offset -0.05091 -0.42737 31000.13601 length 0.00431 color 0 0 1 }
Segment { rot 0.14767 0 0.98904 0.65184 offset -0.04886 -0.43003 31000.1357 length 0.00244 color 0 0 1 }
Segment { rot 0.1634 0 0.98656 0.61563 offset -0.04616 -0.43381 31000.13527 length 0.00688 color 0 0 1 }
Segment { rot 0.18768 0 0.98223 0.57029 offset -0.04359 -0.4376 31000.13482 length 0.00233 color 0 0 1 }
Segment { rot 0.39609 0 0.91821 0.57314 offset -0.04144 -0.44115 31000.13405 length 0.00613 color 0 0 1 }
Segment { rot 0.39604 0 0.91823 0.54498 offset -0.03891 -0.44555 31000.13295 length 0.00425 color 0 0 1 }
Segment { rot 0.41191 0 0.91122 0.53026 offset -0.03769 -0.44775 31000.13242 length 0.0009 color 0 0 1 }
Segment { rot 0.32877 0 0.94441 0.6498 offset -0.03652 -0.44948 31000.132 length 0.00335 color 0 0 1 }
Segment { rot 0.27421 0 0.96167 0.70405 offset -0.0333 -0.45358 31000.13102 length 0.00728 color 0 0 1 }
Segment { rot 0.33625 0 0.94177 0.66173 offset -0.03023 -0.45746 31000.13008 length 0.0028 color 0 0 1 }
Segment { rot 0.34322 0 0.93925 0.64563 offset -0.02747 -0.46131 31000.12908 length 0.00687 color 0 0 1 }
Segment { rot 0.38467 0 0.92305 0.68663 offset -0.02441 -0.46554 31000.12791 length 0.00384 color 0 0 1 }
Segment { rot 0.41516 0 0.90975 0.70315 offset -0.02248 -0.46807 31000.12707 length 0.00275 color 0 0 1 }
Segment { rot 0.98107 0 0.19363 0.77304 offset -0.02166 -0.46916 31000.12666 length 0.00011 color 0 0 1 }
Segment { rot 0.98149 0 0.19153 0.69866 offset -0.02134 -0.47114 31000.12502 length 0.00507 color 0 0 1 }
Segment { rot 0.97909 0 0.20345 0.73384 offset -0.02022 -0.4775 31000.11952 length 0.01192 color 0 0 1 }
Segment { rot 0.93216 0 0.36204 0.95574 offset -0.01725 -0.48614 31000.11006 length 0.01459 color 0 0 1 }
Segment { rot 0.92869 0 0.37086 1.16787 offset -0.01263 -0.49317 31000.09834 length 0.01442 color 0 0 1 }
Segment { rot 0.95523 0 0.29585 1.29224 offset -0.01011 -0.49606 31000.09197 length 0.00046 color 0 0 1 }
Segment { rot 0.93432 0 0.35643 1.36337 offset -0.00982 -0.49626 31000.09118 length 0.00126 color 0 0 1 }
Segment { rot 0.92589 0 0.37778 1.37259 offset -0.00895 -0.49673 31000.08902 length 0.00349 color 0 0 1 }
Segment { rot 0.9385 0 0.34527 1.48687 offset -0.008 -0.49715 31000.0866 length 0.00179 color 0 0 1 }
Segment { rot 0.90678 0 0.4216 1.52697 offset -0.00675 -0.49732 31000.08374 length 0.00446 color 0 0 1 }
Segment { rot 0.90897 0 0.41686 1.53159 offset -0.0047 -0.49753 31000.07929 length 0.00536 color 0 0 1 }
Segment { rot 0.88588 0 0.46391 1.39067 offset -0.00256 -0.49803 31000.07491 length 0.00446 color 0 0 1 }
Segment { rot 0.92846 0 0.37142 1.45539 offset -0.00154 -0.49843 31000.07295 length 0.00002 color 0 0 1 }
Segment { rot 0.95295 0 0.30313 1.34409 offset -0.001 -0.49884 31000.07127 length 0.00362 color 0 0 1 }
Segment { rot 0.93856 0 0.3451 1.45538 offset -0.00026 -0.49932 31000.06901 length 0.00123 color 0 0 1 }
Segment { rot 0.97521 0 0.22127 1.46464 offset 0.00026 -0.49954 31000.06708 length 0.00281 color 0 0 1 }
Segment { rot 0.96969 0 0.24432 1.42414 offset 0.00061 -0.49971 31000.06557 length 0.00032 color 0 0 1 }
Segment { rot 0.97443 0 0.2247 1.50254 offset 0.00093 -0.49982 31000.06419 length 0.00251 color 0 0 1 }
Segment { rot 0.97837 0 0.20688 1.46136 offset 0.00214 -0.50039 31000.0586 length 0.00899 color 0 0 1 }
Segment { rot 0.93846 0 0.34539 1.51118 offset 0.00357 -0.50097 31000.05284 length 0.00296 color 0 0 1 }
Segment { rot 0.93785 0 0.34703 1.52384 offset 0.00559 -0.50126 31000.04738 length 0.00869 color 0 0 1 }
Segment { rot 0.92473 0 0.38061 1.48577 offset 0.00725 -0.5015 31000.04293 length 0.00083 color 0 0 1 }
Segment { rot 0.9096 0 0.41548 1.54265 offset 0.00875 -0.50163 31000.03962 length 0.00644 color 0 0 1 }
Segment { rot 0.92902 0 0.37002 1.50443 offset 0.01054 -0.5018 31000.03554 length 0.00249 color 0 0 1 }
Segment { rot 0.56459 0 0.82537 1.49073 offset 0.0112 -0.5019 31000.03425 length 0.00048 color 0 0 1 }
Segment { rot 0.58768 0 0.80909 1.52652 offset 0.01176 -0.50194 31000.03385 length 0.0009 color 0 0 1 }
Segment { rot 0.64161 0 0.76703 1.65892 offset 0.01303 -0.50186 31000.03283 length 0.00238 color 0 0 1 }
Segment { rot 0.5257 0 0.85067 1.56189 offset 0.01465 -0.50176 31000.03163 length 0.00166 color 0 0 1 }
Segment { rot 0.5222 0 0.85282 1.51098 offset 0.02042 -0.50212 31000.02809 length 0.01189 color 0 0 1 }
Segment { rot 0.53242 0 0.84648 1.50009 offset 0.02861 -0.50274 31000.02302 length 0.00742 color 0 0 1 }
Segment { rot 0.50665 0 0.86215 1.51868 offset 0.03532 -0.50322 31000.01895 length 0.0083 color 0 0 1 }
Segment { rot 0.34597 0 0.93824 1.50365 offset 0.03954 -0.50348 31000.01662 length 0.00138 color 0 0 1 }
Segment { rot 0.24227 0 0.97021 1.01777 offset 0.04071 -0.50386 31000.01625 length 0.00128 color 0 0 1 }
Segment { rot 0.26494 0 0.96427 1.01604 offset 0.04208 -0.50474 31000.01588 length 0.00206 color 0 0 1 }
Segment { rot 0.51264 0 0.85861 0.87685 offset 0.04336 -0.50571 31000.01539 length 0.00133 color 0 0 1 }
Segment { rot 0.59945 0 0.80041 0.80225 offset 0.04521 -0.50783 31000.01407 length 0.00489 color 0 0 1 }
Segment { rot 0.67234 0 0.74024 0.94074 offset 0.0475 -0.5104 31000.01222 length 0.00295 color 0 0 1 }
Segment { rot 0.65502 0 0.75561 0.95638 offset 0.04913 -0.51198 31000.01076 length 0.00244 color 0 0 1 }
Segment { rot 0.60654 0 0.79505 0.97233 offset 0.05108 -0.5137 31000.0092 length 0.00364 color 0 0 1 }
Segment { rot 0.53596 0 0.84424 0.91612 offset 0.05354 -0.51587 31000.00749 length 0.00377 color 0 0 1 }
Segment { rot 0.52892 0 0.84867 0.91579 offset 0.05622 -0.51831 31000.0058 length 0.00424 color 0 0 1 }
Segment { rot 0.49902 0 0.86659 0.95792 offset 0.06096 -0.52229 31000.003 length 0.00933 color 0 0 1 }
Segment { rot 0.42686 0 0.90432 0.76508 offset 0.0652 -0.52605 31000.00066 length 0.00298 color 0 0 1 }
Segment { rot 0.61359 0 0.78962 0.7262 offset 0.06627 -0.52732 31000.00011 length 0.00053 color 0 0 1 }