#VRML V2.0 utf8
#Generated by NISTMonte
WorldInfo {
 title "NISTMonte Trajectory"
 info ["See http://www.cstl.nist.gov/div837/Division/home.html for more information"]
}
Viewpoint {
 fieldOfView 0.785398
 position 0 5 20000
 orientation -1 -0 -0 1.5708
 description "Y-Axis"
}
Viewpoint {
 fieldOfView 0.785398
 position 0 0 19995
 orientation 1 0 0 3.1415926
 description "Gun"
}
Viewpoint {
 fieldOfView 0.785398
 position -5 0 20000
 orientation 0 -1 0 1.5708
 description "X-Axis"
}




#Prototype for a trajectory segment
PROTO Segment [
 field SFRotation rot 1 0 0 0
 field SFVec3f offset 0 0 0
 field SFFloat length 0.1
 field SFColor color 1 1 1
]
{
 Transform {
  rotation IS rot
  translation IS offset
  children [
   Shape {
    geometry Cylinder {
     radius 0.001
     height IS length
    }
    appearance Appearance {
     material Material {
      emissiveColor IS color
     }
    }
   }
  ]
 }
}
Segment { rot -1 0 -0 1.5708 offset 0.00441 0.00327 20000.00835 length 0.01669 color 0 0 1 }
Segment { rot -0.9999 0 0.01381 1.52468 offset 0.00442 0.00322 20000.01769 length 0.00201 color 0 0 1 }
Segment { rot -0.92266 0 -0.38562 1.53304 offset 0.00311 0.00305 20000.02186 length 0.00687 color 0 0 1 }
Segment { rot -0.91201 0 -0.41017 1.47006 offset -0.00133 0.00215 20000.03196 length 0.01528 color 0 0 1 }
Segment { rot -0.93136 0 -0.36411 1.49019 offset -0.00622 0.00099 20000.04342 length 0.00975 color 0 0 1 }
Segment { rot -0.91858 0 -0.39524 1.39259 offset -0.00832 0.00044 20000.04872 length 0.00171 color 0 0 1 }
Segment { rot -0.88103 0 -0.47305 1.3622 offset -0.01006 -0.00034 20000.05212 length 0.00609 color 0 0 1 }
Segment { rot -0.9565 0 -0.29173 1.32115 offset -0.01171 -0.00118 20000.05553 length 0.00169 color 0 0 1 }
Segment { rot -0.92731 0 -0.3743 1.31257 offset -0.01241 -0.00171 20000.05745 length 0.00254 color 0 0 1 }
Segment { rot -0.92648 0 -0.37634 1.30164 offset -0.01367 -0.00262 20000.06056 length 0.00441 color 0 0 1 }
Segment { rot -0.93289 0 -0.36016 1.2284 offset -0.0162 -0.00492 20000.067 length 0.01018 color 0 0 1 }
Segment { rot -0.91107 0 -0.41224 1.226 offset -0.01846 -0.0071 20000.07267 length 0.00278 color 0 0 1 }
Segment { rot -0.92478 0 -0.3805 1.22694 offset -0.02162 -0.01003 20000.08023 length 0.01462 color 0 0 1 }
Segment { rot -0.9145 0 -0.40459 1.21341 offset -0.02511 -0.0133 20000.08857 length 0.00461 color 0 0 1 }
Segment { rot -0.91425 0 -0.40516 1.35204 offset -0.02863 -0.01556 20000.09651 length 0.01338 color 0 0 1 }
Segment { rot -0.80083 0 -0.59889 1.08847 offset -0.03142 -0.01713 20000.10266 length 0.00051 color 0 0 1 }
Segment { rot -0.88654 0 -0.46266 1.21329 offset -0.03337 -0.01872 20000.10634 length 0.00841 color 0 0 1 }
Segment { rot -0.89545 0 -0.44517 1.16399 offset -0.03553 -0.02052 20000.11051 length 0.00165 color 0 0 1 }
Segment { rot -0.97894 0 -0.20415 1.06811 offset -0.03588 -0.02087 20000.11124 length 0.00012 color 0 0 1 }
Segment { rot -0.94523 0 -0.32641 1.13732 offset -0.03703 -0.02252 20000.11458 length 0.00768 color 0 0 1 }
Segment { rot -0.84723 0 -0.53122 0.92643 offset -0.03982 -0.02646 20000.12051 length 0.00778 color 0 0 1 }
Segment { rot -0.8159 0 -0.57819 0.76972 offset -0.05088 -0.0456 20000.13643 length 0.04678 color 0 0 1 }
Segment { rot -0.81037 0 -0.58592 0.7363 offset -0.06077 -0.0633 20000.15037 length 0.00243 color 0 0 1 }
Segment { rot -0.8296 0 -0.55836 0.70937 offset -0.06183 -0.06541 20000.1519 length 0.0032 color 0 0 1 }
Segment { rot -0.98277 0 -0.18483 0.74067 offset -0.06244 -0.06678 20000.1529 length 0.00041 color 0 0 1 }
Segment { rot -0.98784 0 0.1555 0.59338 offset -0.06223 -0.0692 20000.15455 length 0.00547 color 0 0 1 }
Segment { rot -0.72132 0 -0.6926 0.90262 offset -0.065 -0.0749 20000.15919 length 0.01107 color 0 0 1 }
Segment { rot -0.69386 0 -0.72011 0.89899 offset -0.0688 -0.0792 20000.16309 length 0.0028 color 0 0 1 }
Segment { rot -0.67295 0 -0.73968 0.95213 offset -0.07376 -0.08409 20000.16764 length 0.01384 color 0 0 1 }
Segment { rot -0.63947 0 -0.76881 1.00718 offset -0.08154 -0.09107 20000.17444 length 0.01112 color 0 0 1 }
Segment { rot -0.65024 0 -0.75973 0.94478 offset -0.08725 -0.09603 20000.17924 length 0.00681 color 0 0 1 }
Segment { rot -0.68095 0 -0.73233 0.98849 offset -0.08981 -0.09844 20000.18146 length 0.00151 color 0 0 1 }
Segment { rot -0.57798 0 -0.81605 1.04005 offset -0.0915 -0.09974 20000.18276 length 0.00349 color 0 0 1 }
Segment { rot -0.49784 0 -0.86727 0.97613 offset -0.09373 -0.10141 20000.18421 length 0.00282 color 0 0 1 }
Segment { rot -0.35581 0 -0.93456 1.17298 offset -0.09607 -0.1028 20000.18529 length 0.00307 color 0 0 1 }
Segment { rot -0.39115 0 -0.92033 1.3044 offset -0.10119 -0.10452 20000.18741 length 0.00856 color 0 0 1 }
Segment { rot -0.45635 0 -0.8898 1.25323 offset -0.10593 -0.10599 20000.18951 length 0.00222 color 0 0 1 }
Segment { rot -0.37184 0 -0.9283 1.17276 offset -0.10752 -0.10663 20000.19025 length 0.00153 color 0 0 1 }
Segment { rot -0.4477 0 -0.89419 1.08439 offset -0.10824 -0.10696 20000.19054 length 0.00016 color 0 0 1 }
Segment { rot -0.49211 0 -0.87053 1.03105 offset -0.11124 -0.10902 20000.19224 length 0.00786 color 0 0 1 }
Segment { rot -0.51491 0 -0.85725 1.09289 offset -0.12549 -0.11788 20000.20069 length 0.02974 color 0 0 1 }
Segment { rot -0.5009 0 -0.86551 1.05303 offset -0.13724 -0.12501 20000.20774 length 0.00115 color 0 0 1 }
Segment { rot -0.37502 0 -0.92702 1.06524 offset -0.14115 -0.12736 20000.2094 length 0.00856 color 0 0 1 }
Segment { rot -0.38673 0 -0.92219 1.08292 offset -0.14525 -0.1298 20000.21107 length 0.00155 color 0 0 1 }
Segment { rot -0.30473 0 -0.95244 1.14608 offset -0.14934 -0.1318 20000.21244 length 0.00796 color 0 0 1 }
Segment { rot -0.23707 0 -0.97149 1.14507 offset -0.16561 -0.13943 20000.21667 length 0.02899 color 0 0 1 }
Segment { rot -0.29492 0 -0.95552 1.17872 offset -0.18001 -0.14609 20000.22029 length 0.00356 color 0 0 1 }
Segment { rot -0.24244 0 -0.97017 1.14343 offset -0.18159 -0.14678 20000.22077 length 0.00003 color 0 0 1 }
Segment { rot -0.23751 0 -0.97139 1.08117 offset -0.18244 -0.14725 20000.22098 length 0.00195 color 0 0 1 }
Segment { rot -0.18824 0 -0.98212 1.07105 offset -0.18436 -0.14831 20000.22139 length 0.00251 color 0 0 1 }
Segment { rot -0.19396 0 -0.98101 1.05463 offset -0.18571 -0.14906 20000.22165 length 0.00064 color 0 0 1 }
Segment { rot -0.27909 0 -0.96026 1.01108 offset -0.18604 -0.14926 20000.22173 length 0.00014 color 0 0 1 }
Segment { rot -0.29321 0 -0.95605 0.92792 offset -0.18974 -0.15215 20000.22286 length 0.0095 color 0 0 1 }
Segment { rot -0.32005 0 -0.9474 0.95228 offset -0.19341 -0.15502 20000.22398 length 0.00009 color 0 0 1 }
Segment { rot -0.30717 0 -0.95165 1.16009 offset -0.19424 -0.15541 20000.22425 length 0.00183 color 0 0 1 }
Segment { rot -0.33672 0 -0.9416 1.15625 offset -0.20008 -0.15814 20000.22632 length 0.01171 color 0 0 1 }
Segment { rot -0.36488 0 -0.93106 1.25773 offset -0.21235 -0.16301 20000.23095 length 0.01631 color 0 0 1 }
Segment { rot -0.38627 0 -0.92239 1.34632 offset -0.22796 -0.16759 20000.23729 length 0.01865 color 0 0 1 }
Segment { rot -0.3009 0 -0.95366 1.27352 offset -0.24269 -0.17171 20000.24281 length 0.01391 color 0 0 1 }
Segment { rot -0.30204 0 -0.95329 1.31574 offset -0.251 -0.17428 20000.24543 length 0.00427 color 0 0 1 }
Segment { rot -0.42911 0 -0.90325 1.3295 offset -0.25458 -0.17526 20000.24682 length 0.00369 color 0 0 1 }
Segment { rot -0.42809 0 -0.90374 1.35547 offset -0.26074 -0.1768 20000.24974 length 0.01028 color 0 0 1 }
Segment { rot -0.54927 0 -0.83564 1.27492 offset -0.26554 -0.17799 20000.25206 length 0.00066 color 0 0 1 }
Segment { rot -0.35294 0 -0.93565 1.18761 offset -0.26782 -0.17896 20000.253 length 0.00467 color 0 0 1 }
Segment { rot -0.2368 0 -0.97156 1.23335 offset -0.27352 -0.18116 20000.25466 length 0.00802 color 0 0 1 }
Segment { rot -0.35663 0 -0.93425 1.32565 offset -0.27758 -0.18259 20000.2557 length 0.00084 color 0 0 1 }
Segment { rot -0.13444 0 -0.99092 1.33307 offset -0.28526 -0.18448 20000.25683 length 0.01515 color 0 0 1 }
Segment { rot -0.20268 0 -0.97925 1.47511 offset -0.32748 -0.18968 20000.26505 length 0.07165 color 0 0 1 }
Segment { rot -0.20328 0 -0.97912 1.53794 offset -0.36511 -0.1932 20000.27284 length 0.00553 color 0 0 1 }
Segment { rot -0.21252 0 -0.97716 1.54022 offset -0.36971 -0.19335 20000.27382 length 0.00389 color 0 0 1 }
Segment { rot -0.16708 0 -0.98594 1.44825 offset -0.37348 -0.19364 20000.27455 length 0.00381 color 0 0 1 }
Segment { rot -0.0534 0 -0.99857 1.38094 offset -0.38003 -0.19478 20000.27511 length 0.00956 color 0 0 1 }
Segment { rot -0.03919 0 -0.99923 1.3071 offset -0.38682 -0.19624 20000.27545 length 0.00435 color 0 0 1 }
Segment { rot -0.05363 0 -0.99856 1.27788 offset -0.39016 -0.19719 20000.2756 length 0.00261 color 0 0 1 }
Segment { rot 0.08799 0 -0.99612 1.10018 offset -0.39147 -0.1976 20000.27566 length 0.00015 color 0 0 1 }
Segment { rot 0.13969 0 -0.99019 1.09526 offset -0.39342 -0.19861 20000.27539 length 0.00426 color 0 0 1 }
Segment { rot 0.30052 0 -0.95378 1.03665 offset -0.39579 -0.19989 20000.27496 length 0.00121 color 0 0 1 }
Segment { rot 0.30056 0 -0.95376 1.03664 offset -0.39874 -0.20172 20000.27404 length 0.00596 color 0 0 1 }
Segment { rot 0.22107 0 -0.97526 1.1365 offset -0.40141 -0.20334 20000.27321 length 0.00051 color 0 0 1 }
Segment { rot 0.13905 0 -0.99029 1.21399 offset -0.40696 -0.20546 20000.27241 length 0.01148 color 0 0 1 }
Segment { rot 0.13975 0 -0.99019 1.21351 offset -0.41465 -0.20835 20000.27133 length 0.00509 color 0 0 1 }
Segment { rot 0.1625 0 -0.98671 1.20713 offset -0.42384 -0.21188 20000.26988 length 0.01481 color 0 0 1 }
Segment { rot 0.14789 0 -0.989 1.29476 offset -0.43288 -0.21514 20000.26842 length 0.00465 color 0 0 1 }
Segment { rot 0.10196 0 -0.99479 1.26957 offset -0.43727 -0.21646 20000.26787 length 0.00459 color 0 0 1 }
Segment { rot 0.54155 0 -0.84067 1.41453 offset -0.44831 -0.2188 20000.26194 length 0.02133 color 0 0 1 }
Segment { rot 0.63678 0 -0.77105 1.59753 offset -0.46173 -0.2203 20000.25246 length 0.01183 color 0 0 1 }
Segment { rot 0.67776 0 -0.73528 1.6367 offset -0.471 -0.21972 20000.24435 length 0.01286 color 0 0 1 }
Segment { rot 0.6505 0 -0.75951 1.68239 offset -0.47662 -0.21916 20000.23923 length 0.00239 color 0 0 1 }
Segment { rot 0.70357 0 -0.71063 1.57976 offset -0.48496 -0.21894 20000.2311 length 0.02093 color 0 0 1 }
Segment { rot 0.8293 0 -0.5588 1.9343 offset -0.49263 -0.21868 20000.22339 length 0.00089 color 0 0 1 }
Segment { rot 0.77079 0 -0.63709 1.90097 offset -0.49611 -0.21678 20000.21911 length 0.01079 color 0 0 1 }
Segment { rot 0.77474 0 -0.63228 1.9019 offset -0.50038 -0.21448 20000.21394 length 0.00339 color 0 0 1 }
Segment { rot 0.77884 0 -0.62723 1.88405 offset -0.50244 -0.21338 20000.21139 length 0.00352 color 0 0 1 }
Segment { rot 0.78371 0 -0.62113 1.88759 offset -0.50372 -0.21272 20000.20979 length 0.00079 color 0 0 1 }
Segment { rot 0.68644 0 -0.72719 1.77868 offset -0.50473 -0.21237 20000.20876 length 0.00218 color 0 0 1 }
Segment { rot 0.68652 0 -0.72712 1.77781 offset -0.50614 -0.21196 20000.20744 length 0.00177 color 0 0 1 }
Segment { rot 0.99723 0 0.07441 1.7324 offset -0.50673 -0.2117 20000.20633 length 0.00105 color 0 0 1 }
Segment { rot 0.99217 0 0.12486 1.88958 offset -0.5062 -0.2103 20000.20188 length 0.00835 color 0 0 1 }
Segment { rot 0.98878 0 0.1494 1.92112 offset -0.50557 -0.20867 20000.19707 length 0.00187 color 0 0 1 }
Segment { rot 0.98675 0 0.16224 1.90136 offset -0.50539 -0.20825 20000.19592 length 0.00062 color 0 0 1 }
Segment { rot 0.98015 0 0.19827 1.86374 offset -0.50534 -0.20814 20000.1956 length 0.00006 color 0 0 1 }
Segment { rot 0.98915 0 0.14688 1.76064 offset -0.50517 -0.20792 20000.19446 length 0.00229 color 0 0 1 }
Segment { rot 0.95301 0 -0.30293 1.6216 offset -0.50668 -0.20742 20000.18807 length 0.01109 color 0 0 1 }
Segment { rot 0.96597 0 -0.25867 1.60568 offset -0.50969 -0.20696 20000.17783 length 0.01027 color 0 0 1 }
Segment { rot 0.9721 0 -0.23456 1.60342 offset -0.51116 -0.20676 20000.17228 length 0.00122 color 0 0 1 }
Segment { rot 0.97978 0 -0.20007 1.58625 offset -0.51179 -0.2067 20000.16927 length 0.00494 color 0 0 1 }
Segment { rot 0.97093 0 -0.23936 1.62505 offset -0.5134 -0.20641 20000.16233 length 0.00931 color 0 0 1 }
Segment { rot 0.94693 0 -0.32143 1.57613 offset -0.51556 -0.20614 20000.15474 length 0.0065 color 0 0 1 }
Segment { rot 0.95411 0 -0.29945 1.4907 offset -0.51668 -0.20614 20000.15142 length 0.00049 color 0 0 1 }
Segment { rot 0.93068 0 -0.36583 1.4778 offset -0.51696 -0.20622 20000.15065 length 0.00116 color 0 0 1 }
Segment { rot 0.92604 0 -0.37743 1.46986 offset -0.51835 -0.20659 20000.14724 length 0.00625 color 0 0 1 }
Segment { rot 0.92882 0 -0.37052 1.47872 offset -0.52078 -0.20721 20000.14121 length 0.00683 color 0 0 1 }
Segment { rot 0.98413 0 -0.17747 1.66073 offset -0.52329 -0.20689 20000.13107 length 0.01423 color 0 0 1 }
Segment { rot 0.98316 0 -0.18272 1.65575 offset -0.52526 -0.20592 20000.12027 length 0.00782 color 0 0 1 }
Segment { rot 0.98075 0 -0.19526 1.64983 offset -0.5266 -0.20533 20000.1133 length 0.00641 color 0 0 1 }
Segment { rot 0.98208 0 -0.18846 1.64355 offset -0.52815 -0.20472 20000.10535 length 0.00985 color 0 0 1 }
Segment { rot 0.98574 0 -0.1683 1.60238 offset -0.52931 -0.20432 20000.09912 length 0.00284 color 0 0 1 }
Segment { rot 0.98787 0 -0.15527 1.6274 offset -0.53074 -0.20384 20000.09017 length 0.01531 color 0 0 1 }
Segment { rot 0.98477 0 -0.17385 1.60661 offset -0.53377 -0.20303 20000.07216 length 0.02126 color 0 0 1 }
Segment { rot 0.98456 0 -0.17505 1.55823 offset -0.53655 -0.20271 20000.05645 length 0.01065 color 0 0 1 }
Segment { rot 0.98518 0 -0.17153 1.51933 offset -0.53842 -0.20306 20000.04584 length 0.01092 color 0 0 1 }
Segment { rot 0.98752 0 -0.15752 1.44151 offset -0.54037 -0.20418 20000.03411 length 0.01297 color 0 0 1 }
Segment { rot 0.97073 0 -0.24016 1.39632 offset -0.54482 -0.20754 20000.01388 length 0.02903 color 0 0 1 }