#VRML V2.0 utf8
#Generated by NISTMonte
WorldInfo {
 title "NISTMonte Trajectory"
 info ["See http://www.cstl.nist.gov/div837/Division/home.html for more information"]
}
Viewpoint {
 fieldOfView 0.785398
 position 0 5 20000
 orientation -1 -0 -0 1.5708
 description "Y-Axis"
}
Viewpoint {
 fieldOfView 0.785398
 position 0 0 19995
 orientation 1 0 0 3.1415926
 description "Gun"
}
Viewpoint {
 fieldOfView 0.785398
 position -5 0 20000
 orientation 0 -1 0 1.5708
 description "X-Axis"
}




#Prototype for a trajectory segment
PROTO Segment [
 field SFRotation rot 1 0 0 0
 field SFVec3f offset 0 0 0
 field SFFloat length 0.1
 field SFColor color 1 1 1
]
{
 Transform {
  rotation IS rot
  translation IS offset
  children [
   Shape {
    geometry Cylinder {
     radius 0.001
     height IS length
    }
    appearance Appearance {
     material Material {
      emissiveColor IS color
     }
    }
   }
  ]
 }
}
Segment { rot -1 0 -0 1.5708 offset -0.00863 -0.02125 20000.00199 length 0.00399 color 0 0 1 }
Segment { rot -0.99409 0 -0.1086 1.57561 offset -0.00873 -0.02124 20000.00491 length 0.00185 color 0 0 1 }
Segment { rot -0.99677 0 -0.08035 1.53027 offset -0.00933 -0.02149 20000.012 length 0.01239 color 0 0 1 }
Segment { rot -0.99845 0 -0.05565 1.61112 offset -0.00995 -0.02165 20000.02032 length 0.00432 color 0 0 1 }
Segment { rot -0.99746 0 -0.07119 1.54351 offset -0.01015 -0.0216 20000.02355 length 0.00215 color 0 0 1 }
Segment { rot -0.99599 0 -0.08943 1.50492 offset -0.01177 -0.02277 20000.04188 length 0.03474 color 0 0 1 }
Segment { rot -0.89208 0 0.45189 1.84395 offset -0.00975 -0.0217 20000.06619 length 0.0164 color 0 0 1 }
Segment { rot -0.85475 0 0.51904 1.83272 offset -0.00564 -0.01921 20000.07413 length 0.00217 color 0 0 1 }
Segment { rot -0.83345 0 0.55259 1.86382 offset -0.00295 -0.01775 20000.07826 length 0.00809 color 0 0 1 }
Segment { rot -0.81256 0 0.58288 1.89461 offset 0.00269 -0.01457 20000.08637 length 0.01269 color 0 0 1 }
Segment { rot -0.85064 0 0.52575 1.79575 offset 0.0164 -0.00811 20000.10777 length 0.03981 color 0 0 1 }
Segment { rot -0.8537 0 0.52076 1.84644 offset 0.02928 -0.00221 20000.12867 length 0.0107 color 0 0 1 }
Segment { rot -0.82967 0 0.55826 1.84648 offset 0.03841 0.00251 20000.14265 length 0.02401 color 0 0 1 }
Segment { rot -0.78082 0 0.62476 1.84331 offset 0.04647 0.0065 20000.15424 length 0.00534 color 0 0 1 }
Segment { rot -0.73133 0 0.68202 1.8398 offset 0.04863 0.00744 20000.15684 length 0.00167 color 0 0 1 }
Segment { rot 0.03468 0 0.9994 2.08154 offset 0.05479 0.01081 20000.15724 length 0.01288 color 0 0 1 }
Segment { rot 0.01185 0 0.99993 2.12384 offset 0.06383 0.01607 20000.157 length 0.00805 color 0 0 1 }
Segment { rot 0.31193 0 0.9501 2.35039 offset 0.07686 0.02818 20000.15381 length 0.02842 color 0 0 1 }
Segment { rot 0.28631 0 0.95814 2.3654 offset 0.08942 0.04132 20000.14977 length 0.00884 color 0 0 1 }
Segment { rot 0.44413 0 0.89596 2.30854 offset 0.09701 0.04916 20000.14659 length 0.01394 color 0 0 1 }
Segment { rot 0.44317 0 0.89644 2.30616 offset 0.102 0.05422 20000.14412 length 0.0011 color 0 0 1 }
Segment { rot 0.83492 0 0.55038 2.26474 offset 0.10599 0.06007 20000.13844 length 0.01712 color 0 0 1 }
Segment { rot 0.83909 0 0.544 2.26103 offset 0.1122 0.06947 20000.12896 length 0.01233 color 0 0 1 }
Segment { rot 0.89566 0 0.44474 2.31786 offset 0.11838 0.08087 20000.11774 length 0.02203 color 0 0 1 }
Segment { rot 0.8955 0 0.44506 2.12586 offset 0.12647 0.09463 20000.10143 length 0.02382 color 0 0 1 }
Segment { rot 0.86679 0 0.49867 2.12707 offset 0.1348 0.10567 20000.08574 length 0.01802 color 0 0 1 }
Segment { rot 0.88747 0 0.46086 2.1621 offset 0.14484 0.11951 20000.0671 length 0.03258 color 0 0 1 }
Segment { rot 0.87551 0 0.4832 2.06874 offset 0.15228 0.12994 20000.05293 length 0.00565 color 0 0 1 }
Segment { rot 0.80562 0 0.59244 1.90013 offset 0.15462 0.13195 20000.0492 length 0.00408 color 0 0 1 }
Segment { rot 0.8356 0 0.54934 1.90603 offset 0.15603 0.13277 20000.04724 length 0.00104 color 0 0 1 }
Segment { rot 0.79427 0 0.60756 1.88014 offset 0.16495 0.1375 20000.03551 length 0.02991 color 0 0 1 }
Segment { rot 0.67672 0 0.73624 1.87905 offset 0.17427 0.14233 20000.02359 length 0.00188 color 0 0 1 }
Segment { rot 0.66646 0 0.74554 1.87851 offset 0.17907 0.14439 20000.01928 length 0.01168 color 0 0 1 }
Segment { rot 0.69728 0 0.7168 1.82193 offset 0.18919 0.14829 20000.00977 length 0.01718 color 0 0 1 }
Segment { rot 0.70212 0 0.71206 1.86712 offset 0.19716 0.15129 20000.00198 length 0.00591 color 0 0 1 }