#VRML V2.0 utf8
#Generated by NISTMonte
WorldInfo {
 title "NISTMonte Trajectory"
 info ["See http://www.cstl.nist.gov/div837/Division/home.html for more information"]
}
Viewpoint {
 fieldOfView 0.785398
 position 0 5 31000
 orientation -1 -0 -0 1.5708
 description "Y-Axis"
}
Viewpoint {
 fieldOfView 0.785398
 position 0 0 30995
 orientation 1 0 0 3.1415926
 description "Gun"
}
Viewpoint {
 fieldOfView 0.785398
 position -5 0 31000
 orientation 0 -1 0 1.5708
 description "X-Axis"
}




#Prototype for a trajectory segment
PROTO Segment [
 field SFRotation rot 1 0 0 0
 field SFVec3f offset 0 0 0
 field SFFloat length 0.1
 field SFColor color 1 1 1
]
{
 Transform {
  rotation IS rot
  translation IS offset
  children [
   Shape {
    geometry Cylinder {
     radius 0.001
     height IS length
    }
    appearance Appearance {
     material Material {
      emissiveColor IS color
     }
    }
   }
  ]
 }
}
Segment { rot -1 0 -0 1.5708 offset -0.00368 -0.00489 31000.00113 length 0.00225 color 0 0 1 }
Segment { rot -0.99956 0 0.02951 1.4798 offset -0.00367 -0.00491 31000.00249 length 0.00048 color 0 0 1 }
Segment { rot -0.99801 0 0.06311 1.46175 offset -0.0034 -0.0054 31000.00697 length 0.00855 color 0 0 1 }
Segment { rot -0.98805 0 0.15411 1.72592 offset -0.00226 -0.00499 31000.01674 length 0.01132 color 0 0 1 }
Segment { rot -0.98272 0 0.18507 1.72836 offset -0.00085 -0.00364 31000.02522 length 0.00608 color 0 0 1 }
Segment { rot -0.98396 0 0.17841 1.78746 offset 0.00037 -0.00235 31000.0318 length 0.00755 color 0 0 1 }
Segment { rot -0.98033 0 0.19738 1.88074 offset 0.00159 -0.00063 31000.03822 length 0.006 color 0 0 1 }
Segment { rot -0.98262 0 0.18565 1.8917 offset 0.00296 0.00174 31000.04532 length 0.00922 color 0 0 1 }
Segment { rot -0.98153 0 0.19133 2.04405 offset 0.00411 0.00409 31000.05133 length 0.00391 color 0 0 1 }
Segment { rot -0.97807 0 0.20829 2.03727 offset 0.00457 0.0053 31000.05366 length 0.00142 color 0 0 1 }
Segment { rot -0.95328 0 0.30208 2.0999 offset 0.00484 0.00588 31000.0547 length 0.00104 color 0 0 1 }
Segment { rot -0.97882 0 0.2047 2.13341 offset 0.00531 0.00718 31000.05674 length 0.00389 color 0 0 1 }
Segment { rot -0.97469 0 0.22355 2.20411 offset 0.00653 0.0111 31000.06218 length 0.00976 color 0 0 1 }
Segment { rot -0.96065 0 0.27775 2.29068 offset 0.00754 0.0144 31000.06646 length 0.00124 color 0 0 1 }
Segment { rot -0.90969 0 0.41529 2.24129 offset 0.0085 0.01639 31000.06873 length 0.0051 color 0 0 1 }
Segment { rot -0.77435 0 0.63276 2.24375 offset 0.01087 0.01992 31000.07243 length 0.00623 color 0 0 1 }
Segment { rot -0.83727 0 0.54679 2.27571 offset 0.01369 0.02386 31000.07628 length 0.00615 color 0 0 1 }
Segment { rot -0.92 0 0.39193 2.24551 offset 0.01606 0.02808 31000.08081 length 0.00713 color 0 0 1 }
Segment { rot -0.85449 0 0.51946 2.06538 offset 0.01831 0.03151 31000.08527 length 0.00506 color 0 0 1 }
Segment { rot -0.1806 0 0.98356 2.70874 offset 0.02131 0.03677 31000.08751 length 0.00894 color 0 0 1 }
Segment { rot 0.05361 0 0.99856 2.68717 offset 0.02316 0.04083 31000.08785 length 0.00001 color 0 0 1 }
Segment { rot 0.0392 0 0.99923 2.73057 offset 0.0233 0.04115 31000.08785 length 0.00069 color 0 0 1 }
Segment { rot -0.04145 0 0.99914 2.89673 offset 0.02446 0.04555 31000.08788 length 0.00841 color 0 0 1 }
Segment { rot -0.25717 0 0.96637 2.86882 offset 0.02629 0.05265 31000.08814 length 0.00627 color 0 0 1 }
Segment { rot -0.86134 0 -0.50802 1.41647 offset 0.02672 0.05555 31000.08902 length 0.00155 color 0 0 1 }
Segment { rot -0.83132 0 -0.5558 1.43205 offset 0.02493 0.05508 31000.09178 length 0.0051 color 0 0 1 }
Segment { rot -0.95841 0 -0.2854 1.58176 offset 0.02309 0.05474 31000.09533 length 0.00304 color 0 0 1 }
Segment { rot -0.97138 0 -0.23754 1.61214 offset 0.02265 0.05476 31000.09681 length 0.00005 color 0 0 1 }
Segment { rot -0.9311 0 -0.36477 1.72085 offset 0.02253 0.05481 31000.09712 length 0.00063 color 0 0 1 }
Segment { rot -0.96441 0 -0.26443 1.77864 offset 0.02241 0.05486 31000.09744 length 0.00006 color 0 0 1 }
Segment { rot -0.97057 0 -0.24082 1.64134 offset 0.02238 0.05488 31000.09756 length 0.00019 color 0 0 1 }
Segment { rot -0.95455 0 -0.29806 1.53999 offset 0.02184 0.05483 31000.09931 length 0.00346 color 0 0 1 }
Segment { rot -0.95146 0 -0.30779 1.6138 offset 0.02112 0.05481 31000.1016 length 0.00135 color 0 0 1 }
Segment { rot -0.96384 0 -0.26646 1.65696 offset 0.0207 0.0549 31000.10303 length 0.00163 color 0 0 1 }
Segment { rot -0.95448 0 -0.29826 1.40041 offset 0.01956 0.05445 31000.10674 length 0.00624 color 0 0 1 }
Segment { rot -0.96013 0 -0.27954 1.42708 offset 0.01818 0.05367 31000.11129 length 0.00339 color 0 0 1 }
Segment { rot -0.842 0 -0.53948 1.56548 offset 0.01715 0.05343 31000.11377 length 0.00206 color 0 0 1 }
Segment { rot -0.91893 0 -0.39443 1.78508 offset 0.01653 0.05346 31000.1148 length 0.00036 color 0 0 1 }
Segment { rot -0.95736 0 -0.2889 1.46861 offset 0.01612 0.05338 31000.11608 length 0.00235 color 0 0 1 }
Segment { rot -0.96169 0 -0.27414 1.49159 offset 0.01523 0.0531 31000.11913 length 0.00404 color 0 0 1 }
Segment { rot -0.97376 0 -0.22758 1.50458 offset 0.01449 0.05288 31000.12187 length 0.00166 color 0 0 1 }
Segment { rot -0.96727 0 -0.25374 1.45455 offset 0.0142 0.05278 31000.12308 length 0.00083 color 0 0 1 }
Segment { rot -0.94689 0 -0.32156 1.4868 offset 0.0137 0.05263 31000.12464 length 0.00247 color 0 0 1 }
Segment { rot -0.92244 0 -0.38613 1.36909 offset 0.01174 0.0517 31000.12953 length 0.00824 color 0 0 1 }
Segment { rot -0.9719 0 -0.23538 1.11228 offset 0.01005 0.0506 31000.1338 length 0.00125 color 0 0 1 }
Segment { rot -0.86255 0 -0.50597 1.07079 offset 0.00868 0.04898 31000.13646 length 0.0056 color 0 0 1 }
Segment { rot -0.77699 0 -0.62951 1.18229 offset 0.00525 0.04622 31000.14128 length 0.0075 color 0 0 1 }
Segment { rot -0.77577 0 -0.63101 1.16973 offset 0.00232 0.0443 31000.14489 length 0.00257 color 0 0 1 }
Segment { rot -0.77659 0 -0.63 1.13633 offset 0.00111 0.04345 31000.14638 length 0.00163 color 0 0 1 }
Segment { rot 0.76974 0 0.63836 1.1054 offset 0.00066 0.0431 31000.14694 length 0.00005 color 0 0 1 }
Segment { rot 0.82154 0 0.57015 1.12368 offset 0.00072 0.04304 31000.14684 length 0.0002 color 0 0 1 }
Segment { rot 0.81413 0 0.58069 0.95767 offset 0.00096 0.04278 31000.14651 length 0.00077 color 0 0 1 }
Segment { rot 0.80907 0 0.58772 1.0315 offset 0.00133 0.04236 31000.14599 length 0.00076 color 0 0 1 }
Segment { rot 0.83942 0 0.54348 1.13771 offset 0.00153 0.04216 31000.14572 length 0.00001 color 0 0 1 }
Segment { rot 0.81933 0 0.57332 1.21257 offset 0.00165 0.04208 31000.14554 length 0.00046 color 0 0 1 }
Segment { rot 0.83009 0 0.55763 1.24591 offset 0.00249 0.04157 31000.14431 length 0.00269 color 0 0 1 }
Segment { rot 0.92453 0 0.3811 1.85921 offset 0.00363 0.04148 31000.14221 length 0.00237 color 0 0 1 }
Segment { rot 0.91508 0 0.40326 1.96956 offset 0.00414 0.0419 31000.14097 length 0.00045 color 0 0 1 }
Segment { rot 0.92561 0 0.37849 2.02767 offset 0.00461 0.04248 31000.13985 length 0.00224 color 0 0 1 }
Segment { rot 0.93249 0 0.3612 1.98318 offset 0.00519 0.04322 31000.13841 length 0.0012 color 0 0 1 }
Segment { rot 0.93915 0 0.3435 1.9896 offset 0.00569 0.04386 31000.13706 length 0.00195 color 0 0 1 }
Segment { rot 0.95421 0 0.29914 2.01148 offset 0.00605 0.04434 31000.13604 length 0.00042 color 0 0 1 }
Segment { rot 0.96339 0 0.26809 2.09547 offset 0.00613 0.04448 31000.13578 length 0.0002 color 0 0 1 }
Segment { rot 0.94648 0 0.32278 1.72966 offset 0.00659 0.04475 31000.13442 length 0.00273 color 0 0 1 }
Segment { rot 0.92999 0 0.36758 1.72358 offset 0.00727 0.04506 31000.13254 length 0.00132 color 0 0 1 }
Segment { rot 0.043 0 0.99908 1.65296 offset 0.00942 0.04532 31000.13185 length 0.00386 color 0 0 1 }
Segment { rot 0.07742 0 0.997 1.65283 offset 0.01391 0.04569 31000.13157 length 0.00516 color 0 0 1 }
Segment { rot 0.08057 0 0.99675 1.35734 offset 0.0174 0.0457 31000.13129 length 0.00191 color 0 0 1 }
Segment { rot -0.11052 0 0.99387 1.13828 offset 0.01862 0.04536 31000.13125 length 0.00065 color 0 0 1 }
Segment { rot -0.20828 0 0.97807 1.14071 offset 0.01915 0.04512 31000.13133 length 0.00052 color 0 0 1 }
Segment { rot -0.08046 0 0.99676 1.063 offset 0.01984 0.04475 31000.13142 length 0.00107 color 0 0 1 }
Segment { rot -0.08233 0 0.9966 1.27867 offset 0.02086 0.04432 31000.1315 length 0.00116 color 0 0 1 }
Segment { rot 0.21896 0 0.97573 0.828 offset 0.0215 0.04408 31000.13153 length 0.00023 color 0 0 1 }
Segment { rot 0.29436 0 0.9557 0.83659 offset 0.02193 0.04367 31000.1314 length 0.00099 color 0 0 1 }
Segment { rot -0.07189 0 -0.99741 0.55835 offset 0.02168 0.04237 31000.13134 length 0.00228 color 0 0 1 }
Segment { rot 0.07748 0 -0.99699 0.48975 offset 0.02084 0.04096 31000.13136 length 0.001 color 0 0 1 }
Segment { rot 0.18116 0 -0.98345 0.54728 offset 0.02059 0.0405 31000.13134 length 0.00006 color 0 0 1 }
Segment { rot 0.38719 0 -0.922 0.51922 offset 0.02047 0.04027 31000.1313 length 0.00046 color 0 0 1 }
Segment { rot -0.6013 0 0.79902 1.88031 offset 0.0205 0.04012 31000.13135 length 0.00033 color 0 0 1 }
Segment { rot -0.57987 0 0.81471 1.95289 offset 0.02101 0.04037 31000.13172 length 0.00102 color 0 0 1 }
Segment { rot -0.71794 0 0.6961 1.95693 offset 0.02215 0.04099 31000.13277 length 0.00232 color 0 0 1 }
Segment { rot -0.77514 0 0.63179 1.91437 offset 0.02301 0.0415 31000.13368 length 0.00037 color 0 0 1 }
Segment { rot -0.87324 0 0.4873 1.75594 offset 0.02326 0.04161 31000.13406 length 0.00059 color 0 0 1 }
Segment { rot -0.8136 0 0.58142 1.81029 offset 0.02352 0.04172 31000.13449 length 0.00045 color 0 0 1 }
Segment { rot -0.89513 0 0.44581 1.68761 offset 0.0239 0.04184 31000.13517 length 0.00113 color 0 0 1 }
Segment { rot -0.8134 0 0.58171 1.53452 offset 0.02673 0.04174 31000.13928 length 0.00887 color 0 0 1 }
Segment { rot -0.83856 0 0.54481 1.56232 offset 0.03042 0.04156 31000.1446 length 0.00409 color 0 0 1 }
Segment { rot -0.9776 0 0.21048 0.99316 offset 0.03167 0.04114 31000.14692 length 0.00148 color 0 0 1 }
Segment { rot -0.946 0 -0.32416 1.00604 offset 0.03173 0.04062 31000.14771 length 0.00046 color 0 0 1 }
Segment { rot 0.9699 0 -0.24352 2.62134 offset 0.03161 0.0409 31000.14767 length 0.00093 color 0 0 1 }
Segment { rot 0.99 0 0.14109 2.56298 offset 0.03158 0.04157 31000.14727 length 0.00065 color 0 0 1 }
Segment { rot -0.65614 0 -0.75464 1.94184 offset 0.03139 0.04195 31000.14728 length 0.00061 color 0 0 1 }
Segment { rot -0.99239 0 -0.12316 1.02115 offset 0.03107 0.04154 31000.14831 length 0.00199 color 0 0 1 }
Segment { rot -0.26216 0 0.96503 1.97286 offset 0.03101 0.04104 31000.14917 length 0.0001 color 0 0 1 }
Segment { rot -0.3954 0 0.91851 1.57943 offset 0.0315 0.04106 31000.14938 length 0.00099 color 0 0 1 }
Segment { rot -0.94923 0 0.31457 1.35683 offset 0.03246 0.04072 31000.15108 length 0.00326 color 0 0 1 }
Segment { rot -0.96423 0 0.26508 1.33763 offset 0.03315 0.0402 31000.1533 length 0.00151 color 0 0 1 }
Segment { rot -0.81536 0 -0.57896 1.28747 offset 0.0333 0.04 31000.15407 length 0.00017 color 0 0 1 }
Segment { rot -0.88891 0 -0.45808 1.1969 offset 0.03298 0.03974 31000.15468 length 0.00131 color 0 0 1 }
Segment { rot -0.99065 0 0.13643 0.83685 offset 0.03275 0.03912 31000.15564 length 0.00114 color 0 0 1 }
Segment { rot -0.95893 0 -0.28364 0.69375 offset 0.03249 0.03739 31000.15714 length 0.00352 color 0 0 1 }
Segment { rot -0.99511 0 -0.09879 0.64328 offset 0.03217 0.03598 31000.15826 length 0.00015 color 0 0 1 }
Segment { rot -0.99049 0 0.13758 0.4867 offset 0.03219 0.03557 31000.15849 length 0.00078 color 0 0 1 }
Segment { rot -0.99958 0 0.02911 0.42627 offset 0.03222 0.03442 31000.15903 length 0.00177 color 0 0 1 }
Segment { rot -0.99796 0 0.06382 0.42678 offset 0.03224 0.0336 31000.1594 length 0.00001 color 0 0 1 }
Segment { rot 0.93831 0 -0.34579 2.75879 offset 0.0317 0.03745 31000.15795 length 0.0083 color 0 0 1 }
Segment { rot 0.99898 0 -0.04524 2.37069 offset 0.03116 0.04135 31000.15645 length 0.00015 color 0 0 1 }
Segment { rot 0.93928 0 -0.34314 2.26385 offset 0.03096 0.04188 31000.15585 length 0.00151 color 0 0 1 }
Segment { rot 0.89643 0 -0.44319 2.08971 offset 0.0307 0.04245 31000.15517 length 0.00033 color 0 0 1 }
Segment { rot 0.97115 0 -0.23846 1.34655 offset 0.03045 0.04235 31000.15429 length 0.0016 color 0 0 1 }
Segment { rot 0.87652 0 0.48137 2.03716 offset 0.03072 0.04265 31000.1527 length 0.00213 color 0 0 1 }
Segment { rot 0.36064 0 -0.9327 2.50671 offset 0.03011 0.04468 31000.15145 length 0.00385 color 0 0 1 }
Segment { rot 0.38495 0 -0.92294 2.50469 offset 0.02904 0.04625 31000.15104 length 0.00004 color 0 0 1 }
Segment { rot 0.54185 0 -0.84048 2.47592 offset 0.02879 0.04662 31000.15088 length 0.00091 color 0 0 1 }
Segment { rot 0.75389 0 -0.657 2.44966 offset 0.02849 0.0471 31000.15065 length 0.00032 color 0 0 1 }
Segment { rot 0.67684 0 -0.73613 2.42334 offset 0.02837 0.04731 31000.15053 length 0.00021 color 0 0 1 }
Segment { rot -0.56282 0 0.82658 1.03548 offset 0.02851 0.04725 31000.15061 length 0.00053 color 0 0 1 }
Segment { rot 0.6145 0 0.78892 1.49181 offset 0.02891 0.04709 31000.15056 length 0.00056 color 0 0 1 }
Segment { rot 0.60649 0 0.79509 1.45249 offset 0.0311 0.04678 31000.1489 length 0.00497 color 0 0 1 }
Segment { rot 0.66837 0 0.74383 1.88465 offset 0.03336 0.04661 31000.14713 length 0.00085 color 0 0 1 }
Segment { rot 0.58212 0 0.8131 2.05159 offset 0.03463 0.04737 31000.14616 length 0.00269 color 0 0 1 }
Segment { rot 0.21823 0 0.9759 1.33343 offset 0.0357 0.04797 31000.14544 length 0.00021 color 0 0 1 }
Segment { rot 0.44464 0 -0.89571 0.56827 offset 0.03574 0.04784 31000.14539 length 0.00024 color 0 0 1 }