#VRML V2.0 utf8
#Generated by NISTMonte
WorldInfo {
 title "NISTMonte Trajectory"
 info ["See http://www.cstl.nist.gov/div837/Division/home.html for more information"]
}
Viewpoint {
 fieldOfView 0.785398
 position 0 5 20000
 orientation -1 -0 -0 1.5708
 description "Y-Axis"
}
Viewpoint {
 fieldOfView 0.785398
 position 0 0 19995
 orientation 1 0 0 3.1415926
 description "Gun"
}
Viewpoint {
 fieldOfView 0.785398
 position -5 0 20000
 orientation 0 -1 0 1.5708
 description "X-Axis"
}




#Prototype for a trajectory segment
PROTO Segment [
 field SFRotation rot 1 0 0 0
 field SFVec3f offset 0 0 0
 field SFFloat length 0.1
 field SFColor color 1 1 1
]
{
 Transform {
  rotation IS rot
  translation IS offset
  children [
   Shape {
    geometry Cylinder {
     radius 0.001
     height IS length
    }
    appearance Appearance {
     material Material {
      emissiveColor IS color
     }
    }
   }
  ]
 }
}
Segment { rot -1 0 -0 1.5708 offset 0.0017 0.01135 20000.00262 length 0.00524 color 0 0 1 }
Segment { rot -0.99107 0 0.13335 1.51374 offset 0.00301 0.01079 20000.01499 length 0.01971 color 0 0 1 }
Segment { rot -0.99138 0 0.13101 1.49662 offset 0.0047 0.01002 20000.0276 length 0.00578 color 0 0 1 }
Segment { rot -0.98845 0 0.15152 1.51175 offset 0.00629 0.00933 20000.03837 length 0.01604 color 0 0 1 }
Segment { rot -0.98529 0 0.1709 1.57731 offset 0.00858 0.0089 20000.05249 length 0.01259 color 0 0 1 }
Segment { rot -0.99264 0 0.12111 1.59554 offset 0.01067 0.00914 20000.06696 length 0.01667 color 0 0 1 }
Segment { rot -0.99509 0 0.09894 1.67418 offset 0.01198 0.00966 20000.07823 length 0.00607 color 0 0 1 }
Segment { rot -0.90977 0 0.41512 1.58325 offset 0.01444 0.01004 20000.08599 length 0.01044 color 0 0 1 }
Segment { rot -0.84177 0 0.53983 1.5344 offset 0.01953 0.00991 20000.09529 length 0.01084 color 0 0 1 }
Segment { rot -0.83073 0 0.55668 1.62136 offset 0.02251 0.00972 20000.09993 length 0.0002 color 0 0 1 }
Segment { rot -0.90586 0 0.42357 1.61905 offset 0.02445 0.00994 20000.10404 length 0.00891 color 0 0 1 }
Segment { rot -0.87184 0 0.4898 1.58217 offset 0.0269 0.01016 20000.10908 length 0.00231 color 0 0 1 }
Segment { rot -0.88018 0 0.47464 1.57262 offset 0.02831 0.01018 20000.11166 length 0.00358 color 0 0 1 }
Segment { rot -0.80003 0 0.59996 1.7017 offset 0.02982 0.01033 20000.11412 length 0.00222 color 0 0 1 }
Segment { rot -0.82514 0 0.56493 1.62042 offset 0.03125 0.01054 20000.11612 length 0.00273 color 0 0 1 }
Segment { rot -0.81374 0 0.58123 1.59283 offset 0.03742 0.01081 20000.1248 length 0.01857 color 0 0 1 }
Segment { rot -0.7873 0 0.61657 1.60835 offset 0.04381 0.01108 20000.13363 length 0.00323 color 0 0 1 }
Segment { rot -0.82877 0 0.5596 1.58776 offset 0.04698 0.0112 20000.13812 length 0.00779 color 0 0 1 }
Segment { rot -0.82003 0 0.57232 1.57821 offset 0.04959 0.01128 20000.14197 length 0.00151 color 0 0 1 }
Segment { rot -0.77992 0 0.62588 1.55915 offset 0.05213 0.01124 20000.14521 length 0.00674 color 0 0 1 }
Segment { rot -0.70633 0 0.70788 1.39234 offset 0.05573 0.01082 20000.14932 length 0.00427 color 0 0 1 }
Segment { rot -0.83894 0 0.54423 1.37793 offset 0.05763 0.0103 20000.15145 length 0.00156 color 0 0 1 }
Segment { rot -0.92849 0 0.37135 0.48311 offset 0.05839 0.00837 20000.15295 length 0.00402 color 0 0 1 }
Segment { rot -0.91535 0 0.40266 0.46137 offset 0.06057 -0.00259 20000.158 length 0.02049 color 0 0 1 }
Segment { rot -0.92856 0 0.37119 0.51351 offset 0.06471 -0.02274 20000.16792 length 0.02519 color 0 0 1 }
Segment { rot -0.94058 0 0.33956 0.46204 offset 0.06835 -0.04168 20000.1774 length 0.01781 color 0 0 1 }
Segment { rot -0.97172 0 0.23613 0.44836 offset 0.06992 -0.05154 20000.18202 length 0.00421 color 0 0 1 }
Segment { rot -0.98395 0 0.17842 0.42976 offset 0.07119 -0.06635 20000.18872 length 0.02839 color 0 0 1 }
Segment { rot -0.82779 0 -0.56105 0.37221 offset 0.07176 -0.08146 20000.19526 length 0.00475 color 0 0 1 }
Segment { rot -0.77987 0 -0.62594 0.40199 offset 0.06891 -0.09256 20000.19892 length 0.01931 color 0 0 1 }
Segment { rot -0.7042 0 -0.71 0.39025 offset 0.06442 -0.10871 20000.20397 length 0.0157 color 0 0 1 }
Segment { rot -0.95038 0 -0.31108 0.36774 offset 0.06221 -0.11675 20000.20636 length 0.00169 color 0 0 1 }
Segment { rot -0.89629 0 -0.44346 0.3105 offset 0.06207 -0.11784 20000.20673 length 0.00063 color 0 0 1 }
Segment { rot -0.87534 0 -0.4835 0.31921 offset 0.05807 -0.14293 20000.21399 length 0.05222 color 0 0 1 }
Segment { rot -0.95191 0 -0.30638 0.48764 offset 0.05365 -0.17051 20000.22257 length 0.00632 color 0 0 1 }
Segment { rot -0.91362 0 -0.40657 0.50368 offset 0.05121 -0.18216 20000.22844 length 0.02023 color 0 0 1 }
Segment { rot -0.83561 0 -0.54932 0.49734 offset 0.0462 -0.20119 20000.23752 length 0.02314 color 0 0 1 }
Segment { rot -0.83547 0 -0.54954 0.54415 offset 0.04007 -0.22068 20000.24684 length 0.02179 color 0 0 1 }
Segment { rot -0.86363 0 -0.50413 0.50421 offset 0.03658 -0.2314 20000.25222 length 0.0032 color 0 0 1 }
Segment { rot -0.9004 0 -0.43505 0.4753 offset 0.03598 -0.23371 20000.25331 length 0.00206 color 0 0 1 }
Segment { rot -0.90406 0 -0.42741 0.50825 offset 0.03358 -0.24386 20000.25838 length 0.02114 color 0 0 1 }
Segment { rot -0.97354 0 -0.22852 0.5073 offset 0.03078 -0.25782 20000.26559 length 0.01081 color 0 0 1 }
Segment { rot -0.93605 0 -0.35187 0.49013 offset 0.02988 -0.26413 20000.26894 length 0.00358 color 0 0 1 }
Segment { rot -0.91476 0 -0.40399 0.51737 offset 0.0279 -0.27306 20000.27355 length 0.01692 color 0 0 1 }
Segment { rot -0.45162 0 -0.89221 0.34584 offset 0.0253 -0.28323 20000.27784 length 0.006 color 0 0 1 }
Segment { rot -0.40681 0 -0.91351 0.42657 offset 0.02054 -0.29533 20000.28001 length 0.0204 color 0 0 1 }
Segment { rot 0.78157 0 -0.62381 0.4379 offset 0.01533 -0.30924 20000.28004 length 0.01021 color 0 0 1 }
Segment { rot 0.7195 0 -0.6945 0.5423 offset 0.01331 -0.31546 20000.27765 length 0.00374 color 0 0 1 }
Segment { rot 0.70086 0 -0.7133 0.5028 offset 0.01127 -0.32058 20000.2756 length 0.00802 color 0 0 1 }
Segment { rot 0.75013 0 -0.66129 0.49742 offset 0.00863 -0.3276 20000.27282 length 0.00797 color 0 0 1 }
Segment { rot 0.71317 0 -0.701 0.33758 offset 0.00676 -0.33358 20000.27078 length 0.00524 color 0 0 1 }
Segment { rot 0.67716 0 -0.73584 0.33838 offset 0.00563 -0.33806 20000.26968 length 0.00426 color 0 0 1 }
Segment { rot 0.58357 0 -0.81206 0.31299 offset 0.00292 -0.34842 20000.26762 length 0.01754 color 0 0 1 }
Segment { rot 0.82492 0 -0.56525 0.31879 offset 0.00013 -0.35997 20000.26517 length 0.00675 color 0 0 1 }
Segment { rot 0.81655 0 -0.57727 0.32287 offset -0.00143 -0.36816 20000.26294 length 0.01051 color 0 0 1 }
Segment { rot 0.85011 0 -0.52661 0.32293 offset -0.00263 -0.37447 20000.2612 length 0.00279 color 0 0 1 }
Segment { rot 0.87754 0 -0.4795 0.35191 offset -0.00401 -0.38233 20000.25872 length 0.01394 color 0 0 1 }
Segment { rot 0.81293 0 -0.58236 0.30055 offset -0.00569 -0.39176 20000.25588 length 0.00604 color 0 0 1 }
Segment { rot -0.4205 0 -0.90729 0.44068 offset -0.00659 -0.39553 20000.25533 length 0.00197 color 0 0 1 }
Segment { rot -0.50833 0 -0.86116 0.44651 offset -0.00762 -0.398 20000.25589 length 0.0035 color 0 0 1 }
Segment { rot -0.65532 0 -0.75535 0.49283 offset -0.00996 -0.40374 20000.25774 length 0.00945 color 0 0 1 }
Segment { rot -0.64838 0 -0.76132 0.56394 offset -0.01549 -0.41588 20000.26248 length 0.01888 color 0 0 1 }
Segment { rot -0.60094 0 -0.79929 0.52805 offset -0.01935 -0.4239 20000.26577 length 0.0001 color 0 0 1 }
Segment { rot -0.57249 0 -0.81991 0.58477 offset -0.02295 -0.43054 20000.26828 length 0.01581 color 0 0 1 }
Segment { rot -0.61 0 -0.7924 0.64949 offset -0.03045 -0.44365 20000.2738 length 0.01638 color 0 0 1 }
Segment { rot -0.60646 0 -0.79511 0.5925 offset -0.04237 -0.46511 20000.28292 length 0.036 color 0 0 1 }
Segment { rot -0.56595 0 -0.82444 0.58061 offset -0.05422 -0.48718 20000.29166 length 0.01708 color 0 0 1 }
Segment { rot -0.675 0 -0.73782 0.54267 offset -0.05944 -0.49737 20000.29556 length 0.00714 color 0 0 1 }
Segment { rot -0.70876 0 -0.70545 0.57689 offset -0.06306 -0.50534 20000.29907 length 0.01172 color 0 0 1 }
Segment { rot -0.72004 0 -0.69393 0.58529 offset -0.07022 -0.52092 20000.30642 length 0.02558 color 0 0 1 }
Segment { rot -0.78273 0 -0.62236 0.62479 offset -0.07838 -0.53883 20000.3156 length 0.01787 color 0 0 1 }
Segment { rot -0.79951 0 -0.60065 0.56965 offset -0.08177 -0.54643 20000.31987 length 0.00084 color 0 0 1 }
Segment { rot -0.84162 0 -0.54007 0.57372 offset -0.08513 -0.55604 20000.32509 length 0.02203 color 0 0 1 }
Segment { rot -0.34926 0 -0.93703 0.7842 offset -0.09308 -0.57034 20000.33188 length 0.01428 color 0 0 1 }
Segment { rot -0.35708 0 -0.93408 0.7989 offset -0.10185 -0.57961 20000.33519 length 0.01209 color 0 0 1 }
Segment { rot -0.52517 0 -0.85099 0.65116 offset -0.10723 -0.58588 20000.33756 length 0.00516 color 0 0 1 }
Segment { rot -0.69003 0 -0.72378 0.66541 offset -0.11354 -0.59669 20000.34312 length 0.02227 color 0 0 1 }
Segment { rot -0.67786 0 -0.73519 0.60794 offset -0.12053 -0.6094 20000.34973 length 0.00963 color 0 0 1 }
Segment { rot -0.63469 0 -0.77277 0.54005 offset -0.12836 -0.62589 20000.35636 length 0.02922 color 0 0 1 }
Segment { rot -0.64118 0 -0.76739 0.43484 offset -0.13453 -0.63943 20000.36143 length 0.00224 color 0 0 1 }
Segment { rot -0.73721 0 -0.67566 0.59994 offset -0.13669 -0.64434 20000.3637 length 0.00944 color 0 0 1 }
Segment { rot -0.69816 0 -0.71594 0.46163 offset -0.14647 -0.67064 20000.37344 length 0.05005 color 0 0 1 }
Segment { rot -0.35627 0 -0.93438 0.39404 offset -0.15662 -0.69862 20000.38205 length 0.01208 color 0 0 1 }
Segment { rot -0.39005 0 -0.92079 0.4136 offset -0.16107 -0.70986 20000.38384 length 0.01235 color 0 0 1 }
Segment { rot -0.45778 0 -0.88906 0.40347 offset -0.16635 -0.72339 20000.38635 length 0.01713 color 0 0 1 }
Segment { rot -0.51307 0 -0.85835 0.3856 offset -0.17029 -0.734 20000.38846 length 0.00589 color 0 0 1 }
Segment { rot -0.11776 0 -0.99304 0.47393 offset -0.172 -0.73822 20000.38912 length 0.00335 color 0 0 1 }
Segment { rot -0.16896 0 -0.98562 0.47781 offset -0.17289 -0.73997 20000.38923 length 0.00058 color 0 0 1 }
Segment { rot -0.56276 0 -0.82662 0.37415 offset -0.17304 -0.74028 20000.38927 length 0.00013 color 0 0 1 }
Segment { rot -0.54211 0 -0.84031 0.31428 offset -0.17359 -0.74228 20000.38962 length 0.00406 color 0 0 1 }
Segment { rot -0.62116 0 -0.78368 0.34506 offset -0.17624 -0.75176 20000.39165 length 0.01604 color 0 0 1 }
Segment { rot 0.76461 0 -0.64449 0.21574 offset -0.17837 -0.75932 20000.39333 length 0.00004 color 0 0 1 }
Segment { rot 0.64787 0 -0.76175 0.27376 offset -0.17882 -0.76145 20000.39294 length 0.00437 color 0 0 1 }
Segment { rot 0.76436 0 -0.64479 0.35442 offset -0.18247 -0.77697 20000.38876 length 0.02863 color 0 0 1 }
Segment { rot 0.77437 0 -0.63273 0.33438 offset -0.18605 -0.79211 20000.3845 length 0.00363 color 0 0 1 }
Segment { rot 0.8016 0 -0.59786 0.29036 offset -0.18698 -0.79692 20000.3833 length 0.00647 color 0 0 1 }
Segment { rot 0.71963 0 -0.69435 0.33372 offset -0.18782 -0.80121 20000.38226 length 0.0025 color 0 0 1 }
Segment { rot 0.59194 0 -0.80598 0.32184 offset -0.18981 -0.80874 20000.38071 length 0.01339 color 0 0 1 }
Segment { rot 0.55792 0 -0.8299 0.29118 offset -0.19248 -0.81896 20000.37881 length 0.00808 color 0 0 1 }
Segment { rot 0.52105 0 -0.85353 0.26376 offset -0.19356 -0.82333 20000.3781 length 0.00103 color 0 0 1 }
Segment { rot 0.36924 0 -0.92933 0.36472 offset -0.19531 -0.82843 20000.37738 length 0.00986 color 0 0 1 }
Segment { rot 0.26332 0 -0.96471 0.38043 offset -0.19772 -0.83505 20000.37652 length 0.00434 color 0 0 1 }
Segment { rot 0.28608 0 -0.9582 0.37832 offset -0.19857 -0.83724 20000.37628 length 0.00037 color 0 0 1 }
Segment { rot 0.09115 0 -0.99584 0.56017 offset -0.19963 -0.83901 20000.37617 length 0.00376 color 0 0 1 }
Segment { rot 0.06408 0 -0.99794 0.51083 offset -0.2015 -0.84218 20000.37603 length 0.00362 color 0 0 1 }
Segment { rot -0.51318 0 -0.85828 0.37852 offset -0.203 -0.84555 20000.37634 length 0.00386 color 0 0 1 }
Segment { rot -0.61942 0 -0.78506 0.50646 offset -0.20616 -0.8532 20000.37871 length 0.0134 color 0 0 1 }
Segment { rot -0.67236 0 -0.74022 0.55601 offset -0.20957 -0.86093 20000.38151 length 0.00441 color 0 0 1 }
Segment { rot -0.66033 0 -0.75098 0.44083 offset -0.21303 -0.87013 20000.38458 length 0.0162 color 0 0 1 }
Segment { rot -0.41395 0 -0.9103 0.51329 offset -0.21608 -0.87834 20000.38706 length 0.00201 color 0 0 1 }
Segment { rot -0.44977 0 -0.89314 0.41755 offset -0.21768 -0.88213 20000.38785 length 0.00637 color 0 0 1 }
Segment { rot -0.38482 0 -0.92299 0.38863 offset -0.22018 -0.8886 20000.38899 length 0.0077 color 0 0 1 }
Segment { rot -0.42448 0 -0.90544 0.49134 offset -0.22427 -0.89783 20000.39084 length 0.01285 color 0 0 1 }
Segment { rot -0.25197 0 -0.96773 0.45695 offset -0.22755 -0.90462 20000.39227 length 0.0025 color 0 0 1 }
Segment { rot -0.13824 0 -0.9904 0.52085 offset -0.22814 -0.90584 20000.39241 length 0.00023 color 0 0 1 }
Segment { rot -0.1992 0 -0.97996 0.62659 offset -0.23033 -0.90895 20000.39285 length 0.00742 color 0 0 1 }
Segment { rot -0.22563 0 -0.97421 0.61337 offset -0.23559 -0.91651 20000.39401 length 0.01115 color 0 0 1 }
Segment { rot -0.50773 0 -0.86152 0.80415 offset -0.24256 -0.92536 20000.397 length 0.01239 color 0 0 1 }
Segment { rot -0.47395 0 -0.88055 0.75926 offset -0.24803 -0.93161 20000.40014 length 0.00537 color 0 0 1 }
Segment { rot -0.4934 0 -0.8698 0.73749 offset -0.25215 -0.93671 20000.40243 length 0.00852 color 0 0 1 }
Segment { rot -0.48215 0 -0.87609 0.72876 offset -0.25986 -0.94654 20000.40672 length 0.0179 color 0 0 1 }
Segment { rot -0.49753 0 -0.86745 0.70087 offset -0.26647 -0.95511 20000.41039 length 0.00496 color 0 0 1 }
Segment { rot -0.53961 0 -0.84192 0.70999 offset -0.26953 -0.95932 20000.41226 length 0.00612 color 0 0 1 }
Segment { rot -0.58444 0 -0.81144 0.72348 offset -0.27295 -0.96407 20000.41459 length 0.00649 color 0 0 1 }
Segment { rot -0.60246 0 -0.79815 0.77167 offset -0.27538 -0.96739 20000.41636 length 0.00247 color 0 0 1 }
Segment { rot -0.52661 0 -0.85011 0.74215 offset -0.2765 -0.96883 20000.41715 length 0.00149 color 0 0 1 }
Segment { rot -0.50549 0 -0.86284 0.80039 offset -0.27726 -0.96974 20000.41761 length 0.00106 color 0 0 1 }
Segment { rot -0.53215 0 -0.84665 0.81995 offset -0.27769 -0.97022 20000.41786 length 0.00032 color 0 0 1 }
Segment { rot -0.52777 0 -0.84938 0.82826 offset -0.28466 -0.97776 20000.4222 length 0.02198 color 0 0 1 }
Segment { rot -0.59074 0 -0.80687 0.88561 offset -0.29261 -0.98628 20000.42726 length 0.00344 color 0 0 1 }
Segment { rot -0.55152 0 -0.83416 0.90552 offset -0.2966 -0.99011 20000.42997 length 0.00887 color 0 0 1 }
Segment { rot -0.5315 0 -0.84706 0.86237 offset -0.30152 -0.99488 20000.43315 length 0.00626 color 0 0 1 }
Segment { rot -0.18414 0 -0.9829 0.77048 offset -0.30508 -0.99854 20000.43471 length 0.0045 color 0 0 1 }
Segment { rot -0.20105 0 -0.97958 0.77348 offset -0.31873 -1.01282 20000.43748 length 0.0354 color 0 0 1 }
Segment { rot -0.96664 0 0.25615 1.02891 offset -0.33033 -1.02668 20000.44189 length 0.00465 color 0 0 1 }
Segment { rot -0.97153 0 0.2369 1.02661 offset -0.32868 -1.03081 20000.44852 length 0.01131 color 0 0 1 }
Segment { rot -0.9615 0 0.27479 1.00545 offset -0.32683 -1.03536 20000.45569 length 0.00608 color 0 0 1 }
Segment { rot -0.94079 0 0.339 0.98093 offset -0.32575 -1.03773 20000.4592 length 0.00266 color 0 0 1 }
Segment { rot -0.96023 0 0.27922 0.97956 offset -0.32441 -1.04079 20000.46355 length 0.00831 color 0 0 1 }
Segment { rot -0.94593 0 0.32437 1.08698 offset -0.32264 -1.04441 20000.46921 length 0.0056 color 0 0 1 }
Segment { rot -0.92842 0 0.37153 1.02605 offset -0.32183 -1.04571 20000.47156 length 0.00001 color 0 0 1 }
Segment { rot -0.92329 0 0.38411 1.04893 offset -0.3218 -1.04577 20000.47165 length 0.0002 color 0 0 1 }
Segment { rot -0.89446 0 0.44715 1.08301 offset -0.32054 -1.04727 20000.47418 length 0.0062 color 0 0 1 }
Segment { rot -0.94163 0 0.33665 1.16573 offset -0.31798 -1.05043 20000.48037 length 0.00866 color 0 0 1 }
Segment { rot -0.9571 0 0.28975 1.10962 offset -0.3154 -1.05426 20000.48821 length 0.00955 color 0 0 1 }
Segment { rot -0.89662 0 0.44281 1.11683 offset -0.31262 -1.05809 20000.49543 length 0.00776 color 0 0 1 }
Segment { rot -0.91104 0 0.41231 0.98932 offset -0.30834 -1.06414 20000.50459 length 0.01586 color 0 0 1 }
Segment { rot -0.9058 0 0.42371 1.14407 offset -0.30165 -1.07274 20000.51908 length 0.02051 color 0 0 1 }
Segment { rot -0.91514 0 0.40313 1.10671 offset -0.29613 -1.07893 20000.5311 length 0.00871 color 0 0 1 }
Segment { rot -0.87974 0 0.47546 1.00805 offset -0.29361 -1.08215 20000.53643 length 0.00474 color 0 0 1 }
Segment { rot -0.88096 0 0.47319 1.00709 offset -0.2915 -1.08494 20000.54033 length 0.00574 color 0 0 1 }
Segment { rot -0.89699 0 0.44205 1.03519 offset -0.2894 -1.08777 20000.54441 length 0.00506 color 0 0 1 }
Segment { rot -0.90868 0 0.41749 1.01374 offset -0.28832 -1.08923 20000.54661 length 0.00064 color 0 0 1 }
Segment { rot -0.89392 0 0.44822 1.05686 offset -0.28624 -1.09188 20000.55079 length 0.0101 color 0 0 1 }
Segment { rot -0.89521 0 0.44564 1.08184 offset -0.28427 -1.09436 20000.55472 length 0.00001 color 0 0 1 }
Segment { rot -0.93195 0 0.36257 0.94862 offset -0.28316 -1.09654 20000.55755 length 0.00747 color 0 0 1 }
Segment { rot -0.90444 0 0.4266 0.91458 offset -0.27919 -1.1039 20000.56647 length 0.01697 color 0 0 1 }
Segment { rot -0.98562 0 0.169 1.00451 offset -0.27621 -1.10952 20000.57323 length 0.00165 color 0 0 1 }
Segment { rot -0.82328 0 0.56763 1.19107 offset -0.27192 -1.11289 20000.57997 length 0.01581 color 0 0 1 }
Segment { rot -0.88561 0 0.46443 1.25275 offset -0.2646 -1.11806 20000.59203 length 0.0143 color 0 0 1 }
Segment { rot -0.86883 0 0.49511 1.26397 offset -0.26102 -1.12057 20000.59879 length 0.00181 color 0 0 1 }
Segment { rot -0.85671 0 0.5158 1.21919 offset -0.25922 -1.12181 20000.60181 length 0.00565 color 0 0 1 }
Segment { rot -0.84411 0 0.53618 1.14328 offset -0.25574 -1.12459 20000.60742 length 0.00867 color 0 0 1 }
Segment { rot -0.84775 0 0.53039 1.17771 offset -0.25264 -1.12715 20000.61232 length 0.00401 color 0 0 1 }
Segment { rot -0.87304 0 0.48764 1.16927 offset -0.25145 -1.1281 20000.61426 length 0.00091 color 0 0 1 }
Segment { rot -0.82684 0 0.56243 1.18117 offset -0.24939 -1.12963 20000.61736 length 0.00715 color 0 0 1 }
Segment { rot -0.80252 0 0.59662 1.1347 offset -0.24744 -1.13106 20000.62021 length 0.00033 color 0 0 1 }
Segment { rot -0.79507 0 0.60652 0.97331 offset -0.24337 -1.13559 20000.62555 length 0.01586 color 0 0 1 }
Segment { rot -0.78533 0 0.61908 0.94149 offset -0.23765 -1.14211 20000.63298 length 0.00699 color 0 0 1 }
Segment { rot -0.8348 0 0.55056 0.96464 offset -0.23423 -1.14627 20000.63772 length 0.00737 color 0 0 1 }
Segment { rot -0.89184 0 0.45235 0.90147 offset -0.23219 -1.14902 20000.64099 length 0.00211 color 0 0 1 }
Segment { rot -0.88052 0 0.47401 0.84569 offset -0.23129 -1.15066 20000.6427 length 0.00297 color 0 0 1 }
Segment { rot -0.82682 0 0.56246 1.04199 offset -0.22899 -1.15348 20000.64628 length 0.00728 color 0 0 1 }
Segment { rot -0.56428 0 0.82558 0.99513 offset -0.22342 -1.15831 20000.65148 length 0.011 color 0 0 1 }
Segment { rot -0.55719 0 0.83038 0.92096 offset -0.21696 -1.16373 20000.65586 length 0.00801 color 0 0 1 }
Segment { rot -0.57903 0 0.8153 0.95685 offset -0.21409 -1.16635 20000.6578 length 0.00067 color 0 0 1 }
Segment { rot -0.69086 0 0.72299 0.91386 offset -0.2125 -1.168 20000.65926 length 0.00478 color 0 0 1 }
Segment { rot -0.71621 0 0.69789 0.90655 offset -0.2046 -1.17679 20000.66727 length 0.02377 color 0 0 1 }
Segment { rot -0.55493 0 0.83189 0.93076 offset -0.19192 -1.18961 20000.67808 length 0.01841 color 0 0 1 }
Segment { rot -0.52085 0 0.85365 0.90941 offset -0.18099 -1.19948 20000.6851 length 0.01422 color 0 0 1 }
Segment { rot -0.46852 0 0.88345 0.90313 offset -0.17298 -1.20671 20000.68972 length 0.00927 color 0 0 1 }
Segment { rot -0.59064 0 0.80694 1.00834 offset -0.16485 -1.21342 20000.69503 length 0.0144 color 0 0 1 }
Segment { rot -0.60041 0 0.79969 0.98842 offset -0.15862 -1.21835 20000.69961 length 0.00394 color 0 0 1 }
Segment { rot -0.55193 0 0.83389 0.99622 offset -0.15642 -1.22012 20000.70119 length 0.00255 color 0 0 1 }
Segment { rot -0.56221 0 0.827 0.91521 offset -0.15359 -1.22261 20000.70309 length 0.00589 color 0 0 1 }
Segment { rot -0.57334 0 0.81932 0.86402 offset -0.15138 -1.2247 20000.7046 length 0.00089 color 0 0 1 }
Segment { rot -0.55273 0 0.83336 0.83692 offset -0.15087 -1.22524 20000.70495 length 0.00077 color 0 0 1 }
Segment { rot -0.56326 0 0.82628 0.94383 offset -0.13867 -1.23599 20000.71326 length 0.03574 color 0 0 1 }
Segment { rot -0.55979 0 0.82863 0.92291 offset -0.12048 -1.25216 20000.72562 length 0.01887 color 0 0 1 }
Segment { rot -0.47636 0 0.87925 1.00373 offset -0.11257 -1.25907 20000.73075 length 0.00453 color 0 0 1 }
Segment { rot -0.49729 0 0.86759 0.9583 offset -0.10594 -1.2643 20000.73449 length 0.01394 color 0 0 1 }
Segment { rot -0.4953 0 0.86872 1.08118 offset -0.0933 -1.27302 20000.74171 length 0.02005 color 0 0 1 }
Segment { rot -0.53349 0 0.8458 1.15041 offset -0.08467 -1.27824 20000.74669 length 0.00245 color 0 0 1 }
Segment { rot -0.55128 0 0.83432 1.06776 offset -0.07886 -1.28194 20000.7505 length 0.01329 color 0 0 1 }
Segment { rot -0.48371 0 0.87523 1.08934 offset -0.06711 -1.28926 20000.75752 length 0.01777 color 0 0 1 }
Segment { rot -0.45392 0 0.89104 0.98244 offset -0.0602 -1.29339 20000.76134 length 0.00005 color 0 0 1 }
Segment { rot -0.36681 0 0.9303 1.08341 offset -0.05953 -1.29377 20000.7616 length 0.00158 color 0 0 1 }
Segment { rot -0.47629 0 0.87929 0.99629 offset -0.04979 -1.30084 20000.76679 length 0.02466 color 0 0 1 }
Segment { rot -0.47747 0 0.87865 0.9286 offset -0.03273 -1.31432 20000.77604 length 0.02262 color 0 0 1 }
Segment { rot -0.47703 0 0.87888 0.88231 offset -0.02463 -1.32122 20000.78044 length 0.0004 color 0 0 1 }
Segment { rot -0.39961 0 0.91668 0.85504 offset -0.01798 -1.32753 20000.78336 length 0.01886 color 0 0 1 }
Segment { rot -0.23684 0 0.97155 0.78984 offset -0.01005 -1.33516 20000.78654 length 0.00409 color 0 0 1 }
Segment { rot -0.04234 0 0.9991 0.84132 offset -0.0061 -1.33887 20000.78699 length 0.00682 color 0 0 1 }
Segment { rot -0.03039 0 0.99954 0.82046 offset -0.00241 -1.34221 20000.78714 length 0.00315 color 0 0 1 }
Segment { rot -0.08047 0 0.99676 0.84935 offset 0.00446 -1.34833 20000.78763 length 0.01527 color 0 0 1 }
Segment { rot -0.11844 0 0.99296 0.79457 offset 0.02587 -1.36889 20000.78997 length 0.0443 color 0 0 1 }
Segment { rot -0.151 0 0.98853 0.88815 offset 0.04622 -1.38824 20000.79255 length 0.01215 color 0 0 1 }
Segment { rot -0.29053 0 0.95687 0.87102 offset 0.05106 -1.39223 20000.79331 length 0.00048 color 0 0 1 }
Segment { rot 0.3577 0 0.93384 1.16132 offset 0.06344 -1.39806 20000.78869 length 0.02851 color 0 0 1 }
Segment { rot 0.29222 0 0.95635 1.19621 offset 0.07857 -1.40493 20000.78312 length 0.00656 color 0 0 1 }
Segment { rot 0.28464 0 0.95863 1.18224 offset 0.08213 -1.4064 20000.78204 length 0.00143 color 0 0 1 }
Segment { rot -0.02461 0 0.9997 1.02991 offset 0.08341 -1.40706 20000.78187 length 0.0015 color 0 0 1 }
Segment { rot 0.01724 0 0.99985 1.056 offset 0.08556 -1.4083 20000.78186 length 0.00347 color 0 0 1 }
Segment { rot 0.02975 0 0.99956 1.02675 offset 0.09677 -1.41503 20000.78154 length 0.02269 color 0 0 1 }
Segment { rot 0.04144 0 0.99914 0.97063 offset 0.10852 -1.4223 20000.78117 length 0.00495 color 0 0 1 }
Segment { rot 0.0936 0 0.99561 0.95641 offset 0.11135 -1.42426 20000.78101 length 0.00195 color 0 0 1 }
Segment { rot 0.15103 0 0.98853 0.91604 offset 0.11423 -1.42644 20000.78062 length 0.00533 color 0 0 1 }
Segment { rot -0.24163 0 0.97037 1.14799 offset 0.11869 -1.42916 20000.78089 length 0.00534 color 0 0 1 }
Segment { rot -0.17081 0 0.9853 1.12308 offset 0.12399 -1.43169 20000.78198 length 0.00661 color 0 0 1 }
Segment { rot 0.50766 0 -0.86156 1.35871 offset 0.12549 -1.43348 20000.78165 length 0.00339 color 0 0 1 }
Segment { rot 0.53669 0 -0.84378 1.3804 offset 0.1149 -1.43593 20000.77498 length 0.02212 color 0 0 1 }
Segment { rot 0.567 0 -0.82372 1.44735 offset 0.10514 -1.43811 20000.76874 length 0.00145 color 0 0 1 }
Segment { rot 0.5307 0 -0.84756 1.28727 offset 0.08931 -1.44344 20000.75879 length 0.03746 color 0 0 1 }
Segment { rot 0.71494 0 -0.69918 1.24836 offset 0.0736 -1.4489 20000.74878 length 0.00138 color 0 0 1 }
Segment { rot 0.66165 0 -0.74981 1.16527 offset 0.06914 -1.45141 20000.74477 length 0.01163 color 0 0 1 }
Segment { rot 0.60475 0 -0.79641 1.25993 offset 0.06259 -1.45473 20000.7393 length 0.00672 color 0 0 1 }
Segment { rot 0.60633 0 -0.79522 1.296 offset 0.05221 -1.45853 20000.7314 length 0.02046 color 0 0 1 }
Segment { rot 0.63582 0 -0.77184 1.27804 offset 0.04268 -1.46198 20000.72403 length 0.00462 color 0 0 1 }
Segment { rot 0.65241 0 -0.75786 1.21946 offset 0.03252 -1.46673 20000.71535 length 0.02374 color 0 0 1 }
Segment { rot 0.64662 0 -0.76282 1.30032 offset 0.01863 -1.47279 20000.70346 length 0.01482 color 0 0 1 }
Segment { rot 0.63962 0 -0.76869 1.26807 offset 0.00944 -1.47629 20000.69573 length 0.01022 color 0 0 1 }
Segment { rot 0.64045 0 -0.768 1.24771 offset -0.00095 -1.48071 20000.68707 length 0.01823 color 0 0 1 }
Segment { rot 0.66903 0 -0.74323 1.22198 offset -0.00879 -1.48419 20000.68046 length 0.00344 color 0 0 1 }
Segment { rot 0.70363 0 -0.71057 1.09991 offset -0.01502 -1.48839 20000.67439 length 0.01589 color 0 0 1 }
Segment { rot 0.71416 0 -0.69998 1.09482 offset -0.02045 -1.49229 20000.669 length 0.00129 color 0 0 1 }
Segment { rot 0.74881 0 -0.66279 1.13199 offset -0.02233 -1.49363 20000.66692 length 0.00495 color 0 0 1 }
Segment { rot 0.79557 0 -0.60586 1.12529 offset -0.02444 -1.49517 20000.66443 length 0.00227 color 0 0 1 }
Segment { rot 0.84605 0 -0.53311 1.15467 offset -0.03217 -1.50155 20000.65233 length 0.02915 color 0 0 1 }
Segment { rot 0.98158 0 0.19107 1.26089 offset -0.03926 -1.50747 20000.64098 length 0.00016 color 0 0 1 }
Segment { rot 0.99728 0 -0.0737 1.35054 offset -0.03929 -1.50763 20000.64028 length 0.00128 color 0 0 1 }
Segment { rot 0.9948 0 -0.10188 1.36439 offset -0.03993 -1.50899 20000.63387 length 0.01188 color 0 0 1 }
Segment { rot 0.99478 0 -0.10209 1.36105 offset -0.04063 -1.51043 20000.62704 length 0.00217 color 0 0 1 }
Segment { rot 0.99637 0 -0.08519 1.44093 offset -0.04082 -1.51079 20000.62497 length 0.00206 color 0 0 1 }
Segment { rot 0.99823 0 -0.05942 1.41188 offset -0.04139 -1.51221 20000.61597 length 0.01621 color 0 0 1 }
Segment { rot 0.97429 0 0.22532 1.39777 offset -0.04131 -1.51391 20000.60561 length 0.00495 color 0 0 1 }
Segment { rot 0.98601 0 0.16667 1.39107 offset -0.04074 -1.51436 20000.60312 length 0.00023 color 0 0 1 }
Segment { rot 0.97097 0 0.2392 1.38295 offset -0.04058 -1.51449 20000.60243 length 0.00122 color 0 0 1 }
Segment { rot 0.981 0 0.194 1.5293 offset -0.04036 -1.51462 20000.60145 length 0.00082 color 0 0 1 }
Segment { rot 0.93423 0 0.35667 1.26011 offset -0.03788 -1.5168 20000.59476 length 0.01414 color 0 0 1 }
Segment { rot 0.95292 0 0.30322 1.54156 offset -0.03299 -1.5192 20000.58064 length 0.01644 color 0 0 1 }
Segment { rot 0.94927 0 0.31446 1.57356 offset -0.02954 -1.51944 20000.56993 length 0.00607 color 0 0 1 }
Segment { rot 0.85856 0 0.51272 1.49389 offset -0.02796 -1.51952 20000.56599 length 0.00247 color 0 0 1 }
Segment { rot 0.86162 0 0.50756 1.54143 offset -0.0194 -1.52007 20000.55149 length 0.03123 color 0 0 1 }
Segment { rot 0.70773 0 0.70649 1.6013 offset 0.00117 -1.51999 20000.52536 length 0.03583 color 0 0 1 }
Segment { rot 0.90697 0 0.4212 1.72844 offset 0.01451 -1.51918 20000.51122 length 0.00329 color 0 0 1 }
Segment { rot 0.94445 0 0.32865 1.71494 offset 0.01545 -1.51881 20000.509 length 0.0016 color 0 0 1 }
Segment { rot 0.945 0 0.32707 1.71784 offset 0.01977 -1.51686 20000.49653 length 0.02507 color 0 0 1 }
Segment { rot 0.95263 0 0.30415 1.62464 offset 0.02507 -1.5148 20000.48089 length 0.00823 color 0 0 1 }
Segment { rot 0.924 0 0.3824 1.62314 offset 0.02658 -1.51454 20000.47635 length 0.00136 color 0 0 1 }
Segment { rot 0.93297 0 0.35995 1.51943 offset 0.03008 -1.51497 20000.46733 length 0.01802 color 0 0 1 }
Segment { rot 0.97023 0 0.24217 1.34792 offset 0.03339 -1.51549 20000.45866 length 0.00057 color 0 0 1 }
Segment { rot 0.9752 0 0.2213 1.32567 offset 0.03346 -1.51557 20000.45836 length 0.00008 color 0 0 1 }
Segment { rot 0.98407 0 0.1778 1.27916 offset 0.0338 -1.51613 20000.4565 length 0.00386 color 0 0 1 }
Segment { rot 0.98027 0 0.19765 1.3555 offset 0.03721 -1.5201 20000.43938 length 0.03194 color 0 0 1 }
Segment { rot 0.96999 0 0.24313 1.33912 offset 0.04317 -1.5263 20000.41264 length 0.02426 color 0 0 1 }
Segment { rot 0.96909 0 0.24673 1.41027 offset 0.04604 -1.52908 20000.40118 length 0.00002 color 0 0 1 }
Segment { rot 0.98052 0 0.19641 1.41691 offset 0.04706 -1.52988 20000.39611 length 0.01044 color 0 0 1 }
Segment { rot 0.98889 0 0.14865 1.41065 offset 0.04826 -1.53089 20000.38979 length 0.00258 color 0 0 1 }
Segment { rot 0.93614 0 0.35162 1.36096 offset 0.04942 -1.53169 20000.38594 length 0.00565 color 0 0 1 }
Segment { rot 0.82633 0 0.56318 1.78466 offset 0.05086 -1.53209 20000.38267 length 0.00169 color 0 0 1 }
Segment { rot 0.80781 0 0.58944 1.94805 offset 0.05311 -1.53071 20000.37954 length 0.00654 color 0 0 1 }
Segment { rot 0.78623 0 0.61793 1.96247 offset 0.06974 -1.51959 20000.35821 length 0.05195 color 0 0 1 }
Segment { rot 0.74028 0 0.67229 1.87071 offset 0.08502 -1.50947 20000.33884 length 0.0014 color 0 0 1 }
Segment { rot 0.73579 0 0.67721 1.82319 offset 0.08754 -1.50847 20000.33609 length 0.00632 color 0 0 1 }
Segment { rot 0.59876 0 0.80093 1.81699 offset 0.09131 -1.50715 20000.33257 length 0.00436 color 0 0 1 }
Segment { rot 0.6042 0 0.79683 1.96463 offset 0.09462 -1.50578 20000.33008 length 0.0044 color 0 0 1 }
Segment { rot 0.57366 0 0.81909 2.02347 offset 0.09802 -1.50388 20000.32761 length 0.00482 color 0 0 1 }
Segment { rot 0.46972 0 0.88282 2.00216 offset 0.10212 -1.50161 20000.32513 length 0.00582 color 0 0 1 }
Segment { rot 0.47392 0 0.88057 1.68611 offset 0.10729 -1.50002 20000.32236 length 0.00647 color 0 0 1 }
Segment { rot 0.47089 0 0.88219 1.5867 offset 0.11909 -1.49949 20000.31605 length 0.02036 color 0 0 1 }
Segment { rot 0.50666 0 0.86215 1.67234 offset 0.13313 -1.49873 20000.30828 length 0.0118 color 0 0 1 }
Segment { rot 0.572 0 0.82026 1.81648 offset 0.13953 -1.49772 20000.30437 length 0.00337 color 0 0 1 }
Segment { rot 0.59058 0 0.80698 1.83746 offset 0.14089 -1.4973 20000.30343 length 0.00004 color 0 0 1 }
Segment { rot 0.59284 0 0.80532 1.86115 offset 0.14722 -1.49495 20000.29877 length 0.01638 color 0 0 1 }
Segment { rot 0.64012 0 0.76827 1.85098 offset 0.1541 -1.4924 20000.29365 length 0.00151 color 0 0 1 }
Segment { rot 0.61971 0 0.78483 1.78009 offset 0.15882 -1.49107 20000.2899 length 0.01085 color 0 0 1 }
Segment { rot 0.45327 0 0.89137 1.64035 offset 0.16337 -1.48991 20000.28641 length 0.00087 color 0 0 1 }
Segment { rot 0.23507 0 0.97198 1.27723 offset 0.17623 -1.49376 20000.2832 length 0.02683 color 0 0 1 }
Segment { rot 0.07145 0 0.99744 1.26548 offset 0.18918 -1.49779 20000.28015 length 0.00097 color 0 0 1 }
Segment { rot 0.09458 0 0.99552 1.25934 offset 0.19329 -1.49912 20000.27977 length 0.00772 color 0 0 1 }
Segment { rot -0.95084 0 0.3097 0.26892 offset 0.19725 -1.50379 20000.28033 length 0.00725 color 0 0 1 }
Segment { rot -0.92737 0 -0.37415 0.50798 offset 0.19723 -1.5088 20000.28203 length 0.00347 color 0 0 1 }
Segment { rot -0.51378 0 0.85792 0.15291 offset 0.19694 -1.51054 20000.28283 length 0.00044 color 0 0 1 }
Segment { rot -0.71503 0 0.69909 0.26686 offset 0.19757 -1.5139 20000.28347 length 0.00652 color 0 0 1 }
Segment { rot -0.99814 0 -0.06095 0.34055 offset 0.1981 -1.52031 20000.28524 length 0.00694 color 0 0 1 }
Segment { rot -0.99846 0 0.05544 0.43667 offset 0.19816 -1.52857 20000.28872 length 0.01101 color 0 0 1 }
Segment { rot -0.99735 0 -0.07272 0.45584 offset 0.19822 -1.53558 20000.29203 length 0.00449 color 0 0 1 }
Segment { rot -0.41107 0 0.9116 1.07699 offset 0.19908 -1.53815 20000.29344 length 0.00233 color 0 0 1 }
Segment { rot -0.4076 0 0.91316 0.98929 offset 0.20109 -1.53947 20000.29434 length 0.0028 color 0 0 1 }
Segment { rot -0.44243 0 0.8968 0.95313 offset 0.20389 -1.54161 20000.29567 length 0.00474 color 0 0 1 }
Segment { rot -0.38272 0 0.92386 0.99442 offset 0.20744 -1.54427 20000.29728 length 0.00471 color 0 0 1 }
Segment { rot -0.32705 0 0.94501 0.95281 offset 0.21229 -1.54783 20000.29908 length 0.00785 color 0 0 1 }
Segment { rot -0.43658 0 0.89967 0.97982 offset 0.22077 -1.55417 20000.30277 length 0.0146 color 0 0 1 }
Segment { rot -0.47078 0 0.88225 0.86235 offset 0.22691 -1.55891 20000.30579 length 0.00208 color 0 0 1 }
Segment { rot -0.41301 0 0.91073 0.78138 offset 0.23215 -1.56461 20000.30822 length 0.01416 color 0 0 1 }
Segment { rot -0.50349 0 0.864 0.74169 offset 0.23814 -1.57147 20000.31112 length 0.00496 color 0 0 1 }
Segment { rot -0.58284 0 0.81259 0.73565 offset 0.24302 -1.57796 20000.31443 length 0.01258 color 0 0 1 }
Segment { rot -0.6172 0 0.78681 0.84635 offset 0.25277 -1.58974 20000.32185 length 0.02148 color 0 0 1 }
Segment { rot -0.61066 0 0.79189 0.77986 offset 0.25918 -1.59696 20000.32688 length 0.0003 color 0 0 1 }
Segment { rot -0.67975 0 0.73344 0.92936 offset 0.26199 -1.59984 20000.32947 length 0.00927 color 0 0 1 }
Segment { rot -0.71212 0 0.70206 0.95919 offset 0.26671 -1.60461 20000.33401 length 0.00694 color 0 0 1 }
Segment { rot -0.72069 0 0.69326 0.96576 offset 0.27387 -1.61175 20000.34141 length 0.01813 color 0 0 1 }
Segment { rot -0.72964 0 0.68383 0.91574 offset 0.28441 -1.62294 20000.35251 length 0.01979 color 0 0 1 }
Segment { rot -0.73544 0 0.67758 0.87578 offset 0.29112 -1.63062 20000.35969 length 0.00517 color 0 0 1 }
Segment { rot -0.70147 0 0.71269 0.89116 offset 0.29411 -1.63415 20000.36278 length 0.00595 color 0 0 1 }
Segment { rot -0.74243 0 0.66992 0.84288 offset 0.2961 -1.63647 20000.36478 length 0.00137 color 0 0 1 }
Segment { rot -0.73498 0 0.67809 0.75015 offset 0.30091 -1.64399 20000.37 length 0.01932 color 0 0 1 }
Segment { rot -0.70916 0 0.70505 0.75185 offset 0.30551 -1.65126 20000.37497 length 0.00055 color 0 0 1 }
Segment { rot -0.67418 0 0.73857 0.76578 offset 0.30593 -1.65187 20000.37537 length 0.00114 color 0 0 1 }
Segment { rot -0.62881 0 0.77756 0.74109 offset 0.30673 -1.653 20000.37605 length 0.00195 color 0 0 1 }
Segment { rot -0.64952 0 0.76034 0.75333 offset 0.30896 -1.65612 20000.37793 length 0.00659 color 0 0 1 }
Segment { rot -0.99759 0 -0.06937 0.57231 offset 0.31045 -1.66348 20000.38258 length 0.01179 color 0 0 1 }
Segment { rot -0.98293 0 -0.184 0.58401 offset 0.30923 -1.67663 20000.39109 length 0.01965 color 0 0 1 }
Segment { rot -0.98854 0 -0.15094 0.56748 offset 0.30797 -1.68758 20000.39815 length 0.00653 color 0 0 1 }
Segment { rot -0.97907 0 -0.20351 0.55426 offset 0.30739 -1.69284 20000.4014 length 0.00589 color 0 0 1 }
Segment { rot -0.98157 0 -0.19109 0.53276 offset 0.30687 -1.69716 20000.40396 length 0.00422 color 0 0 1 }
Segment { rot -0.9978 0 0.06637 0.64549 offset 0.30683 -1.7023 20000.40751 length 0.00832 color 0 0 1 }
Segment { rot -0.99768 0 0.06805 0.60328 offset 0.30744 -1.71502 20000.41647 length 0.02283 color 0 0 1 }
Segment { rot -0.99584 0 0.09115 0.63235 offset 0.30796 -1.72554 20000.42375 length 0.00277 color 0 0 1 }
Segment { rot -0.9923 0 0.12387 0.6205 offset 0.30811 -1.72755 20000.4252 length 0.00221 color 0 0 1 }
Segment { rot -0.99319 0 0.11654 0.64299 offset 0.30819 -1.7285 20000.42587 length 0.00011 color 0 0 1 }
Segment { rot -0.99514 0 0.0985 0.68433 offset 0.30859 -1.73338 20000.42983 length 0.0125 color 0 0 1 }
Segment { rot -0.99753 0 0.07022 0.66561 offset 0.30923 -1.74276 20000.43732 length 0.01155 color 0 0 1 }
Segment { rot -0.99771 0 0.0677 0.74622 offset 0.30957 -1.74879 20000.44225 length 0.00403 color 0 0 1 }
Segment { rot -0.99805 0 -0.06243 0.93898 offset 0.30918 -1.75598 20000.45139 length 0.01932 color 0 0 1 }
Segment { rot -0.99463 0 -0.10351 0.98154 offset 0.30867 -1.76178 20000.45933 length 0.00038 color 0 0 1 }
Segment { rot -0.99615 0 0.08763 0.87805 offset 0.30989 -1.77362 20000.47356 length 0.03673 color 0 0 1 }
Segment { rot -0.99223 0 0.12445 0.87309 offset 0.31136 -1.78685 20000.48941 length 0.00467 color 0 0 1 }
Segment { rot -0.95979 0 0.28072 0.86896 offset 0.31222 -1.79029 20000.49339 length 0.00602 color 0 0 1 }
Segment { rot -0.96516 0 0.26166 0.85194 offset 0.31287 -1.79225 20000.49562 length 0.00006 color 0 0 1 }
Segment { rot -0.9561 0 0.29303 0.824 offset 0.31316 -1.79317 20000.49657 length 0.00264 color 0 0 1 }
Segment { rot -0.98616 0 0.16577 0.79541 offset 0.31482 -1.80219 20000.50567 length 0.0232 color 0 0 1 }
Segment { rot -0.99858 0 -0.05322 0.71499 offset 0.31613 -1.81181 20000.51514 length 0.00397 color 0 0 1 }
Segment { rot -0.99948 0 0.03237 0.73668 offset 0.31606 -1.81355 20000.51666 length 0.00067 color 0 0 1 }
Segment { rot -0.99945 0 0.0332 0.79267 offset 0.3161 -1.81461 20000.51771 length 0.00232 color 0 0 1 }
Segment { rot -0.99456 0 0.1042 0.76007 offset 0.31659 -1.82012 20000.52297 length 0.01294 color 0 0 1 }
Segment { rot -0.98456 0 0.17507 0.75801 offset 0.31712 -1.82521 20000.52778 length 0.00111 color 0 0 1 }
Segment { rot -0.97815 0 0.20791 0.78498 offset 0.31778 -1.82847 20000.53095 length 0.00808 color 0 0 1 }
Segment { rot -0.98263 0 0.18558 0.78476 offset 0.31872 -1.83317 20000.53555 length 0.0052 color 0 0 1 }
Segment { rot -0.98345 0 0.18118 0.79992 offset 0.32068 -1.84368 20000.54613 length 0.02488 color 0 0 1 }
Segment { rot -0.98771 0 0.15629 0.79106 offset 0.32231 -1.85245 20000.55501 length 0.0003 color 0 0 1 }
Segment { rot -0.99997 0 -0.00799 0.78698 offset 0.32233 -1.85266 20000.55522 length 0.0003 color 0 0 1 }
Segment { rot -0.99907 0 0.0432 0.78203 offset 0.32245 -1.85573 20000.55827 length 0.00836 color 0 0 1 }
Segment { rot -0.99988 0 0.01527 0.84416 offset 0.32258 -1.85904 20000.5616 length 0.00102 color 0 0 1 }
Segment { rot -0.99566 0 -0.09302 1.03486 offset 0.32259 -1.85941 20000.56202 length 0.0001 color 0 0 1 }
Segment { rot -0.87827 0 -0.47816 1.38742 offset 0.32109 -1.86001 20000.5648 length 0.00633 color 0 0 1 }
Segment { rot -0.87922 0 -0.47642 1.38406 offset 0.31767 -1.86136 20000.57111 length 0.00826 color 0 0 1 }
Segment { rot -0.87579 0 -0.48269 1.4612 offset 0.31202 -1.86297 20000.58143 length 0.01551 color 0 0 1 }
Segment { rot -0.84861 0 -0.52903 1.4964 offset 0.30358 -1.86448 20000.59574 length 0.01785 color 0 0 1 }
Segment { rot -0.83319 0 -0.55298 1.52983 offset 0.29546 -1.8654 20000.60843 length 0.01236 color 0 0 1 }
Segment { rot -0.84755 0 -0.53072 1.51859 offset 0.28844 -1.86601 20000.61934 length 0.01362 color 0 0 1 }
Segment { rot -0.85926 0 -0.51155 1.25665 offset 0.28343 -1.86725 20000.62745 length 0.00573 color 0 0 1 }
Segment { rot -0.58777 0 -0.80902 1.1381 offset 0.27776 -1.87057 20000.6329 length 0.01164 color 0 0 1 }
Segment { rot -0.62093 0 -0.78387 1.42919 offset 0.27303 -1.8731 20000.63637 length 0.0012 color 0 0 1 }
Segment { rot -0.64007 0 -0.76832 1.41866 offset 0.26328 -1.87504 20000.64447 length 0.02444 color 0 0 1 }
Segment { rot -0.94928 0 -0.31443 2.51335 offset 0.25268 -1.87111 20000.65619 length 0.01428 color 0 0 1 }
Segment { rot -0.93868 0 -0.34478 2.51708 offset 0.25112 -1.86436 20000.66083 length 0.00241 color 0 0 1 }
Segment { rot -0.93334 0 -0.35899 2.56953 offset 0.25026 -1.86071 20000.6631 length 0.00635 color 0 0 1 }
Segment { rot -0.90926 0 -0.41623 2.5131 offset 0.24898 -1.85587 20000.66614 length 0.00536 color 0 0 1 }
Segment { rot -0.9224 0 -0.38624 2.45212 offset 0.24526 -1.84406 20000.6749 length 0.025 color 0 0 1 }
Segment { rot -0.92762 0 -0.37352 2.49377 offset 0.24141 -1.83167 20000.68416 length 0.00687 color 0 0 1 }
Segment { rot -0.9562 0 -0.29272 2.46273 offset 0.24034 -1.82766 20000.68706 length 0.00326 color 0 0 1 }
Segment { rot -0.95336 0 -0.30182 2.48565 offset 0.23861 -1.82027 20000.69254 length 0.01547 color 0 0 1 }
Segment { rot -0.8294 0 -0.55866 2.70743 offset 0.23714 -1.81393 20000.69712 length 0.00047 color 0 0 1 }
Segment { rot -0.83391 0 -0.5519 2.68219 offset 0.23689 -1.81301 20000.69749 length 0.00158 color 0 0 1 }
Segment { rot -0.94727 0 -0.32045 2.72978 offset 0.2366 -1.8116 20000.69807 length 0.00152 color 0 0 1 }
Segment { rot -0.95063 0 -0.31034 2.67063 offset 0.23626 -1.80936 20000.6991 length 0.00346 color 0 0 1 }
Segment { rot -0.98497 0 -0.17273 2.70013 offset 0.2359 -1.8064 20000.70051 length 0.00314 color 0 0 1 }
Segment { rot -0.98492 0 -0.17301 2.66653 offset 0.23571 -1.80421 20000.70156 length 0.00174 color 0 0 1 }
Segment { rot -0.96271 0 -0.27054 2.76403 offset 0.23462 -1.79391 20000.70559 length 0.02049 color 0 0 1 }
Segment { rot -0.63316 0 -0.77402 2.85296 offset 0.23301 -1.78184 20000.70971 length 0.00531 color 0 0 1 }
Segment { rot -0.65148 0 -0.75867 2.86068 offset 0.23049 -1.77042 20000.71185 length 0.01847 color 0 0 1 }
Segment { rot -0.56867 0 -0.82256 2.82398 offset 0.22795 -1.75937 20000.71393 length 0.0046 color 0 0 1 }
Segment { rot -0.551 0 -0.83451 2.81648 offset 0.22559 -1.75088 20000.71551 length 0.0133 color 0 0 1 }
Segment { rot -0.92248 0 -0.38604 2.66142 offset 0.22332 -1.74208 20000.71788 length 0.00564 color 0 0 1 }
Segment { rot -0.87705 0 -0.4804 2.67431 offset 0.22107 -1.73237 20000.72227 length 0.01613 color 0 0 1 }
Segment { rot -0.93433 0 -0.35642 2.6777 offset 0.21869 -1.72166 20000.7271 length 0.00784 color 0 0 1 }
Segment { rot -0.92553 0 -0.37866 2.71238 offset 0.21758 -1.71532 20000.72994 length 0.00624 color 0 0 1 }
Segment { rot -0.84567 0 -0.5337 2.71526 offset 0.21601 -1.70804 20000.73285 length 0.00976 color 0 0 1 }
Segment { rot -0.81951 0 -0.57307 2.68926 offset 0.21479 -1.7031 20000.73475 length 0.00111 color 0 0 1 }
Segment { rot -0.72422 0 -0.68957 2.78243 offset 0.21372 -1.699 20000.73593 length 0.00769 color 0 0 1 }
Segment { rot -0.71606 0 -0.69804 2.79926 offset 0.21216 -1.69288 20000.73755 length 0.00536 color 0 0 1 }
Segment { rot -0.81501 0 -0.57945 2.80638 offset 0.21131 -1.68925 20000.73851 length 0.00234 color 0 0 1 }
Segment { rot -0.73426 0 -0.67887 2.91042 offset 0.21088 -1.68682 20000.73905 length 0.00271 color 0 0 1 }
Segment { rot -0.67822 0 -0.73486 2.87358 offset 0.21062 -1.68525 20000.73933 length 0.00052 color 0 0 1 }
Segment { rot -0.60377 0 -0.79716 2.93916 offset 0.20995 -1.68123 20000.73984 length 0.0077 color 0 0 1 }
Segment { rot -0.50771 0 -0.86153 2.97837 offset 0.20888 -1.67426 20000.74057 length 0.00648 color 0 0 1 }
Segment { rot -0.62678 0 -0.7792 2.97091 offset 0.20827 -1.66988 20000.74097 length 0.00241 color 0 0 1 }
Segment { rot -0.73424 0 -0.67889 3.02481 offset 0.20797 -1.66697 20000.74125 length 0.00347 color 0 0 1 }
Segment { rot -0.97309 0 -0.23043 3.04355 offset 0.20781 -1.66426 20000.74149 length 0.00198 color 0 0 1 }
Segment { rot -0.87885 0 -0.47709 3.04238 offset 0.20728 -1.65268 20000.74251 length 0.0213 color 0 0 1 }
Segment { rot 0.04943 0 -0.99878 3.05302 offset 0.20594 -1.63264 20000.7434 length 0.01894 color 0 0 1 }
Segment { rot 0.11337 0 -0.99355 3.05541 offset 0.20508 -1.62285 20000.74335 length 0.00072 color 0 0 1 }
Segment { rot 0.32004 0 -0.9474 3.12489 offset 0.20503 -1.62187 20000.74334 length 0.00124 color 0 0 1 }
Segment { rot -0.84814 0 -0.52977 3.05008 offset 0.20489 -1.6185 20000.74356 length 0.00553 color 0 0 1 }
Segment { rot -0.87413 0 -0.48569 3.06151 offset 0.20471 -1.61465 20000.74385 length 0.0022 color 0 0 1 }
Segment { rot -0.40714 0 0.91337 3.0452 offset 0.20474 -1.61278 20000.74395 length 0.00155 color 0 0 1 }
Segment { rot -0.33126 0 0.94354 3.05419 offset 0.2053 -1.60605 20000.74416 length 0.01197 color 0 0 1 }
Segment { rot 0.46967 0 0.88284 2.99995 offset 0.20611 -1.59756 20000.74416 length 0.00511 color 0 0 1 }
Segment { rot 0.56326 0 0.82628 2.89869 offset 0.2075 -1.58979 20000.74326 length 0.0108 color 0 0 1 }
Segment { rot 0.59505 0 0.80369 2.89569 offset 0.21022 -1.57641 20000.74131 length 0.01678 color 0 0 1 }
Segment { rot 0.6192 0 0.78523 2.86351 offset 0.21224 -1.56656 20000.7398 length 0.00357 color 0 0 1 }
Segment { rot 0.72589 0 0.68782 2.87987 offset 0.21326 -1.5614 20000.73882 length 0.00714 color 0 0 1 }
Segment { rot 0.92021 0 0.39143 2.83587 offset 0.21447 -1.5533 20000.7368 length 0.00975 color 0 0 1 }
Segment { rot 0.85457 0 0.51934 2.74747 offset 0.21508 -1.54848 20000.73539 length 0.00037 color 0 0 1 }
Segment { rot 0.85647 0 0.5162 2.72138 offset 0.21536 -1.54727 20000.73493 length 0.00228 color 0 0 1 }
Segment { rot 0.92686 0 0.37542 2.62 offset 0.21584 -1.54512 20000.73394 length 0.00256 color 0 0 1 }
Segment { rot 0.98927 0 0.14608 2.64115 offset 0.2164 -1.54003 20000.7312 length 0.00906 color 0 0 1 }
Segment { rot 0.99127 0 0.13186 2.62867 offset 0.21673 -1.53583 20000.72892 length 0.00053 color 0 0 1 }
Segment { rot 0.9972 0 0.07475 2.64533 offset 0.21699 -1.52962 20000.72557 length 0.0136 color 0 0 1 }
Segment { rot 0.99764 0 0.06863 2.61561 offset 0.21724 -1.52355 20000.72229 length 0.00021 color 0 0 1 }
Segment { rot 0.97237 0 0.23344 2.65798 offset 0.21733 -1.52277 20000.72188 length 0.00157 color 0 0 1 }
Segment { rot 0.96748 0 0.25293 2.64962 offset 0.21808 -1.51712 20000.71895 length 0.01125 color 0 0 1 }
Segment { rot 0.62796 0 0.77825 2.51947 offset 0.21896 -1.51179 20000.71622 length 0.00089 color 0 0 1 }
Segment { rot 0.68235 0 0.73103 2.50195 offset 0.22159 -1.50696 20000.71379 length 0.01115 color 0 0 1 }
Segment { rot 0.00019 0 1 2.4316 offset 0.2288 -1.49693 20000.71151 length 0.01465 color 0 0 1 }
Segment { rot -0.0048 0 0.99999 2.45565 offset 0.23388 -1.491 20000.71152 length 0.00098 color 0 0 1 }
Segment { rot -0.44404 0 0.89601 2.31647 offset 0.2388 -1.48588 20000.7138 length 0.01398 color 0 0 1 }
Segment { rot -0.46144 0 0.88717 2.39275 offset 0.24359 -1.4809 20000.71618 length 0.00063 color 0 0 1 }
Segment { rot -0.48128 0 0.87657 2.38479 offset 0.24643 -1.47747 20000.71773 length 0.0088 color 0 0 1 }
Segment { rot -0.50686 0 0.86203 2.37128 offset 0.25461 -1.46766 20000.72244 length 0.01843 color 0 0 1 }
Segment { rot -0.6458 0 0.76351 2.25458 offset 0.2602 -1.46098 20000.72574 length 0.00021 color 0 0 1 }
Segment { rot -0.61738 0 0.78667 2.27763 offset 0.26032 -1.46085 20000.72584 length 0.00017 color 0 0 1 }
Segment { rot -0.58953 0 0.80775 2.28147 offset 0.2648 -1.45607 20000.72911 length 0.01449 color 0 0 1 }
Segment { rot -0.51587 0 0.85667 2.30209 offset 0.27048 -1.45004 20000.7331 length 0.00391 color 0 0 1 }
Segment { rot -0.52621 0 0.85035 2.21007 offset 0.27554 -1.4454 20000.73621 length 0.01117 color 0 0 1 }
Segment { rot -0.53901 0 0.8423 2.1795 offset 0.28623 -1.43639 20000.74297 length 0.01989 color 0 0 1 }
Segment { rot -0.70648 0 0.70773 2.43141 offset 0.29435 -1.42865 20000.74861 length 0.00541 color 0 0 1 }
Segment { rot -0.4861 0 0.87391 2.09869 offset 0.30643 -1.41937 20000.75588 length 0.02872 color 0 0 1 }
Segment { rot -0.47689 0 0.87896 2.10715 offset 0.32468 -1.40712 20000.76593 length 0.01961 color 0 0 1 }
Segment { rot -0.50885 0 0.86086 2.08715 offset 0.33989 -1.39697 20000.77456 length 0.02084 color 0 0 1 }
Segment { rot -0.41028 0 0.91196 2.10404 offset 0.35196 -1.38906 20000.7811 length 0.01089 color 0 0 1 }
Segment { rot -0.65833 0 0.75273 2.06717 offset 0.35684 -1.38586 20000.78355 length 0.00182 color 0 0 1 }
Segment { rot -0.71986 0 0.69412 2.05518 offset 0.35804 -1.38497 20000.78469 length 0.00194 color 0 0 1 }
Segment { rot -0.72667 0 0.68699 2.05001 offset 0.36002 -1.38348 20000.78677 length 0.00454 color 0 0 1 }
Segment { rot 0.9162 0 0.40073 2.85533 offset 0.36219 -1.37573 20000.78643 length 0.01397 color 0 0 1 }
Segment { rot 0.99997 0 -0.00731 2.90635 offset 0.36297 -1.36114 20000.78273 length 0.01622 color 0 0 1 }
Segment { rot 0.98246 0 0.18649 2.94154 offset 0.36332 -1.34348 20000.77889 length 0.01995 color 0 0 1 }
Segment { rot 0.97242 0 0.23322 2.94748 offset 0.36375 -1.33237 20000.77669 length 0.00272 color 0 0 1 }
Segment { rot 0.97711 0 0.21272 2.91256 offset 0.36383 -1.33065 20000.77635 length 0.00078 color 0 0 1 }
Segment { rot 0.9264 0 -0.37653 1.72455 offset 0.36301 -1.32993 20000.77418 length 0.00455 color 0 0 1 }
Segment { rot 0.86788 0 -0.49678 1.55195 offset 0.36085 -1.32963 20000.76981 length 0.00528 color 0 0 1 }
Segment { rot 0.86431 0 -0.50297 1.57013 offset 0.35921 -1.32968 20000.76696 length 0.00129 color 0 0 1 }
Segment { rot 0.91227 0 -0.40959 1.58458 offset 0.35846 -1.32966 20000.76544 length 0.00211 color 0 0 1 }
Segment { rot 0.94364 0 -0.33096 1.60059 offset 0.35653 -1.32952 20000.76023 length 0.00901 color 0 0 1 }
Segment { rot 0.9509 0 -0.30949 1.53607 offset 0.35305 -1.32961 20000.74985 length 0.01289 color 0 0 1 }
Segment { rot 0.95721 0 -0.28939 1.55948 offset 0.34941 -1.32989 20000.73827 length 0.0114 color 0 0 1 }
Segment { rot 0.96498 0 -0.26232 1.57755 offset 0.34677 -1.32993 20000.72918 length 0.00754 color 0 0 1 }
Segment { rot 0.96974 0 -0.24414 1.55653 offset 0.34499 -1.32995 20000.72241 length 0.00647 color 0 0 1 }
Segment { rot 0.96744 0 -0.2531 1.48038 offset 0.34387 -1.33012 20000.71799 length 0.00268 color 0 0 1 }
Segment { rot 0.91398 0 -0.40576 1.50472 offset 0.34149 -1.33057 20000.71211 length 0.01006 color 0 0 1 }
Segment { rot 0.90026 0 -0.43534 1.46715 offset 0.33837 -1.33116 20000.70528 length 0.00501 color 0 0 1 }
Segment { rot 0.89336 0 -0.44933 1.50121 offset 0.33365 -1.33199 20000.69581 length 0.01622 color 0 0 1 }
Segment { rot 0.85536 0 -0.51803 1.45927 offset 0.32998 -1.33256 20000.68852 length 0.00015 color 0 0 1 }
Segment { rot 0.81417 0 -0.58063 1.45022 offset 0.32802 -1.33297 20000.68577 length 0.00664 color 0 0 1 }
Segment { rot 0.75098 0 -0.66033 1.41363 offset 0.32361 -1.33397 20000.68024 length 0.00766 color 0 0 1 }
Segment { rot 0.76797 0 -0.64048 1.39346 offset 0.31572 -1.33608 20000.67093 length 0.01713 color 0 0 1 }
Segment { rot 0.80205 0 -0.59726 1.29115 offset 0.30941 -1.33802 20000.66324 length 0.00315 color 0 0 1 }
Segment { rot 0.9733 0 -0.22954 1.08372 offset 0.3064 -1.34333 20000.65307 length 0.02083 color 0 0 1 }
Segment { rot 0.96051 0 -0.27825 1.08109 offset 0.30413 -1.34849 20000.64359 length 0.00122 color 0 0 1 }
Segment { rot 0.95164 0 -0.30721 1.06098 offset 0.30189 -1.3526 20000.63658 length 0.01564 color 0 0 1 }
Segment { rot 0.94306 0 -0.33262 1.11207 offset 0.29976 -1.35646 20000.62999 length 0.00021 color 0 0 1 }
Segment { rot 0.97117 0 -0.2384 0.97557 offset 0.29964 -1.35675 20000.62956 length 0.00087 color 0 0 1 }
Segment { rot 0.97463 0 -0.22384 0.9852 offset 0.29908 -1.3584 20000.62715 length 0.00507 color 0 0 1 }
Segment { rot 0.9616 0 -0.27445 0.98049 offset 0.29673 -1.36439 20000.61849 length 0.01652 color 0 0 1 }
Segment { rot 0.94521 0 -0.32646 0.97296 offset 0.29346 -1.37188 20000.60788 length 0.01027 color 0 0 1 }
Segment { rot 0.95636 0 -0.29218 1.00406 offset 0.29068 -1.37781 20000.59931 length 0.0113 color 0 0 1 }
Segment { rot 0.9469 0 -0.32154 1.10949 offset 0.28883 -1.38155 20000.5934 length 0.00318 color 0 0 1 }
Segment { rot 0.93173 0 -0.36314 1.11222 offset 0.2882 -1.38249 20000.59162 length 0.00103 color 0 0 1 }
Segment { rot 0.92685 0 -0.37543 1.10638 offset 0.28681 -1.38434 20000.58817 length 0.00728 color 0 0 1 }
Segment { rot 0.84382 0 -0.53663 1.23767 offset 0.28372 -1.38718 20000.58222 length 0.00736 color 0 0 1 }
Segment { rot 0.88326 0 -0.46889 1.31316 offset 0.2791 -1.38993 20000.57409 length 0.01215 color 0 0 1 }
Segment { rot 0.87916 0 -0.47654 1.30735 offset 0.27621 -1.39155 20000.56866 length 0.00057 color 0 0 1 }
Segment { rot 0.89826 0 -0.43946 1.35342 offset 0.27561 -1.39187 20000.56744 length 0.00221 color 0 0 1 }
Segment { rot 0.86339 0 -0.50453 1.33699 offset 0.27411 -1.39259 20000.56473 length 0.00415 color 0 0 1 }
Segment { rot 0.87172 0 -0.49 1.37214 offset 0.27268 -1.39324 20000.56225 length 0.00172 color 0 0 1 }
Segment { rot 0.86278 0 -0.50558 1.29866 offset 0.27147 -1.39385 20000.56016 length 0.00326 color 0 0 1 }
Segment { rot 0.79429 0 -0.60754 1.33553 offset 0.26875 -1.39505 20000.55628 length 0.00654 color 0 0 1 }
Segment { rot 0.85469 0 -0.51915 1.4565 offset 0.26558 -1.39608 20000.55173 length 0.00478 color 0 0 1 }
Segment { rot 0.87611 0 -0.4821 1.4369 offset 0.25742 -1.39829 20000.5371 length 0.02903 color 0 0 1 }
Segment { rot 0.84574 0 -0.53359 1.41588 offset 0.25016 -1.40032 20000.52398 length 0.00124 color 0 0 1 }
Segment { rot 0.85441 0 -0.5196 1.3672 offset 0.24943 -1.40058 20000.5228 length 0.00159 color 0 0 1 }
Segment { rot 0.8399 0 -0.54274 1.37674 offset 0.24669 -1.40159 20000.51852 length 0.00877 color 0 0 1 }
Segment { rot 0.83294 0 -0.55337 1.34243 offset 0.24279 -1.40309 20000.51256 length 0.00578 color 0 0 1 }
Segment { rot 0.8595 0 -0.51114 1.31076 offset 0.2405 -1.40412 20000.50898 length 0.00298 color 0 0 1 }
Segment { rot 0.85971 0 -0.51077 1.32809 offset 0.23728 -1.40571 20000.50355 length 0.01004 color 0 0 1 }
Segment { rot 0.83043 0 -0.55712 1.38185 offset 0.23331 -1.40743 20000.49716 length 0.0054 color 0 0 1 }
Segment { rot 0.19335 0 -0.98113 0.5901 offset 0.2272 -1.41498 20000.49405 length 0.01696 color 0 0 1 }
Segment { rot 0.22235 0 -0.97497 0.6333 offset 0.22091 -1.42435 20000.49276 length 0.00576 color 0 0 1 }
Segment { rot 0.17026 0 -0.9854 0.63805 offset 0.21806 -1.42829 20000.49217 length 0.00403 color 0 0 1 }
Segment { rot 0.28706 0 -0.95791 0.66756 offset 0.21555 -1.43168 20000.49157 length 0.00449 color 0 0 1 }
Segment { rot 0.30652 0 -0.95186 0.72746 offset 0.21401 -1.43368 20000.4911 length 0.00065 color 0 0 1 }
Segment { rot 0.32411 0 -0.94602 0.76954 offset 0.21331 -1.43447 20000.49087 length 0.00152 color 0 0 1 }
Segment { rot 0.34075 0 -0.94016 0.79437 offset 0.20694 -1.44114 20000.48857 length 0.01749 color 0 0 1 }
Segment { rot 0.20512 0 -0.97874 0.86704 offset 0.20105 -1.44729 20000.48644 length 0.00008 color 0 0 1 }
Segment { rot 0.07385 0 -0.99727 0.85006 offset 0.20014 -1.4481 20000.48637 length 0.00235 color 0 0 1 }
Segment { rot 0.08247 0 -0.99659 0.85349 offset 0.19677 -1.45105 20000.4861 length 0.00661 color 0 0 1 }
Segment { rot 0.07908 0 -0.99687 0.91591 offset 0.189 -1.45729 20000.48547 length 0.01337 color 0 0 1 }
Segment { rot 0.10718 0 -0.99424 0.90555 offset 0.18307 -1.46187 20000.48498 length 0.00165 color 0 0 1 }
Segment { rot 0.10594 0 -0.99437 0.90843 offset 0.18205 -1.46268 20000.48487 length 0.00096 color 0 0 1 }
Segment { rot 0.03357 0 -0.99944 0.88201 offset 0.18039 -1.46403 20000.48479 length 0.00331 color 0 0 1 }
Segment { rot 0.0091 0 -0.99996 0.84488 offset 0.17769 -1.46635 20000.48473 length 0.00382 color 0 0 1 }
Segment { rot 0.12933 0 -0.9916 0.79364 offset 0.17458 -1.46928 20000.4845 length 0.00476 color 0 0 1 }
Segment { rot 0.33844 0 -0.94099 0.75295 offset 0.17287 -1.47098 20000.48427 length 0.0001 color 0 0 1 }
Segment { rot 0.31726 0 -0.94834 0.74119 offset 0.1727 -1.47118 20000.48421 length 0.00044 color 0 0 1 }
Segment { rot 0.22973 0 -0.97325 0.7857 offset 0.17155 -1.47237 20000.48393 length 0.00291 color 0 0 1 }
Segment { rot 0.24523 0 -0.96947 0.76957 offset 0.17018 -1.47379 20000.4836 length 0.00111 color 0 0 1 }
Segment { rot 0.18647 0 -0.98246 0.67683 offset 0.16858 -1.47575 20000.48327 length 0.004 color 0 0 1 }
Segment { rot 0.18619 0 -0.98251 0.65941 offset 0.16691 -1.47789 20000.48295 length 0.00146 color 0 0 1 }
Segment { rot 0.14366 0 -0.98963 0.72685 offset 0.16412 -1.48113 20000.48253 length 0.00714 color 0 0 1 }
Segment { rot 0.1571 0 -0.98758 0.69557 offset 0.16078 -1.485 20000.48203 length 0.00315 color 0 0 1 }
Segment { rot 0.12883 0 -0.99167 0.71982 offset 0.15882 -1.48732 20000.48175 length 0.00295 color 0 0 1 }
Segment { rot 0.11163 0 -0.99375 0.69425 offset 0.15665 -1.48988 20000.48149 length 0.00376 color 0 0 1 }
Segment { rot 0.1652 0 -0.98626 0.72112 offset 0.155 -1.49186 20000.48128 length 0.00142 color 0 0 1 }
Segment { rot 0.15731 0 -0.98755 0.70999 offset 0.15432 -1.49264 20000.48116 length 0.00067 color 0 0 1 }
Segment { rot 0.39361 0 -0.91928 0.75169 offset 0.15177 -1.49562 20000.48013 length 0.00744 color 0 0 1 }
Segment { rot 0.78264 0 -0.62248 0.95615 offset 0.14632 -1.50186 20000.47522 length 0.01222 color 0 0 1 }
Segment { rot 0.67547 0 -0.73739 0.83705 offset 0.14231 -1.5065 20000.47048 length 0.00332 color 0 0 1 }
Segment { rot 0.72104 0 -0.6929 0.86307 offset 0.14091 -1.50821 20000.46915 length 0.00184 color 0 0 1 }
Segment { rot 0.6262 0 -0.77966 1.17793 offset 0.13992 -1.50907 20000.46824 length 0.00141 color 0 0 1 }
Segment { rot 0.66159 0 -0.74986 1.21277 offset 0.13898 -1.50956 20000.46745 length 0.00124 color 0 0 1 }
Segment { rot 0.6643 0 -0.74747 1.09213 offset 0.13754 -1.51047 20000.46617 length 0.00302 color 0 0 1 }
Segment { rot 0.64151 0 -0.76712 1.07457 offset 0.13499 -1.51226 20000.46398 length 0.00461 color 0 0 1 }
Segment { rot 0.67177 0 -0.74076 1.11413 offset 0.1253 -1.51876 20000.4553 length 0.02448 color 0 0 1 }
Segment { rot 0.65403 0 -0.75647 1.12053 offset 0.11641 -1.52463 20000.44727 length 0.0022 color 0 0 1 }
Segment { rot 0.68091 0 -0.73236 1.12226 offset 0.11177 -1.52767 20000.44301 length 0.01179 color 0 0 1 }
Segment { rot 0.68835 0 -0.72538 0.94416 offset 0.1068 -1.5313 20000.43837 length 0.00366 color 0 0 1 }
Segment { rot 0.71815 0 -0.69589 0.98661 offset 0.10366 -1.53434 20000.43522 length 0.00713 color 0 0 1 }
Segment { rot 0.75693 0 -0.6535 1.03469 offset 0.10119 -1.53667 20000.43262 length 0.00144 color 0 0 1 }
Segment { rot 0.75314 0 -0.65786 1.03031 offset 0.09726 -1.54025 20000.42812 length 0.01249 color 0 0 1 }
Segment { rot 0.7502 0 -0.66121 1.00598 offset 0.09349 -1.5437 20000.4238 length 0.0009 color 0 0 1 }
Segment { rot 0.74513 0 -0.66692 0.99243 offset 0.09206 -1.5451 20000.42219 length 0.00425 color 0 0 1 }
Segment { rot 0.71702 0 -0.69705 0.97158 offset 0.09037 -1.54675 20000.42035 length 0.00174 color 0 0 1 }
Segment { rot 0.79079 0 -0.61209 1.17478 offset 0.08934 -1.54761 20000.41915 length 0.00188 color 0 0 1 }
Segment { rot 0.80899 0 -0.58783 1.39526 offset 0.08591 -1.54884 20000.41448 length 0.01 color 0 0 1 }
Segment { rot 0.77445 0 -0.63263 1.45142 offset 0.08197 -1.54992 20000.40921 length 0.00335 color 0 0 1 }
Segment { rot 0.75786 0 -0.65241 1.44615 offset 0.07919 -1.55045 20000.40592 length 0.00533 color 0 0 1 }
Segment { rot 0.78999 0 -0.61312 1.37873 offset 0.07143 -1.55269 20000.39614 length 0.02006 color 0 0 1 }
Segment { rot 0.77711 0 -0.62937 1.42264 offset 0.0604 -1.55579 20000.3822 length 0.01603 color 0 0 1 }
Segment { rot 0.7751 0 -0.63184 1.43394 offset 0.04924 -1.55832 20000.36847 length 0.01972 color 0 0 1 }
Segment { rot 0.725 0 -0.68874 1.41498 offset 0.04211 -1.55988 20000.35989 length 0.00284 color 0 0 1 }
Segment { rot 0.60763 0 -0.79422 1.44947 offset 0.03731 -1.56069 20000.35594 length 0.00972 color 0 0 1 }
Segment { rot 0.5494 0 -0.83556 1.2151 offset 0.03273 -1.56161 20000.35251 length 0.00192 color 0 0 1 }
Segment { rot 0.43057 0 -0.90256 1.21818 offset 0.03183 -1.56201 20000.35195 length 0.00036 color 0 0 1 }
Segment { rot 0.49822 0 -0.86705 1.20176 offset 0.02795 -1.56373 20000.34973 length 0.00921 color 0 0 1 }
Segment { rot 0.52855 0 -0.8489 1.15018 offset 0.0201 -1.56757 20000.34503 length 0.01065 color 0 0 1 }
Segment { rot 0.6003 0 -0.79978 1.04092 offset 0.01304 -1.57189 20000.34026 length 0.0085 color 0 0 1 }
Segment { rot 0.60363 0 -0.79727 1.00641 offset 0.00313 -1.57958 20000.33277 length 0.02073 color 0 0 1 }
Segment { rot 0.61398 0 -0.78932 1.0912 offset -0.00794 -1.58782 20000.3243 length 0.01167 color 0 0 1 }
Segment { rot 0.57818 0 -0.81591 1.09863 offset -0.01221 -1.59062 20000.321 length 0.0005 color 0 0 1 }
Segment { rot 0.57397 0 -0.81888 1.07272 offset -0.01362 -1.59155 20000.32001 length 0.0034 color 0 0 1 }
Segment { rot 0.602 0 -0.7985 1.0038 offset -0.01488 -1.5924 20000.31912 length 0.00011 color 0 0 1 }
Segment { rot 0.50473 0 -0.86327 1.10663 offset -0.01557 -1.59281 20000.31871 length 0.00169 color 0 0 1 }
Segment { rot 0.39067 0 -0.92053 1.01403 offset -0.02057 -1.59612 20000.31649 length 0.01111 color 0 0 1 }
Segment { rot 0.38371 0 -0.92345 1.00759 offset -0.02498 -1.59911 20000.31461 length 0.00018 color 0 0 1 }
Segment { rot 0.28931 0 -0.95723 1.02129 offset -0.02822 -1.60118 20000.31363 length 0.00774 color 0 0 1 }
Segment { rot 0.28476 0 -0.9586 0.95614 offset -0.03653 -1.607 20000.31114 length 0.01317 color 0 0 1 }
Segment { rot 0.22346 0 -0.97471 1.03714 offset -0.04278 -1.61145 20000.30936 length 0.00259 color 0 0 1 }
Segment { rot -0.04437 0 -0.99902 1.05527 offset -0.046 -1.61332 20000.3092 length 0.00491 color 0 0 1 }
Segment { rot -0.12786 0 -0.99179 1.089 offset -0.04964 -1.61533 20000.30949 length 0.00343 color 0 0 1 }
Segment { rot 0.00057 0 -1 1.25409 offset -0.06806 -1.62167 20000.30968 length 0.0356 color 0 0 1 }
Segment { rot 0.00998 0 -0.99995 1.26222 offset -0.09272 -1.62968 20000.30959 length 0.01626 color 0 0 1 }
Segment { rot 0.06786 0 -0.99769 1.26625 offset -0.10362 -1.63314 20000.3093 length 0.00662 color 0 0 1 }
Segment { rot 0.08944 0 -0.99599 1.24146 offset -0.11034 -1.63536 20000.30877 length 0.00756 color 0 0 1 }
Segment { rot 0.10258 0 -0.99472 1.233 offset -0.11596 -1.63731 20000.30823 length 0.00439 color 0 0 1 }
Segment { rot 0.08536 0 -0.99635 1.27566 offset -0.12291 -1.63953 20000.3076 length 0.01027 color 0 0 1 }
Segment { rot 0.05758 0 -0.99834 1.28013 offset -0.13051 -1.64183 20000.30703 length 0.00565 color 0 0 1 }
Segment { rot 0.03209 0 -0.99949 1.27211 offset -0.13871 -1.64434 20000.30669 length 0.01152 color 0 0 1 }
Segment { rot -0.00569 0 -0.99998 1.29064 offset -0.1472 -1.64689 20000.30653 length 0.00622 color 0 0 1 }
Segment { rot -0.00887 0 -0.99996 1.33809 offset -0.1519 -1.64815 20000.30657 length 0.00351 color 0 0 1 }
Segment { rot -0.02911 0 -0.99958 1.35297 offset -0.16175 -1.65036 20000.30682 length 0.01669 color 0 0 1 }
Segment { rot 0.03795 0 -0.99928 1.46462 offset -0.1753 -1.65274 20000.30685 length 0.01088 color 0 0 1 }
Segment { rot 0.12379 0 -0.99231 1.41705 offset -0.18213 -1.65354 20000.30647 length 0.00292 color 0 0 1 }
Segment { rot -0.09552 0 -0.99543 1.67994 offset -0.18389 -1.65373 20000.30632 length 0.00067 color 0 0 1 }
Segment { rot -0.07502 0 -0.99718 1.67332 offset -0.18583 -1.65353 20000.30647 length 0.00323 color 0 0 1 }
Segment { rot -0.05414 0 -0.99853 1.66918 offset -0.19147 -1.65296 20000.30681 length 0.00813 color 0 0 1 }
Segment { rot -0.06061 0 -0.99816 1.66774 offset -0.1959 -1.65253 20000.30706 length 0.00079 color 0 0 1 }
Segment { rot -0.06699 0 -0.99775 1.65974 offset -0.19725 -1.6524 20000.30714 length 0.00192 color 0 0 1 }
Segment { rot 0.2174 0 -0.97608 1.69823 offset -0.20311 -1.65167 20000.30612 length 0.01013 color 0 0 1 }
Segment { rot 0.20759 0 -0.97822 1.70671 offset -0.20921 -1.65086 20000.30477 length 0.00248 color 0 0 1 }
Segment { rot 0.17808 0 -0.98402 1.73316 offset -0.21066 -1.65065 20000.30447 length 0.0005 color 0 0 1 }
Segment { rot 0.17479 0 -0.98461 1.78482 offset -0.21424 -1.64987 20000.30383 length 0.00695 color 0 0 1 }
Segment { rot 0.98328 0 0.18212 2.40893 offset -0.21758 -1.64911 20000.30321 length 0.00008 color 0 0 1 }
Segment { rot 0.97608 0 0.21743 2.4197 offset -0.21688 -1.64545 20000.30007 length 0.00965 color 0 0 1 }
Segment { rot 0.96009 0 0.27969 2.4217 offset -0.216 -1.64106 20000.29631 length 0.00206 color 0 0 1 }
Segment { rot 0.96454 0 0.26394 2.43307 offset -0.21567 -1.63968 20000.29516 length 0.0016 color 0 0 1 }
Segment { rot 0.96485 0 0.26281 2.36972 offset -0.21499 -1.63695 20000.29267 length 0.00591 color 0 0 1 }
Segment { rot 0.95103 0 0.30909 2.37437 offset -0.21402 -1.63337 20000.28934 length 0.00407 color 0 0 1 }
Segment { rot 0.90559 0 0.42415 2.3755 offset -0.21275 -1.62988 20000.28622 length 0.00563 color 0 0 1 }
Segment { rot 0.88776 0 0.4603 2.52301 offset -0.21089 -1.62469 20000.28246 length 0.00776 color 0 0 1 }
Segment { rot 0.81901 0 0.57378 2.21102 offset -0.20913 -1.62059 20000.27943 length 0.00314 color 0 0 1 }
Segment { rot 0.81896 0 0.57385 2.20271 offset -0.20804 -1.61918 20000.27787 length 0.0016 color 0 0 1 }
Segment { rot 0.93195 0 0.3626 2.11673 offset -0.20664 -1.61699 20000.2747 length 0.00662 color 0 0 1 }
Segment { rot 0.83559 0 0.54935 2.41868 offset -0.20418 -1.6123 20000.26988 length 0.00791 color 0 0 1 }
Segment { rot 0.82528 0 0.56472 2.43798 offset -0.20208 -1.60796 20000.26673 length 0.00362 color 0 0 1 }
Segment { rot 0.81817 0 0.57498 2.44963 offset -0.20135 -1.60643 20000.26566 length 0.00038 color 0 0 1 }
Segment { rot 0.81933 0 0.57332 2.42875 offset -0.20106 -1.60584 20000.26525 length 0.00116 color 0 0 1 }
Segment { rot 0.78788 0 0.61583 2.48986 offset -0.19859 -1.60061 20000.26206 length 0.01205 color 0 0 1 }
Segment { rot 0.82584 0 0.5639 2.47436 offset -0.19593 -1.59489 20000.25858 length 0.00236 color 0 0 1 }
Segment { rot 0.6119 0 0.79093 2.56033 offset -0.19415 -1.59134 20000.25692 length 0.00628 color 0 0 1 }
Segment { rot 0.90541 0 0.42455 2.32015 offset -0.19076 -1.58428 20000.25154 length 0.01305 color 0 0 1 }
Segment { rot 0.90585 0 0.42361 2.25514 offset -0.18845 -1.57929 20000.24662 length 0.00171 color 0 0 1 }
Segment { rot 0.88023 0 0.47456 2.24533 offset -0.18783 -1.57817 20000.24538 length 0.00185 color 0 0 1 }
Segment { rot 0.86411 0 0.50331 2.20281 offset -0.18733 -1.57737 20000.24448 length 0.00075 color 0 0 1 }
Segment { rot 0.72482 0 0.68893 2.26546 offset -0.18661 -1.57645 20000.24361 length 0.00217 color 0 0 1 }
Segment { rot 0.72208 0 0.6918 2.23477 offset -0.18459 -1.57413 20000.24151 length 0.00529 color 0 0 1 }
Segment { rot 0.68099 0 0.73229 2.18214 offset -0.18249 -1.57187 20000.23939 length 0.00221 color 0 0 1 }
Segment { rot 0.69856 0 0.71555 2.07905 offset -0.18041 -1.57013 20000.23739 length 0.00452 color 0 0 1 }
Segment { rot 0.68447 0 0.72904 2.05862 offset -0.17704 -1.5676 20000.23417 length 0.0061 color 0 0 1 }
Segment { rot 0.72356 0 0.69026 2.06079 offset -0.1745 -1.56573 20000.23173 length 0.00186 color 0 0 1 }
Segment { rot 0.73187 0 0.68145 2.03403 offset -0.17387 -1.56525 20000.23106 length 0.00022 color 0 0 1 }
Segment { rot 0.65008 0 0.75986 1.91965 offset -0.16452 -1.56075 20000.22305 length 0.02599 color 0 0 1 }
Segment { rot 0.55296 0 0.83321 1.7851 offset -0.15515 -1.55629 20000.21505 length 0.00023 color 0 0 1 }
Segment { rot 0.77937 0 0.62657 1.46189 offset -0.15292 -1.55664 20000.21233 length 0.00685 color 0 0 1 }
Segment { rot 0.77815 0 0.62807 1.49407 offset -0.14913 -1.55721 20000.20763 length 0.00529 color 0 0 1 }
Segment { rot 0.04779 0 0.99886 2.58256 offset -0.14724 -1.55703 20000.20556 length 0.0009 color 0 0 1 }
Segment { rot 0.45317 0 0.89142 2.51708 offset -0.14603 -1.55515 20000.20506 length 0.0037 color 0 0 1 }
Segment { rot 0.3969 0 0.91786 2.41712 offset -0.14267 -1.5507 20000.20354 length 0.00787 color 0 0 1 }
Segment { rot 0.07256 0 0.99736 2.25159 offset -0.13568 -1.54402 20000.20217 length 0.01187 color 0 0 1 }
Segment { rot 0.0452 0 0.99898 2.23349 offset -0.13035 -1.53971 20000.2018 length 0.00186 color 0 0 1 }
Segment { rot 0.18479 0 0.98278 2.20152 offset -0.12791 -1.53787 20000.20145 length 0.00429 color 0 0 1 }
Segment { rot 0.17548 0 0.98448 2.21151 offset -0.12374 -1.53474 20000.20069 length 0.00625 color 0 0 1 }
Segment { rot 0.17375 0 0.98479 2.22846 offset -0.11814 -1.53041 20000.19969 length 0.00805 color 0 0 1 }
Segment { rot 0.16263 0 0.98669 2.16911 offset -0.11271 -1.52637 20000.19876 length 0.00563 color 0 0 1 }
Segment { rot -0.01939 0 0.99981 2.20347 offset -0.11037 -1.52475 20000.19838 length 0.00011 color 0 0 1 }
Segment { rot -0.00245 0 1 2.2113 offset -0.10785 -1.52287 20000.19839 length 0.0062 color 0 0 1 }
Segment { rot -0.02477 0 0.99969 2.15176 offset -0.10479 -1.52064 20000.19841 length 0.00136 color 0 0 1 }
Segment { rot -0.04543 0 0.99897 2.17065 offset -0.09889 -1.51661 20000.19867 length 0.01294 color 0 0 1 }
Segment { rot 0.35286 0 0.93568 1.9286 offset -0.09146 -1.51212 20000.19812 length 0.00477 color 0 0 1 }
Segment { rot 0.32399 0 0.94606 1.97556 offset -0.08528 -1.50944 20000.19593 length 0.00941 color 0 0 1 }
Segment { rot 0.32703 0 0.94501 1.93899 offset -0.08086 -1.50745 20000.19442 length 0.00074 color 0 0 1 }
Segment { rot -0.35864 0 0.93348 2.13446 offset -0.0805 -1.5073 20000.19432 length 0.00008 color 0 0 1 }
Segment { rot -0.41372 0 0.9104 2.11361 offset -0.07963 -1.50672 20000.19471 length 0.00215 color 0 0 1 }
Segment { rot -0.42356 0 0.90587 2.0964 offset -0.07876 -1.50614 20000.19511 length 0.00008 color 0 0 1 }
Segment { rot -0.24675 0 0.96908 2.73238 offset -0.07642 -1.50063 20000.19571 length 0.01197 color 0 0 1 }
Segment { rot -0.18669 0 0.98242 2.80591 offset -0.07386 -1.4944 20000.19635 length 0.00157 color 0 0 1 }
Segment { rot -0.16736 0 0.9859 2.79597 offset -0.07236 -1.49014 20000.19661 length 0.00748 color 0 0 1 }
Segment { rot -0.21822 0 0.9759 2.80705 offset -0.07076 -1.48559 20000.1969 length 0.00219 color 0 0 1 }
Segment { rot 0.23074 0 0.97301 2.79582 offset -0.07037 -1.48444 20000.19697 length 0.00025 color 0 0 1 }
Segment { rot 0.65179 0 0.7584 2.84277 offset -0.07017 -1.48364 20000.19682 length 0.00142 color 0 0 1 }
Segment { rot 0.662 0 0.7495 2.95594 offset -0.06982 -1.48164 20000.19652 length 0.0027 color 0 0 1 }
Segment { rot -0.88204 0 -0.47117 2.7065 offset -0.07007 -1.47832 20000.19717 length 0.0044 color 0 0 1 }
Segment { rot -0.91209 0 -0.40999 2.65397 offset -0.07073 -1.47529 20000.19849 length 0.00233 color 0 0 1 }
Segment { rot -0.9369 0 -0.34961 2.66072 offset -0.07175 -1.46994 20000.2011 length 0.00975 color 0 0 1 }
Segment { rot -0.97602 0 -0.2177 2.69216 offset -0.07254 -1.46557 20000.20323 length 0.0001 color 0 0 1 }
Segment { rot -0.92825 0 -0.37196 2.0832 offset -0.0742 -1.46302 20000.20739 length 0.01023 color 0 0 1 }
Segment { rot -0.93888 0 -0.34424 2.03105 offset -0.07663 -1.45941 20000.21362 length 0.00497 color 0 0 1 }
Segment { rot -0.93284 0 -0.36029 2.11874 offset -0.07782 -1.45758 20000.21682 length 0.00281 color 0 0 1 }
Segment { rot -0.91856 0 -0.39527 2.1659 offset -0.07882 -1.45588 20000.21925 length 0.00344 color 0 0 1 }
Segment { rot -0.92361 0 -0.38332 2.21987 offset -0.07969 -1.45431 20000.2213 length 0.002 color 0 0 1 }
Segment { rot -0.92311 0 -0.38454 2.21269 offset -0.08001 -1.45367 20000.22208 length 0.00012 color 0 0 1 }
Segment { rot -0.91835 0 -0.39577 2.21285 offset -0.08119 -1.45144 20000.22482 length 0.00735 color 0 0 1 }
Segment { rot -0.91835 0 -0.39576 2.21286 offset -0.08258 -1.44881 20000.22805 length 0.00142 color 0 0 1 }
Segment { rot 0.99463 0 0.10352 1.98694 offset -0.08281 -1.44837 20000.22855 length 0.00005 color 0 0 1 }
Segment { rot 0.99999 0 0.00463 1.94981 offset -0.08279 -1.44745 20000.22623 length 0.00494 color 0 0 1 }
Segment { rot 0.99999 0 0.00476 1.98047 offset -0.08277 -1.44571 20000.22202 length 0.00417 color 0 0 1 }
Segment { rot 0.97446 0 -0.22457 2.10139 offset -0.08327 -1.44355 20000.21791 length 0.00523 color 0 0 1 }
Segment { rot 0.97622 0 -0.21678 2.08879 offset -0.08442 -1.44055 20000.21284 length 0.00677 color 0 0 1 }
Segment { rot 0.99849 0 -0.05489 1.89563 offset -0.08508 -1.4387 20000.20944 length 0.00112 color 0 0 1 }
Segment { rot 0.99697 0 -0.0778 1.87069 offset -0.08517 -1.43829 20000.20818 length 0.00155 color 0 0 1 }
Segment { rot 0.99833 0 -0.05772 1.91191 offset -0.08527 -1.43781 20000.20673 length 0.00151 color 0 0 1 }
Segment { rot 0.99888 0 -0.04733 1.89362 offset -0.0854 -1.43688 20000.204 length 0.00426 color 0 0 1 }
Segment { rot 0.90255 0 -0.43058 2.12645 offset -0.08594 -1.43557 20000.20106 length 0.0024 color 0 0 1 }
Segment { rot 0.90801 0 -0.41895 2.10348 offset -0.08672 -1.43446 20000.19941 length 0.00186 color 0 0 1 }
Segment { rot 0.89596 0 -0.44413 2.06853 offset -0.08743 -1.43353 20000.19792 length 0.00195 color 0 0 1 }
Segment { rot 0.86884 0 -0.4951 2.02908 offset -0.08881 -1.43207 20000.1954 length 0.00448 color 0 0 1 }
Segment { rot 0.89055 0 -0.45489 2.06756 offset -0.0907 -1.43 20000.19189 length 0.00452 color 0 0 1 }
Segment { rot 0.89942 0 -0.43708 2.06574 offset -0.09196 -1.42849 20000.1894 length 0.00181 color 0 0 1 }
Segment { rot 0.89987 0 -0.43616 2.02319 offset -0.09259 -1.42775 20000.1881 length 0.00145 color 0 0 1 }
Segment { rot 0.92406 0 -0.38226 1.99882 offset -0.09379 -1.42634 20000.18531 length 0.00524 color 0 0 1 }
Segment { rot 0.96633 0 -0.2573 1.97305 offset -0.09508 -1.42463 20000.18168 length 0.00319 color 0 0 1 }
Segment { rot 0.96166 0 -0.27425 1.96761 offset -0.09573 -1.42358 20000.17928 length 0.00221 color 0 0 1 }
Segment { rot 0.93948 0 -0.3426 1.97094 offset -0.09636 -1.42273 20000.17736 length 0.00217 color 0 0 1 }
Segment { rot 0.96482 0 -0.2629 2.00626 offset -0.09758 -1.42074 20000.17318 length 0.00741 color 0 0 1 }
Segment { rot 0.98922 0 -0.14646 2.0224 offset -0.09853 -1.41897 20000.16953 length 0.00093 color 0 0 1 }
Segment { rot 0.80258 0 -0.59654 1.54615 offset -0.09979 -1.41882 20000.16749 length 0.00404 color 0 0 1 }
Segment { rot 0.82534 0 -0.56463 1.54318 offset -0.10112 -1.41888 20000.1657 length 0.00042 color 0 0 1 }
Segment { rot 0.87759 0 -0.47941 1.50479 offset -0.10183 -1.41896 20000.16443 length 0.00251 color 0 0 1 }
Segment { rot 0.99775 0 -0.06699 1.70861 offset -0.10268 -1.41853 20000.15964 length 0.00745 color 0 0 1 }
Segment { rot 0.99766 0 -0.06844 1.78015 offset -0.10298 -1.41788 20000.15527 length 0.00141 color 0 0 1 }
Segment { rot 0.99733 0 -0.07302 1.79176 offset -0.10338 -1.41662 20000.14967 length 0.01009 color 0 0 1 }
Segment { rot 0.98514 0 -0.17173 1.73499 offset -0.10386 -1.41541 20000.1441 length 0.00136 color 0 0 1 }
Segment { rot 0.973 0 -0.23079 1.82527 offset -0.10454 -1.41465 20000.14104 length 0.00509 color 0 0 1 }
Segment { rot 0.9208 0 -0.39004 1.85273 offset -0.1054 -1.4138 20000.13796 length 0.00156 color 0 0 1 }
Segment { rot 0.9366 0 -0.35039 1.82561 offset -0.10573 -1.41355 20000.13717 length 0.00021 color 0 0 1 }
Segment { rot 0.95235 0 -0.30499 1.7846 offset -0.10583 -1.41349 20000.13689 length 0.00039 color 0 0 1 }
Segment { rot 0.86552 0 -0.50087 1.27559 offset -0.10645 -1.41379 20000.13573 length 0.00236 color 0 0 1 }
Segment { rot 0.8466 0 -0.53223 1.86391 offset -0.10707 -1.4141 20000.13467 length 0.00022 color 0 0 1 }
Segment { rot 0.81054 0 -0.58569 1.80881 offset -0.10717 -1.41405 20000.13452 length 0.00017 color 0 0 1 }
Segment { rot 0.85825 0 -0.51324 1.88647 offset -0.1111 -1.41156 20000.12797 length 0.0159 color 0 0 1 }
Segment { rot 0.98099 0 -0.19406 1.88992 offset -0.11507 -1.40894 20000.12103 length 0.00097 color 0 0 1 }
Segment { rot 0.97838 0 -0.20681 1.93258 offset -0.11516 -1.40878 20000.12057 length 0.00002 color 0 0 1 }
Segment { rot 0.89785 0 0.44031 2.02814 offset -0.11446 -1.408 20000.11913 length 0.00355 color 0 0 1 }
Segment { rot 0.97462 0 0.22385 2.097 offset -0.11375 -1.40721 20000.1177 length 0.00001 color 0 0 1 }
Segment { rot 0.97758 0 0.21057 1.97304 offset -0.11343 -1.40657 20000.11622 length 0.00329 color 0 0 1 }
Segment { rot 0.5048 0 0.86323 2.06274 offset -0.11083 -1.4045 20000.1134 length 0.00601 color 0 0 1 }
Segment { rot 0.4501 0 0.89298 2.04992 offset -0.10827 -1.40293 20000.11193 length 0.00067 color 0 0 1 }
Segment { rot 0.38719 0 0.922 2.03345 offset -0.10644 -1.40193 20000.11114 length 0.0038 color 0 0 1 }
Segment { rot 0.26494 0 0.96426 2.10189 offset -0.1012 -1.39884 20000.10947 length 0.00884 color 0 0 1 }
Segment { rot 0.04709 0 0.99889 2.64537 offset -0.09399 -1.39006 20000.1083 length 0.01487 color 0 0 1 }
Segment { rot 0.18707 0 0.98235 2.71957 offset -0.08964 -1.38168 20000.10797 length 0.00403 color 0 0 1 }
Segment { rot -0.01568 0 0.99988 2.68189 offset -0.08721 -1.37657 20000.10785 length 0.00732 color 0 0 1 }
Segment { rot 0.07551 0 0.99714 2.65475 offset -0.08374 -1.3698 20000.10773 length 0.00789 color 0 0 1 }
Segment { rot 0.07042 0 0.99752 2.70373 offset -0.08174 -1.36597 20000.10758 length 0.00076 color 0 0 1 }
Segment { rot 0.21884 0 0.97576 2.72347 offset -0.08124 -1.36483 20000.10749 length 0.00174 color 0 0 1 }
Segment { rot 0.74743 0 0.66434 2.7522 offset -0.0802 -1.36151 20000.10664 length 0.00545 color 0 0 1 }
Segment { rot 0.90661 0 -0.42196 2.64347 offset -0.07959 -1.35868 20000.10571 length 0.00072 color 0 0 1 }
Segment { rot 0.91255 0 -0.40897 2.59874 offset -0.07989 -1.35745 20000.10506 length 0.00213 color 0 0 1 }
Segment { rot 0.97287 0 -0.23135 2.49839 offset -0.08048 -1.35443 20000.10302 length 0.00527 color 0 0 1 }
Segment { rot 0.9807 0 -0.19551 2.4572 offset -0.08087 -1.35216 20000.10135 length 0.00042 color 0 0 1 }
Segment { rot 0.85152 0 -0.52432 2.762 offset -0.08182 -1.34758 20000.09972 length 0.00951 color 0 0 1 }
Segment { rot 0.93712 0 -0.34901 2.80602 offset -0.08285 -1.34229 20000.09793 length 0.00185 color 0 0 1 }
Segment { rot 0.95597 0 -0.29347 2.82341 offset -0.08299 -1.34102 20000.09752 length 0.00084 color 0 0 1 }
Segment { rot 0.99689 0 0.0788 2.84019 offset -0.08298 -1.33861 20000.09677 length 0.0042 color 0 0 1 }
Segment { rot 0.92683 0 0.37548 2.76326 offset -0.08284 -1.33595 20000.09591 length 0.00141 color 0 0 1 }
Segment { rot 0.91471 0 0.40412 2.71263 offset -0.08242 -1.33355 20000.09494 length 0.00383 color 0 0 1 }
Segment { rot 0.93539 0 0.35361 2.69523 offset -0.08203 -1.33142 20000.09404 length 0.00085 color 0 0 1 }
Segment { rot 0.26313 0 0.96476 0.94058 offset -0.08048 -1.33215 20000.09346 length 0.0038 color 0 0 1 }
Segment { rot 0.16588 0 0.98615 0.83731 offset -0.07843 -1.3338 20000.09296 length 0.00158 color 0 0 1 }
Segment { rot 0.19523 0 0.98076 0.73609 offset -0.07279 -1.34002 20000.09186 length 0.01536 color 0 0 1 }
Segment { rot 0.10133 0 0.99485 0.75311 offset -0.06712 -1.34638 20000.09079 length 0.0018 color 0 0 1 }
Segment { rot -0.03154 0 0.9995 0.64269 offset -0.06595 -1.34777 20000.09074 length 0.00185 color 0 0 1 }
Segment { rot -0.09095 0 0.99586 0.60647 offset -0.06492 -1.34921 20000.0908 length 0.00169 color 0 0 1 }
Segment { rot -0.13461 0 0.9909 0.55343 offset -0.06416 -1.35035 20000.09088 length 0.00106 color 0 0 1 }
Segment { rot -0.77916 0 0.62683 0.31254 offset -0.06361 -1.35217 20000.09127 length 0.00288 color 0 0 1 }
Segment { rot -0.7501 0 0.66133 0.93395 offset -0.06211 -1.3549 20000.09299 length 0.00457 color 0 0 1 }
Segment { rot -0.60838 0 0.79364 0.82317 offset -0.05995 -1.35736 20000.09509 length 0.00324 color 0 0 1 }
Segment { rot -0.59703 0 0.80222 0.7564 offset -0.05684 -1.36133 20000.09743 length 0.00788 color 0 0 1 }
Segment { rot -0.6455 0 0.76376 0.78086 offset -0.05325 -1.36607 20000.10024 length 0.00528 color 0 0 1 }
Segment { rot -0.80074 0 0.59901 0.71125 offset -0.05067 -1.3702 20000.10299 length 0.00593 color 0 0 1 }
Segment { rot -0.86865 0 0.49542 0.72678 offset -0.04933 -1.37286 20000.10486 length 0.0011 color 0 0 1 }
Segment { rot -0.8294 0 0.55865 0.71793 offset -0.04909 -1.37339 20000.10527 length 0.00034 color 0 0 1 }
Segment { rot -0.81802 0 0.57519 0.69736 offset -0.04892 -1.37373 20000.10551 length 0.00055 color 0 0 1 }
Segment { rot -0.96363 0 0.26723 0.63561 offset -0.0484 -1.3761 20000.10719 length 0.00536 color 0 0 1 }
Segment { rot -0.99898 0 0.04521 0.49318 offset -0.04796 -1.37876 20000.109 length 0.00114 color 0 0 1 }
Segment { rot -0.98995 0 0.14139 0.5165 offset -0.04791 -1.37973 20000.10952 length 0.00106 color 0 0 1 }
Segment { rot -0.87079 0 0.49165 0.53792 offset -0.04679 -1.38387 20000.1117 length 0.00857 color 0 0 1 }
Segment { rot -0.97032 0 0.24183 0.74672 offset -0.04569 -1.38766 20000.1137 length 0.00029 color 0 0 1 }
Segment { rot -0.94815 0 0.31782 0.86574 offset -0.04544 -1.38837 20000.11447 length 0.00186 color 0 0 1 }
Segment { rot -0.96051 0 0.27823 0.87724 offset -0.04484 -1.3901 20000.11644 length 0.00351 color 0 0 1 }
Segment { rot -0.96085 0 0.27708 0.94742 offset -0.04446 -1.39122 20000.11774 length 0.00001 color 0 0 1 }
Segment { rot -0.97696 0 0.21342 0.95799 offset -0.04445 -1.39125 20000.11778 length 0.00008 color 0 0 1 }
Segment { rot -0.29151 0 0.95657 1.5542 offset -0.04423 -1.39128 20000.11788 length 0.00045 color 0 0 1 }
Segment { rot -0.31989 0 0.94745 1.67267 offset -0.04394 -1.39127 20000.11797 length 0.00016 color 0 0 1 }
Segment { rot 0.46271 0 0.88651 2.47622 offset -0.04364 -1.39095 20000.11788 length 0.0008 color 0 0 1 }
Segment { rot 0.3999 0 0.91656 2.15414 offset -0.04326 -1.39052 20000.1177 length 0.00042 color 0 0 1 }
Segment { rot 0.23346 0 0.97237 2.60265 offset -0.04224 -1.38892 20000.11742 length 0.00345 color 0 0 1 }
Segment { rot -0.51241 0 0.85874 2.3832 offset -0.04121 -1.38723 20000.11732 length 0.00058 color 0 0 1 }
Segment { rot -0.48567 0 0.87414 2.32876 offset -0.0408 -1.38676 20000.11755 length 0.00075 color 0 0 1 }
Segment { rot -0.00179 0 1 2.32077 offset -0.03982 -1.38581 20000.11769 length 0.00202 color 0 0 1 }
Segment { rot 0.0773 0 0.99701 2.27724 offset -0.03904 -1.38509 20000.11769 length 0.00011 color 0 0 1 }
Segment { rot 0.21641 0 0.9763 1.87591 offset -0.03718 -1.38447 20000.11728 length 0.0039 color 0 0 1 }
Segment { rot 0.80772 0 -0.58957 2.31234 offset -0.03761 -1.38039 20000.1138 length 0.01034 color 0 0 1 }
Segment { rot 0.83242 0 -0.55415 2.31761 offset -0.04038 -1.37604 20000.10994 length 0.00256 color 0 0 1 }
Segment { rot 0.75299 0 -0.65803 2.56581 offset -0.04121 -1.37445 20000.10881 length 0.00171 color 0 0 1 }
Segment { rot 0.76926 0 -0.63893 2.40735 offset -0.04171 -1.3734 20000.10823 length 0.0009 color 0 0 1 }
Segment { rot 0.81471 0 -0.57987 2.4125 offset -0.04312 -1.37071 20000.10629 length 0.0063 color 0 0 1 }
Segment { rot 0.81282 0 -0.58252 2.41106 offset -0.04496 -1.36716 20000.1037 length 0.00325 color 0 0 1 }
Segment { rot 0.64963 0 -0.76025 2.38688 offset -0.04562 -1.36591 20000.10279 length 0.0001 color 0 0 1 }
Segment { rot 0.69569 0 -0.71834 2.42464 offset -0.04608 -1.36519 20000.10235 length 0.00182 color 0 0 1 }
Segment { rot 0.66915 0 -0.74313 2.39584 offset -0.04676 -1.36413 20000.10171 length 0.00102 color 0 0 1 }
Segment { rot 0.78516 0 -0.61929 2.13264 offset -0.04748 -1.36329 20000.1009 length 0.00174 color 0 0 1 }
Segment { rot 0.81511 0 -0.57931 2.05756 offset -0.04891 -1.36193 20000.09894 length 0.00384 color 0 0 1 }
Segment { rot 0.7801 0 -0.62566 2.06695 offset -0.05013 -1.36083 20000.09727 length 0.00084 color 0 0 1 }
Segment { rot 0.82108 0 -0.57082 2.01258 offset -0.05053 -1.36049 20000.09673 length 0.00067 color 0 0 1 }
Segment { rot 0.82234 0 -0.569 2.0011 offset -0.05259 -1.35882 20000.09376 length 0.0073 color 0 0 1 }
Segment { rot 0.85429 0 -0.5198 1.99003 offset -0.05456 -1.35723 20000.09089 length 0.00034 color 0 0 1 }
Segment { rot 0.99999 0 -0.00492 0.98077 offset -0.05464 -1.35718 20000.09073 length 0.00007 color 0 0 1 }
Segment { rot 0.99353 0 -0.11355 1.1945 offset -0.05471 -1.35743 20000.09014 length 0.00124 color 0 0 1 }
Segment { rot 0.96953 0 -0.24499 1.21428 offset -0.05478 -1.35767 20000.08951 length 0.00012 color 0 0 1 }
Segment { rot -0.56118 0 -0.82769 0.89136 offset -0.05608 -1.35895 20000.09033 length 0.00398 color 0 0 1 }
Segment { rot -0.77679 0 -0.62976 1.47948 offset -0.0583 -1.36033 20000.09235 length 0.00298 color 0 0 1 }
Segment { rot -0.63981 0 -0.76853 1.81971 offset -0.05977 -1.36029 20000.09395 length 0.00145 color 0 0 1 }
Segment { rot -0.57389 0 -0.81893 1.8139 offset -0.0607 -1.35999 20000.09467 length 0.00096 color 0 0 1 }
Segment { rot -0.55815 0 -0.82974 1.91255 offset -0.0613 -1.35978 20000.09509 length 0.00057 color 0 0 1 }
Segment { rot -0.65516 0 -0.75549 1.87101 offset -0.06288 -1.35913 20000.09641 length 0.00374 color 0 0 1 }
Segment { rot -0.6248 0 -0.78079 1.92919 offset -0.06701 -1.35725 20000.09981 length 0.00759 color 0 0 1 }
Segment { rot 0.46835 0 -0.88354 1.7213 offset -0.0702 -1.35584 20000.1018 length 0.00096 color 0 0 1 }
Segment { rot 0.0685 0 -0.99765 1.86479 offset -0.07203 -1.35534 20000.10149 length 0.00294 color 0 0 1 }
Segment { rot -0.15773 0 -0.98748 2.20975 offset -0.07362 -1.35478 20000.10142 length 0.00048 color 0 0 1 }
Segment { rot 0.06298 0 -0.99801 1.96146 offset -0.07506 -1.35412 20000.10137 length 0.0027 color 0 0 1 }
Segment { rot 0.03547 0 -0.99937 1.96062 offset -0.07818 -1.35284 20000.10123 length 0.00406 color 0 0 1 }
Segment { rot 0.99867 0 0.05162 1.75664 offset -0.08004 -1.35201 20000.10086 length 0.0006 color 0 0 1 }
Segment { rot 0.99852 0 0.05444 1.75441 offset -0.08001 -1.35192 20000.1004 length 0.00035 color 0 0 1 }
Segment { rot 0.99891 0 -0.04676 1.77732 offset -0.08001 -1.35186 20000.10007 length 0.00033 color 0 0 1 }
Segment { rot 0.99426 0 -0.10699 1.77503 offset -0.08009 -1.35168 20000.09923 length 0.0014 color 0 0 1 }
Segment { rot 0.9951 0 -0.09883 1.88907 offset -0.08019 -1.35144 20000.09823 length 0.00067 color 0 0 1 }
Segment { rot 1 0 0.00064 1.9599 offset -0.08023 -1.35115 20000.09748 length 0.00093 color 0 0 1 }
Segment { rot 0.99965 0 -0.02638 1.9791 offset -0.08023 -1.35094 20000.09697 length 0.00018 color 0 0 1 }
Segment { rot 1 0 -0.00013 1.75087 offset -0.08023 -1.35082 20000.09639 length 0.00101 color 0 0 1 }
Segment { rot 0.99993 0 -0.01146 1.75958 offset -0.08024 -1.35056 20000.09505 length 0.00173 color 0 0 1 }
Segment { rot 0.98865 0 0.15024 1.56145 offset -0.08024 -1.3504 20000.09412 length 0.00016 color 0 0 1 }
Segment { rot 0.9802 0 0.19801 1.54754 offset -0.08019 -1.35041 20000.09385 length 0.00039 color 0 0 1 }
Segment { rot 0.97831 0 0.20715 1.46201 offset -0.08003 -1.35048 20000.09309 length 0.00117 color 0 0 1 }
Segment { rot 0.98614 0 0.16591 1.49557 offset -0.07971 -1.35063 20000.09138 length 0.00233 color 0 0 1 }
Segment { rot 0.99104 0 0.13353 1.44912 offset -0.0792 -1.35101 20000.08785 length 0.00484 color 0 0 1 }
Segment { rot 0.97254 0 0.23274 1.95094 offset -0.07884 -1.35124 20000.08531 length 0.00035 color 0 0 1 }
Segment { rot 0.99544 0 0.09541 1.89772 offset -0.07878 -1.3511 20000.08493 length 0.00047 color 0 0 1 }
Segment { rot 0.98832 0 0.15239 1.85304 offset -0.07855 -1.35062 20000.08335 length 0.00288 color 0 0 1 }
Segment { rot 0.94452 0 0.32844 1.89678 offset -0.07808 -1.34995 20000.08122 length 0.0017 color 0 0 1 }
Segment { rot 0.84324 0 0.53754 1.7226 offset -0.07721 -1.34951 20000.07952 length 0.00227 color 0 0 1 }
Segment { rot 0.82123 0 0.5706 1.66734 offset -0.07658 -1.34933 20000.07853 length 0.0001 color 0 0 1 }
Segment { rot 0.88251 0 0.47029 1.89774 offset -0.07619 -1.34906 20000.07781 length 0.00164 color 0 0 1 }
Segment { rot 0.439 0 -0.89849 1.70282 offset -0.07627 -1.34873 20000.0769 length 0.001 color 0 0 1 }
Segment { rot -0.27444 0 0.96161 2.34758 offset -0.07555 -1.34748 20000.07702 length 0.00338 color 0 0 1 }
Segment { rot -0.32611 0 0.94533 2.35018 offset -0.0732 -1.34506 20000.07776 length 0.00353 color 0 0 1 }
Segment { rot -0.28556 0 0.95836 2.40895 offset -0.07156 -1.34328 20000.0783 length 0.00143 color 0 0 1 }
Segment { rot 0.46923 0 0.88307 2.25118 offset -0.07051 -1.34221 20000.07812 length 0.00173 color 0 0 1 }
Segment { rot 0.61307 0 0.79003 2.43311 offset -0.06969 -1.34133 20000.07763 length 0.00087 color 0 0 1 }
Segment { rot 0.32587 0 0.94541 2.31877 offset -0.06945 -1.34098 20000.07746 length 0.00005 color 0 0 1 }
Segment { rot -0.31062 0 0.95053 2.64343 offset -0.06941 -1.34094 20000.07745 length 0.00006 color 0 0 1 }
Segment { rot 0.06093 0 0.99814 2.61261 offset -0.06912 -1.34044 20000.07744 length 0.0011 color 0 0 1 }
Segment { rot 0.2228 0 0.97487 2.35212 offset -0.06881 -1.33993 20000.07742 length 0.00009 color 0 0 1 }
Segment { rot 0.34734 0 0.93774 1.42404 offset -0.06865 -1.33992 20000.07736 length 0.00028 color 0 0 1 }
Segment { rot 0.42976 0 0.90294 1.5443 offset -0.06841 -1.33994 20000.07726 length 0.00027 color 0 0 1 }
Segment { rot 0.50313 0 0.86421 1.55495 offset -0.06782 -1.33995 20000.07693 length 0.00108 color 0 0 1 }
Segment { rot 0.61505 0 0.78849 1.51367 offset -0.06731 -1.33996 20000.07662 length 0.0001 color 0 0 1 }
Segment { rot 0.63208 0 0.77491 1.54014 offset -0.06695 -1.33998 20000.07633 length 0.00082 color 0 0 1 }
Segment { rot 0.71963 0 0.69435 1.45933 offset -0.06614 -1.34007 20000.07557 length 0.00142 color 0 0 1 }
Segment { rot 0.72271 0 0.69115 1.33622 offset -0.06514 -1.34033 20000.07452 length 0.00153 color 0 0 1 }
Segment { rot -0.98921 0 -0.14653 1.47454 offset -0.06466 -1.34053 20000.0742 length 0.00045 color 0 0 1 }
Segment { rot -0.829 0 -0.55926 1.10848 offset -0.06481 -1.34065 20000.0746 length 0.00047 color 0 0 1 }
Segment { rot -0.85945 0 -0.51121 1.36483 offset -0.0653 -1.34091 20000.0754 length 0.0015 color 0 0 1 }
Segment { rot -0.83952 0 -0.54333 1.34708 offset -0.06585 -1.34114 20000.0763 length 0.00066 color 0 0 1 }
Segment { rot -0.93259 0 -0.36094 1.25534 offset -0.06629 -1.34146 20000.07727 length 0.00157 color 0 0 1 }
Segment { rot -0.89616 0 -0.44373 1.25651 offset -0.06679 -1.34187 20000.07843 length 0.0011 color 0 0 1 }
Segment { rot -0.66539 0 -0.7465 0.82098 offset -0.06718 -1.34223 20000.07904 length 0.00057 color 0 0 1 }
Segment { rot 0.19763 0 -0.98028 0.5664 offset -0.06784 -1.34323 20000.07908 length 0.0019 color 0 0 1 }
Segment { rot 0.03058 0 -0.99953 0.63374 offset -0.06853 -1.3443 20000.07897 length 0.00066 color 0 0 1 }
Segment { rot 0.32851 0 -0.9445 0.34067 offset -0.06899 -1.34534 20000.07887 length 0.00164 color 0 0 1 }
Segment { rot 0.00087 0 -1 0.29443 offset -0.06934 -1.34642 20000.07878 length 0.00065 color 0 0 1 }
Segment { rot -0.96115 0 -0.27601 0.27993 offset -0.06944 -1.3468 20000.0788 length 0.00013 color 0 0 1 }
Segment { rot -0.99077 0 -0.13558 0.50001 offset -0.06945 -1.34695 20000.07887 length 0.00021 color 0 0 1 }
Segment { rot -0.88317 0 -0.46904 0.46942 offset -0.06967 -1.34791 20000.07931 length 0.00193 color 0 0 1 }