#VRML V2.0 utf8
#Generated by NISTMonte
WorldInfo {
 title "NISTMonte Trajectory"
 info ["See http://www.cstl.nist.gov/div837/Division/home.html for more information"]
}
Viewpoint {
 fieldOfView 0.785398
 position 0 5 20000
 orientation -1 -0 -0 1.5708
 description "Y-Axis"
}
Viewpoint {
 fieldOfView 0.785398
 position 0 0 19995
 orientation 1 0 0 3.1415926
 description "Gun"
}
Viewpoint {
 fieldOfView 0.785398
 position -5 0 20000
 orientation 0 -1 0 1.5708
 description "X-Axis"
}




#Prototype for a trajectory segment
PROTO Segment [
 field SFRotation rot 1 0 0 0
 field SFVec3f offset 0 0 0
 field SFFloat length 0.1
 field SFColor color 1 1 1
]
{
 Transform {
  rotation IS rot
  translation IS offset
  children [
   Shape {
    geometry Cylinder {
     radius 0.001
     height IS length
    }
    appearance Appearance {
     material Material {
      emissiveColor IS color
     }
    }
   }
  ]
 }
}
Segment { rot -1 0 -0 1.5708 offset -0.01234 -0.01254 20000.0075 length 0.015 color 0 0 1 }
Segment { rot -0.99167 0 0.12884 1.52523 offset -0.01196 -0.01268 20000.01795 length 0.00596 color 0 0 1 }
Segment { rot -0.98567 0 -0.16867 1.14798 offset -0.01171 -0.01318 20000.02171 length 0.00181 color 0 0 1 }
Segment { rot -0.99912 0 -0.04205 1.0825 offset -0.01187 -0.01373 20000.02286 length 0.00075 color 0 0 1 }
Segment { rot -0.99926 0 -0.03855 1.04092 offset -0.01203 -0.01619 20000.02709 length 0.00906 color 0 0 1 }
Segment { rot -0.99996 0 0.00923 1.06661 offset -0.01217 -0.01896 20000.03186 length 0.00197 color 0 0 1 }
Segment { rot -0.99921 0 0.03967 0.9978 offset -0.01213 -0.01999 20000.03359 length 0.00206 color 0 0 1 }
Segment { rot -0.99919 0 0.0402 0.96177 offset -0.01205 -0.02146 20000.03576 length 0.00319 color 0 0 1 }
Segment { rot -0.97934 0 0.2022 1.43212 offset -0.01167 -0.0226 20000.03862 length 0.00321 color 0 0 1 }
Segment { rot -0.98589 0 0.16742 1.44248 offset -0.01054 -0.02344 20000.04494 length 0.00974 color 0 0 1 }
Segment { rot -0.97127 0 0.23798 1.51426 offset -0.00969 -0.02408 20000.04989 length 0.0004 color 0 0 1 }
Segment { rot -0.95575 0 0.29417 1.62198 offset -0.00952 -0.02407 20000.05046 length 0.00078 color 0 0 1 }
Segment { rot -0.94835 0 0.31723 1.46777 offset -0.0073 -0.02473 20000.05713 length 0.01337 color 0 0 1 }
Segment { rot -0.95531 0 0.2956 1.45871 offset -0.00483 -0.02556 20000.06462 length 0.0025 color 0 0 1 }
Segment { rot -0.95413 0 0.2994 1.36261 offset -0.0023 -0.02722 20000.07269 length 0.01474 color 0 0 1 }
Segment { rot -0.93374 0 0.35795 1.39977 offset 0.00297 -0.03025 20000.08769 length 0.01765 color 0 0 1 }
Segment { rot -0.27712 0 -0.96084 1.91653 offset 0.00222 -0.0303 20000.09692 length 0.00854 color 0 0 1 }
Segment { rot -0.27938 0 -0.96018 1.88569 offset -0.01348 -0.02484 20000.10148 length 0.02593 color 0 0 1 }
Segment { rot -0.23202 0 -0.97271 1.95287 offset -0.03056 -0.01866 20000.10617 length 0.01163 color 0 0 1 }
Segment { rot -0.2078 0 -0.97817 2.03197 offset -0.03934 -0.01469 20000.10818 length 0.00806 color 0 0 1 }
Segment { rot -0.31866 0 -0.94787 2.03985 offset -0.05087 -0.00862 20000.11162 length 0.01892 color 0 0 1 }
Segment { rot -0.32227 0 -0.94665 2.07261 offset -0.06155 -0.0028 20000.11522 length 0.00645 color 0 0 1 }
Segment { rot 0.21263 0 -0.97713 2.04653 offset -0.06786 0.00067 20000.11534 length 0.00836 color 0 0 1 }
Segment { rot 0.158 0 -0.98744 1.7631 offset -0.07225 0.00274 20000.11442 length 0.00158 color 0 0 1 }
Segment { rot 0.25106 0 -0.96797 1.81519 offset -0.07372 0.00307 20000.11412 length 0.00149 color 0 0 1 }
Segment { rot -0.06815 0 -0.99768 1.3178 offset -0.0827 0.0011 20000.1145 length 0.01716 color 0 0 1 }
Segment { rot 0.01658 0 -0.99986 1.35289 offset -0.0933 -0.00156 20000.11503 length 0.00473 color 0 0 1 }
Segment { rot 0.02622 0 -0.99966 1.33984 offset -0.09572 -0.00209 20000.11499 length 0.00023 color 0 0 1 }
Segment { rot -0.01111 0 -0.99994 1.27983 offset -0.09808 -0.00279 20000.11501 length 0.00469 color 0 0 1 }
Segment { rot 0.01269 0 -0.99992 1.23901 offset -0.10099 -0.0037 20000.11503 length 0.00141 color 0 0 1 }
Segment { rot 0.07881 0 -0.99689 1.29287 offset -0.1027 -0.00422 20000.11494 length 0.00217 color 0 0 1 }
Segment { rot 0.01172 0 -0.99993 1.33597 offset -0.10438 -0.00468 20000.11485 length 0.00132 color 0 0 1 }
Segment { rot -0.15671 0 -0.98765 1.36115 offset -0.10609 -0.00506 20000.11501 length 0.00223 color 0 0 1 }
Segment { rot -0.07582 0 -0.99712 1.42868 offset -0.11224 -0.00602 20000.11557 length 0.01026 color 0 0 1 }
Segment { rot -0.11579 0 -0.99327 1.49932 offset -0.13248 -0.00784 20000.11772 length 0.03064 color 0 0 1 }
Segment { rot 0.01153 0 -0.99993 1.50965 offset -0.14994 -0.00907 20000.11947 length 0.00457 color 0 0 1 }
Segment { rot 0.47488 0 -0.88005 0.83426 offset -0.15477 -0.01184 20000.11806 length 0.00783 color 0 0 1 }
Segment { rot 0.3892 0 -0.92115 0.9195 offset -0.16418 -0.02014 20000.11379 length 0.01871 color 0 0 1 }
Segment { rot 0.48242 0 -0.87594 0.82765 offset -0.17292 -0.0278 20000.10986 length 0.00586 color 0 0 1 }
Segment { rot 0.48815 0 -0.87276 0.74112 offset -0.17503 -0.03005 20000.10869 length 0.00073 color 0 0 1 }
Segment { rot 0.50533 0 -0.86293 0.76163 offset -0.17688 -0.03231 20000.10761 length 0.00551 color 0 0 1 }
Segment { rot 0.62882 0 -0.77755 0.68246 offset -0.18425 -0.04337 20000.10202 length 0.02337 color 0 0 1 }
Segment { rot 0.62246 0 -0.78265 0.67502 offset -0.19001 -0.05248 20000.09736 length 0.00012 color 0 0 1 }
Segment { rot 0.66556 0 -0.74634 0.6485 offset -0.191 -0.05422 20000.09649 length 0.00424 color 0 0 1 }
Segment { rot 0.67842 0 -0.73467 0.66202 offset -0.19196 -0.05592 20000.09563 length 0.00002 color 0 0 1 }
Segment { rot 0.80033 0 -0.59956 0.64805 offset -0.19202 -0.05606 20000.09555 length 0.00032 color 0 0 1 }
Segment { rot 0.69376 0 -0.72021 0.68439 offset -0.19309 -0.05791 20000.0945 length 0.00444 color 0 0 1 }
Segment { rot 0.61582 0 -0.78789 0.40669 offset -0.19507 -0.06247 20000.09277 length 0.0062 color 0 0 1 }
Segment { rot 0.50205 0 -0.86484 0.40845 offset -0.19686 -0.06753 20000.09153 length 0.00482 color 0 0 1 }
Segment { rot 0.49954 0 -0.86629 0.42246 offset -0.19789 -0.07026 20000.09094 length 0.00111 color 0 0 1 }
Segment { rot 0.59504 0 -0.80369 0.48644 offset -0.19832 -0.0713 20000.09065 length 0.00123 color 0 0 1 }
Segment { rot 0.59536 0 -0.80346 0.52992 offset -0.19896 -0.07272 20000.09018 length 0.00203 color 0 0 1 }
Segment { rot 0.54326 0 -0.83956 0.53651 offset -0.20158 -0.07802 20000.08844 length 0.01029 color 0 0 1 }
Segment { rot 0.29909 0 -0.95423 0.74822 offset -0.20465 -0.08342 20000.08674 length 0.00265 color 0 0 1 }
Segment { rot 0.282 0 -0.95941 0.71265 offset -0.2056 -0.0845 20000.08644 length 0.0003 color 0 0 1 }
Segment { rot 0.39759 0 -0.91756 0.69697 offset -0.20659 -0.08578 20000.08603 length 0.00304 color 0 0 1 }
Segment { rot 0.35235 0 -0.93587 0.59874 offset -0.20971 -0.09043 20000.0848 length 0.00844 color 0 0 1 }
Segment { rot 0.31478 0 -0.94916 0.62001 offset -0.21412 -0.09714 20000.08324 length 0.00794 color 0 0 1 }
Segment { rot 0.29497 0 -0.95551 0.63892 offset -0.21661 -0.10079 20000.08242 length 0.00104 color 0 0 1 }
Segment { rot 0.31843 0 -0.94795 0.58251 offset -0.21885 -0.10433 20000.08168 length 0.00746 color 0 0 1 }
Segment { rot 0.36271 0 -0.9319 0.61296 offset -0.22206 -0.10936 20000.08053 length 0.0047 color 0 0 1 }
Segment { rot 0.42005 0 -0.9075 0.78933 offset -0.22576 -0.11395 20000.07891 length 0.00758 color 0 0 1 }
Segment { rot 0.2677 0 -0.9635 0.78701 offset -0.23416 -0.12279 20000.07613 length 0.01747 color 0 0 1 }
Segment { rot 0.38186 0 -0.92422 0.78198 offset -0.24236 -0.13139 20000.07355 length 0.00687 color 0 0 1 }
Segment { rot 0.41034 0 -0.91193 0.81807 offset -0.24504 -0.13428 20000.07242 length 0.00133 color 0 0 1 }
Segment { rot 0.53209 0 -0.84669 0.87198 offset -0.24953 -0.13876 20000.06968 length 0.01249 color 0 0 1 }
Segment { rot 0.46058 0 -0.88762 0.74344 offset -0.25564 -0.1453 20000.06607 length 0.00686 color 0 0 1 }
Segment { rot 0.31922 0 -0.94768 0.79461 offset -0.25923 -0.14941 20000.06448 length 0.00453 color 0 0 1 }
Segment { rot -0.18964 0 -0.98185 0.64935 offset -0.26136 -0.15181 20000.06408 length 0.00203 color 0 0 1 }
Segment { rot -0.14853 0 -0.98891 0.6661 offset -0.26303 -0.15399 20000.06436 length 0.0035 color 0 0 1 }
Segment { rot 0.04063 0 -0.99917 0.75992 offset -0.26665 -0.15804 20000.06442 length 0.00739 color 0 0 1 }
Segment { rot 0.08913 0 -0.99602 0.87402 offset -0.27024 -0.1616 20000.06422 length 0.00276 color 0 0 1 }
Segment { rot 0.01203 0 -0.99993 0.93164 offset -0.27137 -0.16255 20000.06412 length 0.00019 color 0 0 1 }
Segment { rot 0.04458 0 -0.99901 0.90659 offset -0.27232 -0.16329 20000.06408 length 0.00221 color 0 0 1 }
Segment { rot -0.05214 0 -0.99864 0.89806 offset -0.28505 -0.17343 20000.06466 length 0.03036 color 0 0 1 }
Segment { rot -0.06699 0 -0.99775 0.81977 offset -0.29972 -0.18552 20000.06547 length 0.00773 color 0 0 1 }
Segment { rot -0.07218 0 -0.99739 0.82653 offset -0.30349 -0.18904 20000.06573 length 0.0026 color 0 0 1 }
Segment { rot -0.06663 0 -0.99778 0.81884 offset -0.30749 -0.19277 20000.066 length 0.00835 color 0 0 1 }
Segment { rot -0.4407 0 -0.89765 0.88483 offset -0.31513 -0.19982 20000.06847 length 0.01326 color 0 0 1 }
Segment { rot -0.42923 0 -0.90319 0.84712 offset -0.3246 -0.20878 20000.07304 length 0.01436 color 0 0 1 }
Segment { rot -0.40436 0 -0.9146 0.85302 offset -0.33356 -0.21744 20000.07716 length 0.01189 color 0 0 1 }
Segment { rot -0.37705 0 -0.92619 0.69803 offset -0.34026 -0.22471 20000.08003 length 0.00875 color 0 0 1 }
Segment { rot -0.85818 0 -0.51334 0.44345 offset -0.3429 -0.2282 20000.08115 length 0.00031 color 0 0 1 }
Segment { rot -0.80287 0 -0.59616 0.45158 offset -0.34342 -0.23002 20000.08186 length 0.00372 color 0 0 1 }
Segment { rot -0.86066 0 -0.50918 0.50537 offset -0.34416 -0.23261 20000.08295 length 0.00211 color 0 0 1 }
Segment { rot -0.83512 0 -0.55007 0.51681 offset -0.34486 -0.23493 20000.08405 length 0.00321 color 0 0 1 }
Segment { rot -0.63388 0 -0.77344 0.58209 offset -0.34803 -0.24169 20000.08695 length 0.01286 color 0 0 1 }
Segment { rot -0.6033 0 -0.79751 0.53239 offset -0.35281 -0.25143 20000.09074 length 0.01015 color 0 0 1 }
Segment { rot -0.67188 0 -0.74066 0.59036 offset -0.3553 -0.25668 20000.09269 length 0.00209 color 0 0 1 }
Segment { rot -0.674 0 -0.73873 0.60003 offset -0.35729 -0.26063 20000.0945 length 0.00746 color 0 0 1 }
Segment { rot -0.67592 0 -0.73697 0.60468 offset -0.35938 -0.26475 20000.09641 length 0.00254 color 0 0 1 }
Segment { rot -0.83739 0 -0.5466 0.41959 offset -0.36553 -0.28886 20000.10551 length 0.05052 color 0 0 1 }
Segment { rot -0.87284 0 -0.48801 0.41977 offset -0.37154 -0.31368 20000.11481 length 0.00384 color 0 0 1 }
Segment { rot -0.96902 0 -0.247 0.38711 offset -0.37214 -0.31759 20000.11635 length 0.00466 color 0 0 1 }
Segment { rot -0.95607 0 -0.29315 0.37559 offset -0.37301 -0.32538 20000.11932 length 0.0121 color 0 0 1 }
Segment { rot -0.87191 0 -0.48966 0.35674 offset -0.37481 -0.33735 20000.12351 length 0.01355 color 0 0 1 }
Segment { rot -0.94418 0 -0.32943 0.37306 offset -0.37702 -0.35182 20000.12857 length 0.01745 color 0 0 1 }
Segment { rot -0.8084 0 0.58864 0.52076 offset -0.37801 -0.36012 20000.13166 length 0.0004 color 0 0 1 }
Segment { rot -0.99131 0 0.13158 0.42248 offset -0.37767 -0.36505 20000.13386 length 0.01043 color 0 0 1 }
Segment { rot -0.9862 0 0.16555 0.43236 offset -0.37736 -0.37013 20000.13612 length 0.0007 color 0 0 1 }
Segment { rot -0.9917 0 0.12857 0.44605 offset -0.37671 -0.3807 20000.14113 length 0.02274 color 0 0 1 }
Segment { rot -0.99968 0 -0.02542 0.48744 offset -0.37608 -0.39115 20000.14609 length 0.00042 color 0 0 1 }
Segment { rot -0.99896 0 -0.04552 0.72592 offset -0.37617 -0.39352 20000.14813 length 0.00583 color 0 0 1 }
Segment { rot -0.99998 0 0.00577 0.7032 offset -0.37625 -0.3968 20000.15099 length 0.00288 color 0 0 1 }
Segment { rot -0.99188 0 0.12714 0.69635 offset -0.37611 -0.39917 20000.15298 length 0.00331 color 0 0 1 }
Segment { rot -0.96602 0 0.25845 0.97409 offset -0.37488 -0.40333 20000.15814 length 0.01028 color 0 0 1 }
Segment { rot -0.96898 0 0.24714 0.98011 offset -0.37326 -0.40761 20000.16427 length 0.00502 color 0 0 1 }
Segment { rot -0.97138 0 0.23752 0.93982 offset -0.37269 -0.40919 20000.16652 length 0.0006 color 0 0 1 }
Segment { rot -0.93729 0 0.34854 1.05505 offset -0.37216 -0.41013 20000.16802 length 0.0031 color 0 0 1 }
Segment { rot -0.95294 0 0.30315 1.07772 offset -0.37147 -0.4113 20000.17 length 0.0017 color 0 0 1 }
Segment { rot -0.94676 0 0.32193 1.11084 offset -0.37048 -0.41287 20000.17294 length 0.00525 color 0 0 1 }
Segment { rot -0.91178 0 0.41068 1.06675 offset -0.3697 -0.41407 20000.17523 length 0.00016 color 0 0 1 }
Segment { rot -0.83671 0 0.54765 0.99656 offset -0.36698 -0.41729 20000.17941 length 0.0117 color 0 0 1 }
Segment { rot -0.82844 0 0.56008 1.01181 offset -0.36427 -0.42048 20000.18354 length 0.00006 color 0 0 1 }
Segment { rot -0.81644 0 0.57743 1.04108 offset -0.36298 -0.42179 20000.18536 length 0.00512 color 0 0 1 }
Segment { rot -0.83649 0 0.54798 1.07424 offset -0.35459 -0.43012 20000.19803 length 0.02953 color 0 0 1 }
Segment { rot -0.81806 0 0.57514 1.0386 offset -0.34638 -0.43828 20000.21045 length 0.00444 color 0 0 1 }
Segment { rot -0.8106 0 0.5856 1.03746 offset -0.34469 -0.44 20000.21283 length 0.00236 color 0 0 1 }
Segment { rot -0.85237 0 0.52293 1.03506 offset -0.34306 -0.44178 20000.21534 length 0.0046 color 0 0 1 }
Segment { rot -0.86053 0 0.5094 1.02268 offset -0.3397 -0.44574 20000.22096 length 0.01071 color 0 0 1 }
Segment { rot -0.99997 0 0.00787 1.22706 offset -0.3373 -0.45162 20000.23353 length 0.01836 color 0 0 1 }
Segment { rot -0.27227 0 -0.96222 0.7719 offset -0.33782 -0.45533 20000.24234 length 0.00173 color 0 0 1 }
Segment { rot -0.2032 0 -0.97914 0.79421 offset -0.33845 -0.456 20000.24251 length 0.00014 color 0 0 1 }
Segment { rot -0.12501 0 -0.99216 0.77238 offset -0.3399 -0.4575 20000.2427 length 0.00405 color 0 0 1 }
Segment { rot -0.12398 0 -0.99228 0.76123 offset -0.34192 -0.45961 20000.24295 length 0.00182 color 0 0 1 }
Segment { rot -0.19774 0 -0.98026 0.75071 offset -0.34378 -0.46162 20000.24328 length 0.00368 color 0 0 1 }
Segment { rot -0.1212 0 -0.99263 0.727 offset -0.34637 -0.46451 20000.24369 length 0.00414 color 0 0 1 }
Segment { rot -0.11705 0 -0.99313 0.71204 offset -0.34923 -0.4678 20000.24404 length 0.0046 color 0 0 1 }
Segment { rot 0.12009 0 -0.99276 0.50533 offset -0.35273 -0.4732 20000.24397 length 0.00836 color 0 0 1 }
Segment { rot 0.16327 0 -0.98658 0.52421 offset -0.35557 -0.47831 20000.24359 length 0.00335 color 0 0 1 }
Segment { rot 0.09178 0 -0.99578 0.51035 offset -0.36703 -0.49883 20000.24247 length 0.04371 color 0 0 1 }
Segment { rot 0.15832 0 -0.98739 0.53777 offset -0.37833 -0.51904 20000.24139 length 0.00266 color 0 0 1 }
Segment { rot 0.26448 0 -0.96439 0.68724 offset -0.3819 -0.52384 20000.24048 length 0.00947 color 0 0 1 }
Segment { rot 0.30945 0 -0.95091 0.7187 offset -0.38823 -0.53163 20000.23857 length 0.01098 color 0 0 1 }
Segment { rot 0.22447 0 -0.97448 0.72699 offset -0.39224 -0.53643 20000.23732 length 0.00177 color 0 0 1 }
Segment { rot 0.23495 0 -0.97201 0.70413 offset -0.39305 -0.53737 20000.23713 length 0.00075 color 0 0 1 }
Segment { rot 0.02339 0 -0.99973 0.75729 offset -0.39786 -0.5425 20000.23697 length 0.01333 color 0 0 1 }
Segment { rot -0.04015 0 -0.99919 0.72439 offset -0.40741 -0.55296 20000.23706 length 0.01501 color 0 0 1 }
Segment { rot -0.08719 0 -0.99619 0.72015 offset -0.41445 -0.56095 20000.23744 length 0.00631 color 0 0 1 }
Segment { rot -0.25842 0 -0.96603 0.68755 offset -0.41784 -0.56498 20000.23797 length 0.00429 color 0 0 1 }
Segment { rot -0.30925 0 -0.95098 0.63887 offset -0.42085 -0.56904 20000.23888 length 0.00599 color 0 0 1 }
Segment { rot -0.3651 0 -0.93097 0.6398 offset -0.42441 -0.57414 20000.24016 length 0.00671 color 0 0 1 }
Segment { rot -0.30834 0 -0.95128 0.62713 offset -0.43162 -0.58458 20000.24262 length 0.01914 color 0 0 1 }
Segment { rot -0.22172 0 -0.97511 0.62025 offset -0.43787 -0.59363 20000.24456 length 0.00321 color 0 0 1 }
Segment { rot -0.20486 0 -0.97879 0.67306 offset -0.43968 -0.59609 20000.24496 length 0.00295 color 0 0 1 }
Segment { rot -0.25229 0 -0.96765 0.67988 offset -0.44333 -0.60076 20000.24586 length 0.00904 color 0 0 1 }
Segment { rot 0.11189 0 -0.99372 0.96148 offset -0.44675 -0.60475 20000.2465 length 0.00165 color 0 0 1 }
Segment { rot 0.1836 0 -0.983 1.11169 offset -0.45065 -0.60684 20000.24583 length 0.00732 color 0 0 1 }
Segment { rot 0.15521 0 -0.98788 1.171 offset -0.45494 -0.60892 20000.24506 length 0.00233 color 0 0 1 }
Segment { rot -0.00698 0 -0.99998 1.35769 offset -0.45662 -0.60951 20000.24489 length 0.00127 color 0 0 1 }
Segment { rot 0.05526 0 -0.99847 1.3339 offset -0.45732 -0.60966 20000.24489 length 0.00017 color 0 0 1 }
Segment { rot 0.10782 0 -0.99417 1.37399 offset -0.45763 -0.60972 20000.24486 length 0.00047 color 0 0 1 }
Segment { rot 0.05086 0 -0.99871 1.41242 offset -0.46095 -0.61026 20000.24468 length 0.00626 color 0 0 1 }
Segment { rot 0.0227 0 -0.99974 1.37088 offset -0.47725 -0.61344 20000.24423 length 0.02697 color 0 0 1 }
Segment { rot 0.01128 0 -0.99994 1.40688 offset -0.49162 -0.61631 20000.24391 length 0.00236 color 0 0 1 }
Segment { rot 0.48912 0 -0.87222 1.69578 offset -0.49604 -0.61603 20000.24207 length 0.00753 color 0 0 1 }
Segment { rot 0.45676 0 -0.88959 1.68088 offset -0.50248 -0.61516 20000.23861 length 0.00719 color 0 0 1 }
Segment { rot 0.4432 0 -0.89642 1.65641 offset -0.50668 -0.61467 20000.23647 length 0.00229 color 0 0 1 }
Segment { rot 0.6192 0 -0.78523 1.78554 offset -0.50911 -0.61418 20000.23486 length 0.00367 color 0 0 1 }
Segment { rot 0.58994 0 -0.80745 1.76996 offset -0.51064 -0.61376 20000.23366 length 0.0003 color 0 0 1 }
Segment { rot 0.62188 0 -0.78311 2.03723 offset -0.51523 -0.61086 20000.23002 length 0.01279 color 0 0 1 }
Segment { rot 0.63151 0 -0.77537 2.08653 offset -0.52121 -0.60688 20000.22525 length 0.00446 color 0 0 1 }
Segment { rot 0.68922 0 -0.72456 2.05473 offset -0.53101 -0.59976 20000.21613 length 0.02587 color 0 0 1 }
Segment { rot 0.72668 0 -0.68698 2.04643 offset -0.53936 -0.5937 20000.20818 length 0.00018 color 0 0 1 }
Segment { rot 0.77836 0 -0.62781 1.96899 offset -0.54353 -0.5909 20000.20302 length 0.01422 color 0 0 1 }
Segment { rot 0.76633 0 -0.64245 1.97494 offset -0.54839 -0.58765 20000.19703 length 0.00252 color 0 0 1 }
Segment { rot 0.78528 0 -0.61914 1.9463 offset -0.55247 -0.58503 20000.19191 length 0.01159 color 0 0 1 }
Segment { rot 0.84144 0 -0.54035 2.09422 offset -0.55668 -0.58198 20000.18633 length 0.0037 color 0 0 1 }
Segment { rot 0.77506 0 -0.63188 2.07474 offset -0.55856 -0.58017 20000.18373 length 0.00368 color 0 0 1 }
Segment { rot 0.81034 0 -0.58596 2.05337 offset -0.56354 -0.57574 20000.17701 length 0.01525 color 0 0 1 }
Segment { rot 0.79369 0 -0.60832 2.06911 offset -0.57504 -0.56545 20000.16168 length 0.02826 color 0 0 1 }
Segment { rot 0.78446 0 -0.62018 2.0666 offset -0.59254 -0.55002 20000.13925 length 0.03649 color 0 0 1 }
Segment { rot 0.9254 0 -0.37899 1.71635 offset -0.60611 -0.53994 20000.11783 length 0.01928 color 0 0 1 }
Segment { rot 0.94024 0 -0.34051 1.71328 offset -0.61037 -0.53827 20000.10722 length 0.00384 color 0 0 1 }
Segment { rot 0.94744 0 -0.31993 1.61853 offset -0.61127 -0.53796 20000.1047 length 0.00156 color 0 0 1 }
Segment { rot 0.95477 0 -0.29733 1.68622 offset -0.61238 -0.53759 20000.10118 length 0.00586 color 0 0 1 }
Segment { rot 0.06648 0 0.99779 1.66828 offset -0.6072 -0.53666 20000.098 length 0.01217 color 0 0 1 }
Segment { rot 0.06061 0 0.99816 1.65705 offset -0.60055 -0.53601 20000.09756 length 0.00122 color 0 0 1 }
Segment { rot -0.04129 0 0.99915 1.71822 offset -0.59611 -0.53539 20000.09768 length 0.00776 color 0 0 1 }
Segment { rot -0.07115 0 0.99747 1.698 offset -0.58974 -0.53449 20000.09802 length 0.00514 color 0 0 1 }
Segment { rot -0.09627 0 0.99536 1.68494 offset -0.58565 -0.53399 20000.09835 length 0.00312 color 0 0 1 }
Segment { rot -0.09867 0 0.99512 1.69722 offset -0.58266 -0.53363 20000.09865 length 0.00295 color 0 0 1 }
Segment { rot -0.11248 0 0.99365 1.63033 offset -0.57616 -0.53314 20000.09936 length 0.01016 color 0 0 1 }
Segment { rot -0.12313 0 0.99239 1.61502 offset -0.56787 -0.53269 20000.10034 length 0.00658 color 0 0 1 }
Segment { rot -0.01261 0 0.99992 1.59177 offset -0.56459 -0.53254 20000.10074 length 0.00004 color 0 0 1 }
Segment { rot -0.21307 0 0.97704 1.62398 offset -0.56265 -0.53244 20000.10116 length 0.00393 color 0 0 1 }
Segment { rot -0.21433 0 0.97676 1.67674 offset -0.55634 -0.53186 20000.10254 length 0.00905 color 0 0 1 }
Segment { rot -0.20905 0 0.97791 1.58739 offset -0.54893 -0.53133 20000.10415 length 0.00618 color 0 0 1 }
Segment { rot -0.23822 0 0.97121 1.94432 offset -0.54012 -0.52894 20000.10621 length 0.01278 color 0 0 1 }
Segment { rot -0.41172 0 0.91131 2.0154 offset -0.53126 -0.525 20000.10903 length 0.0075 color 0 0 1 }
Segment { rot -0.28132 0 0.95962 1.97978 offset -0.52711 -0.5229 20000.11073 length 0.00241 color 0 0 1 }
Segment { rot -0.31387 0 0.94946 1.78906 offset -0.51795 -0.52053 20000.11372 length 0.01748 color 0 0 1 }
Segment { rot -0.29358 0 0.95593 1.77872 offset -0.50469 -0.5175 20000.11798 length 0.01104 color 0 0 1 }
Segment { rot -0.25305 0 0.96745 1.73594 offset -0.49719 -0.51596 20000.12018 length 0.00489 color 0 0 1 }
Segment { rot -0.28677 0 0.958 1.713 offset -0.49413 -0.51545 20000.12101 length 0.00153 color 0 0 1 }
Segment { rot -0.44891 0 0.89358 1.63046 offset -0.4739 -0.51404 20000.13103 length 0.04375 color 0 0 1 }
Segment { rot -0.28922 0 0.95726 1.64388 offset -0.45342 -0.51266 20000.14112 length 0.00201 color 0 0 1 }
Segment { rot -0.31121 0 0.95034 1.63223 offset -0.45233 -0.51258 20000.14145 length 0.00029 color 0 0 1 }
Segment { rot -0.42853 0 0.90353 1.67604 offset -0.45166 -0.51251 20000.14175 length 0.00118 color 0 0 1 }
Segment { rot -0.33287 0 0.94297 1.97271 offset -0.44925 -0.5116 20000.14267 length 0.00432 color 0 0 1 }
Segment { rot -0.31499 0 0.9491 1.95098 offset -0.44613 -0.51023 20000.14374 length 0.00283 color 0 0 1 }
Segment { rot -0.25074 0 0.96806 1.93745 offset -0.44179 -0.50847 20000.14496 length 0.00685 color 0 0 1 }
Segment { rot -0.19291 0 0.98122 1.84936 offset -0.43261 -0.50547 20000.14695 length 0.01289 color 0 0 1 }
Segment { rot -0.16781 0 0.98582 1.85419 offset -0.42193 -0.50234 20000.14893 length 0.00973 color 0 0 1 }
Segment { rot -0.16659 0 0.98603 1.8079 offset -0.41559 -0.50056 20000.15001 length 0.00361 color 0 0 1 }
Segment { rot -0.07451 0 0.99722 1.78308 offset -0.4077 -0.4988 20000.15076 length 0.01266 color 0 0 1 }
Segment { rot -0.01922 0 0.99982 1.84059 offset -0.4015 -0.49746 20000.15122 length 0.00005 color 0 0 1 }
Segment { rot 0.20928 0 0.97786 1.94747 offset -0.39835 -0.49619 20000.15055 length 0.00688 color 0 0 1 }
Segment { rot 0.22541 0 0.97426 2.00778 offset -0.39378 -0.49423 20000.14955 length 0.00326 color 0 0 1 }
Segment { rot 0.23765 0 0.97135 2.07593 offset -0.39121 -0.4929 20000.14894 length 0.00266 color 0 0 1 }
Segment { rot 0.25909 0 0.96585 2.07507 offset -0.39004 -0.49223 20000.14865 length 0.00011 color 0 0 1 }
Segment { rot 0.27973 0 0.96008 2.18286 offset -0.38685 -0.48991 20000.14773 length 0.00798 color 0 0 1 }
Segment { rot 0.28749 0 0.95778 2.20371 offset -0.38199 -0.48629 20000.14629 length 0.00448 color 0 0 1 }
Segment { rot 0.23621 0 0.9717 2.19282 offset -0.37738 -0.48284 20000.14508 length 0.00728 color 0 0 1 }
Segment { rot 0.28834 0 0.95753 2.13533 offset -0.37109 -0.47847 20000.14335 length 0.00843 color 0 0 1 }
Segment { rot 0.29934 0 0.95414 2.08592 offset -0.36759 -0.47616 20000.14229 length 0.00023 color 0 0 1 }
Segment { rot 0.32248 0 0.94658 1.546 offset -0.36503 -0.47616 20000.14142 length 0.00522 color 0 0 1 }
Segment { rot 0.31605 0 0.94874 1.54913 offset -0.36227 -0.47624 20000.14049 length 0.00061 color 0 0 1 }
Segment { rot 0.30408 0 0.95265 1.54176 offset -0.36104 -0.47627 20000.14009 length 0.00198 color 0 0 1 }
Segment { rot 0.33261 0 0.94306 1.67237 offset -0.35498 -0.47575 20000.13798 length 0.0109 color 0 0 1 }
Segment { rot 0.37319 0 0.92775 1.53912 offset -0.34786 -0.47526 20000.13537 length 0.00433 color 0 0 1 }
Segment { rot 0.49177 0 0.87073 1.52777 offset -0.34346 -0.47545 20000.13321 length 0.00551 color 0 0 1 }
Segment { rot 0.47111 0 0.88207 1.54784 offset -0.33557 -0.47571 20000.12893 length 0.01246 color 0 0 1 }
Segment { rot 0.50937 0 0.86055 1.58017 offset -0.32776 -0.47583 20000.12462 length 0.00538 color 0 0 1 }
Segment { rot 0.53346 0 0.84583 1.67915 offset -0.325 -0.47575 20000.12297 length 0.00104 color 0 0 1 }
Segment { rot 0.80426 0 0.59428 2.18073 offset -0.32388 -0.47488 20000.12176 length 0.00283 color 0 0 1 }
Segment { rot 0.85794 0 0.51376 2.21081 offset -0.32283 -0.47355 20000.12023 length 0.00174 color 0 0 1 }
Segment { rot 0.6715 0 0.741 2.27053 offset -0.32098 -0.47134 20000.11828 length 0.00526 color 0 0 1 }
Segment { rot 0.72347 0 0.69036 2.32563 offset -0.31878 -0.46867 20000.11619 length 0.00284 color 0 0 1 }
Segment { rot 0.80899 0 0.58782 2.34657 offset -0.31788 -0.46739 20000.11518 length 0.00088 color 0 0 1 }
Segment { rot 0.82079 0 0.57123 2.27133 offset -0.31701 -0.46607 20000.11394 length 0.00315 color 0 0 1 }
Segment { rot 0.7945 0 0.60727 2.24549 offset -0.31589 -0.46449 20000.11239 length 0.00181 color 0 0 1 }
Segment { rot 0.84689 0 0.53177 2.14749 offset -0.31498 -0.46333 20000.11106 length 0.00218 color 0 0 1 }
Segment { rot 0.84944 0 0.52769 2.06889 offset -0.31402 -0.46225 20000.10952 length 0.00203 color 0 0 1 }
Segment { rot 0.84668 0 0.5321 2.16046 offset -0.30989 -0.45717 20000.10295 length 0.01653 color 0 0 1 }
Segment { rot 0.83817 0 0.54541 2.214 offset -0.30525 -0.45122 20000.09562 length 0.00451 color 0 0 1 }
Segment { rot 0.84934 0 0.52785 2.34547 offset -0.30374 -0.44888 20000.09325 length 0.00282 color 0 0 1 }
Segment { rot 0.99534 0 -0.09641 2.11031 offset -0.30362 -0.44532 20000.08812 length 0.01001 color 0 0 1 }
Segment { rot 0.98731 0 -0.15883 1.83872 offset -0.30456 -0.44184 20000.08055 length 0.00692 color 0 0 1 }
Segment { rot 0.97907 0 -0.20351 1.81703 offset -0.30637 -0.43935 20000.07112 length 0.01292 color 0 0 1 }
Segment { rot 0.99513 0 -0.09855 1.22499 offset -0.30774 -0.43812 20000.06403 length 0.00204 color 0 0 1 }
Segment { rot 0.99518 0 -0.09805 1.13485 offset -0.30825 -0.44046 20000.05881 length 0.00946 color 0 0 1 }
Segment { rot 0.99468 0 -0.10305 1.12014 offset -0.30871 -0.44261 20000.05423 length 0.0007 color 0 0 1 }
Segment { rot 0.9971 0 -0.07615 1.19463 offset -0.30874 -0.44278 20000.05388 length 0.00007 color 0 0 1 }
Segment { rot 0.99919 0 -0.04031 1.24878 offset -0.30888 -0.44391 20000.05049 length 0.00708 color 0 0 1 }
Segment { rot 0.87767 0 -0.47927 1.71224 offset -0.31151 -0.44429 20000.04256 length 0.01052 color 0 0 1 }
Segment { rot 0.86812 0 -0.49635 1.7465 offset -0.31587 -0.44288 20000.03473 length 0.00763 color 0 0 1 }
Segment { rot 0.98996 0 -0.14134 1.74828 offset -0.31788 -0.44204 20000.0305 length 0.00198 color 0 0 1 }
Segment { rot 0.99634 0 -0.08547 1.72697 offset -0.31853 -0.44091 20000.02352 length 0.01223 color 0 0 1 }
Segment { rot 0.99471 0 -0.10269 1.6923 offset -0.31995 -0.43889 20000.00875 length 0.01773 color 0 0 1 }