#VRML V2.0 utf8
#Generated by NISTMonte
WorldInfo {
 title "NISTMonte Trajectory"
 info ["See http://www.cstl.nist.gov/div837/Division/home.html for more information"]
}
Viewpoint {
 fieldOfView 0.785398
 position 0 5 20000
 orientation -1 -0 -0 1.5708
 description "Y-Axis"
}
Viewpoint {
 fieldOfView 0.785398
 position 0 0 19995
 orientation 1 0 0 3.1415926
 description "Gun"
}
Viewpoint {
 fieldOfView 0.785398
 position -5 0 20000
 orientation 0 -1 0 1.5708
 description "X-Axis"
}




#Prototype for a trajectory segment
PROTO Segment [
 field SFRotation rot 1 0 0 0
 field SFVec3f offset 0 0 0
 field SFFloat length 0.1
 field SFColor color 1 1 1
]
{
 Transform {
  rotation IS rot
  translation IS offset
  children [
   Shape {
    geometry Cylinder {
     radius 0.001
     height IS length
    }
    appearance Appearance {
     material Material {
      emissiveColor IS color
     }
    }
   }
  ]
 }
}
Segment { rot -1 0 -0 1.5708 offset 0.00255 0.00636 20000.00019 length 0.00039 color 0 0 1 }
Segment { rot -0.99776 0 0.06684 1.56617 offset 0.00312 0.00632 20000.00893 length 0.01712 color 0 0 1 }
Segment { rot -0.9973 0 -0.07339 1.50495 offset 0.00292 0.00558 20000.02797 length 0.0211 color 0 0 1 }
Segment { rot -0.99509 0 -0.09901 1.47715 offset 0.00162 0.00439 20000.04378 length 0.01072 color 0 0 1 }
Segment { rot -0.99681 0 -0.0798 1.40265 offset -0.00028 0.00096 20000.06625 length 0.03492 color 0 0 1 }
Segment { rot -1 0 0.00031 1.3766 offset -0.00165 -0.00542 20000.10098 length 0.03583 color 0 0 1 }
Segment { rot -0.99999 0 0.00485 1.36905 offset -0.00151 -0.01467 20000.14689 length 0.05783 color 0 0 1 }
Segment { rot -0.90756 0 -0.41993 1.48594 offset -0.00252 -0.02069 20000.17771 length 0.0055 color 0 0 1 }
Segment { rot -0.91021 0 -0.41414 1.37646 offset -0.00946 -0.02368 20000.19292 length 0.02849 color 0 0 1 }
Segment { rot -0.89448 0 -0.4471 1.30697 offset -0.02742 -0.03378 20000.22998 length 0.05639 color 0 0 1 }
Segment { rot -0.84015 0 -0.54236 1.25761 offset -0.04004 -0.0414 20000.25503 length 0.00174 color 0 0 1 }
Segment { rot -0.82513 0 -0.56494 1.32345 offset -0.04075 -0.04179 20000.2561 length 0.00095 color 0 0 1 }
Segment { rot -0.93545 0 -0.35346 1.22143 offset -0.04333 -0.0443 20000.26264 length 0.01401 color 0 0 1 }
Segment { rot -0.93088 0 -0.36534 1.20213 offset -0.04691 -0.04802 20000.27197 length 0.0073 color 0 0 1 }
Segment { rot -0.92532 0 -0.37919 1.25743 offset -0.04933 -0.05034 20000.27803 length 0.00655 color 0 0 1 }
Segment { rot -0.92798 0 -0.37263 1.31036 offset -0.06036 -0.0584 20000.30544 length 0.05471 color 0 0 1 }
Segment { rot -0.9967 0 0.08118 1.49545 offset -0.06997 -0.06567 20000.33295 length 0.006 color 0 0 1 }
Segment { rot -0.99625 0 0.0865 1.46412 offset -0.0693 -0.06642 20000.34085 length 0.00992 color 0 0 1 }
Segment { rot -0.99724 0 0.07422 1.4812 offset -0.06809 -0.0679 20000.3563 length 0.02121 color 0 0 1 }
Segment { rot -0.9799 0 0.1995 1.46535 offset -0.06687 -0.06908 20000.36897 length 0.00438 color 0 0 1 }
Segment { rot -0.97123 0 0.23814 1.42664 offset -0.06365 -0.07101 20000.38247 length 0.02367 color 0 0 1 }
Segment { rot -0.96773 0 0.252 1.38607 offset -0.06004 -0.07331 20000.39699 length 0.00661 color 0 0 1 }
Segment { rot -0.96781 0 0.25168 1.34976 offset -0.05679 -0.0761 20000.4095 length 0.01984 color 0 0 1 }
Segment { rot -0.97546 0 0.22016 1.38278 offset -0.04642 -0.08513 20000.45402 length 0.07336 color 0 0 1 }
Segment { rot -0.48408 0 0.87502 0.53708 offset -0.03723 -0.09438 20000.48986 length 0.00559 color 0 0 1 }
Segment { rot -0.47418 0 0.88043 0.54171 offset -0.03254 -0.10327 20000.4924 length 0.01514 color 0 0 1 }
Segment { rot -0.47426 0 0.88038 0.73849 offset -0.02602 -0.11362 20000.49591 length 0.01042 color 0 0 1 }
Segment { rot -0.43482 0 0.90052 0.74693 offset -0.01703 -0.12454 20000.50043 length 0.01927 color 0 0 1 }
Segment { rot -0.45924 0 0.88831 0.69075 offset -0.01038 -0.13265 20000.50367 length 0.00269 color 0 0 1 }
Segment { rot -0.43055 0 0.90257 0.69658 offset -0.00695 -0.13722 20000.50533 length 0.00922 color 0 0 1 }
Segment { rot -0.46748 0 0.88401 0.78773 offset -0.0022 -0.1431 20000.50771 length 0.00665 color 0 0 1 }
Segment { rot -0.51541 0 0.85694 0.6776 offset 0.00157 -0.14788 20000.50982 length 0.00626 color 0 0 1 }
Segment { rot -0.65319 0 0.75719 0.59563 offset 0.00416 -0.1521 20000.51162 length 0.00432 color 0 0 1 }
Segment { rot -0.69083 0 0.72302 0.57678 offset 0.0078 -0.15968 20000.51501 length 0.01381 color 0 0 1 }
Segment { rot -0.60532 0 0.79598 0.57055 offset 0.0122 -0.16875 20000.51889 length 0.00779 color 0 0 1 }
Segment { rot -0.60029 0 0.79978 0.61814 offset 0.01417 -0.17255 20000.52038 length 0.00128 color 0 0 1 }
Segment { rot -0.59976 0 0.80018 0.70603 offset 0.01632 -0.17578 20000.522 length 0.00715 color 0 0 1 }
Segment { rot -0.5555 0 0.83152 0.77842 offset 0.02957 -0.1924 20000.531 length 0.03903 color 0 0 1 }
Segment { rot -0.31229 0 0.94999 0.83616 offset 0.04513 -0.21025 20000.53998 length 0.01181 color 0 0 1 }
Segment { rot -0.34673 0 0.93796 0.74799 offset 0.05038 -0.21546 20000.54175 length 0.00342 color 0 0 1 }
Segment { rot -0.33235 0 0.94316 0.70672 offset 0.05149 -0.21674 20000.54216 length 0.00007 color 0 0 1 }
Segment { rot -0.19922 0 0.97995 0.69208 offset 0.05281 -0.21836 20000.54243 length 0.00415 color 0 0 1 }
Segment { rot -0.25992 0 0.96563 0.77568 offset 0.05692 -0.22293 20000.54345 length 0.0083 color 0 0 1 }
Segment { rot -0.29091 0 0.95675 0.79484 offset 0.06153 -0.22774 20000.54476 length 0.00529 color 0 0 1 }
Segment { rot -0.19166 0 0.98146 0.77387 offset 0.06661 -0.23301 20000.54594 length 0.00954 color 0 0 1 }
Segment { rot -0.17193 0 0.98511 0.79432 offset 0.07041 -0.23694 20000.54667 length 0.00151 color 0 0 1 }
Segment { rot -0.19473 0 0.98086 0.80247 offset 0.08911 -0.25538 20000.55038 length 0.05155 color 0 0 1 }
Segment { rot -0.29673 0 0.95496 0.76335 offset 0.10895 -0.27511 20000.5545 length 0.00503 color 0 0 1 }
Segment { rot -0.21844 0 0.97585 0.71847 offset 0.11301 -0.27974 20000.55555 length 0.00746 color 0 0 1 }
Segment { rot -0.19088 0 0.98161 0.71081 offset 0.11723 -0.2847 20000.55644 length 0.00569 color 0 0 1 }
Segment { rot -0.02692 0 0.99964 0.7226 offset 0.1219 -0.29009 20000.55688 length 0.00861 color 0 0 1 }
Segment { rot 0.00413 0 0.99999 0.80491 offset 0.13865 -0.30669 20000.55689 length 0.03859 color 0 0 1 }
Segment { rot 0.0747 0 0.99721 0.77051 offset 0.15515 -0.32274 20000.55664 length 0.00745 color 0 0 1 }
Segment { rot 0.06347 0 0.99798 0.79985 offset 0.15801 -0.32568 20000.55643 length 0.00076 color 0 0 1 }
Segment { rot 0.09547 0 0.99543 0.80725 offset 0.16126 -0.32881 20000.55613 length 0.00829 color 0 0 1 }
Segment { rot 0.12474 0 0.99219 0.85752 offset 0.17028 -0.33695 20000.55508 length 0.01611 color 0 0 1 }
Segment { rot 0.09976 0 0.99501 0.90834 offset 0.20331 -0.36337 20000.55162 length 0.06877 color 0 0 1 }
Segment { rot 0.09478 0 0.9955 0.95643 offset 0.23728 -0.38948 20000.54825 length 0.0172 color 0 0 1 }
Segment { rot 0.11685 0 0.99315 0.95676 offset 0.25364 -0.40108 20000.54648 length 0.02307 color 0 0 1 }
Segment { rot -0.14318 0 0.9897 1.09189 offset 0.26611 -0.40936 20000.54583 length 0.00707 color 0 0 1 }
Segment { rot -0.01989 0 0.9998 1.09326 offset 0.28612 -0.41974 20000.54661 length 0.03809 color 0 0 1 }
Segment { rot -0.0222 0 0.99975 1.06627 offset 0.3083 -0.4314 20000.54707 length 0.01204 color 0 0 1 }
Segment { rot -0.08147 0 0.99668 1.02172 offset 0.33675 -0.44854 20000.54908 length 0.05454 color 0 0 1 }
Segment { rot 0.12642 0 0.99198 0.85036 offset 0.36433 -0.46666 20000.55041 length 0.01178 color 0 0 1 }
Segment { rot 0.12421 0 0.99226 0.74958 offset 0.36916 -0.47102 20000.5498 length 0.0013 color 0 0 1 }
Segment { rot 0.08748 0 0.99617 0.74298 offset 0.37171 -0.4738 20000.54956 length 0.00628 color 0 0 1 }
Segment { rot 0.00159 0 1 0.75413 offset 0.37725 -0.47976 20000.54937 length 0.01 color 0 0 1 }
Segment { rot 0.0059 0 0.99998 0.81539 offset 0.38619 -0.4886 20000.54933 length 0.01515 color 0 0 1 }
Segment { rot 0.06371 0 0.99797 0.77528 offset 0.39309 -0.49521 20000.54921 length 0.00397 color 0 0 1 }
Segment { rot 0.21899 0 0.97573 0.70224 offset 0.39709 -0.4998 20000.54853 length 0.0083 color 0 0 1 }
Segment { rot 0.20277 0 0.97923 0.71466 offset 0.40569 -0.51001 20000.54671 length 0.01864 color 0 0 1 }
Segment { rot 0.09813 0 0.99517 0.77222 offset 0.41292 -0.51834 20000.54534 length 0.00359 color 0 0 1 }
Segment { rot 0.17052 0 0.98535 0.78274 offset 0.41429 -0.51975 20000.5452 length 0.00035 color 0 0 1 }
Segment { rot 0.08465 0 0.99641 0.74907 offset 0.41623 -0.52183 20000.54502 length 0.00535 color 0 0 1 }
Segment { rot 0.0315 0 0.9995 0.69122 offset 0.43049 -0.53884 20000.54448 length 0.03907 color 0 0 1 }
Segment { rot -0.0854 0 0.99635 0.71356 offset 0.44643 -0.55794 20000.54438 length 0.01071 color 0 0 1 }
Segment { rot -0.09263 0 0.9957 0.84144 offset 0.45094 -0.56291 20000.54478 length 0.00275 color 0 0 1 }
Segment { rot -0.1431 0 0.98971 0.8346 offset 0.45578 -0.56732 20000.54543 length 0.01042 color 0 0 1 }
Segment { rot -0.02343 0 0.99973 0.89502 offset 0.46407 -0.5744 20000.54608 length 0.01146 color 0 0 1 }
Segment { rot -0.05966 0 0.99822 0.90579 offset 0.47095 -0.57988 20000.54633 length 0.00614 color 0 0 1 }
Segment { rot -0.05425 0 0.99853 0.9006 offset 0.47523 -0.58326 20000.54658 length 0.00477 color 0 0 1 }
Segment { rot 0.0584 0 0.99829 0.91561 offset 0.47739 -0.58497 20000.54666 length 0.00075 color 0 0 1 }
Segment { rot 0.12148 0 0.99259 1.00319 offset 0.47983 -0.58657 20000.54638 length 0.00511 color 0 0 1 }
Segment { rot 0.09392 0 0.99558 1.02491 offset 0.48478 -0.58966 20000.54586 length 0.00662 color 0 0 1 }
Segment { rot 0.11782 0 0.99303 1.00067 offset 0.49469 -0.59596 20000.54475 length 0.01697 color 0 0 1 }
Segment { rot 0.1016 0 0.99483 0.99315 offset 0.50698 -0.60394 20000.54338 length 0.01246 color 0 0 1 }
Segment { rot 0.07994 0 0.9968 1.00774 offset 0.52464 -0.61524 20000.54185 length 0.02958 color 0 0 1 }
Segment { rot 0.0275 0 0.99962 1.01513 offset 0.53739 -0.62331 20000.54084 length 0.00065 color 0 0 1 }
Segment { rot 0.03016 0 0.99955 0.95749 offset 0.53937 -0.62468 20000.54078 length 0.00418 color 0 0 1 }
Segment { rot 0.02701 0 0.99964 1.01062 offset 0.54495 -0.62832 20000.54062 length 0.00915 color 0 0 1 }
Segment { rot -0.02036 0 0.99979 0.99076 offset 0.56056 -0.63843 20000.54076 length 0.02806 color 0 0 1 }
Segment { rot -0.04728 0 0.99888 1.12221 offset 0.57245 -0.6462 20000.541 length 0.00034 color 0 0 1 }
Segment { rot -0.11497 0 0.99337 1.12296 offset 0.57613 -0.64798 20000.54142 length 0.0079 color 0 0 1 }
Segment { rot -0.18719 0 0.98232 1.33773 offset 0.59794 -0.6541 20000.54531 length 0.03823 color 0 0 1 }
Segment { rot -0.15518 0 0.98789 1.35076 offset 0.61761 -0.65884 20000.54901 length 0.00291 color 0 0 1 }
Segment { rot -0.13872 0 0.99033 1.3751 offset 0.62376 -0.66011 20000.5499 length 0.00979 color 0 0 1 }
Segment { rot -0.06628 0 0.9978 1.42923 offset 0.6324 -0.66161 20000.55082 length 0.00787 color 0 0 1 }
Segment { rot -0.20735 0 0.97827 1.19773 offset 0.63724 -0.66255 20000.55128 length 0.00209 color 0 0 1 }
Segment { rot -0.17069 0 0.98533 1.17986 offset 0.63887 -0.66321 20000.5516 length 0.00149 color 0 0 1 }
Segment { rot -0.13908 0 0.99028 1.12992 offset 0.64001 -0.66372 20000.55178 length 0.00103 color 0 0 1 }
Segment { rot -0.14284 0 0.98975 1.07347 offset 0.6476 -0.66785 20000.55288 length 0.01639 color 0 0 1 }
Segment { rot -0.20455 0 0.97886 1.61017 offset 0.66216 -0.67146 20000.55546 length 0.01519 color 0 0 1 }
Segment { rot -0.19002 0 0.98178 1.53316 offset 0.68094 -0.67159 20000.55921 length 0.02315 color 0 0 1 }
Segment { rot -0.08978 0 0.99596 1.52778 offset 0.69249 -0.67204 20000.56142 length 0.0004 color 0 0 1 }
Segment { rot -0.10041 0 0.99495 1.53981 offset 0.69436 -0.6721 20000.56161 length 0.00336 color 0 0 1 }
Segment { rot -0.09907 0 0.99508 1.54348 offset 0.70783 -0.67247 20000.56295 length 0.02372 color 0 0 1 }
Segment { rot -0.1254 0 0.99211 1.58458 offset 0.72798 -0.67268 20000.56518 length 0.01683 color 0 0 1 }
Segment { rot -0.07057 0 0.99751 1.54723 offset 0.74626 -0.6728 20000.56694 length 0.01992 color 0 0 1 }
Segment { rot -0.03837 0 0.99926 1.50407 offset 0.76098 -0.67336 20000.56783 length 0.0096 color 0 0 1 }
Segment { rot -0.06798 0 0.99769 1.2412 offset 0.77402 -0.67651 20000.56857 length 0.01748 color 0 0 1 }
Segment { rot -0.06354 0 0.99798 1.26793 offset 0.78907 -0.68146 20000.56957 length 0.01428 color 0 0 1 }
Segment { rot -0.04981 0 0.99876 1.206 offset 0.80129 -0.68567 20000.57027 length 0.01163 color 0 0 1 }
Segment { rot -0.07641 0 0.99708 1.21466 offset 0.80811 -0.68826 20000.57065 length 0.00298 color 0 0 1 }
Segment { rot -0.08549 0 0.99634 1.26149 offset 0.81094 -0.68924 20000.57088 length 0.00303 color 0 0 1 }
Segment { rot -0.13941 0 0.99024 1.3228 offset 0.81869 -0.69132 20000.57189 length 0.01315 color 0 0 1 }
Segment { rot -0.13916 0 0.99027 1.36539 offset 0.82735 -0.69342 20000.57311 length 0.00483 color 0 0 1 }
Segment { rot -0.04853 0 0.99882 1.36617 offset 0.83764 -0.69557 20000.57382 length 0.01626 color 0 0 1 }
Segment { rot -0.19199 0 0.9814 1.36703 offset 0.85127 -0.69842 20000.57532 length 0.01181 color 0 0 1 }
Segment { rot -0.13096 0 0.99139 1.38884 offset 0.86282 -0.7007 20000.57721 length 0.01205 color 0 0 1 }
Segment { rot 0.00846 0 0.99996 1.39882 offset 0.87941 -0.70365 20000.57789 length 0.02175 color 0 0 1 }
Segment { rot 0.01423 0 0.9999 1.4019 offset 0.89021 -0.70553 20000.5778 length 0.00018 color 0 0 1 }
Segment { rot 0.05245 0 0.99862 1.39892 offset 0.90493 -0.70809 20000.57703 length 0.02975 color 0 0 1 }
Segment { rot 0.04476 0 0.999 1.34689 offset 0.92122 -0.71101 20000.57619 length 0.0034 color 0 0 1 }
Segment { rot 0.08988 0 0.99595 1.27334 offset 0.92525 -0.71212 20000.5759 length 0.00499 color 0 0 1 }
Segment { rot 0.1509 0 0.98855 1.38861 offset 0.92892 -0.71309 20000.57549 length 0.00266 color 0 0 1 }
Segment { rot 0.14819 0 0.98896 1.38228 offset 0.95096 -0.71733 20000.57218 length 0.04272 color 0 0 1 }
Segment { rot 0.10649 0 0.99431 1.25195 offset 0.98237 -0.72487 20000.56793 length 0.02257 color 0 0 1 }
Segment { rot 0.08265 0 0.99658 1.34622 offset 0.99821 -0.7296 20000.56636 length 0.01067 color 0 0 1 }
Segment { rot -0.12098 0 0.99265 1.36742 offset 1.00795 -0.73173 20000.56648 length 0.00937 color 0 0 1 }
Segment { rot -0.14631 0 0.98924 1.3506 offset 1.01613 -0.7335 20000.56758 length 0.00751 color 0 0 1 }
Segment { rot -0.24259 0 0.97013 1.17725 offset 1.02278 -0.73562 20000.56887 length 0.00676 color 0 0 1 }
Segment { rot -0.22995 0 0.9732 1.16256 offset 1.0284 -0.73806 20000.57024 length 0.0058 color 0 0 1 }
Segment { rot -0.1578 0 0.98747 1.17186 offset 1.03438 -0.74067 20000.57139 length 0.00747 color 0 0 1 }
Segment { rot -0.25029 0 0.96817 1.11309 offset 1.03969 -0.74309 20000.57243 length 0.00438 color 0 0 1 }
Segment { rot -0.27609 0 0.96113 1.06244 offset 1.04655 -0.74693 20000.57434 length 0.0118 color 0 0 1 }
Segment { rot -0.40651 0 0.91364 1.07077 offset 1.05324 -0.75084 20000.57654 length 0.00435 color 0 0 1 }
Segment { rot -0.34846 0 0.93732 1.05977 offset 1.05675 -0.75294 20000.57797 length 0.00431 color 0 0 1 }
Segment { rot -0.38841 0 0.92149 1.12113 offset 1.0633 -0.7565 20000.58065 length 0.01155 color 0 0 1 }
Segment { rot -0.4232 0 0.90604 1.05378 offset 1.07236 -0.76169 20000.58466 length 0.01082 color 0 0 1 }
Segment { rot -0.44788 0 0.89409 1.06089 offset 1.08117 -0.76721 20000.58893 length 0.01166 color 0 0 1 }
Segment { rot -0.51449 0 0.8575 1.0301 offset 1.08841 -0.77194 20000.59283 length 0.00734 color 0 0 1 }
Segment { rot -0.58943 0 0.80782 0.95616 offset 1.09153 -0.77419 20000.59475 length 0.00125 color 0 0 1 }
Segment { rot -0.56292 0 0.82651 0.96482 offset 1.09315 -0.77557 20000.59588 length 0.00358 color 0 0 1 }
Segment { rot -0.56602 0 0.82439 1.03431 offset 1.09877 -0.77977 20000.59973 length 0.01243 color 0 0 1 }
Segment { rot -0.52894 0 0.84866 1.02877 offset 1.10422 -0.78369 20000.6034 length 0.00288 color 0 0 1 }
Segment { rot -0.53106 0 0.84734 1.01459 offset 1.10941 -0.78747 20000.60665 length 0.01151 color 0 0 1 }
Segment { rot -0.49709 0 0.8677 0.98317 offset 1.12613 -0.80016 20000.61645 length 0.03482 color 0 0 1 }
Segment { rot -0.479 0 0.87782 1.01023 offset 1.14625 -0.81521 20000.62777 length 0.02031 color 0 0 1 }
Segment { rot -0.44556 0 0.89525 0.98777 offset 1.1563 -0.82245 20000.63313 length 0.00667 color 0 0 1 }
Segment { rot -0.46963 0 0.88286 1.00333 offset 1.15902 -0.82445 20000.6345 length 0.00061 color 0 0 1 }
Segment { rot -0.52268 0 0.85253 1.22602 offset 1.16005 -0.82495 20000.63511 length 0.00201 color 0 0 1 }
Segment { rot -0.49446 0 0.8692 1.22548 offset 1.16338 -0.82633 20000.63704 length 0.00615 color 0 0 1 }
Segment { rot -0.45804 0 0.88893 1.17898 offset 1.16608 -0.82746 20000.63857 length 0.00046 color 0 0 1 }
Segment { rot -0.45168 0 0.89218 1.16893 offset 1.17148 -0.83003 20000.6413 length 0.01269 color 0 0 1 }
Segment { rot -0.45198 0 0.89203 1.12298 offset 1.18468 -0.83682 20000.64799 length 0.01988 color 0 0 1 }
Segment { rot -0.13848 0 0.99037 0.91411 offset 1.19696 -0.84446 20000.65264 length 0.01092 color 0 0 1 }
Segment { rot -0.19281 0 0.98124 0.92686 offset 1.20453 -0.8503 20000.65388 length 0.00837 color 0 0 1 }
Segment { rot -0.21067 0 0.97756 0.91786 offset 1.2088 -0.85359 20000.65474 length 0.00254 color 0 0 1 }
Segment { rot -0.20808 0 0.97811 0.91737 offset 1.21844 -0.86113 20000.65679 length 0.02228 color 0 0 1 }
Segment { rot -0.16722 0 0.98592 0.91265 offset 1.22948 -0.86978 20000.65904 length 0.00613 color 0 0 1 }
Segment { rot -0.1507 0 0.98858 0.91462 offset 1.23571 -0.87464 20000.66003 length 0.0098 color 0 0 1 }
Segment { rot -0.06767 0 0.99771 1.07369 offset 1.24983 -0.88322 20000.66131 length 0.02345 color 0 0 1 }
Segment { rot -0.24808 0 0.96874 1.15528 offset 1.27974 -0.89776 20000.66704 length 0.0443 color 0 0 1 }
Segment { rot -0.24494 0 0.96954 1.14556 offset 1.2998 -0.9069 20000.67217 length 0.00097 color 0 0 1 }
Segment { rot -0.44394 0 0.89606 1.1925 offset 1.30416 -0.90884 20000.67423 length 0.00945 color 0 0 1 }
Segment { rot -0.43307 0 0.90136 1.21422 offset 1.31935 -0.91524 20000.68159 length 0.02665 color 0 0 1 }
Segment { rot -0.41937 0 0.90782 1.35848 offset 1.34699 -0.92378 20000.69457 length 0.03693 color 0 0 1 }
Segment { rot -0.44951 0 0.89328 1.36236 offset 1.37357 -0.93008 20000.70726 length 0.02332 color 0 0 1 }
Segment { rot -0.39334 0 0.91939 1.46481 offset 1.38848 -0.93304 20000.71441 length 0.01033 color 0 0 1 }
Segment { rot -0.39695 0 0.91784 1.4366 offset 1.39704 -0.93415 20000.71809 length 0.00843 color 0 0 1 }
Segment { rot -0.44731 0 0.89438 1.4368 offset 1.40259 -0.93498 20000.72061 length 0.00389 color 0 0 1 }
Segment { rot -0.47005 0 0.88264 1.3581 offset 1.40713 -0.93593 20000.72297 length 0.00651 color 0 0 1 }
Segment { rot -0.46248 0 0.88663 1.4732 offset 1.41451 -0.93712 20000.72685 length 0.01036 color 0 0 1 }
Segment { rot -0.47363 0 0.88073 1.42293 offset 1.43652 -0.94057 20000.73861 length 0.04003 color 0 0 1 }
Segment { rot -0.4912 0 0.87104 1.4747 offset 1.46613 -0.94487 20000.75485 length 0.02809 color 0 0 1 }
Segment { rot -0.45114 0 0.89245 1.43142 offset 1.48078 -0.9466 20000.76297 length 0.00559 color 0 0 1 }
Segment { rot -0.45885 0 0.88852 1.36307 offset 1.48602 -0.94765 20000.76565 length 0.00638 color 0 0 1 }
Segment { rot -0.47819 0 0.87825 1.3671 offset 1.49877 -0.95065 20000.77251 length 0.02317 color 0 0 1 }
Segment { rot -0.50958 0 0.86042 1.38008 offset 1.50941 -0.95315 20000.77834 length 0.0016 color 0 0 1 }
Segment { rot -0.55158 0 0.83412 1.44713 offset 1.51031 -0.95333 20000.77889 length 0.00055 color 0 0 1 }
Segment { rot -0.55007 0 0.83512 1.47704 offset 1.52712 -0.95523 20000.78996 length 0.03989 color 0 0 1 }
Segment { rot -0.59721 0 0.80208 1.49 offset 1.54507 -0.95724 20000.8019 length 0.00343 color 0 0 1 }
Segment { rot -0.58197 0 0.81321 1.5162 offset 1.54658 -0.95739 20000.80302 length 0.00034 color 0 0 1 }
Segment { rot -0.64174 0 0.76693 1.56389 offset 1.55157 -0.95744 20000.80718 length 0.01267 color 0 0 1 }
Segment { rot -0.6371 0 0.77078 1.6747 offset 1.55922 -0.95711 20000.81355 length 0.00727 color 0 0 1 }
Segment { rot -0.59294 0 0.80525 1.69989 offset 1.56205 -0.95672 20000.81589 length 0.00011 color 0 0 1 }
Segment { rot -0.61296 0 0.79012 1.7405 offset 1.56614 -0.95584 20000.81906 length 0.01038 color 0 0 1 }
Segment { rot -0.60618 0 0.79532 1.79523 offset 1.57326 -0.95408 20000.82454 length 0.00794 color 0 0 1 }
Segment { rot -0.56176 0 0.8273 1.81012 offset 1.58639 -0.95023 20000.83371 length 0.025 color 0 0 1 }
Segment { rot -0.54604 0 0.83776 1.78153 offset 1.59893 -0.94663 20000.84216 length 0.00608 color 0 0 1 }
Segment { rot -0.75231 0 0.65881 1.76369 offset 1.61402 -0.94226 20000.85817 length 0.03899 color 0 0 1 }
Segment { rot -0.7995 0 0.60067 2.01011 offset 1.63026 -0.93568 20000.8774 length 0.01336 color 0 0 1 }
Segment { rot -0.75241 0 0.6587 2.06547 offset 1.63804 -0.92944 20000.88697 length 0.01431 color 0 0 1 }
Segment { rot -0.73078 0 0.68261 2.04474 offset 1.64338 -0.92515 20000.89299 length 0.00392 color 0 0 1 }
Segment { rot -0.57614 0 0.81735 2.37708 offset 1.64588 -0.92258 20000.89519 length 0.00465 color 0 0 1 }
Segment { rot -0.52357 0 0.85199 2.39239 offset 1.65388 -0.91246 20000.90022 length 0.02304 color 0 0 1 }
Segment { rot -0.49895 0 0.86663 2.4774 offset 1.66095 -0.90346 20000.90455 length 0.00143 color 0 0 1 }
Segment { rot -0.52636 0 0.85026 2.39249 offset 1.66193 -0.90214 20000.90514 length 0.00208 color 0 0 1 }
Segment { rot -0.51388 0 0.85786 2.40975 offset 1.66297 -0.90081 20000.90578 length 0.00152 color 0 0 1 }
Segment { rot -0.56131 0 0.82761 2.59021 offset 1.664 -0.89908 20000.90644 length 0.00275 color 0 0 1 }
Segment { rot -0.34222 0 0.93962 2.56688 offset 1.66559 -0.89628 20000.90721 length 0.00388 color 0 0 1 }
Segment { rot -0.34079 0 0.94014 2.66445 offset 1.67033 -0.88694 20000.90893 length 0.01736 color 0 0 1 }
Segment { rot -0.4096 0 0.91227 2.63285 offset 1.67748 -0.87253 20000.91182 length 0.01533 color 0 0 1 }
Segment { rot -0.28869 0 0.95742 2.62207 offset 1.68742 -0.85392 20000.91531 length 0.02746 color 0 0 1 }
Segment { rot 0.12723 0 0.99187 2.54413 offset 1.69721 -0.83716 20000.91686 length 0.0117 color 0 0 1 }
Segment { rot 0.11004 0 0.99393 2.47457 offset 1.70199 -0.83038 20000.91628 length 0.00494 color 0 0 1 }
Segment { rot 0.09041 0 0.9959 2.52114 offset 1.70558 -0.82553 20000.91592 length 0.00716 color 0 0 1 }
Segment { rot -0.08962 0 0.99598 2.44978 offset 1.7109 -0.81868 20000.91602 length 0.01022 color 0 0 1 }
Segment { rot -0.01238 0 0.99992 2.49431 offset 1.71775 -0.80999 20000.91636 length 0.01193 color 0 0 1 }
Segment { rot -0.14296 0 0.98973 2.52119 offset 1.72924 -0.79406 20000.91755 length 0.02745 color 0 0 1 }
Segment { rot -0.17347 0 0.98484 2.51375 offset 1.74608 -0.77039 20000.92026 length 0.03092 color 0 0 1 }
Segment { rot -0.15098 0 0.98854 2.45068 offset 1.76626 -0.74413 20000.92355 length 0.03567 color 0 0 1 }
Segment { rot -0.09727 0 0.99526 2.47699 offset 1.78238 -0.72412 20000.92575 length 0.01593 color 0 0 1 }
Segment { rot -0.1843 0 0.98287 2.48865 offset 1.7944 -0.70836 20000.92756 length 0.02388 color 0 0 1 }
Segment { rot -0.17502 0 0.98456 2.46321 offset 1.80352 -0.69637 20000.92925 length 0.00642 color 0 0 1 }
Segment { rot -0.16481 0 0.98633 2.45631 offset 1.80566 -0.69368 20000.92963 length 0.00051 color 0 0 1 }
Segment { rot -0.16345 0 0.98655 2.48792 offset 1.81335 -0.68351 20000.93091 length 0.02512 color 0 0 1 }
Segment { rot -0.19238 0 0.98132 2.48772 offset 1.82493 -0.66816 20000.93295 length 0.01355 color 0 0 1 }
Segment { rot -0.1545 0 0.98799 2.42578 offset 1.82966 -0.66198 20000.93385 length 0.00211 color 0 0 1 }
Segment { rot -0.16849 0 0.9857 2.47113 offset 1.83488 -0.65538 20000.93473 length 0.01482 color 0 0 1 }
Segment { rot -0.08588 0 0.99631 2.54932 offset 1.84209 -0.64559 20000.93573 length 0.00961 color 0 0 1 }
Segment { rot -0.00089 0 1 2.58732 offset 1.84575 -0.64002 20000.93597 length 0.00371 color 0 0 1 }
Segment { rot -0.09294 0 0.99567 2.60691 offset 1.84853 -0.63539 20000.93614 length 0.00711 color 0 0 1 }
Segment { rot -0.2085 0 0.97802 2.68606 offset 1.85287 -0.62702 20000.93685 length 0.01181 color 0 0 1 }
Segment { rot -0.55581 0 0.83131 2.73243 offset 1.85838 -0.61348 20000.93937 length 0.01797 color 0 0 1 }
Segment { rot -0.6509 0 0.75917 2.72571 offset 1.86159 -0.60453 20000.94156 length 0.00154 color 0 0 1 }
Segment { rot -0.88562 0 0.46442 2.73929 offset 1.86201 -0.60292 20000.94211 length 0.00198 color 0 0 1 }
Segment { rot -0.88455 0 0.46645 2.73654 offset 1.86266 -0.59963 20000.94335 length 0.00516 color 0 0 1 }
Segment { rot -0.86568 0 0.5006 2.75014 offset 1.86384 -0.59386 20000.94547 length 0.00737 color 0 0 1 }
Segment { rot -0.61747 0 0.7866 2.73613 offset 1.86552 -0.58756 20000.94745 length 0.00631 color 0 0 1 }
Segment { rot -0.49497 0 0.86891 2.74416 offset 1.87327 -0.56609 20000.95208 length 0.04028 color 0 0 1 }
Segment { rot -0.47582 0 0.87954 2.72586 offset 1.88037 -0.54667 20000.95611 length 0.00185 color 0 0 1 }
Segment { rot -0.61509 0 0.78846 2.68232 offset 1.88711 -0.5294 20000.96129 length 0.03666 color 0 0 1 }
Segment { rot -0.55464 0 0.83209 2.71303 offset 1.89986 -0.49626 20000.97052 length 0.03673 color 0 0 1 }
Segment { rot -0.6356 0 0.77202 2.73659 offset 1.90723 -0.47649 20000.97559 length 0.00668 color 0 0 1 }
Segment { rot -0.71605 0 0.69805 2.7234 offset 1.9093 -0.47003 20000.9775 length 0.00742 color 0 0 1 }
Segment { rot -0.57468 0 0.81838 2.68574 offset 1.91131 -0.46425 20000.97926 length 0.00533 color 0 0 1 }
Segment { rot -0.71157 0 0.70261 2.79645 offset 1.91319 -0.4582 20000.98087 length 0.00777 color 0 0 1 }
Segment { rot -0.58763 0 0.80913 2.82609 offset 1.91464 -0.45257 20000.98218 length 0.00414 color 0 0 1 }
Segment { rot -0.51368 0 0.85798 2.81864 offset 1.91756 -0.44225 20000.98399 length 0.01762 color 0 0 1 }
Segment { rot -0.52751 0 0.84955 2.78018 offset 1.92461 -0.4194 20000.98832 length 0.03099 color 0 0 1 }
Segment { rot -0.45497 0 0.89051 2.73643 offset 1.9312 -0.39985 20000.9922 length 0.011 color 0 0 1 }
Segment { rot -0.62854 0 0.77778 2.81394 offset 1.93392 -0.39179 20000.99383 length 0.00636 color 0 0 1 }
Segment { rot -0.85146 0 0.52442 2.79778 offset 1.93619 -0.38094 20000.99686 length 0.01664 color 0 0 1 }
Segment { rot -0.75066 0 0.66068 2.77285 offset 1.9382 -0.37099 20000.99986 length 0.00455 color 0 0 1 }
Segment { rot -0.75487 0 0.65588 2.85264 offset 1.93966 -0.36416 20001.00153 length 0.00981 color 0 0 1 }
Segment { rot -0.96483 0 -0.26288 2.93986 offset 1.94055 -0.35896 20001.00269 length 0.00102 color 0 0 1 }
Segment { rot -0.99021 0 -0.13959 2.97061 offset 1.94043 -0.35479 20001.00341 length 0.00744 color 0 0 1 }
Segment { rot -0.99923 0 -0.03933 2.92739 offset 1.94034 -0.34995 20001.00429 length 0.00241 color 0 0 1 }
Segment { rot 0.99986 0 0.01673 2.36982 offset 1.94037 -0.34598 20001.00183 length 0.00779 color 0 0 1 }
Segment { rot 0.99976 0 -0.02178 2.29656 offset 1.9404 -0.34246 20000.99829 length 0.00221 color 0 0 1 }
Segment { rot 0.99824 0 0.05931 2.33343 offset 1.94127 -0.32746 20000.98257 length 0.04129 color 0 0 1 }
Segment { rot 0.99735 0 0.07271 2.38538 offset 1.94232 -0.31067 20000.96529 length 0.00694 color 0 0 1 }
Segment { rot 0.99881 0 0.04867 2.43243 offset 1.9426 -0.3058 20000.96091 length 0.00617 color 0 0 1 }
Segment { rot 0.982 0 -0.1889 2.50453 offset 1.94268 -0.30338 20000.95884 length 0.0002 color 0 0 1 }
Segment { rot 0.96557 0 0.26015 2.33121 offset 1.94373 -0.29945 20000.95487 length 0.0112 color 0 0 1 }
Segment { rot 0.97901 0 0.20382 2.39414 offset 1.94511 -0.29388 20000.9494 length 0.00466 color 0 0 1 }
Segment { rot 0.97368 0 0.22794 2.40291 offset 1.94661 -0.28648 20000.9428 length 0.01538 color 0 0 1 }
Segment { rot 0.97776 0 0.20973 2.39805 offset 1.94818 -0.27878 20000.93596 length 0.00546 color 0 0 1 }
Segment { rot 0.99661 0 0.08231 2.22006 offset 1.94885 -0.27412 20000.93066 length 0.00878 color 0 0 1 }
Segment { rot 0.99849 0 -0.05485 2.25899 offset 1.94902 -0.26968 20000.92501 length 0.00562 color 0 0 1 }
Segment { rot 0.91736 0 -0.39806 2.07813 offset 1.93868 -0.25362 20000.89929 length 0.05877 color 0 0 1 }
Segment { rot 0.90579 0 -0.42372 1.87952 offset 1.92836 -0.23928 20000.87552 length 0.00046 color 0 0 1 }
Segment { rot 0.91147 0 -0.41138 1.83826 offset 1.92799 -0.23902 20000.87471 length 0.00139 color 0 0 1 }
Segment { rot 0.8995 0 -0.43692 1.76083 offset 1.92135 -0.23603 20000.86099 length 0.02968 color 0 0 1 }
Segment { rot 0.9354 0 -0.35359 1.76567 offset 1.91417 -0.23278 20000.84574 length 0.00468 color 0 0 1 }
Segment { rot 0.921 0 -0.38955 1.78242 offset 1.9124 -0.23179 20000.84131 length 0.00505 color 0 0 1 }
Segment { rot 0.90474 0 -0.42596 1.86692 offset 1.90812 -0.22889 20000.832 length 0.01627 color 0 0 1 }
Segment { rot 0.91441 0 -0.40478 1.92832 offset 1.90465 -0.22637 20000.82461 length 0.00082 color 0 0 1 }
Segment { rot 0.79667 0 -0.60442 1.93791 offset 1.90355 -0.22563 20000.82301 length 0.00336 color 0 0 1 }
Segment { rot 0.78515 0 -0.61931 1.92195 offset 1.9018 -0.22455 20000.82075 length 0.00274 color 0 0 1 }
Segment { rot 0.76513 0 -0.64387 1.96514 offset 1.89787 -0.22205 20000.81601 length 0.01055 color 0 0 1 }
Segment { rot 0.74847 0 -0.66317 1.96151 offset 1.89331 -0.21915 20000.81069 length 0.00463 color 0 0 1 }
Segment { rot 0.78315 0 -0.62183 1.98688 offset 1.88856 -0.21589 20000.80488 length 0.01173 color 0 0 1 }
Segment { rot 0.81571 0 -0.57846 1.97653 offset 1.88342 -0.21218 20000.79814 length 0.00679 color 0 0 1 }
Segment { rot 0.72853 0 -0.68502 1.89253 offset 1.88048 -0.21029 20000.79439 length 0.00348 color 0 0 1 }
Segment { rot 0.47638 0 -0.87924 1.91128 offset 1.86774 -0.20506 20000.7869 length 0.02804 color 0 0 1 }
Segment { rot 0.47015 0 -0.88259 1.85721 offset 1.84792 -0.19765 20000.77623 length 0.01936 color 0 0 1 }
Segment { rot 0.48884 0 -0.87237 1.81736 offset 1.83879 -0.19464 20000.77135 length 0.00221 color 0 0 1 }
Segment { rot 0.58893 0 -0.80819 1.83333 offset 1.83753 -0.19426 20000.77058 length 0.00084 color 0 0 1 }
Segment { rot 0.6083 0 -0.7937 1.77825 offset 1.83699 -0.1941 20000.77018 length 0.00056 color 0 0 1 }
Segment { rot 0.5226 0 -0.85258 1.7627 offset 1.83061 -0.19264 20000.76624 length 0.01473 color 0 0 1 }
Segment { rot 0.55949 0 -0.82884 1.74397 offset 1.81518 -0.18928 20000.75621 length 0.0227 color 0 0 1 }
Segment { rot 0.5908 0 -0.80682 1.71798 offset 1.80373 -0.18692 20000.74835 length 0.00549 color 0 0 1 }
Segment { rot 0.58661 0 -0.80987 1.7482 offset 1.8011 -0.18642 20000.74643 length 0.0011 color 0 0 1 }
Segment { rot 0.60044 0 -0.79967 1.74355 offset 1.79918 -0.186 20000.745 length 0.00374 color 0 0 1 }
Segment { rot 0.5766 0 -0.81703 1.75307 offset 1.79743 -0.18562 20000.7437 length 0.00069 color 0 0 1 }
Segment { rot 0.92133 0 -0.38877 1.88928 offset 1.79366 -0.18259 20000.73522 length 0.01892 color 0 0 1 }
Segment { rot 0.94402 0 -0.32988 1.85663 offset 1.788 -0.1777 20000.72076 length 0.01367 color 0 0 1 }
Segment { rot 0.9853 0 -0.17082 1.93029 offset 1.78501 -0.17395 20000.70979 length 0.01036 color 0 0 1 }
Segment { rot 0.9718 0 -0.23582 1.96902 offset 1.78413 -0.17203 20000.70477 length 0.00054 color 0 0 1 }
Segment { rot 0.97472 0 -0.22345 2.14254 offset 1.7839 -0.17143 20000.70379 length 0.00181 color 0 0 1 }
Segment { rot 0.97698 0 -0.21332 2.16221 offset 1.78348 -0.17015 20000.7019 length 0.00284 color 0 0 1 }
Segment { rot 0.9766 0 -0.21508 2.21818 offset 1.78137 -0.16283 20000.69231 length 0.02167 color 0 0 1 }
Segment { rot 0.96896 0 -0.24722 2.22586 offset 1.77912 -0.15508 20000.68234 length 0.00398 color 0 0 1 }
Segment { rot 0.93992 0 -0.34139 2.22299 offset 1.77498 -0.14549 20000.6705 length 0.02761 color 0 0 1 }
Segment { rot 0.98291 0 -0.18407 2.22595 offset 1.77058 -0.13438 20000.65669 length 0.00897 color 0 0 1 }
Segment { rot 0.97369 0 -0.22787 2.18176 offset 1.76806 -0.12591 20000.64522 length 0.02001 color 0 0 1 }
Segment { rot 0.97678 0 -0.21426 2.22444 offset 1.76582 -0.11884 20000.63554 length 0.00437 color 0 0 1 }
Segment { rot 0.98261 0 -0.18569 2.1955 offset 1.76464 -0.11436 20000.62955 length 0.01078 color 0 0 1 }
Segment { rot 0.98495 0 -0.17286 2.21524 offset 1.76327 -0.1088 20000.6221 length 0.008 color 0 0 1 }
Segment { rot 0.95192 0 -0.30635 2.18514 offset 1.76154 -0.10367 20000.61528 length 0.00944 color 0 0 1 }
Segment { rot 0.9937 0 -0.11211 1.96509 offset 1.76006 -0.09985 20000.60897 length 0.00575 color 0 0 1 }
Segment { rot 0.98278 0 -0.18475 1.88014 offset 1.75932 -0.09797 20000.60397 length 0.00504 color 0 0 1 }
Segment { rot 0.98809 0 -0.1539 1.96198 offset 1.75824 -0.09551 20000.59755 length 0.00889 color 0 0 1 }
Segment { rot 0.98544 0 -0.17005 1.9694 offset 1.7568 -0.09181 20000.58878 length 0.01036 color 0 0 1 }
Segment { rot 0.97337 0 -0.22925 2.26326 offset 1.75473 -0.08525 20000.57874 length 0.01424 color 0 0 1 }
Segment { rot 0.99831 0 -0.05808 2.24677 offset 1.7533 -0.07837 20000.5705 length 0.00746 color 0 0 1 }
Segment { rot 0.99877 0 0.04968 2.39752 offset 1.7532 -0.07455 20000.56623 length 0.00403 color 0 0 1 }
Segment { rot 0.99698 0 0.07763 2.41517 offset 1.75356 -0.06888 20000.56116 length 0.0112 color 0 0 1 }
Segment { rot 1 0 0.00103 2.3619 offset 1.75385 -0.06266 20000.55544 length 0.00573 color 0 0 1 }
Segment { rot 0.99675 0 0.08062 2.39034 offset 1.75423 -0.05559 20000.54874 length 0.01377 color 0 0 1 }
Segment { rot 0.97902 0 0.20377 2.35835 offset 1.75462 -0.05051 20000.54401 length 0.00011 color 0 0 1 }
Segment { rot 0.95495 0 0.29676 2.31859 offset 1.75943 -0.03546 20000.52852 length 0.04415 color 0 0 1 }
Segment { rot 0.98921 0 0.14648 2.41411 offset 1.76438 -0.01928 20000.51203 length 0.00314 color 0 0 1 }
Segment { rot 0.98478 0 -0.17379 2.60034 offset 1.7642 -0.01492 20000.50911 length 0.00743 color 0 0 1 }
Segment { rot 0.99986 0 -0.01667 2.57795 offset 1.76382 -0.00727 20000.5044 length 0.01056 color 0 0 1 }
Segment { rot 0.99764 0 -0.06873 2.63879 offset 1.76369 -0.0004 20000.50026 length 0.00549 color 0 0 1 }
Segment { rot 0.99987 0 -0.01608 2.61912 offset 1.76355 0.00693 20000.49611 length 0.01136 color 0 0 1 }
Segment { rot 0.99861 0 -0.05269 2.62326 offset 1.76333 0.01752 20000.49005 length 0.01304 color 0 0 1 }
Segment { rot 0.98684 0 0.16171 2.57526 offset 1.76351 0.02657 20000.48469 length 0.00804 color 0 0 1 }
Segment { rot 0.97616 0 -0.21704 2.58078 offset 1.76385 0.03006 20000.48251 length 0.00022 color 0 0 1 }
Segment { rot 0.82124 0 0.57058 2.87513 offset 1.76415 0.03221 20000.48199 length 0.00426 color 0 0 1 }
Segment { rot 0.82588 0 0.56385 2.851 offset 1.76475 0.03592 20000.48112 length 0.00345 color 0 0 1 }
Segment { rot 0.89465 0 0.44677 2.83318 offset 1.76898 0.06533 20000.4728 length 0.05827 color 0 0 1 }
Segment { rot 0.88222 0 0.47083 2.86772 offset 1.7744 0.10415 20000.46215 length 0.02298 color 0 0 1 }
Segment { rot 0.92844 0 -0.37147 1.86653 offset 1.77538 0.11561 20000.4582 length 0.00272 color 0 0 1 }
Segment { rot 0.89503 0 -0.44601 1.89758 offset 1.77406 0.11664 20000.45531 length 0.00395 color 0 0 1 }
Segment { rot 0.88535 0 -0.46493 1.7895 offset 1.77229 0.11772 20000.45185 length 0.00413 color 0 0 1 }
Segment { rot 0.87732 0 -0.4799 1.81729 offset 1.76785 0.12001 20000.44367 length 0.01505 color 0 0 1 }
Segment { rot 0.87011 0 -0.49286 1.84945 offset 1.76129 0.12362 20000.43187 length 0.0129 color 0 0 1 }
Segment { rot 0.86945 0 -0.49403 1.79165 offset 1.7543 0.12718 20000.41954 length 0.01634 color 0 0 1 }
Segment { rot 0.85643 0 -0.51626 1.78076 offset 1.74882 0.12961 20000.41006 length 0.0061 color 0 0 1 }
Segment { rot 0.85744 0 -0.51458 1.8609 offset 1.73497 0.13738 20000.387 length 0.04991 color 0 0 1 }
Segment { rot 0.86798 0 -0.4966 1.87606 offset 1.71707 0.14807 20000.35671 length 0.02365 color 0 0 1 }
Segment { rot 0.86003 0 -0.51024 1.90216 offset 1.71132 0.15173 20000.34667 length 0.00063 color 0 0 1 }
Segment { rot 0.81032 0 -0.58599 1.85361 offset 1.71109 0.15187 20000.3463 length 0.00028 color 0 0 1 }
Segment { rot 0.72892 0 -0.6846 1.8541 offset 1.71 0.15234 20000.34512 length 0.00307 color 0 0 1 }
Segment { rot 0.63293 0 -0.77421 1.76661 offset 1.70785 0.15306 20000.34311 length 0.003 color 0 0 1 }
Segment { rot 0.62139 0 -0.7835 1.75182 offset 1.70509 0.15373 20000.3409 length 0.00419 color 0 0 1 }
Segment { rot 0.57989 0 -0.8147 1.78865 offset 1.69293 0.15697 20000.33211 length 0.02651 color 0 0 1 }
Segment { rot 0.57555 0 -0.81777 1.73494 offset 1.67367 0.1616 20000.31847 length 0.02161 color 0 0 1 }
Segment { rot 0.55704 0 -0.83048 1.72101 offset 1.66271 0.16378 20000.31083 length 0.00547 color 0 0 1 }
Segment { rot 0.55031 0 -0.83496 1.76174 offset 1.64693 0.16732 20000.3004 length 0.03301 color 0 0 1 }
Segment { rot 0.48161 0 -0.87639 1.81995 offset 1.63283 0.17062 20000.29117 length 0.00134 color 0 0 1 }
Segment { rot 0.57201 0 -0.82024 1.71324 offset 1.62987 0.1712 20000.28919 length 0.00589 color 0 0 1 }
Segment { rot 0.53571 0 -0.8444 1.75592 offset 1.62432 0.17232 20000.28552 length 0.00761 color 0 0 1 }
Segment { rot 0.52838 0 -0.84901 1.77307 offset 1.62116 0.17302 20000.28352 length 0 color 0 0 1 }
Segment { rot 0.62172 0 -0.78324 1.73206 offset 1.61155 0.17501 20000.27589 length 0.02485 color 0 0 1 }
Segment { rot 0.60787 0 -0.79404 1.84118 offset 1.59382 0.17985 20000.26204 length 0.02126 color 0 0 1 }
Segment { rot 0.62721 0 -0.77885 1.70561 offset 1.58213 0.18331 20000.25296 length 0.0092 color 0 0 1 }
Segment { rot 0.61555 0 -0.7881 1.66953 offset 1.57678 0.18415 20000.24869 length 0.00461 color 0 0 1 }
Segment { rot 0.47025 0 -0.88253 1.62769 offset 1.57089 0.18464 20000.2451 length 0.00926 color 0 0 1 }
Segment { rot 0.622 0 -0.78301 1.41614 offset 1.56184 0.18392 20000.23898 length 0.01284 color 0 0 1 }
Segment { rot 0.59199 0 -0.80594 1.33649 offset 1.55054 0.18105 20000.23038 length 0.01618 color 0 0 1 }
Segment { rot 0.6905 0 -0.72333 1.46075 offset 1.54073 0.17864 20000.22242 length 0.00963 color 0 0 1 }
Segment { rot 0.72652 0 -0.68715 1.44381 offset 1.52681 0.17617 20000.20805 length 0.0307 color 0 0 1 }
Segment { rot 0.75879 0 -0.65133 1.40514 offset 1.51398 0.17362 20000.19424 length 0.00735 color 0 0 1 }
Segment { rot 0.79515 0 -0.60642 1.21085 offset 1.50582 0.16941 20000.18387 length 0.02045 color 0 0 1 }
Segment { rot 0.81186 0 -0.58385 1.30924 offset 1.49893 0.16531 20000.17476 length 0.00384 color 0 0 1 }
Segment { rot 0.92959 0 -0.36861 1.71252 offset 1.49169 0.1672 20000.15772 length 0.03375 color 0 0 1 }
Segment { rot 0.94533 0 -0.32611 1.73097 offset 1.48548 0.16961 20000.14205 length 0.00032 color 0 0 1 }
Segment { rot 0.92896 0 -0.37017 1.75966 offset 1.48445 0.17014 20000.13945 length 0.00537 color 0 0 1 }
Segment { rot 0.83319 0 -0.55298 1.69643 offset 1.48089 0.17123 20000.13309 length 0.00945 color 0 0 1 }
Segment { rot 0.83691 0 -0.54734 1.66164 offset 1.46612 0.17385 20000.11057 length 0.04468 color 0 0 1 }
Segment { rot 0.7909 0 -0.61195 1.76796 offset 1.45394 0.17588 20000.09195 length 0.00001 color 0 0 1 }
Segment { rot 0.75409 0 -0.65677 1.86726 offset 1.45219 0.17669 20000.08994 length 0.00556 color 0 0 1 }
Segment { rot 0.73547 0 -0.67756 1.92719 offset 1.45031 0.17758 20000.0878 length 0.00041 color 0 0 1 }
Segment { rot 0.79256 0 -0.60979 1.97757 offset 1.44989 0.17785 20000.08728 length 0.00103 color 0 0 1 }
Segment { rot 0.78488 0 -0.61964 2.02412 offset 1.44849 0.17894 20000.08548 length 0.00402 color 0 0 1 }
Segment { rot 0.77765 0 -0.62869 2.1244 offset 1.43266 0.19428 20000.06587 length 0.05502 color 0 0 1 }
Segment { rot 0.8204 0 -0.57178 2.18492 offset 1.4133 0.21447 20000.041 length 0.01989 color 0 0 1 }
Segment { rot 0.71304 0 -0.70113 2.20705 offset 1.40844 0.22042 20000.03412 length 0.00075 color 0 0 1 }
Segment { rot 0.60237 0 -0.79822 2.16427 offset 1.407 0.22169 20000.03298 length 0.00371 color 0 0 1 }
Segment { rot 0.57748 0 -0.8164 2.17591 offset 1.39857 0.22883 20000.02696 length 0.02146 color 0 0 1 }
Segment { rot 0.64056 0 -0.76791 2.1527 offset 1.39136 0.23493 20000.02186 length 0.00001 color 0 0 1 }
Segment { rot 0.95448 0 -0.29827 2.87975 offset 1.39028 0.24836 20000.01842 length 0.0278 color 0 0 1 }
Segment { rot 1 0 0.0021 2.86125 offset 1.38921 0.26851 20000.01305 length 0.01398 color 0 0 1 }
Segment { rot 0.97787 0 0.20923 2.96794 offset 1.38933 0.27834 20000.01059 length 0.00634 color 0 0 1 }
Segment { rot 0.93953 0 0.34246 3.06455 offset 1.38958 0.28646 20000.00969 length 0.01002 color 0 0 1 }
Segment { rot 0.91928 0 -0.39361 3.06925 offset 1.38939 0.30258 20000.00858 length 0.0223 color 0 0 1 }
Segment { rot -0.31596 0 -0.94877 2.97416 offset 1.38813 0.31958 20000.00816 length 0.01194 color 0 0 1 }
Segment { rot -0.24188 0 -0.97031 2.97595 offset 1.38713 0.32582 20000.00849 length 0.00071 color 0 0 1 }
Segment { rot -0.16243 0 -0.98672 2.97222 offset 1.38687 0.32737 20000.00853 length 0.00243 color 0 0 1 }
Segment { rot 0.05063 0 -0.99872 2.92373 offset 1.38658 0.329 20000.00856 length 0.00088 color 0 0 1 }
Segment { rot -0.01936 0 -0.99981 3.01771 offset 1.38416 0.34812 20000.0086 length 0.03768 color 0 0 1 }
Segment { rot 0.27422 0 -0.96167 3.04543 offset 1.38157 0.36954 20000.00857 length 0.00548 color 0 0 1 }
Segment { rot 0.63259 0 -0.77448 3.05597 offset 1.38099 0.37725 20000.00823 length 0.00999 color 0 0 1 }
Segment { rot 0.76942 0 -0.63875 3.06705 offset 1.38053 0.385 20000.0078 length 0.00557 color 0 0 1 }
Segment { rot 0.8225 0 -0.56877 3.10587 offset 1.38037 0.3889 20000.00761 length 0.00223 color 0 0 1 }
Segment { rot 0.73941 0 0.67326 3.032 offset 1.38069 0.39455 20000.00721 length 0.00912 color 0 0 1 }
Segment { rot 0.99541 0 0.09569 2.98016 offset 1.38104 0.40024 20000.00665 length 0.00236 color 0 0 1 }
Segment { rot 0.95896 0 0.28356 2.95755 offset 1.38201 0.41951 20000.00323 length 0.03683 color 0 0 1 }