#VRML V2.0 utf8
#Generated by NISTMonte
WorldInfo {
 title "NISTMonte Trajectory"
 info ["See http://www.cstl.nist.gov/div837/Division/home.html for more information"]
}
Viewpoint {
 fieldOfView 0.785398
 position 0 5 31000
 orientation -1 -0 -0 1.5708
 description "Y-Axis"
}
Viewpoint {
 fieldOfView 0.785398
 position 0 0 30995
 orientation 1 0 0 3.1415926
 description "Gun"
}
Viewpoint {
 fieldOfView 0.785398
 position -5 0 31000
 orientation 0 -1 0 1.5708
 description "X-Axis"
}




#Prototype for a trajectory segment
PROTO Segment [
 field SFRotation rot 1 0 0 0
 field SFVec3f offset 0 0 0
 field SFFloat length 0.1
 field SFColor color 1 1 1
]
{
 Transform {
  rotation IS rot
  translation IS offset
  children [
   Shape {
    geometry Cylinder {
     radius 0.001
     height IS length
    }
    appearance Appearance {
     material Material {
      emissiveColor IS color
     }
    }
   }
  ]
 }
}
Segment { rot -1 0 -0 1.5708 offset -0.0116 -0.00221 31000.00284 length 0.00568 color 0 0 1 }
Segment { rot -0.98973 0 0.14294 1.24418 offset -0.0112 -0.00317 31000.00849 length 0.00598 color 0 0 1 }
Segment { rot -0.99111 0 0.13303 1.17098 offset -0.01073 -0.00432 31000.01173 length 0.00098 color 0 0 1 }
Segment { rot -0.99594 0 0.09004 1.13987 offset -0.01045 -0.00566 31000.01467 length 0.00551 color 0 0 1 }
Segment { rot -0.99851 0 0.05455 1.14689 offset -0.01019 -0.0071 31000.01781 length 0.00142 color 0 0 1 }
Segment { rot -1 0 -0.00124 1.04662 offset -0.01016 -0.00826 31000.01996 length 0.00346 color 0 0 1 }
Segment { rot -0.999 0 0.0448 1.10142 offset -0.01016 -0.00913 31000.02146 length 0.00002 color 0 0 1 }
Segment { rot -0.99868 0 0.05142 1.14265 offset -0.01009 -0.00974 31000.0228 length 0.00292 color 0 0 1 }
Segment { rot -0.99757 0 0.06961 1.15863 offset -0.00995 -0.01078 31000.02511 length 0.00217 color 0 0 1 }
Segment { rot -0.75818 0 -0.65204 0.33478 offset -0.01047 -0.01379 31000.02679 length 0.00546 color 0 0 1 }
Segment { rot -0.97323 0 -0.22983 0.45958 offset -0.01119 -0.01755 31000.02803 length 0.00261 color 0 0 1 }
Segment { rot -0.9847 0 -0.17425 0.44163 offset -0.01136 -0.01923 31000.02883 length 0.00114 color 0 0 1 }
Segment { rot 0.3708 0 -0.92871 0.31156 offset -0.01159 -0.02036 31000.029 length 0.00128 color 0 0 1 }
Segment { rot 0.0963 0 -0.99535 0.49598 offset -0.01189 -0.0212 31000.02892 length 0.00052 color 0 0 1 }
Segment { rot 0.2997 0 -0.95403 0.48756 offset -0.01493 -0.02719 31000.02799 length 0.01304 color 0 0 1 }
Segment { rot 0.37057 0 -0.9288 0.48786 offset -0.01932 -0.03595 31000.02648 length 0.0068 color 0 0 1 }
Segment { rot 0.41928 0 -0.90786 0.43368 offset -0.02083 -0.03902 31000.02588 length 0.00014 color 0 0 1 }
Segment { rot 0.2183 0 -0.97588 0.42449 offset -0.02141 -0.04032 31000.02574 length 0.00273 color 0 0 1 }
Segment { rot 0.14425 0 -0.98954 0.4039 offset -0.02232 -0.04242 31000.02557 length 0.00185 color 0 0 1 }
Segment { rot 0.29899 0 -0.95426 0.59267 offset -0.02268 -0.04329 31000.02551 length 0.00003 color 0 0 1 }
Segment { rot 0.27044 0 -0.96274 0.64427 offset -0.02444 -0.04572 31000.02502 length 0.00605 color 0 0 1 }
Segment { rot 0.36945 0 -0.92925 0.50379 offset -0.02642 -0.04858 31000.02444 length 0.00102 color 0 0 1 }
Segment { rot 0.45233 0 -0.89185 0.46046 offset -0.02702 -0.04987 31000.02416 length 0.00187 color 0 0 1 }
Segment { rot 0.55479 0 -0.83199 0.50831 offset -0.02759 -0.05114 31000.02384 length 0.001 color 0 0 1 }
Segment { rot 0.34879 0 -0.9372 0.46923 offset -0.02796 -0.05193 31000.02364 length 0.00079 color 0 0 1 }
Segment { rot 0.21869 0 -0.97579 0.50984 offset -0.02822 -0.05246 31000.02356 length 0.00039 color 0 0 1 }
Segment { rot 0.414 0 -0.91028 1.35735 offset -0.03071 -0.05319 31000.02245 length 0.00538 color 0 0 1 }
Segment { rot 0.45683 0 -0.88955 1.31102 offset -0.03323 -0.0538 31000.02129 length 0.0003 color 0 0 1 }
Segment { rot 0.48832 0 -0.87266 1.34477 offset -0.03544 -0.05439 31000.02006 length 0.00488 color 0 0 1 }
Segment { rot -0.39479 0 0.91877 1.24627 offset -0.03619 -0.05542 31000.01947 length 0.00304 color 0 0 1 }
Segment { rot -0.36936 0 0.92929 1.10533 offset -0.03415 -0.05629 31000.02032 length 0.00173 color 0 0 1 }
Segment { rot -0.91247 0 0.40915 1.13367 offset -0.03277 -0.05744 31000.02209 length 0.00357 color 0 0 1 }
Segment { rot -0.90242 0 0.43086 1.31355 offset -0.03185 -0.05835 31000.02411 length 0.00125 color 0 0 1 }
Segment { rot -0.86975 0 0.4935 1.32471 offset -0.03098 -0.05882 31000.02573 length 0.00255 color 0 0 1 }
Segment { rot -0.86459 0 0.50247 1.33167 offset -0.02841 -0.06008 31000.03017 length 0.00801 color 0 0 1 }
Segment { rot -0.84589 0 0.53336 1.31785 offset -0.02644 -0.06104 31000.03356 length 0.00007 color 0 0 1 }
Segment { rot -0.86793 0 0.49669 1.29186 offset -0.02603 -0.06127 31000.03428 length 0.00165 color 0 0 1 }
Segment { rot -0.99298 0 0.1183 1.27877 offset -0.0256 -0.06158 31000.03522 length 0.00053 color 0 0 1 }
Segment { rot 0.065 0 0.99789 2.19639 offset -0.02241 -0.05936 31000.03526 length 0.00782 color 0 0 1 }
Segment { rot 0.16236 0 0.98673 2.37305 offset -0.01923 -0.05706 31000.03505 length 0.00006 color 0 0 1 }
Segment { rot 0.2936 0 0.95593 2.30978 offset -0.01866 -0.05651 31000.03488 length 0.00156 color 0 0 1 }
Segment { rot 0.23447 0 0.97212 2.26787 offset -0.01802 -0.05591 31000.03469 length 0.00023 color 0 0 1 }
Segment { rot 0.39934 0 0.9168 2.2479 offset -0.01773 -0.05566 31000.03458 length 0.00057 color 0 0 1 }
Segment { rot 0.39665 0 0.91797 2.22046 offset -0.01722 -0.05522 31000.03436 length 0.00084 color 0 0 1 }
Segment { rot -0.40058 0 0.91626 2.37833 offset -0.01661 -0.05463 31000.03436 length 0.00095 color 0 0 1 }
Segment { rot -0.40323 0 0.9151 2.44372 offset -0.01568 -0.05347 31000.03477 length 0.00214 color 0 0 1 }
Segment { rot -0.39581 0 0.91833 2.29713 offset -0.01442 -0.05204 31000.03532 length 0.00184 color 0 0 1 }
Segment { rot -0.54891 0 0.83588 2.27318 offset -0.01268 -0.0503 31000.03632 length 0.00347 color 0 0 1 }
Segment { rot -0.59471 0 0.80394 2.27031 offset -0.01079 -0.04836 31000.03763 length 0.00257 color 0 0 1 }
Segment { rot -0.64475 0 0.7644 2.21109 offset -0.00947 -0.04702 31000.03865 length 0.00171 color 0 0 1 }
Segment { rot -0.67192 0 0.74063 2.12447 offset -0.00642 -0.0444 31000.04139 length 0.00803 color 0 0 1 }
Segment { rot -0.36323 0 0.9317 2.15895 offset -0.00339 -0.04193 31000.04388 length 0.0013 color 0 0 1 }
Segment { rot -0.36908 0 0.9294 2.13643 offset -0.00156 -0.04066 31000.0446 length 0.00338 color 0 0 1 }
Segment { rot -0.45298 0 0.89152 2.29508 offset 0.00109 -0.03844 31000.0458 length 0.00396 color 0 0 1 }
Segment { rot -0.34978 0 0.93683 2.34408 offset 0.00475 -0.0347 31000.04734 length 0.00698 color 0 0 1 }
Segment { rot -0.14884 0 0.98886 2.36331 offset 0.00741 -0.03193 31000.04827 length 0.00092 color 0 0 1 }
Segment { rot -0.14084 0 0.99003 2.35866 offset 0.00827 -0.03105 31000.04839 length 0.00154 color 0 0 1 }
Segment { rot -0.80421 0 0.59434 0.45597 offset 0.00885 -0.03067 31000.04853 length 0.00035 color 0 0 1 }
Segment { rot -0.86191 0 0.50706 0.61042 offset 0.0093 -0.03196 31000.04927 length 0.00276 color 0 0 1 }
Segment { rot -0.84844 0 0.5293 0.60406 offset 0.00978 -0.03332 31000.05009 length 0.00057 color 0 0 1 }
Segment { rot -0.66512 0 0.74674 0.57403 offset 0.0102 -0.03423 31000.05052 length 0.00161 color 0 0 1 }
Segment { rot -0.47684 0 0.87899 0.5607 offset 0.01071 -0.03526 31000.05092 length 0.00081 color 0 0 1 }
Segment { rot -0.37398 0 0.92744 0.60033 offset 0.01169 -0.03684 31000.05134 length 0.00299 color 0 0 1 }
Segment { rot -0.48895 0 0.87231 0.61661 offset 0.01385 -0.0403 31000.05242 length 0.00547 color 0 0 1 }
Segment { rot -0.39356 0 0.9193 0.44232 offset 0.01529 -0.04266 31000.05322 length 0.00029 color 0 0 1 }
Segment { rot 0.02263 0 0.99974 0.41007 offset 0.01555 -0.04326 31000.05324 length 0.00101 color 0 0 1 }
Segment { rot -0.02709 0 0.99963 0.72243 offset 0.01589 -0.04389 31000.05324 length 0.00044 color 0 0 1 }
Segment { rot -0.60581 0 0.79561 0.82302 offset 0.0166 -0.0447 31000.05367 length 0.00192 color 0 0 1 }
Segment { rot -0.66397 0 0.74776 0.80081 offset 0.01719 -0.0454 31000.05413 length 0.00014 color 0 0 1 }
Segment { rot -0.58545 0 0.81071 0.81814 offset 0.01752 -0.04578 31000.05437 length 0.00097 color 0 0 1 }
Segment { rot -0.5657 0 0.82461 0.89503 offset 0.01821 -0.04651 31000.05486 length 0.00127 color 0 0 1 }
Segment { rot -0.37667 0 0.92635 1.0789 offset 0.01971 -0.04754 31000.05558 length 0.00266 color 0 0 1 }
Segment { rot -0.34939 0 0.93698 1.0588 offset 0.02123 -0.04842 31000.05618 length 0.00105 color 0 0 1 }
Segment { rot -0.25457 0 0.96705 1.03754 offset 0.02314 -0.04959 31000.05673 length 0.00357 color 0 0 1 }
Segment { rot -0.23938 0 0.97092 1.00041 offset 0.02569 -0.0512 31000.05739 length 0.0026 color 0 0 1 }
Segment { rot -0.21912 0 0.9757 0.99336 offset 0.02685 -0.05196 31000.05767 length 0.00024 color 0 0 1 }
Segment { rot -0.099 0 0.99509 0.81725 offset 0.02697 -0.05205 31000.0577 length 0.00005 color 0 0 1 }
Segment { rot -0.0686 0 0.99764 0.7758 offset 0.02758 -0.05267 31000.05774 length 0.00169 color 0 0 1 }
Segment { rot -0.05608 0 0.99843 1.0544 offset 0.02966 -0.05412 31000.05786 length 0.00344 color 0 0 1 }
Segment { rot -0.15652 0 0.98768 0.97187 offset 0.03191 -0.05549 31000.05807 length 0.00186 color 0 0 1 }
Segment { rot -0.09624 0 0.99536 0.90563 offset 0.03437 -0.05736 31000.05835 length 0.00434 color 0 0 1 }
Segment { rot -0.63438 0 0.77302 1.13443 offset 0.03686 -0.05917 31000.05916 length 0.00225 color 0 0 1 }
Segment { rot -0.80407 0 0.59453 1.43848 offset 0.03789 -0.0597 31000.06014 length 0.00083 color 0 0 1 }
Segment { rot -0.46724 0 0.88413 1.48829 offset 0.03888 -0.05983 31000.06087 length 0.00169 color 0 0 1 }
Segment { rot -0.38591 0 0.92254 1.37223 offset 0.03967 -0.05991 31000.06128 length 0.00011 color 0 0 1 }
Segment { rot -0.42397 0 0.90567 1.3452 offset 0.03997 -0.05998 31000.06141 length 0.00056 color 0 0 1 }
Segment { rot -0.60475 0 0.79641 1.12765 offset 0.04049 -0.06021 31000.06174 length 0.00076 color 0 0 1 }
Segment { rot -0.69414 0 0.71984 1.0321 offset 0.04144 -0.06093 31000.0626 length 0.00219 color 0 0 1 }
Segment { rot -0.66037 0 0.75094 1.05828 offset 0.04212 -0.0615 31000.06326 length 0 color 0 0 1 }
Segment { rot -0.71457 0 0.69957 1.04838 offset 0.04248 -0.06179 31000.06362 length 0.00117 color 0 0 1 }
Segment { rot -0.82921 0 0.55894 0.96022 offset 0.04326 -0.06263 31000.06462 length 0.0019 color 0 0 1 }
Segment { rot -0.7589 0 0.65121 0.8877 offset 0.04553 -0.06546 31000.06741 length 0.00727 color 0 0 1 }
Segment { rot -0.04533 0 0.99897 1.08486 offset 0.04819 -0.06819 31000.06958 length 0.00185 color 0 0 1 }
Segment { rot 0.01329 0 0.99991 1.07059 offset 0.04974 -0.06903 31000.06961 length 0.00168 color 0 0 1 }
Segment { rot 0.02387 0 0.99971 1.01555 offset 0.05155 -0.07009 31000.06958 length 0.00251 color 0 0 1 }
Segment { rot -0.44914 0 -0.89346 0.98127 offset 0.05185 -0.07132 31000.06993 length 0.00205 color 0 0 1 }
Segment { rot -0.50679 0 -0.86207 1.23773 offset 0.0507 -0.07205 31000.07055 length 0.00097 color 0 0 1 }
Segment { rot -0.56771 0 -0.82323 1.18476 offset 0.0495 -0.07261 31000.07134 length 0.00211 color 0 0 1 }
Segment { rot -0.6455 0 -0.76376 1.19668 offset 0.04819 -0.07326 31000.07231 length 0.00141 color 0 0 1 }
Segment { rot -0.83633 0 -0.54823 1.34335 offset 0.04715 -0.07375 31000.07356 length 0.00201 color 0 0 1 }
Segment { rot -0.81065 0 -0.58553 1.40528 offset 0.04607 -0.07413 31000.07513 length 0.0019 color 0 0 1 }
Segment { rot -0.88122 0 -0.4727 1.39608 offset 0.04509 -0.07445 31000.07669 length 0.00183 color 0 0 1 }
Segment { rot -0.82745 0 -0.56154 1.35617 offset 0.0439 -0.0749 31000.07862 length 0.00281 color 0 0 1 }
Segment { rot -0.82187 0 -0.56968 1.45647 offset 0.04303 -0.07522 31000.0799 length 0.00035 color 0 0 1 }
Segment { rot -0.77679 0 -0.62976 1.49369 offset 0.04265 -0.07528 31000.08039 length 0.0009 color 0 0 1 }
Segment { rot -0.81275 0 -0.58261 1.57892 offset 0.04224 -0.07531 31000.08091 length 0.00044 color 0 0 1 }
Segment { rot -0.55216 0 -0.83374 1.59995 offset 0.0417 -0.07529 31000.08136 length 0.00097 color 0 0 1 }
Segment { rot -0.61902 0 -0.78538 1.52799 offset 0.04088 -0.0753 31000.08196 length 0.00106 color 0 0 1 }
Segment { rot -0.58903 0 -0.80811 1.53009 offset 0.03808 -0.07545 31000.08403 length 0.00592 color 0 0 1 }
Segment { rot -0.61115 0 -0.79151 1.43338 offset 0.03562 -0.07558 31000.08582 length 0.00018 color 0 0 1 }
Segment { rot -0.57049 0 -0.8213 1.4421 offset 0.03553 -0.07559 31000.08588 length 0.00003 color 0 0 1 }
Segment { rot -0.58514 0 -0.81093 1.2103 offset 0.03452 -0.07606 31000.08661 length 0.00263 color 0 0 1 }
Segment { rot -0.57692 0 -0.8168 1.24365 offset 0.03277 -0.07684 31000.08787 length 0.00196 color 0 0 1 }
Segment { rot -0.60754 0 -0.79429 1.3365 offset 0.03057 -0.07758 31000.08951 length 0.00373 color 0 0 1 }
Segment { rot -0.47032 0 -0.8825 1.43854 offset 0.02875 -0.07807 31000.09081 length 0.00088 color 0 0 1 }
Segment { rot -0.46484 0 -0.88539 1.4249 offset 0.02733 -0.0783 31000.09156 length 0.00235 color 0 0 1 }
Segment { rot -0.26334 0 -0.9647 1.60583 offset 0.02588 -0.07846 31000.09221 length 0.00089 color 0 0 1 }
Segment { rot 0.4634 0 0.88615 1.85592 offset 0.0263 -0.07816 31000.09189 length 0.002 color 0 0 1 }
Segment { rot 0.27797 0 0.96059 1.8555 offset 0.02797 -0.07763 31000.0912 length 0.0018 color 0 0 1 }
Segment { rot 0.49454 0 0.86915 1.68078 offset 0.02901 -0.07735 31000.09084 length 0.00049 color 0 0 1 }
Segment { rot 0.40831 0 0.91284 1.71318 offset 0.03065 -0.0771 31000.09008 length 0.00317 color 0 0 1 }
Segment { rot 0.31631 0 0.94866 1.77571 offset 0.03209 -0.07687 31000.08944 length 0.00002 color 0 0 1 }
Segment { rot 0.14276 0 0.98976 1.82959 offset 0.03211 -0.07687 31000.08944 length 0.00002 color 0 0 1 }
Segment { rot 0.10702 0 0.99426 1.87405 offset 0.03257 -0.07672 31000.08939 length 0.00096 color 0 0 1 }
Segment { rot -0.1479 0 0.989 1.87325 offset 0.03318 -0.07653 31000.08936 length 0.00033 color 0 0 1 }
Segment { rot -0.26518 0 0.9642 1.80993 offset 0.03347 -0.07645 31000.08942 length 0.00029 color 0 0 1 }
Segment { rot -0.31616 0 0.94871 1.64436 offset 0.03398 -0.07638 31000.08958 length 0.00078 color 0 0 1 }
Segment { rot -0.36705 0 0.9302 1.42019 offset 0.03571 -0.07658 31000.09024 length 0.00295 color 0 0 1 }
Segment { rot 0.28628 0 0.95815 1.45644 offset 0.03716 -0.07681 31000.09075 length 0.0002 color 0 0 1 }
Segment { rot 0.19685 0 0.98043 1.40866 offset 0.03735 -0.07684 31000.0907 length 0.0002 color 0 0 1 }
Segment { rot 0.13605 0 0.9907 1.5583 offset 0.03758 -0.07686 31000.09067 length 0.00027 color 0 0 1 }
Segment { rot -0.10976 0 0.99396 1.42832 offset 0.0381 -0.07691 31000.09069 length 0.00079 color 0 0 1 }
Segment { rot 0.03638 0 0.99934 1.43936 offset 0.03939 -0.07709 31000.0907 length 0.00181 color 0 0 1 }
Segment { rot 0.26275 0 0.96486 1.48009 offset 0.04147 -0.07732 31000.09035 length 0.00248 color 0 0 1 }
Segment { rot 0.2855 0 0.95838 1.43937 offset 0.04294 -0.07747 31000.08994 length 0.00059 color 0 0 1 }
Segment { rot 0.00134 0 1 1.55637 offset 0.04414 -0.07752 31000.08985 length 0.00182 color 0 0 1 }
Segment { rot -0.06074 0 0.99815 1.54312 offset 0.04511 -0.07754 31000.08986 length 0.00012 color 0 0 1 }
Segment { rot -0.54119 0 0.8409 1.36159 offset 0.04574 -0.07768 31000.09022 length 0.00137 color 0 0 1 }
Segment { rot -0.9252 0 0.37948 1.45887 offset 0.04669 -0.07794 31000.09155 length 0.00209 color 0 0 1 }
Segment { rot -0.9363 0 0.3512 0.7369 offset 0.0472 -0.07841 31000.09281 length 0.00095 color 0 0 1 }
Segment { rot 0.34615 0 0.93818 2.26186 offset 0.04759 -0.07852 31000.093 length 0.00077 color 0 0 1 }
Segment { rot 0.56652 0 0.82405 2.11897 offset 0.04824 -0.078 31000.09265 length 0.00104 color 0 0 1 }
Segment { rot 0.15908 0 0.98727 1.96011 offset 0.04947 -0.07737 31000.09226 length 0.0019 color 0 0 1 }
Segment { rot -0.03108 0 0.99952 2.0225 offset 0.05056 -0.0769 31000.09212 length 0.00048 color 0 0 1 }
Segment { rot 0.57876 0 -0.8155 2.45344 offset 0.05077 -0.07679 31000.09213 length 0.00002 color 0 0 1 }
Segment { rot 0.55324 0 -0.83302 1.30238 offset 0.05073 -0.07679 31000.0921 length 0.00009 color 0 0 1 }
Segment { rot -0.98713 0 0.1599 2.15851 offset 0.05074 -0.07663 31000.09233 length 0.00063 color 0 0 1 }
Segment { rot -0.97929 0 0.20249 2.09979 offset 0.05078 -0.07645 31000.0926 length 0.00002 color 0 0 1 }
Segment { rot 0.83773 0 -0.54608 1.09954 offset 0.05069 -0.07653 31000.09247 length 0.00036 color 0 0 1 }
Segment { rot 0.14594 0 -0.98929 1.46906 offset 0.05023 -0.07665 31000.09228 length 0.00077 color 0 0 1 }
Segment { rot 0.51898 0 -0.85478 1.74786 offset 0.04977 -0.07667 31000.09218 length 0.00018 color 0 0 1 }
Segment { rot 0.91638 0 -0.4003 1.77322 offset 0.04957 -0.07659 31000.09185 length 0.00064 color 0 0 1 }
Segment { rot 0.73464 0 -0.67846 2.53018 offset 0.04943 -0.0765 31000.09155 length 0.00007 color 0 0 1 }
Segment { rot 0.9097 0 -0.41527 2.52587 offset 0.04935 -0.07622 31000.09137 length 0.00061 color 0 0 1 }
Segment { rot 0.97439 0 -0.22484 2.25294 offset 0.04927 -0.07595 31000.09119 length 0.00006 color 0 0 1 }