#VRML V2.0 utf8
#Generated by NISTMonte
WorldInfo {
 title "NISTMonte Trajectory"
 info ["See http://www.cstl.nist.gov/div837/Division/home.html for more information"]
}
Viewpoint {
 fieldOfView 0.785398
 position 0 5 31000
 orientation -1 -0 -0 1.5708
 description "Y-Axis"
}
Viewpoint {
 fieldOfView 0.785398
 position 0 0 30995
 orientation 1 0 0 3.1415926
 description "Gun"
}
Viewpoint {
 fieldOfView 0.785398
 position -5 0 31000
 orientation 0 -1 0 1.5708
 description "X-Axis"
}




#Prototype for a trajectory segment
PROTO Segment [
 field SFRotation rot 1 0 0 0
 field SFVec3f offset 0 0 0
 field SFFloat length 0.1
 field SFColor color 1 1 1
]
{
 Transform {
  rotation IS rot
  translation IS offset
  children [
   Shape {
    geometry Cylinder {
     radius 0.001
     height IS length
    }
    appearance Appearance {
     material Material {
      emissiveColor IS color
     }
    }
   }
  ]
 }
}
Segment { rot -1 0 -0 1.5708 offset -0.00104 0.00027 31000.00081 length 0.00163 color 0 0 1 }
Segment { rot -0.99985 0 0.01749 1.49911 offset -0.00084 -0.00054 31000.01295 length 0.0227 color 0 0 1 }
Segment { rot -0.99734 0 0.07283 1.42287 offset -0.00003 -0.0026 31000.03256 length 0.0168 color 0 0 1 }
Segment { rot -0.98635 0 0.16464 1.33788 offset 0.00058 -0.00385 31000.04092 length 0.00015 color 0 0 1 }
Segment { rot -0.98357 0 0.18053 1.29416 offset 0.00077 -0.00414 31000.04192 length 0.00198 color 0 0 1 }
Segment { rot -0.97935 0 0.20217 1.29977 offset 0.00147 -0.00514 31000.04543 length 0.00546 color 0 0 1 }
Segment { rot -0.98113 0 0.19337 1.23756 offset 0.00229 -0.00638 31000.04945 length 0.00312 color 0 0 1 }
Segment { rot -0.95022 0 0.31157 1.36195 offset 0.00328 -0.00737 31000.05307 length 0.00468 color 0 0 1 }
Segment { rot -0.95839 0 0.28547 1.37078 offset 0.00416 -0.00798 31000.0558 length 0.00117 color 0 0 1 }
Segment { rot -0.92682 0 0.37551 1.47004 offset 0.0064 -0.00865 31000.06147 length 0.01111 color 0 0 1 }
Segment { rot -0.93245 0 0.3613 1.45608 offset 0.00851 -0.00922 31000.06667 length 0.00017 color 0 0 1 }
Segment { rot -0.86665 0 0.49892 1.73717 offset 0.00903 -0.00907 31000.0676 length 0.00199 color 0 0 1 }
Segment { rot -0.99574 0 -0.0922 0.85386 offset 0.00884 -0.01527 31000.07572 length 0.01937 color 0 0 1 }
Segment { rot -0.99992 0 0.01252 0.89384 offset 0.00817 -0.02204 31000.08349 length 0.0013 color 0 0 1 }
Segment { rot -0.9974 0 0.07212 1.00703 offset 0.00833 -0.02375 31000.08607 length 0.0049 color 0 0 1 }
Segment { rot -0.99466 0 0.10319 1.15471 offset 0.00942 -0.0291 31000.09721 length 0.01996 color 0 0 1 }
Segment { rot -0.96746 0 0.25303 1.24516 offset 0.01054 -0.03336 31000.10695 length 0.00144 color 0 0 1 }
Segment { rot -0.96711 0 0.25435 1.24478 offset 0.01073 -0.03362 31000.1077 length 0.00018 color 0 0 1 }
Segment { rot -0.97239 0 0.23335 1.27745 offset 0.01086 -0.03379 31000.10823 length 0.00097 color 0 0 1 }
Segment { rot -0.97203 0 0.23487 1.2607 offset 0.01186 -0.03515 31000.11239 length 0.008 color 0 0 1 }
Segment { rot -0.97822 0 0.20755 1.20562 offset 0.01305 -0.0369 31000.11745 length 0.00298 color 0 0 1 }
Segment { rot -0.98237 0 0.18695 1.10005 offset 0.01342 -0.03766 31000.11925 length 0.001 color 0 0 1 }
Segment { rot -0.98492 0 0.17303 1.14914 offset 0.0142 -0.03969 31000.12365 length 0.00883 color 0 0 1 }
Segment { rot -0.97618 0 0.21694 1.16053 offset 0.01494 -0.04159 31000.12781 length 0.00043 color 0 0 1 }
Segment { rot -0.96855 0 0.24883 1.24846 offset 0.015 -0.0417 31000.12807 length 0.00016 color 0 0 1 }
Segment { rot -0.95315 0 0.3025 1.19774 offset 0.01652 -0.04366 31000.13287 length 0.01065 color 0 0 1 }
Segment { rot -0.95857 0 0.28485 1.15842 offset 0.01815 -0.04581 31000.13806 length 0.00105 color 0 0 1 }
Segment { rot -0.97019 0 0.24235 1.27396 offset 0.01916 -0.04711 31000.14198 length 0.00747 color 0 0 1 }
Segment { rot -0.93965 0 0.34215 1.0948 offset 0.0216 -0.05058 31000.14977 length 0.01037 color 0 0 1 }
Segment { rot -0.92324 0 0.38423 1.03787 offset 0.02503 -0.0558 31000.15855 length 0.01119 color 0 0 1 }
Segment { rot -0.90559 0 0.42415 1.07074 offset 0.03132 -0.06436 31000.17249 length 0.02387 color 0 0 1 }
Segment { rot -0.89652 0 0.44301 1.02318 offset 0.0361 -0.07056 31000.18266 length 0.0018 color 0 0 1 }
Segment { rot -0.90815 0 0.41863 0.99475 offset 0.03735 -0.07243 31000.18532 length 0.00517 color 0 0 1 }
Segment { rot -0.89859 0 0.43878 0.98122 offset 0.04362 -0.08202 31000.19827 length 0.02941 color 0 0 1 }
Segment { rot -0.90151 0 0.43275 0.97845 offset 0.05048 -0.09251 31000.21236 length 0.00832 color 0 0 1 }
Segment { rot -0.95312 0 0.30259 1.14013 offset 0.05856 -0.10484 31000.23623 length 0.04793 color 0 0 1 }
Segment { rot -0.96111 0 0.27616 1.16023 offset 0.06615 -0.11642 31000.26046 length 0.00789 color 0 0 1 }
Segment { rot -0.95952 0 0.28165 1.13941 offset 0.06749 -0.11856 31000.26511 length 0.00268 color 0 0 1 }
Segment { rot -0.96752 0 0.25279 1.29586 offset 0.0683 -0.11963 31000.26804 length 0.00379 color 0 0 1 }
Segment { rot -0.9695 0 0.24509 1.16495 offset 0.06896 -0.1205 31000.2706 length 0.00178 color 0 0 1 }
Segment { rot -0.93634 0 0.35108 1.40289 offset 0.07319 -0.1228 31000.28215 length 0.0233 color 0 0 1 }
Segment { rot -0.87459 0 0.48487 1.38728 offset 0.07798 -0.12503 31000.29427 length 0.00316 color 0 0 1 }
Segment { rot -0.88169 0 0.47183 1.50358 offset 0.08117 -0.12567 31000.30018 length 0.01035 color 0 0 1 }
Segment { rot -0.91599 0 0.40121 1.63993 offset 0.08532 -0.12572 31000.30865 length 0.00858 color 0 0 1 }
Segment { rot -0.93443 0 0.35615 1.61518 offset 0.08743 -0.12538 31000.3136 length 0.00222 color 0 0 1 }
Segment { rot -0.93663 0 0.35033 1.61039 offset 0.08803 -0.1253 31000.31519 length 0.00117 color 0 0 1 }
Segment { rot -0.9717 0 0.23621 1.56333 offset 0.08828 -0.12528 31000.31591 length 0.00035 color 0 0 1 }
Segment { rot -0.97228 0 0.23384 1.54466 offset 0.08893 -0.12535 31000.31863 length 0.00525 color 0 0 1 }
Segment { rot -0.90249 0 0.43072 1.64472 offset 0.08965 -0.1254 31000.32139 length 0.00047 color 0 0 1 }
Segment { rot -0.89779 0 0.44042 1.70044 offset 0.09028 -0.12523 31000.32269 length 0.00246 color 0 0 1 }
Segment { rot -0.94762 0 0.31939 1.76236 offset 0.09123 -0.12482 31000.32501 length 0.00262 color 0 0 1 }
Segment { rot -0.96049 0 0.27833 1.75197 offset 0.09206 -0.1243 31000.32765 length 0.003 color 0 0 1 }
Segment { rot -0.93851 0 0.34526 1.74306 offset 0.09295 -0.12378 31000.33038 length 0.00284 color 0 0 1 }
Segment { rot -0.93513 0 0.35431 1.71106 offset 0.09524 -0.12282 31000.33645 length 0.01029 color 0 0 1 }
Segment { rot -0.9546 0 0.2979 1.74049 offset 0.0972 -0.12201 31000.34171 length 0.00105 color 0 0 1 }
Segment { rot -0.95274 0 0.3038 1.74596 offset 0.09955 -0.12064 31000.34912 length 0.01473 color 0 0 1 }
Segment { rot -0.95418 0 0.29924 1.71117 offset 0.10182 -0.11932 31000.35624 length 0.00045 color 0 0 1 }
Segment { rot -0.95751 0 0.2884 1.72615 offset 0.10407 -0.11811 31000.36369 length 0.0153 color 0 0 1 }
Segment { rot -0.97475 0 0.22332 1.60239 offset 0.10738 -0.11677 31000.37584 length 0.01009 color 0 0 1 }
Segment { rot -0.97323 0 0.22984 1.53137 offset 0.10851 -0.11661 31000.38078 length 0.00005 color 0 0 1 }
Segment { rot -0.9728 0 0.23165 1.39869 offset 0.10862 -0.11669 31000.38127 length 0.00098 color 0 0 1 }
Segment { rot -0.99287 0 0.11919 1.45802 offset 0.10964 -0.11763 31000.38927 length 0.01526 color 0 0 1 }
Segment { rot -0.99236 0 0.12337 1.51331 offset 0.11078 -0.1186 31000.39869 length 0.00382 color 0 0 1 }
Segment { rot -0.99906 0 0.04331 1.55018 offset 0.11109 -0.11875 31000.40223 length 0.00331 color 0 0 1 }
Segment { rot -0.99335 0 -0.11514 1.44462 offset 0.11081 -0.11916 31000.40686 length 0.00605 color 0 0 1 }
Segment { rot -0.99978 0 -0.021 1.24937 offset 0.11041 -0.12043 31000.4125 length 0.0056 color 0 0 1 }
Segment { rot -0.99957 0 -0.02916 1.12462 offset 0.11022 -0.12347 31000.41966 length 0.00999 color 0 0 1 }
Segment { rot -1 0 0.00241 1.05511 offset 0.11012 -0.1312 31000.434 length 0.02263 color 0 0 1 }
Segment { rot -0.99734 0 0.07287 1.00566 offset 0.1105 -0.13994 31000.44881 length 0.01179 color 0 0 1 }
Segment { rot -0.99879 0 0.04916 0.96585 offset 0.11114 -0.14691 31000.45929 length 0.0134 color 0 0 1 }
Segment { rot -0.99724 0 0.07419 0.88306 offset 0.11146 -0.15125 31000.46544 length 0.00168 color 0 0 1 }
Segment { rot -0.99326 0 0.1159 1.27489 offset 0.1115 -0.15179 31000.46609 length 0 color 0 0 1 }
Segment { rot 0.87708 0 0.48034 1.85587 offset 0.11299 -0.15088 31000.46338 length 0.00643 color 0 0 1 }
Segment { rot 0.8908 0 0.45439 1.90316 offset 0.1154 -0.14927 31000.45885 length 0.00432 color 0 0 1 }
Segment { rot 0.88414 0 0.46723 1.92418 offset 0.11702 -0.14802 31000.45573 length 0.00315 color 0 0 1 }
Segment { rot 0.8355 0 0.5495 1.90914 offset 0.11846 -0.147 31000.45328 length 0.00289 color 0 0 1 }
Segment { rot 0.86923 0 0.49441 1.88672 offset 0.12031 -0.14579 31000.4502 length 0.00469 color 0 0 1 }
Segment { rot 0.89693 0 0.44218 1.84345 offset 0.12266 -0.14427 31000.44572 length 0.00589 color 0 0 1 }
Segment { rot 0.82575 0 0.56403 2.45141 offset 0.12588 -0.13926 31000.4403 length 0.01093 color 0 0 1 }
Segment { rot 0.83723 0 0.54685 2.47205 offset 0.12816 -0.13431 31000.43694 length 0.00187 color 0 0 1 }
Segment { rot 0.89319 0 0.44968 2.47264 offset 0.12927 -0.13136 31000.43489 length 0.00565 color 0 0 1 }
Segment { rot 0.83896 0 0.5442 2.46695 offset 0.13028 -0.12864 31000.43298 length 0.0013 color 0 0 1 }
Segment { rot 0.83962 0 0.54317 2.3668 offset 0.13105 -0.12709 31000.43179 length 0.0029 color 0 0 1 }
Segment { rot 0.84461 0 0.53539 2.37605 offset 0.13334 -0.12268 31000.4282 length 0.00937 color 0 0 1 }
Segment { rot 0.85155 0 0.52427 2.36662 offset 0.13601 -0.11749 31000.42395 length 0.00507 color 0 0 1 }
Segment { rot 0.82601 0 0.56366 2.49635 offset 0.13905 -0.1107 31000.41934 length 0.01245 color 0 0 1 }
Segment { rot 0.83407 0 0.55166 2.50144 offset 0.14332 -0.10046 31000.41297 length 0.01315 color 0 0 1 }
Segment { rot 0.82 0 0.57237 2.47882 offset 0.1456 -0.09493 31000.40954 length 0.00064 color 0 0 1 }
Segment { rot 0.70506 0 0.70915 2.47523 offset 0.14595 -0.09426 31000.40915 length 0.00106 color 0 0 1 }
Segment { rot 0.73239 0 0.68088 2.4428 offset 0.14854 -0.08972 31000.40638 length 0.01077 color 0 0 1 }
Segment { rot 0.98549 0 0.16973 1.51853 offset 0.15243 -0.08607 31000.39496 length 0.01806 color 0 0 1 }
Segment { rot 0.99343 0 0.11444 1.62226 offset 0.15471 -0.08621 31000.37956 length 0.01313 color 0 0 1 }
Segment { rot 0.98715 0 0.1598 1.60662 offset 0.15552 -0.08586 31000.37263 length 0.00084 color 0 0 1 }
Segment { rot 0.99609 0 0.08831 1.53288 offset 0.15591 -0.08598 31000.36866 length 0.00714 color 0 0 1 }
Segment { rot 0.99667 0 0.0815 1.52368 offset 0.15636 -0.08619 31000.36342 length 0.00338 color 0 0 1 }
Segment { rot 0.9958 0 0.09155 1.50263 offset 0.15661 -0.08635 31000.36055 length 0.0024 color 0 0 1 }
Segment { rot 0.99238 0 0.12318 1.5012 offset 0.1571 -0.08665 31000.35629 length 0.00619 color 0 0 1 }
Segment { rot 0.98203 0 0.18872 1.54807 offset 0.15853 -0.08699 31000.34775 length 0.01115 color 0 0 1 }
Segment { rot 0.97424 0 0.22552 2.06037 offset 0.16006 -0.08599 31000.34022 length 0.00479 color 0 0 1 }
Segment { rot 0.94294 0 0.33296 2.03511 offset 0.16174 -0.08304 31000.33473 length 0.00814 color 0 0 1 }
Segment { rot 0.85512 0 0.51843 1.9397 offset 0.16421 -0.08029 31000.32923 length 0.00519 color 0 0 1 }
Segment { rot 0.85029 0 0.52632 1.9447 offset 0.16574 -0.07915 31000.32672 length 0.00112 color 0 0 1 }
Segment { rot 0.87043 0 0.4923 1.85588 offset 0.16709 -0.0783 31000.32438 length 0.00454 color 0 0 1 }
Segment { rot 0.84725 0 0.53119 1.85334 offset 0.16835 -0.07756 31000.32218 length 0.00075 color 0 0 1 }
Segment { rot 0.92929 0 0.36934 2.48346 offset 0.1697 -0.07338 31000.31895 length 0.01031 color 0 0 1 }
Segment { rot 0.95679 0 0.29078 2.40927 offset 0.1712 -0.06804 31000.31493 length 0.00338 color 0 0 1 }
Segment { rot 0.93046 0 0.3664 2.40734 offset 0.17166 -0.06639 31000.31352 length 0.00106 color 0 0 1 }
Segment { rot 0.89979 0 0.43632 2.43738 offset 0.17226 -0.06471 31000.31221 length 0.00338 color 0 0 1 }
Segment { rot 0.8985 0 0.43897 2.41856 offset 0.17293 -0.06294 31000.31084 length 0.0013 color 0 0 1 }
Segment { rot 0.915 0 0.40344 2.40045 offset 0.17386 -0.06045 31000.30878 length 0.00541 color 0 0 1 }
Segment { rot 0.90993 0 0.41476 2.41232 offset 0.17518 -0.05688 31000.30582 length 0.00424 color 0 0 1 }
Segment { rot 0.93013 0 0.36723 2.44343 offset 0.176 -0.05453 31000.30394 length 0.00201 color 0 0 1 }
Segment { rot 0.86831 0 0.49602 2.53978 offset 0.17658 -0.05275 31000.30273 length 0.00246 color 0 0 1 }
Segment { rot 0.86668 0 0.49887 2.52765 offset 0.17787 -0.04904 31000.30048 length 0.00659 color 0 0 1 }
Segment { rot 0.9849 0 -0.17315 2.12503 offset 0.17874 -0.04607 31000.2984 length 0.00105 color 0 0 1 }
Segment { rot 0.98853 0 -0.15102 2.16676 offset 0.17843 -0.04474 31000.29642 length 0.00376 color 0 0 1 }
Segment { rot 0.99488 0 -0.10109 2.11773 offset 0.17816 -0.04346 31000.29452 length 0.00086 color 0 0 1 }
Segment { rot 0.97128 0 0.23793 2.31881 offset 0.17844 -0.04202 31000.29288 length 0.00358 color 0 0 1 }
Segment { rot 0.98696 0 0.16099 2.26392 offset 0.1788 -0.04052 31000.29127 length 0.00088 color 0 0 1 }
Segment { rot 0.99957 0 -0.02917 2.33315 offset 0.17885 -0.03991 31000.2906 length 0.00096 color 0 0 1 }
Segment { rot 0.98397 0 -0.17836 2.32732 offset 0.17843 -0.03744 31000.28802 length 0.00623 color 0 0 1 }
Segment { rot 0.98829 0 -0.15261 2.43881 offset 0.17768 -0.03263 31000.28355 length 0.007 color 0 0 1 }
Segment { rot 0.98651 0 -0.16373 2.44837 offset 0.17659 -0.0245 31000.27684 length 0.0142 color 0 0 1 }
Segment { rot 0.91694 0 -0.39903 2.67432 offset 0.17382 -0.00896 31000.2677 length 0.02257 color 0 0 1 }
Segment { rot 0.91319 0 -0.40753 2.664 offset 0.17175 0.00133 31000.26294 length 0.00048 color 0 0 1 }
Segment { rot 0.91958 0 -0.39289 2.65278 offset 0.17155 0.00228 31000.26248 length 0.00167 color 0 0 1 }
Segment { rot 0.92573 0 0.37819 0.82718 offset 0.17154 0.00267 31000.26177 length 0.00102 color 0 0 1 }
Segment { rot 0.92952 0 0.36876 0.81186 offset 0.17202 0.00144 31000.26056 length 0.00256 color 0 0 1 }
Segment { rot 0.97636 0 0.21616 0.82474 offset 0.17295 -0.00194 31000.25705 length 0.00737 color 0 0 1 }
Segment { rot 0.96466 0 0.26349 0.94463 offset 0.17512 -0.00881 31000.24859 length 0.01489 color 0 0 1 }
Segment { rot 0.91926 0 0.39364 0.95244 offset 0.17778 -0.0151 31000.24028 length 0.00665 color 0 0 1 }
Segment { rot 0.93183 0 0.3629 0.96804 offset 0.17893 -0.01717 31000.23759 length 0.00053 color 0 0 1 }
Segment { rot 0.99437 0 0.10593 0.93207 offset 0.17937 -0.01992 31000.23392 length 0.00871 color 0 0 1 }
Segment { rot 0.99895 0 0.04587 0.91126 offset 0.17976 -0.02281 31000.23006 length 0.00096 color 0 0 1 }
Segment { rot 0.98699 0 -0.16079 1.12115 offset 0.1794 -0.02423 31000.22738 length 0.00519 color 0 0 1 }
Segment { rot 0.99667 0 -0.08157 1.06474 offset 0.1787 -0.02757 31000.22109 length 0.00913 color 0 0 1 }
Segment { rot 0.99975 0 0.02228 0.98938 offset 0.17839 -0.03023 31000.21642 length 0.00165 color 0 0 1 }
Segment { rot 0.99654 0 0.08309 1.00179 offset 0.1785 -0.03137 31000.21466 length 0.00256 color 0 0 1 }
Segment { rot 0.98313 0 0.18291 0.94734 offset 0.17871 -0.03255 31000.21292 length 0.00166 color 0 0 1 }
Segment { rot 0.95306 0 0.30278 0.87493 offset 0.18123 -0.03963 31000.20473 length 0.02059 color 0 0 1 }
Segment { rot 0.96002 0 0.27994 0.7985 offset 0.1838 -0.04687 31000.19657 length 0.00182 color 0 0 1 }
Segment { rot 0.96969 0 0.24434 0.84402 offset 0.18418 -0.04821 31000.19517 length 0.00214 color 0 0 1 }
Segment { rot 0.96227 0 0.2721 0.8545 offset 0.18471 -0.05002 31000.19319 length 0.00332 color 0 0 1 }
Segment { rot 0.92562 0 0.37847 0.79158 offset 0.1852 -0.05147 31000.19164 length 0.00104 color 0 0 1 }
Segment { rot 0.93467 0 0.35553 0.79655 offset 0.18556 -0.05246 31000.19071 length 0.00177 color 0 0 1 }
Segment { rot 0.97936 0 0.20214 0.77176 offset 0.18624 -0.05538 31000.18792 length 0.00643 color 0 0 1 }
Segment { rot 0.98216 0 0.18805 0.75941 offset 0.18695 -0.05911 31000.1844 length 0.00392 color 0 0 1 }
Segment { rot 0.97645 0 0.21574 0.76496 offset 0.18721 -0.06058 31000.18303 length 0.00014 color 0 0 1 }
Segment { rot 0.97843 0 0.20657 0.77976 offset 0.18747 -0.06184 31000.18181 length 0.0034 color 0 0 1 }
Segment { rot 0.99803 0 -0.06278 0.71779 offset 0.18762 -0.0647 31000.1792 length 0.00439 color 0 0 1 }
Segment { rot 0.99379 0 -0.11131 0.65777 offset 0.18745 -0.06727 31000.17706 length 0.0023 color 0 0 1 }
Segment { rot 0.94912 0 -0.31491 1.02434 offset 0.18601 -0.07081 31000.17225 length 0.01013 color 0 0 1 }
Segment { rot 0.95744 0 -0.28863 1.04104 offset 0.18448 -0.07378 31000.16758 length 0.00135 color 0 0 1 }
Segment { rot 0.99332 0 0.11539 1.02161 offset 0.18476 -0.07647 31000.16323 length 0.00897 color 0 0 1 }
Segment { rot 0.99287 0 0.11918 1.07211 offset 0.18587 -0.08191 31000.15378 length 0.01296 color 0 0 1 }
Segment { rot 0.99018 0 0.13982 1.08272 offset 0.18714 -0.08722 31000.14399 length 0.00945 color 0 0 1 }
Segment { rot 0.99031 0 0.1389 1.06271 offset 0.18841 -0.09221 31000.13492 length 0.01141 color 0 0 1 }
Segment { rot 0.97673 0 0.21446 1.14525 offset 0.18929 -0.09537 31000.12916 length 0.00185 color 0 0 1 }
Segment { rot 0.98883 0 0.14904 1.19949 offset 0.18966 -0.09625 31000.12709 length 0.00271 color 0 0 1 }
Segment { rot 0.99258 0 -0.12157 1.0209 offset 0.18956 -0.09815 31000.12355 length 0.0054 color 0 0 1 }
Segment { rot 0.99987 0 0.01642 0.79491 offset 0.18933 -0.10227 31000.11851 length 0.00772 color 0 0 1 }
Segment { rot 0.97196 0 -0.23513 0.82735 offset 0.18852 -0.10831 31000.11223 length 0.00986 color 0 0 1 }
Segment { rot 0.94105 0 -0.33826 0.82284 offset 0.18528 -0.1182 31000.10205 length 0.01927 color 0 0 1 }
Segment { rot 0.92321 0 -0.3843 0.873 offset 0.18207 -0.12654 31000.09344 length 0.00554 color 0 0 1 }
Segment { rot 0.87187 0 -0.48974 0.80485 offset 0.1805 -0.1298 31000.09014 length 0.00426 color 0 0 1 }
Segment { rot 0.90425 0 -0.427 0.82196 offset 0.17828 -0.13448 31000.08568 length 0.00941 color 0 0 1 }
Segment { rot 0.90261 0 -0.43046 0.72898 offset 0.1759 -0.14004 31000.08067 length 0.00633 color 0 0 1 }
Segment { rot 0.92906 0 -0.36992 0.68585 offset 0.17472 -0.14329 31000.07809 length 0.0023 color 0 0 1 }
Segment { rot 0.90336 0 -0.42888 0.68761 offset 0.17293 -0.1485 31000.0742 length 0.01119 color 0 0 1 }
Segment { rot 0.91536 0 -0.40264 0.6836 offset 0.17052 -0.15554 31000.06897 length 0.007 color 0 0 1 }
Segment { rot 0.94715 0 -0.32081 0.60162 offset 0.16953 -0.15868 31000.06667 length 0.00103 color 0 0 1 }
Segment { rot 0.93947 0 -0.34264 0.61678 offset 0.16905 -0.16072 31000.06532 length 0.00398 color 0 0 1 }
Segment { rot 0.99051 0 -0.13746 0.62873 offset 0.16859 -0.16298 31000.06378 length 0.00157 color 0 0 1 }
Segment { rot 0.99756 0 -0.06979 0.53219 offset 0.16841 -0.16631 31000.06174 length 0.00625 color 0 0 1 }
Segment { rot 0.99011 0 0.14032 0.47228 offset 0.16842 -0.17057 31000.05936 length 0.00352 color 0 0 1 }
Segment { rot 0.99014 0 0.14006 0.48006 offset 0.16857 -0.17271 31000.05828 length 0.00128 color 0 0 1 }
Segment { rot 0.97826 0 0.20738 0.45279 offset 0.16886 -0.17579 31000.05679 length 0.00559 color 0 0 1 }
Segment { rot 0.97271 0 -0.23202 0.88008 offset 0.16908 -0.17845 31000.05541 length 0.00048 color 0 0 1 }
Segment { rot 0.94618 0 -0.32364 0.97451 offset 0.16801 -0.18074 31000.05225 length 0.00761 color 0 0 1 }
Segment { rot 0.93043 0 -0.36647 0.94591 offset 0.16487 -0.18707 31000.04387 length 0.01431 color 0 0 1 }
Segment { rot 0.98875 0 -0.14958 1.05773 offset 0.16202 -0.19395 31000.03374 length 0.011 color 0 0 1 }
Segment { rot 0.9887 0 -0.14993 1.05443 offset 0.16046 -0.19986 31000.02342 length 0.01298 color 0 0 1 }
Segment { rot 0.98457 0 -0.17499 1.08843 offset 0.15917 -0.2044 31000.01533 length 0.00575 color 0 0 1 }
Segment { rot 0.98277 0 -0.18486 1.08036 offset 0.15861 -0.20606 31000.01221 length 0.00139 color 0 0 1 }
Segment { rot 0.99586 0 -0.09088 1.09998 offset 0.15824 -0.2078 31000.00885 length 0.00621 color 0 0 1 }
Segment { rot 0.99528 0 -0.09706 1.07971 offset 0.1578 -0.21027 31000.00411 length 0.00452 color 0 0 1 }
Segment { rot 0.9953 0 -0.09683 1.07476 offset 0.15751 -0.21188 31000.00114 length 0.00226 color 0 0 1 }
Segment { rot 0.99989 0 0.01463 0.94335 offset 0.15741 -0.21247 31000.00008 length 0.00019 color 0 0 1 }