#VRML V2.0 utf8
#Generated by NISTMonte
WorldInfo {
 title "NISTMonte Trajectory"
 info ["See http://www.cstl.nist.gov/div837/Division/home.html for more information"]
}
Viewpoint {
 fieldOfView 0.785398
 position 0 5 31000
 orientation -1 -0 -0 1.5708
 description "Y-Axis"
}
Viewpoint {
 fieldOfView 0.785398
 position 0 0 30995
 orientation 1 0 0 3.1415926
 description "Gun"
}
Viewpoint {
 fieldOfView 0.785398
 position -5 0 31000
 orientation 0 -1 0 1.5708
 description "X-Axis"
}




#Prototype for a trajectory segment
PROTO Segment [
 field SFRotation rot 1 0 0 0
 field SFVec3f offset 0 0 0
 field SFFloat length 0.1
 field SFColor color 1 1 1
]
{
 Transform {
  rotation IS rot
  translation IS offset
  children [
   Shape {
    geometry Cylinder {
     radius 0.001
     height IS length
    }
    appearance Appearance {
     material Material {
      emissiveColor IS color
     }
    }
   }
  ]
 }
}
Segment { rot -1 0 -0 1.5708 offset 0.00952 0.01259 31000.00009 length 0.00018 color 0 0 1 }
Segment { rot -1 0 0.00248 1.60847 offset 0.00952 0.01271 31000.00327 length 0.00619 color 0 0 1 }
Segment { rot -0.99994 0 -0.01074 1.5631 offset 0.00952 0.01282 31000.00713 length 0.00152 color 0 0 1 }
Segment { rot -0.99931 0 -0.03726 1.61883 offset 0.00941 0.01295 31000.01081 length 0.00585 color 0 0 1 }
Segment { rot -0.99136 0 -0.1312 1.62587 offset 0.00921 0.01313 31000.01437 length 0.0013 color 0 0 1 }
Segment { rot -0.99373 0 -0.11178 1.63948 offset 0.00847 0.01357 31000.02081 length 0.01171 color 0 0 1 }
Segment { rot -0.9997 0 -0.02439 1.60726 offset 0.00759 0.01432 31000.03625 length 0.0193 color 0 0 1 }
Segment { rot -0.99975 0 0.02219 1.59222 offset 0.00762 0.01493 31000.05797 length 0.02416 color 0 0 1 }
Segment { rot -0.99903 0 0.04397 1.62435 offset 0.00821 0.01558 31000.0773 length 0.01455 color 0 0 1 }
Segment { rot -0.99624 0 0.08659 1.61262 offset 0.00872 0.01606 31000.08675 length 0.00441 color 0 0 1 }
Segment { rot -0.99597 0 0.08973 1.64539 offset 0.00898 0.01621 31000.0897 length 0.00153 color 0 0 1 }
Segment { rot -0.99537 0 0.0961 1.63048 offset 0.00942 0.0165 31000.09437 length 0.00787 color 0 0 1 }
Segment { rot -0.98331 0 0.18193 1.66645 offset 0.01006 0.01687 31000.09968 length 0.00285 color 0 0 1 }
Segment { rot -0.9807 0 0.19552 1.64131 offset 0.01036 0.01702 31000.10128 length 0.00041 color 0 0 1 }
Segment { rot -0.97004 0 0.24294 1.74567 offset 0.0123 0.01842 31000.10908 length 0.01592 color 0 0 1 }
Segment { rot -0.99653 0 -0.08321 1.75501 offset 0.01416 0.01991 31000.11721 length 0.00107 color 0 0 1 }
Segment { rot -0.91473 0 -0.40406 1.76463 offset 0.01299 0.02055 31000.1203 length 0.0057 color 0 0 1 }
Segment { rot -0.91934 0 -0.39345 1.49313 offset 0.01126 0.02099 31000.12424 length 0.00302 color 0 0 1 }
Segment { rot -0.95046 0 -0.31085 1.5395 offset 0.01052 0.02085 31000.12609 length 0.00096 color 0 0 1 }
Segment { rot -0.945 0 -0.32706 1.58575 offset 0.01006 0.02085 31000.12745 length 0.00191 color 0 0 1 }
Segment { rot -0.92834 0 -0.37173 1.89385 offset 0.00785 0.02258 31000.1331 length 0.01078 color 0 0 1 }
Segment { rot -0.928 0 -0.37257 1.87398 offset 0.00509 0.02501 31000.13998 length 0.00482 color 0 0 1 }
Segment { rot -0.92935 0 -0.36919 1.85953 offset 0.00248 0.02714 31000.14651 length 0.00987 color 0 0 1 }
Segment { rot -0.96309 0 -0.26916 1.81949 offset 0.00046 0.0288 31000.15189 length 0.00209 color 0 0 1 }
Segment { rot -0.77045 0 -0.6375 2.09583 offset 0.00018 0.02906 31000.15287 length 0.00002 color 0 0 1 }
Segment { rot -0.70596 0 -0.70825 2.10721 offset -0.00293 0.03168 31000.15598 length 0.01022 color 0 0 1 }
Segment { rot -0.5951 0 -0.80365 1.98859 offset -0.02072 0.0424 31000.16995 length 0.03996 color 0 0 1 }
Segment { rot -0.57028 0 -0.82145 2.04698 offset -0.03895 0.05273 31000.18328 length 0.00973 color 0 0 1 }
Segment { rot -0.99259 0 -0.12155 1.366 offset -0.04399 0.05242 31000.19792 length 0.02506 color 0 0 1 }
Segment { rot -0.98322 0 -0.18244 1.40529 offset -0.04667 0.04878 31000.21652 length 0.01324 color 0 0 1 }
Segment { rot -0.9724 0 -0.23332 1.34056 offset -0.04791 0.04764 31000.22313 length 0.0004 color 0 0 1 }
Segment { rot -0.97085 0 -0.2397 1.34168 offset -0.05091 0.04472 31000.23529 length 0.02531 color 0 0 1 }
Segment { rot -0.96888 0 -0.24752 1.34936 offset -0.05389 0.04182 31000.24736 length 0.00023 color 0 0 1 }
Segment { rot -0.96752 0 -0.2528 1.3702 offset -0.05499 0.04094 31000.25156 length 0.00864 color 0 0 1 }
Segment { rot -0.93874 0 -0.34462 1.44915 offset -0.05867 0.03915 31000.26276 length 0.01524 color 0 0 1 }
Segment { rot -0.91714 0 -0.39857 1.43023 offset -0.0629 0.03765 31000.27361 length 0.00825 color 0 0 1 }
Segment { rot -0.97702 0 -0.21317 1.37362 offset -0.06493 0.0367 31000.27917 length 0.00378 color 0 0 1 }
Segment { rot -0.98938 0 -0.14536 1.32434 offset -0.06568 0.03571 31000.28339 length 0.00504 color 0 0 1 }
Segment { rot -0.98848 0 -0.15138 1.39591 offset -0.06633 0.03475 31000.28779 length 0.00408 color 0 0 1 }
Segment { rot -0.98327 0 -0.18218 1.35173 offset -0.06878 0.03177 31000.30133 length 0.02409 color 0 0 1 }
Segment { rot -0.93903 0 -0.34383 1.36272 offset -0.07174 0.02865 31000.31513 length 0.00486 color 0 0 1 }
Segment { rot -0.95493 0 -0.29685 1.42229 offset -0.07272 0.02807 31000.3179 length 0.00113 color 0 0 1 }
Segment { rot -0.9564 0 -0.29205 1.4315 offset -0.0729 0.02798 31000.31846 length 0.00006 color 0 0 1 }
Segment { rot -0.94758 0 -0.31952 1.44451 offset -0.07366 0.02768 31000.32073 length 0.00477 color 0 0 1 }
Segment { rot -0.94305 0 -0.33265 1.44714 offset -0.07702 0.0264 31000.33035 length 0.01577 color 0 0 1 }
Segment { rot -0.93748 0 -0.34804 1.49805 offset -0.08029 0.02529 31000.33952 length 0.00382 color 0 0 1 }
Segment { rot -0.92539 0 -0.37902 1.51273 offset -0.08149 0.02507 31000.34262 length 0.00283 color 0 0 1 }
Segment { rot -0.91628 0 -0.40053 1.50342 offset -0.08252 0.0249 31000.34506 length 0.0025 color 0 0 1 }
Segment { rot -0.96088 0 -0.27695 1.29952 offset -0.08393 0.0239 31000.34937 length 0.00684 color 0 0 1 }
Segment { rot -0.96185 0 -0.27359 1.29559 offset -0.08508 0.02274 31000.35336 length 0.00178 color 0 0 1 }
Segment { rot -0.96036 0 -0.27876 1.29722 offset -0.0854 0.02242 31000.35447 length 0.00063 color 0 0 1 }
Segment { rot -0.96003 0 -0.2799 1.17774 offset -0.08641 0.02096 31000.35795 length 0.00717 color 0 0 1 }
Segment { rot -0.96153 0 -0.27471 1.22903 offset -0.0879 0.01885 31000.36311 length 0.00437 color 0 0 1 }
Segment { rot -0.94588 0 -0.32452 1.2579 offset -0.08921 0.01738 31000.36724 length 0.00478 color 0 0 1 }
Segment { rot -0.95723 0 -0.28933 1.26089 offset -0.09036 0.01619 31000.37077 length 0.00303 color 0 0 1 }
Segment { rot -0.95925 0 -0.28257 1.3321 offset -0.09108 0.01546 31000.37318 length 0.0022 color 0 0 1 }
Segment { rot -0.9626 0 -0.27092 1.2515 offset -0.09323 0.01296 31000.38074 length 0.0143 color 0 0 1 }
Segment { rot -0.90852 0 -0.41785 1.29091 offset -0.09535 0.01052 31000.3879 length 0.00143 color 0 0 1 }
Segment { rot -0.88248 0 -0.47036 1.23677 offset -0.09587 0.01015 31000.38895 length 0.00102 color 0 0 1 }
Segment { rot -0.82546 0 -0.56446 1.26396 offset -0.10092 0.00727 31000.39644 length 0.01796 color 0 0 1 }
Segment { rot -0.8216 0 -0.57006 1.284 offset -0.11215 0.00125 31000.41272 length 0.0234 color 0 0 1 }
Segment { rot -0.94054 0 -0.33968 0.97821 offset -0.11868 -0.00232 31000.42231 length 0.00095 color 0 0 1 }
Segment { rot -0.93504 0 -0.35456 1.53031 offset -0.11918 -0.00263 31000.42365 length 0.00207 color 0 0 1 }
Segment { rot -0.95156 0 -0.30747 1.55003 offset -0.1201 -0.00271 31000.42633 length 0.0036 color 0 0 1 }
Segment { rot -0.94797 0 -0.31835 1.56447 offset -0.12478 -0.00283 31000.44033 length 0.02593 color 0 0 1 }
Segment { rot -0.9815 0 -0.19148 1.43697 offset -0.12913 -0.00306 31000.45374 length 0.00229 color 0 0 1 }
Segment { rot -0.99729 0 -0.07355 1.58884 offset -0.12942 -0.0032 31000.45583 length 0.00196 color 0 0 1 }
Segment { rot -0.98954 0 -0.14423 1.60866 offset -0.12991 -0.00307 31000.45967 length 0.0058 color 0 0 1 }
Segment { rot -0.99025 0 -0.13931 1.65905 offset -0.13095 -0.00257 31000.46698 length 0.009 color 0 0 1 }
Segment { rot -0.99043 0 -0.138 1.67894 offset -0.13176 -0.00202 31000.47274 length 0.00267 color 0 0 1 }
Segment { rot -0.99784 0 -0.06566 1.61264 offset -0.13216 -0.00174 31000.47739 length 0.0067 color 0 0 1 }
Segment { rot -0.99524 0 -0.0975 1.59537 offset -0.13297 -0.00145 31000.48672 length 0.01204 color 0 0 1 }
Segment { rot -0.99587 0 -0.09081 1.59897 offset -0.13371 -0.00125 31000.49447 length 0.00354 color 0 0 1 }
Segment { rot -0.99614 0 -0.08775 1.53621 offset -0.13412 -0.0013 31000.49904 length 0.00563 color 0 0 1 }
Segment { rot -0.98561 0 -0.16906 1.58392 offset -0.1344 -0.0014 31000.502 length 0.00031 color 0 0 1 }
Segment { rot -0.98718 0 -0.1596 1.5903 offset -0.13467 -0.00136 31000.50371 length 0.00316 color 0 0 1 }
Segment { rot -0.9959 0 -0.09048 1.67066 offset -0.13527 -0.00095 31000.50906 length 0.00766 color 0 0 1 }
Segment { rot -0.99455 0 -0.10426 1.67822 offset -0.13632 0.00016 31000.51956 length 0.01354 color 0 0 1 }
Segment { rot -0.99153 0 -0.12991 1.75431 offset -0.13768 0.00182 31000.53128 length 0.01031 color 0 0 1 }
Segment { rot -0.99498 0 -0.10008 1.77282 offset -0.13864 0.00339 31000.53932 length 0.00619 color 0 0 1 }
Segment { rot -0.99184 0 -0.12751 1.89016 offset -0.13955 0.00557 31000.54702 length 0.00994 color 0 0 1 }
Segment { rot -0.99461 0 -0.10365 1.91766 offset -0.14039 0.00797 31000.55403 length 0.00499 color 0 0 1 }
Segment { rot -0.97613 0 -0.2172 2.09069 offset -0.14064 0.00885 31000.55641 length 0.00012 color 0 0 1 }
Segment { rot -0.98026 0 -0.19771 1.91063 offset -0.14094 0.00938 31000.55785 length 0.00301 color 0 0 1 }
Segment { rot -0.97297 0 -0.23092 1.8909 offset -0.1421 0.01115 31000.56295 length 0.00803 color 0 0 1 }
Segment { rot -0.94926 0 -0.3145 1.92932 offset -0.14307 0.01252 31000.56693 length 0.00061 color 0 0 1 }
Segment { rot -0.91904 0 -0.39417 1.96769 offset -0.14444 0.01399 31000.57021 length 0.00708 color 0 0 1 }
Segment { rot -0.95287 0 -0.30337 2.39356 offset -0.14576 0.01547 31000.5733 length 0.00029 color 0 0 1 }
Segment { rot -0.92207 0 -0.38702 2.52847 offset -0.14713 0.02048 31000.57658 length 0.012 color 0 0 1 }
Segment { rot -0.72805 0 -0.68553 1.97586 offset -0.14966 0.02614 31000.58104 length 0.00381 color 0 0 1 }
Segment { rot -0.6809 0 -0.73237 1.94318 offset -0.16473 0.03429 31000.59521 length 0.04066 color 0 0 1 }
Segment { rot -0.68154 0 -0.73178 1.84738 offset -0.18477 0.04408 31000.61385 length 0.01754 color 0 0 1 }
Segment { rot -0.68912 0 -0.72465 1.9105 offset -0.19357 0.04775 31000.62209 length 0.00768 color 0 0 1 }
Segment { rot -0.68039 0 -0.73285 1.92547 offset -0.19923 0.05057 31000.6274 length 0.00882 color 0 0 1 }
Segment { rot -0.6951 0 -0.71892 1.94902 offset -0.21147 0.05719 31000.63912 length 0.02756 color 0 0 1 }
Segment { rot -0.6962 0 -0.71785 1.96767 offset -0.22149 0.06275 31000.64881 length 0.00247 color 0 0 1 }
Segment { rot -0.68417 0 -0.72933 2.00924 offset -0.22258 0.06341 31000.64986 length 0.00083 color 0 0 1 }
Segment { rot -0.68998 0 -0.72383 2.05045 offset -0.22555 0.06552 31000.65269 length 0.00838 color 0 0 1 }
Segment { rot -0.78144 0 -0.62398 2.08057 offset -0.22843 0.06762 31000.6555 length 0.00072 color 0 0 1 }
Segment { rot -0.80898 0 -0.58783 1.93461 offset -0.23374 0.07111 31000.66278 length 0.01863 color 0 0 1 }
Segment { rot -0.78326 0 -0.6217 1.91347 offset -0.24117 0.07575 31000.67274 length 0.0079 color 0 0 1 }
Segment { rot -0.77972 0 -0.62613 1.97821 offset -0.24504 0.07815 31000.67758 length 0.00539 color 0 0 1 }
Segment { rot -0.79525 0 -0.60628 2.02786 offset -0.24951 0.08159 31000.68334 length 0.01073 color 0 0 1 }
Segment { rot -0.77927 0 -0.62668 2.03172 offset -0.25279 0.08424 31000.68762 length 0.00129 color 0 0 1 }
Segment { rot -0.71531 0 -0.69881 1.97582 offset -0.25353 0.08476 31000.68847 length 0.0012 color 0 0 1 }
Segment { rot -0.69108 0 -0.72278 1.95385 offset -0.25449 0.08532 31000.6894 length 0.0017 color 0 0 1 }
Segment { rot -0.75214 0 -0.659 2.0412 offset -0.25624 0.08655 31000.69129 length 0.00402 color 0 0 1 }
Segment { rot -0.77527 0 -0.63163 2.10052 offset -0.25836 0.08833 31000.6938 length 0.00346 color 0 0 1 }
Segment { rot -0.82802 0 -0.56069 2.04742 offset -0.2608 0.09059 31000.69717 length 0.00603 color 0 0 1 }
Segment { rot -0.8281 0 -0.56058 2.08179 offset -0.2628 0.09246 31000.70012 length 0.00202 color 0 0 1 }
Segment { rot -0.89031 0 -0.45536 2.11774 offset -0.26386 0.09372 31000.70196 length 0.00294 color 0 0 1 }
Segment { rot -0.8996 0 -0.43671 2.11983 offset -0.26569 0.09624 31000.70566 length 0.00673 color 0 0 1 }
Segment { rot -0.8972 0 -0.44162 2.0926 offset -0.26715 0.09826 31000.70866 length 0.00108 color 0 0 1 }
Segment { rot -0.90436 0 -0.42677 2.13125 offset -0.26739 0.09859 31000.70917 length 0.00022 color 0 0 1 }
Segment { rot -0.91758 0 -0.39755 2.18717 offset -0.26843 0.10043 31000.71155 length 0.00614 color 0 0 1 }
Segment { rot -0.93826 0 -0.34594 2.2079 offset -0.26986 0.10312 31000.71501 length 0.00308 color 0 0 1 }
Segment { rot -0.94847 0 -0.31687 2.11288 offset -0.27251 0.10826 31000.72284 length 0.0164 color 0 0 1 }
Segment { rot -0.94564 0 -0.32523 2.11887 offset -0.27544 0.11381 31000.73154 length 0.00505 color 0 0 1 }
Segment { rot -0.98987 0 -0.14196 2.17097 offset -0.27663 0.11752 31000.73703 length 0.00846 color 0 0 1 }
Segment { rot -0.99595 0 -0.08986 2.06898 offset -0.2774 0.12157 31000.74354 length 0.00696 color 0 0 1 }
Segment { rot -0.9899 0 -0.14174 2.10075 offset -0.27774 0.12349 31000.74701 length 0.00099 color 0 0 1 }
Segment { rot -0.99001 0 -0.14103 2.12093 offset -0.27806 0.12487 31000.74926 length 0.00434 color 0 0 1 }
Segment { rot -0.98224 0 -0.18763 2.19188 offset -0.27885 0.12801 31000.75385 length 0.0069 color 0 0 1 }
Segment { rot -0.81802 0 -0.57519 1.9846 offset -0.27988 0.1304 31000.75732 length 0.00192 color 0 0 1 }
Segment { rot -0.84239 0 -0.53887 1.9971 offset -0.28147 0.1317 31000.75974 length 0.00442 color 0 0 1 }
Segment { rot -0.67707 0 -0.73592 2.03721 offset -0.28526 0.13447 31000.76392 length 0.00823 color 0 0 1 }
Segment { rot -0.79935 0 -0.60086 2.02947 offset -0.28804 0.13638 31000.76651 length 0.0003 color 0 0 1 }
Segment { rot -0.08284 0 -0.99656 2.11436 offset -0.28989 0.13752 31000.76677 length 0.00414 color 0 0 1 }
Segment { rot 0.07281 0 -0.99735 2.32165 offset -0.29228 0.13918 31000.76687 length 0.00172 color 0 0 1 }
Segment { rot 0.38967 0 -0.92095 2.37581 offset -0.29331 0.14022 31000.76666 length 0.00124 color 0 0 1 }
Segment { rot 0.19949 0 -0.9799 2.33034 offset -0.29438 0.14132 31000.76635 length 0.0019 color 0 0 1 }
Segment { rot 0.08287 0 -0.99656 2.29285 offset -0.29817 0.14473 31000.76595 length 0.00834 color 0 0 1 }
Segment { rot 0.79452 0 -0.60723 2.05808 offset -0.30168 0.14782 31000.76519 length 0.00145 color 0 0 1 }
Segment { rot 0.51298 0 -0.8584 1.95497 offset -0.30208 0.14817 31000.76467 length 0.00003 color 0 0 1 }
Segment { rot 0.38508 0 -0.92288 2.01732 offset -0.30331 0.1488 31000.76416 length 0.00293 color 0 0 1 }
Segment { rot 0.3688 0 -0.92951 1.94933 offset -0.30533 0.14978 31000.76333 length 0.00184 color 0 0 1 }
Segment { rot 0.57667 0 -0.81697 2.00592 offset -0.30699 0.15061 31000.7624 length 0.00234 color 0 0 1 }
Segment { rot 0.59841 0 -0.80119 2.04603 offset -0.30872 0.15166 31000.76115 length 0.00241 color 0 0 1 }
Segment { rot 0.58336 0 -0.81221 2.0444 offset -0.30965 0.15225 31000.76046 length 0.00018 color 0 0 1 }
Segment { rot 0.58073 0 -0.81409 2.20972 offset -0.31555 0.15762 31000.75625 length 0.01786 color 0 0 1 }
Segment { rot 0.5557 0 -0.83138 2.18283 offset -0.32418 0.1653 31000.75022 length 0.00822 color 0 0 1 }
Segment { rot 0.61115 0 -0.79151 2.2082 offset -0.32703 0.16771 31000.74831 length 0.00015 color 0 0 1 }
Segment { rot 0.61739 0 -0.78666 2.192 offset -0.33033 0.17072 31000.74571 length 0.0102 color 0 0 1 }
Segment { rot 0.59005 0 -0.80736 2.19965 offset -0.33686 0.17663 31000.74077 length 0.01001 color 0 0 1 }
Segment { rot 0.53475 0 -0.84501 2.14153 offset -0.34073 0.18003 31000.738 length 0.00168 color 0 0 1 }
Segment { rot -0.22615 0 -0.97409 2.3612 offset -0.34164 0.18081 31000.73769 length 0.00091 color 0 0 1 }
Segment { rot -0.24488 0 -0.96955 2.34696 offset -0.34279 0.18198 31000.73798 length 0.00242 color 0 0 1 }
Segment { rot -0.32574 0 -0.94546 2.32683 offset -0.34486 0.18407 31000.73861 length 0.00361 color 0 0 1 }
Segment { rot -0.69573 0 -0.7183 2.10094 offset -0.34649 0.18562 31000.73942 length 0.00125 color 0 0 1 }
Segment { rot -0.63168 0 -0.77523 2.08539 offset -0.34711 0.1861 31000.73998 length 0.00069 color 0 0 1 }
Segment { rot -0.62447 0 -0.78105 1.86087 offset -0.34866 0.18678 31000.74122 length 0.0035 color 0 0 1 }
Segment { rot -0.9592 0 -0.28274 1.81245 offset -0.3504 0.18765 31000.74374 length 0.00315 color 0 0 1 }
Segment { rot -0.98221 0 -0.18779 1.94895 offset -0.35085 0.18807 31000.74529 length 0.00019 color 0 0 1 }
Segment { rot -0.99268 0 -0.12078 1.94191 offset -0.35088 0.18813 31000.74544 length 0.00014 color 0 0 1 }
Segment { rot -0.99985 0 0.0171 2.11541 offset -0.35086 0.18892 31000.74678 length 0.00298 color 0 0 1 }
Segment { rot -0.99999 0 -0.00463 2.06932 offset -0.35085 0.19089 31000.75025 length 0.005 color 0 0 1 }
Segment { rot -0.99999 0 -0.00422 2.09456 offset -0.35086 0.19213 31000.75252 length 0.00017 color 0 0 1 }
Segment { rot -0.99848 0 0.05512 2.10562 offset -0.35074 0.19352 31000.75487 length 0.00531 color 0 0 1 }
Segment { rot -0.99857 0 0.05354 2.13499 offset -0.35046 0.19662 31000.7599 length 0.00651 color 0 0 1 }
Segment { rot -0.70931 0 -0.70489 1.91313 offset -0.35084 0.19862 31000.76317 length 0.00159 color 0 0 1 }
Segment { rot -0.88303 0 -0.46933 1.28643 offset -0.35241 0.19824 31000.76567 length 0.00464 color 0 0 1 }
Segment { rot -0.99428 0 0.10678 1.42091 offset -0.3532 0.19722 31000.77005 length 0.00492 color 0 0 1 }
Segment { rot -0.9879 0 0.15509 1.33378 offset -0.3528 0.19664 31000.77334 length 0.00182 color 0 0 1 }
Segment { rot -0.98036 0 0.19722 1.14617 offset -0.35224 0.19546 31000.77632 length 0.00471 color 0 0 1 }
Segment { rot -0.96356 0 0.2675 1.42033 offset -0.35095 0.19399 31000.78155 length 0.00656 color 0 0 1 }
Segment { rot -0.90708 0 0.42095 1.52802 offset -0.34963 0.19346 31000.78564 length 0.00213 color 0 0 1 }
Segment { rot -0.98819 0 0.15326 1.45163 offset -0.34839 0.19279 31000.79173 length 0.01044 color 0 0 1 }
Segment { rot -0.98427 0 0.17665 1.40858 offset -0.34668 0.19132 31000.80195 length 0.0105 color 0 0 1 }
Segment { rot -0.98373 0 0.17964 1.39609 offset -0.34562 0.19033 31000.80785 length 0.00165 color 0 0 1 }
Segment { rot -0.99678 0 0.08019 1.56522 offset -0.34539 0.19018 31000.80975 length 0.00219 color 0 0 1 }
Segment { rot -0.99517 0 0.09816 1.56409 offset -0.34498 0.19015 31000.81412 length 0.00659 color 0 0 1 }
Segment { rot -0.999 0 0.04475 1.5957 offset -0.3445 0.19022 31000.82085 length 0.00691 color 0 0 1 }
Segment { rot -0.99981 0 0.01975 1.57387 offset -0.34432 0.19031 31000.82537 length 0.00214 color 0 0 1 }
Segment { rot -0.99932 0 -0.03678 1.58041 offset -0.34431 0.19031 31000.82657 length 0.00026 color 0 0 1 }
Segment { rot -0.99541 0 -0.09574 1.62803 offset -0.34452 0.19043 31000.82884 length 0.00431 color 0 0 1 }
Segment { rot -0.99788 0 -0.06511 1.6173 offset -0.34533 0.19099 31000.84032 length 0.01873 color 0 0 1 }
Segment { rot -0.99532 0 -0.09662 1.5846 offset -0.34595 0.19143 31000.84974 length 0.00017 color 0 0 1 }
Segment { rot -0.98936 0 -0.14551 1.64063 offset -0.34599 0.19145 31000.85008 length 0.00051 color 0 0 1 }
Segment { rot -0.99764 0 0.06862 1.67144 offset -0.34596 0.19158 31000.85142 length 0.00219 color 0 0 1 }
Segment { rot -0.99046 0 0.13783 1.67786 offset -0.34585 0.19171 31000.85272 length 0.00043 color 0 0 1 }
Segment { rot -0.9738 0 0.22741 2.50502 offset -0.34563 0.19286 31000.85374 length 0.00279 color 0 0 1 }
Segment { rot -0.98567 0 0.16869 2.52828 offset -0.3454 0.19434 31000.8548 length 0.00089 color 0 0 1 }
Segment { rot -0.9923 0 0.12386 2.52039 offset -0.3453 0.19533 31000.8555 length 0.00153 color 0 0 1 }
Segment { rot -0.99925 0 0.03882 2.50705 offset -0.3452 0.19757 31000.85713 length 0.00401 color 0 0 1 }
Segment { rot -0.99013 0 0.14013 2.48806 offset -0.34514 0.19932 31000.85842 length 0.00034 color 0 0 1 }
Segment { rot -0.98524 0 0.17118 2.56815 offset -0.34493 0.20125 31000.85967 length 0.00427 color 0 0 1 }
Segment { rot -0.99924 0 -0.03888 2.54798 offset -0.3449 0.20963 31000.86525 length 0.0159 color 0 0 1 }
Segment { rot -0.99675 0 -0.08059 2.57246 offset -0.34522 0.21894 31000.87143 length 0.00646 color 0 0 1 }
Segment { rot -0.92186 0 -0.38753 2.712 offset -0.34547 0.2223 31000.87343 length 0.00141 color 0 0 1 }
Segment { rot -0.94357 0 -0.33117 2.71518 offset -0.34585 0.22473 31000.87446 length 0.00391 color 0 0 1 }
Segment { rot -0.95603 0 -0.29328 2.63931 offset -0.34615 0.22668 31000.87532 length 0.00041 color 0 0 1 }
Segment { rot -0.90995 0 -0.41472 2.66895 offset -0.34623 0.22713 31000.87554 length 0.00059 color 0 0 1 }
Segment { rot -0.94783 0 -0.31878 2.6632 offset -0.34638 0.22796 31000.87594 length 0.0013 color 0 0 1 }
Segment { rot -0.96331 0 -0.26838 2.58965 offset -0.34678 0.23038 31000.87731 length 0.00431 color 0 0 1 }
Segment { rot -0.97025 0 -0.24209 2.63326 offset -0.34743 0.23479 31000.8798 length 0.00591 color 0 0 1 }
Segment { rot -0.95719 0 -0.28945 2.59905 offset -0.34794 0.23828 31000.88172 length 0.00211 color 0 0 1 }
Segment { rot -0.95776 0 -0.28756 2.61912 offset -0.34851 0.24167 31000.88361 length 0.00573 color 0 0 1 }
Segment { rot -0.95811 0 -0.2864 2.61112 offset -0.34908 0.24512 31000.88552 length 0.00225 color 0 0 1 }
Segment { rot -0.92077 0 -0.39011 2.64298 offset -0.34984 0.2489 31000.88747 length 0.00638 color 0 0 1 }
Segment { rot -0.9981 0 -0.06167 2.76298 offset -0.35053 0.25554 31000.8904 length 0.00827 color 0 0 1 }
Segment { rot -0.82065 0 0.57143 2.45595 offset -0.35048 0.25968 31000.89213 length 0.00077 color 0 0 1 }
Segment { rot -0.67989 0 0.73331 2.56438 offset -0.35019 0.26031 31000.89248 length 0.00079 color 0 0 1 }
Segment { rot -0.6254 0 0.7803 2.56083 offset -0.34958 0.26151 31000.89298 length 0.00209 color 0 0 1 }
Segment { rot -0.6804 0 0.73284 2.53456 offset -0.34724 0.26611 31000.8951 length 0.00908 color 0 0 1 }
Segment { rot -0.73888 0 0.67384 2.63345 offset -0.34531 0.26992 31000.8969 length 0.00017 color 0 0 1 }
Segment { rot -0.78207 0 0.62319 2.59486 offset -0.34469 0.27155 31000.89767 length 0.00363 color 0 0 1 }
Segment { rot -0.81342 0 0.58168 2.61106 offset -0.3436 0.27457 31000.89911 length 0.00341 color 0 0 1 }
Segment { rot -0.79863 0 0.60182 2.58768 offset -0.34229 0.27822 31000.90088 length 0.00512 color 0 0 1 }
Segment { rot -0.7862 0 0.61797 2.6297 offset -0.33852 0.28891 31000.90572 length 0.01954 color 0 0 1 }
Segment { rot -0.87214 0 0.48925 2.6384 offset -0.33544 0.29791 31000.90971 length 0.00109 color 0 0 1 }
Segment { rot -0.68199 0 0.73136 2.55851 offset -0.33212 0.30499 31000.91291 length 0.01584 color 0 0 1 }
Segment { rot -0.68699 0 0.72667 2.55228 offset -0.32735 0.31486 31000.91738 length 0.00784 color 0 0 1 }
Segment { rot -0.20996 0 0.97771 2.43136 offset -0.32505 0.31897 31000.91903 length 0.00226 color 0 0 1 }
Segment { rot -0.03694 0 0.99932 2.34962 offset -0.32402 0.32013 31000.9192 length 0.00086 color 0 0 1 }
Segment { rot 0.0262 0 0.99966 2.29774 offset -0.32222 0.32177 31000.91917 length 0.00402 color 0 0 1 }
Segment { rot 0.15196 0 0.98839 2.18409 offset -0.31369 0.3281 31000.91805 length 0.01737 color 0 0 1 }
Segment { rot 0.11995 0 0.99278 2.23123 offset -0.3056 0.33394 31000.91684 length 0.00273 color 0 0 1 }
Segment { rot 0.17248 0 0.98501 2.25023 offset -0.30313 0.33593 31000.91647 length 0.00367 color 0 0 1 }
Segment { rot -0.11445 0 0.99343 1.96669 offset -0.29918 0.33815 31000.91652 length 0.00556 color 0 0 1 }
Segment { rot 0.29987 0 0.95398 2.23215 offset -0.29252 0.34258 31000.91552 length 0.01093 color 0 0 1 }
Segment { rot 0.2757 0 0.96124 2.13624 offset -0.28719 0.34673 31000.91388 length 0.00297 color 0 0 1 }
Segment { rot 0.62246 0 0.78265 2.07352 offset -0.28312 0.34954 31000.91125 length 0.00836 color 0 0 1 }
Segment { rot 0.73559 0 0.67743 1.86645 offset -0.27875 0.35223 31000.90734 length 0.00464 color 0 0 1 }
Segment { rot 0.72346 0 0.69037 1.83791 offset -0.27587 0.35345 31000.90427 length 0.00413 color 0 0 1 }
Segment { rot 0.20963 0 0.97778 2.05868 offset -0.27434 0.35408 31000.90279 length 0.00036 color 0 0 1 }
Segment { rot 0.32017 0 0.94736 1.89888 offset -0.27341 0.35445 31000.90249 length 0.00174 color 0 0 1 }
Segment { rot 0.30383 0 0.95273 1.92379 offset -0.27102 0.35535 31000.90172 length 0.0036 color 0 0 1 }
Segment { rot 0.25924 0 0.96581 1.87376 offset -0.26832 0.35632 31000.90091 length 0.00235 color 0 0 1 }
Segment { rot 0.39309 0 0.9195 1.6875 offset -0.26605 0.35683 31000.90011 length 0.00262 color 0 0 1 }
Segment { rot 0.50953 0 0.86045 1.75333 offset -0.26411 0.35714 31000.89916 length 0.00175 color 0 0 1 }
Segment { rot 0.88198 0 -0.47128 1.79585 offset -0.26409 0.35765 31000.89738 length 0.00314 color 0 0 1 }
Segment { rot 0.8779 0 -0.47885 1.73705 offset -0.26546 0.35823 31000.89483 length 0.00277 color 0 0 1 }
Segment { rot 0.82214 0 -0.56929 1.69492 offset -0.26625 0.35849 31000.89343 length 0.00048 color 0 0 1 }
Segment { rot 0.8833 0 -0.46882 1.88262 offset -0.26705 0.35897 31000.892 length 0.00295 color 0 0 1 }
Segment { rot 0.8861 0 -0.4635 1.7999 offset -0.26889 0.36001 31000.88849 length 0.00525 color 0 0 1 }
Segment { rot 0.92506 0 -0.37983 1.73572 offset -0.27295 0.36187 31000.87923 length 0.01534 color 0 0 1 }
Segment { rot 0.99801 0 -0.06299 1.74002 offset -0.27597 0.36354 31000.86981 length 0.00491 color 0 0 1 }
Segment { rot 0.99455 0 -0.10422 1.87612 offset -0.27628 0.36442 31000.86593 length 0.00309 color 0 0 1 }
Segment { rot 0.9989 0 -0.04687 1.82027 offset -0.27657 0.36564 31000.86149 length 0.00614 color 0 0 1 }
Segment { rot 0.99626 0 -0.08641 1.86228 offset -0.27675 0.36653 31000.85811 length 0.00086 color 0 0 1 }
Segment { rot 0.98417 0 -0.17722 1.94363 offset -0.27679 0.36666 31000.85767 length 0.00007 color 0 0 1 }
Segment { rot 0.99512 0 -0.09866 1.86678 offset -0.27712 0.36767 31000.85439 length 0.00682 color 0 0 1 }
Segment { rot 0.99907 0 -0.04314 1.79883 offset -0.27746 0.36878 31000.85066 length 0.001 color 0 0 1 }
Segment { rot 0.99995 0 -0.00951 1.78329 offset -0.27749 0.36919 31000.84877 length 0.00287 color 0 0 1 }
Segment { rot 0.99986 0 0.01695 1.79491 offset -0.2775 0.36953 31000.84723 length 0.00029 color 0 0 1 }
Segment { rot 0.995 0 -0.09986 1.84207 offset -0.27752 0.36961 31000.8469 length 0.00038 color 0 0 1 }
Segment { rot 0.99761 0 -0.06904 2.02276 offset -0.27777 0.37128 31000.8434 length 0.00739 color 0 0 1 }
Segment { rot 0.99975 0 -0.02228 2.00799 offset -0.278 0.37296 31000.83993 length 0.00034 color 0 0 1 }
Segment { rot 0.99766 0 0.06833 2.13791 offset -0.27787 0.37425 31000.83788 length 0.00452 color 0 0 1 }
Segment { rot 0.92762 0 0.37354 2.30496 offset -0.27774 0.37548 31000.83596 length 0.00004 color 0 0 1 }
Segment { rot 0.88321 0 0.46897 2.25478 offset -0.27687 0.377 31000.83431 length 0.00478 color 0 0 1 }
Segment { rot 0.87768 0 0.47925 2.18984 offset -0.27592 0.37863 31000.83253 length 0.00042 color 0 0 1 }
Segment { rot 0.42808 0 -0.90374 2.94635 offset -0.27649 0.3824 31000.83207 length 0.00744 color 0 0 1 }
Segment { rot -0.50669 0 -0.86213 2.89995 offset -0.27716 0.38614 31000.83177 length 0.00018 color 0 0 1 }
Segment { rot -0.49989 0 -0.86609 2.90878 offset -0.27738 0.38722 31000.8319 length 0.00205 color 0 0 1 }
Segment { rot -0.51121 0 -0.85946 2.93675 offset -0.27781 0.38947 31000.83215 length 0.00255 color 0 0 1 }
Segment { rot -0.39617 0 -0.91818 2.92747 offset -0.27848 0.39295 31000.83248 length 0.00456 color 0 0 1 }
Segment { rot -0.29745 0 -0.95474 2.96818 offset -0.27894 0.3953 31000.83268 length 0.00026 color 0 0 1 }
Segment { rot 0.3525 0 -0.93581 2.84485 offset -0.27918 0.39619 31000.8326 length 0.0016 color 0 0 1 }
Segment { rot -0.5437 0 -0.83928 2.44272 offset -0.28069 0.39879 31000.83335 length 0.00478 color 0 0 1 }
Segment { rot -0.325 0 -0.94571 2.54327 offset -0.28232 0.40113 31000.8343 length 0.00124 color 0 0 1 }
Segment { rot -0.37554 0 -0.9268 2.52519 offset -0.28291 0.40205 31000.83453 length 0.001 color 0 0 1 }
Segment { rot -0.36856 0 -0.92961 2.53921 offset -0.28383 0.40347 31000.83489 length 0.00245 color 0 0 1 }
Segment { rot 0.82657 0 -0.56283 2.18589 offset -0.28491 0.40503 31000.8345 length 0.00192 color 0 0 1 }
Segment { rot 0.88213 0 -0.471 2.23298 offset -0.28625 0.40707 31000.83217 length 0.00482 color 0 0 1 }
Segment { rot 0.97109 0 -0.23871 2.18366 offset -0.28737 0.40922 31000.82957 length 0.00233 color 0 0 1 }
Segment { rot 0.96445 0 -0.26428 2.21058 offset -0.28776 0.41035 31000.82805 length 0.00153 color 0 0 1 }
Segment { rot 0.99955 0 0.02985 2.28378 offset -0.28786 0.41267 31000.8253 length 0.0057 color 0 0 1 }
Segment { rot 0.99274 0 0.12025 2.1769 offset -0.28749 0.41632 31000.82058 length 0.00629 color 0 0 1 }
Segment { rot 0.99012 0 0.14019 2.21898 offset -0.28717 0.41813 31000.81801 length 0.00003 color 0 0 1 }
Segment { rot 0.99648 0 0.08383 2.22114 offset -0.28716 0.41822 31000.81788 length 0.0003 color 0 0 1 }
Segment { rot 0.97649 0 0.21556 2.2153 offset -0.28694 0.41904 31000.81681 length 0.00243 color 0 0 1 }
Segment { rot 0.9987 0 0.05094 2.45523 offset -0.28661 0.42268 31000.81348 length 0.00753 color 0 0 1 }
Segment { rot 0.99931 0 -0.03714 2.49807 offset -0.28655 0.42789 31000.80938 length 0.00573 color 0 0 1 }
Segment { rot 0.99661 0 0.08221 2.58503 offset -0.28655 0.43157 31000.8068 length 0.00327 color 0 0 1 }
Segment { rot 0.98847 0 0.15141 2.62492 offset -0.28635 0.43443 31000.80511 length 0.00341 color 0 0 1 }
Segment { rot 0.99999 0 0.00363 2.58634 offset -0.28622 0.43615 31000.80413 length 0.00056 color 0 0 1 }
Segment { rot 0.99892 0 -0.04645 2.56481 offset -0.2863 0.4389 31000.80235 length 0.00599 color 0 0 1 }
Segment { rot 0.9948 0 0.10185 2.58188 offset -0.28633 0.44202 31000.80034 length 0.00143 color 0 0 1 }
Segment { rot 0.99989 0 -0.01499 2.63231 offset -0.2863 0.44286 31000.79983 length 0.00054 color 0 0 1 }
Segment { rot 0.99994 0 -0.01074 2.603 offset -0.2863 0.44334 31000.79956 length 0.00056 color 0 0 1 }
Segment { rot 0.98253 0 0.1861 2.44284 offset -0.286 0.44548 31000.79785 length 0.00497 color 0 0 1 }
Segment { rot 0.9839 0 0.17871 2.43537 offset -0.2857 0.44739 31000.79627 length 0.00002 color 0 0 1 }
Segment { rot 0.98961 0 -0.14376 2.67116 offset -0.28581 0.44891 31000.7955 length 0.0034 color 0 0 1 }
Segment { rot 0.96369 0 0.26701 2.48292 offset -0.28549 0.45253 31000.79317 length 0.0053 color 0 0 1 }
Segment { rot 0.96372 0 0.26692 2.53636 offset -0.285 0.45496 31000.79139 length 0.00081 color 0 0 1 }
Segment { rot 0.80728 0 0.59016 2.91139 offset -0.28492 0.45541 31000.79114 length 0.00026 color 0 0 1 }
Segment { rot 0.57752 0 0.81638 2.81954 offset -0.28452 0.45694 31000.79085 length 0.00295 color 0 0 1 }
Segment { rot 0.23577 0 0.97181 2.82076 offset -0.28209 0.46467 31000.79008 length 0.01334 color 0 0 1 }
Segment { rot -0.54708 0 0.83708 2.82423 offset -0.27874 0.47576 31000.79044 length 0.01002 color 0 0 1 }
Segment { rot -0.66509 0 0.74677 2.80569 offset -0.27741 0.48061 31000.79132 length 0.00019 color 0 0 1 }
Segment { rot -0.3658 0 0.93069 2.5464 offset -0.27546 0.48376 31000.79209 length 0.00738 color 0 0 1 }
Segment { rot -0.55387 0 0.8326 2.34269 offset -0.27302 0.48741 31000.79319 length 0.00172 color 0 0 1 }
Segment { rot -0.58926 0 0.80794 2.2917 offset -0.2719 0.48868 31000.79398 length 0.002 color 0 0 1 }
Segment { rot -0.60293 0 0.7978 2.2829 offset -0.27096 0.48969 31000.79467 length 0.00108 color 0 0 1 }
Segment { rot -0.58163 0 0.81345 2.09562 offset -0.27036 0.49024 31000.79511 length 0.00076 color 0 0 1 }
Segment { rot -0.59215 0 0.80583 2.1744 offset -0.27006 0.49046 31000.79533 length 0.00012 color 0 0 1 }
Segment { rot -0.36674 0 0.93032 1.89857 offset -0.26796 0.49125 31000.79617 length 0.00466 color 0 0 1 }
Segment { rot -0.22737 0 0.97381 1.93134 offset -0.26529 0.49224 31000.79713 length 0.00137 color 0 0 1 }
Segment { rot 0.02018 0 0.9998 1.87262 offset -0.26414 0.49264 31000.79726 length 0.0011 color 0 0 1 }
Segment { rot 0.30484 0 0.9524 1.46837 offset -0.26326 0.49277 31000.79713 length 0.00076 color 0 0 1 }
Segment { rot 0.31763 0 0.94821 1.50353 offset -0.2627 0.49271 31000.79695 length 0.00042 color 0 0 1 }
Segment { rot 0.40413 0 0.9147 1.56537 offset -0.26146 0.49269 31000.79643 length 0.00227 color 0 0 1 }
Segment { rot 0.39463 0 0.91884 1.80654 offset -0.25827 0.49325 31000.79504 length 0.00483 color 0 0 1 }
Segment { rot 0.29084 0 0.95677 1.64907 offset -0.25607 0.49382 31000.7941 length 0.00009 color 0 0 1 }
Segment { rot 0.29129 0 0.95663 1.63534 offset -0.25556 0.49386 31000.79395 length 0.00097 color 0 0 1 }
Segment { rot 0.34413 0 0.93892 1.58698 offset -0.25334 0.49392 31000.79316 length 0.00375 color 0 0 1 }
Segment { rot 0.34638 0 0.93809 1.60565 offset -0.25094 0.49397 31000.79228 length 0.00135 color 0 0 1 }
Segment { rot 0.33236 0 0.94315 1.61229 offset -0.24955 0.49403 31000.79178 length 0.0016 color 0 0 1 }
Segment { rot 0.26755 0 0.96354 1.41451 offset -0.24852 0.49402 31000.79144 length 0.00058 color 0 0 1 }
Segment { rot 0.31158 0 0.95022 1.44414 offset -0.24784 0.49392 31000.79123 length 0.00087 color 0 0 1 }
Segment { rot 0.3207 0 0.94718 1.47981 offset -0.2466 0.49378 31000.79081 length 0.00176 color 0 0 1 }
Segment { rot 0.26823 0 0.96336 1.40831 offset -0.24542 0.49364 31000.79044 length 0.00072 color 0 0 1 }
Segment { rot 0.27178 0 0.96236 0.77671 offset -0.24464 0.49312 31000.79022 length 0.0013 color 0 0 1 }
Segment { rot 0.24641 0 0.96917 0.76281 offset -0.24327 0.49165 31000.78986 length 0.00279 color 0 0 1 }
Segment { rot 0.23379 0 0.97229 0.91504 offset -0.24113 0.48969 31000.78933 length 0.00313 color 0 0 1 }
Segment { rot 0.29598 0 0.95519 0.86242 offset -0.23981 0.48863 31000.789 length 0.00031 color 0 0 1 }
Segment { rot 0.33352 0 0.94274 0.83703 offset -0.2387 0.48757 31000.78862 length 0.00286 color 0 0 1 }
Segment { rot 0.05744 0 0.99835 0.84491 offset -0.23666 0.48569 31000.7882 length 0.00278 color 0 0 1 }
Segment { rot -0.04792 0 0.99885 0.89137 offset -0.23534 0.48455 31000.78816 length 0.00071 color 0 0 1 }
Segment { rot -0.05811 0 0.99831 0.9529 offset -0.23237 0.4824 31000.78833 length 0.00663 color 0 0 1 }
Segment { rot 0.05368 0 0.99856 1.07016 offset -0.22799 0.47956 31000.78839 length 0.00383 color 0 0 1 }
Segment { rot -0.10944 0 0.99399 1.29717 offset -0.22591 0.47853 31000.78835 length 0.00083 color 0 0 1 }
Segment { rot -0.18882 0 0.98201 1.34057 offset -0.22314 0.47785 31000.78885 length 0.00498 color 0 0 1 }
Segment { rot -0.2085 0 0.97802 1.28715 offset -0.2201 0.47708 31000.78945 length 0.00139 color 0 0 1 }
Segment { rot -0.13895 0 0.9903 1.30022 offset -0.21592 0.4759 31000.79008 length 0.00739 color 0 0 1 }
Segment { rot -0.27962 0 0.96011 1.04205 offset -0.21144 0.47433 31000.79085 length 0.0023 color 0 0 1 }
Segment { rot -0.28808 0 0.95761 1.08614 offset -0.20916 0.47302 31000.79153 length 0.00313 color 0 0 1 }
Segment { rot -0.35742 0 0.93394 1.0856 offset -0.20584 0.47117 31000.79269 length 0.00484 color 0 0 1 }
Segment { rot -0.43873 0 0.89862 0.93926 offset -0.20337 0.46966 31000.79368 length 0.00129 color 0 0 1 }
Segment { rot -0.42259 0 -0.90632 1.32023 offset -0.20316 0.46921 31000.79403 length 0.00059 color 0 0 1 }
Segment { rot -0.63583 0 -0.77183 1.3544 offset -0.2036 0.46908 31000.7943 length 0.00048 color 0 0 1 }
Segment { rot -0.62654 0 -0.77939 1.33084 offset -0.20535 0.46854 31000.79571 length 0.00415 color 0 0 1 }
Segment { rot -0.63229 0 -0.77473 1.64456 offset -0.20851 0.4682 31000.79827 length 0.0041 color 0 0 1 }
Segment { rot -0.27805 0 -0.96057 1.59538 offset -0.21046 0.46836 31000.79967 length 0.00076 color 0 0 1 }
Segment { rot -0.24624 0 -0.96921 1.5239 offset -0.21186 0.46832 31000.80004 length 0.00214 color 0 0 1 }
Segment { rot -0.3354 0 -0.94208 1.57127 offset -0.21612 0.46827 31000.80145 length 0.00684 color 0 0 1 }
Segment { rot -0.18418 0 -0.98289 1.60963 offset -0.21976 0.46829 31000.80267 length 0.00086 color 0 0 1 }
Segment { rot -0.26163 0 -0.96517 1.6077 offset -0.2209 0.46833 31000.80295 length 0.0015 color 0 0 1 }
Segment { rot -0.25208 0 -0.96771 1.70577 offset -0.22199 0.46841 31000.80324 length 0.00077 color 0 0 1 }
Segment { rot -0.25265 0 -0.96756 1.64553 offset -0.22346 0.46855 31000.80362 length 0.00227 color 0 0 1 }
Segment { rot -0.23413 0 -0.97221 1.68214 offset -0.22461 0.46864 31000.80392 length 0.00011 color 0 0 1 }
Segment { rot -0.21345 0 -0.97695 1.67054 offset -0.22585 0.46877 31000.80419 length 0.00245 color 0 0 1 }
Segment { rot -0.24191 0 -0.9703 1.78957 offset -0.22775 0.46905 31000.80463 length 0.00149 color 0 0 1 }
Segment { rot 0.91804 0 0.39649 0.23079 offset -0.22838 0.4684 31000.80463 length 0.00167 color 0 0 1 }
Segment { rot 0.99722 0 0.07446 0.11892 offset -0.22829 0.46677 31000.80436 length 0.00163 color 0 0 1 }
Segment { rot 0.9103 0 -0.41394 0.37108 offset -0.22829 0.46595 31000.80426 length 0.00002 color 0 0 1 }
Segment { rot 0.10232 0 -0.99475 0.32349 offset -0.22885 0.46427 31000.8042 length 0.00353 color 0 0 1 }
Segment { rot -0.00454 0 -0.99999 0.30608 offset -0.22945 0.46245 31000.80414 length 0.00032 color 0 0 1 }
Segment { rot 0.17869 0 -0.9839 0.19036 offset -0.22974 0.46104 31000.8041 length 0.00256 color 0 0 1 }
Segment { rot 0.4236 0 -0.90585 0.16586 offset -0.23006 0.45923 31000.80401 length 0.00114 color 0 0 1 }
Segment { rot 0.56058 0 -0.8281 0.08258 offset -0.23032 0.45616 31000.80386 length 0.00504 color 0 0 1 }
Segment { rot -0.43618 0 0.89986 0.02021 offset -0.23048 0.45315 31000.80375 length 0.00099 color 0 0 1 }
Segment { rot 0.99799 0 0.06335 0.06281 offset -0.23047 0.45176 31000.80369 length 0.00181 color 0 0 1 }
Segment { rot 0.83933 0 0.54362 0.07624 offset -0.23043 0.45 31000.80358 length 0.00172 color 0 0 1 }
Segment { rot 0.40538 0 -0.91415 0.10184 offset -0.23051 0.4479 31000.80348 length 0.00251 color 0 0 1 }
Segment { rot 0.39877 0 -0.91705 0.31561 offset -0.23106 0.44519 31000.80323 length 0.00307 color 0 0 1 }
Segment { rot 0.5896 0 -0.8077 0.3874 offset -0.23209 0.44194 31000.80261 length 0.00386 color 0 0 1 }
Segment { rot 0.2282 0 -0.97362 0.3419 offset -0.23281 0.43976 31000.80215 length 0.00084 color 0 0 1 }
Segment { rot 0.10043 0 -0.99494 0.32158 offset -0.23301 0.43918 31000.80211 length 0.0004 color 0 0 1 }
Segment { rot 0.49588 0 -0.86839 0.16919 offset -0.23318 0.43831 31000.80205 length 0.00138 color 0 0 1 }
Segment { rot -0.34106 0 0.94004 0.77616 offset -0.23171 0.43592 31000.80256 length 0.00478 color 0 0 1 }
Segment { rot -0.40199 0 0.91564 0.69273 offset -0.23002 0.43407 31000.80318 length 0.00038 color 0 0 1 }
Segment { rot -0.38755 0 0.92185 0.64721 offset -0.22984 0.43383 31000.80326 length 0.00024 color 0 0 1 }
Segment { rot -0.91167 0 0.41092 0.37811 offset -0.22975 0.43355 31000.80335 length 0.00038 color 0 0 1 }
Segment { rot 0.83635 0 -0.5482 0.82368 offset -0.22976 0.4333 31000.80335 length 0.00024 color 0 0 1 }
Segment { rot 0.93481 0 0.35515 1.14352 offset -0.22912 0.43233 31000.80145 length 0.00429 color 0 0 1 }
Segment { rot 0.6464 0 0.763 1.51125 offset -0.22702 0.43133 31000.79844 length 0.00369 color 0 0 1 }
Segment { rot 0.74917 0 0.66238 1.48186 offset -0.22474 0.4311 31000.79626 length 0.00265 color 0 0 1 }
Segment { rot 0.71689 0 0.69719 1.55432 offset -0.22328 0.43097 31000.79467 length 0.00168 color 0 0 1 }
Segment { rot 0.70165 0 0.71252 1.4748 offset -0.22219 0.43089 31000.79357 length 0.00141 color 0 0 1 }
Segment { rot 0.83992 0 0.54271 1.01716 offset -0.22141 0.43049 31000.79263 length 0.00124 color 0 0 1 }
Segment { rot 0.89412 0 -0.44783 1.54809 offset -0.22124 0.43016 31000.79195 length 0.00054 color 0 0 1 }
Segment { rot 0.94948 0 -0.31381 1.5798 offset -0.22149 0.43016 31000.79132 length 0.0008 color 0 0 1 }
Segment { rot 0.93761 0 -0.34768 1.67484 offset -0.22186 0.43024 31000.79028 length 0.00141 color 0 0 1 }
Segment { rot 0.94551 0 -0.3256 1.70651 offset -0.22212 0.43032 31000.78958 length 0.0001 color 0 0 1 }
Segment { rot 0.96492 0 -0.26254 1.67679 offset -0.22219 0.43034 31000.78935 length 0.00038 color 0 0 1 }
Segment { rot 0.95754 0 -0.28831 1.69176 offset -0.22247 0.43046 31000.78838 length 0.00165 color 0 0 1 }
Segment { rot 0.95372 0 -0.30071 1.55465 offset -0.22277 0.43056 31000.78741 length 0.00039 color 0 0 1 }
Segment { rot 0.97321 0 -0.22992 1.45256 offset -0.22309 0.43042 31000.78609 length 0.00234 color 0 0 1 }
Segment { rot 0.97558 0 -0.21964 0.45428 offset -0.2234 0.42993 31000.78479 length 0.00078 color 0 0 1 }
Segment { rot 0.34277 0 -0.93942 0.30974 offset -0.22351 0.42933 31000.7846 length 0.00052 color 0 0 1 }
Segment { rot 0.33006 0 -0.94396 0.25252 offset -0.22418 0.42663 31000.78436 length 0.00507 color 0 0 1 }
Segment { rot -0.94893 0 0.31549 1.37659 offset -0.22458 0.42405 31000.78475 length 0.00127 color 0 0 1 }
Segment { rot -0.9995 0 0.03173 1.92773 offset -0.22437 0.42406 31000.78571 length 0.00078 color 0 0 1 }
Segment { rot -0.98757 0 0.15716 1.73916 offset -0.22432 0.42425 31000.78635 length 0.00056 color 0 0 1 }
Segment { rot -0.99359 0 0.11304 1.79654 offset -0.22418 0.42449 31000.78748 length 0.00178 color 0 0 1 }
Segment { rot -0.9955 0 -0.09479 1.11808 offset -0.2241 0.42457 31000.7886 length 0.00056 color 0 0 1 }
Segment { rot -0.99543 0 -0.09545 1.07322 offset -0.22428 0.42358 31000.79044 length 0.00364 color 0 0 1 }
Segment { rot -0.99997 0 -0.00822 0.86438 offset -0.22443 0.4226 31000.79216 length 0.00034 color 0 0 1 }
Segment { rot -0.75284 0 -0.6582 0.89217 offset -0.22481 0.42203 31000.79272 length 0.00147 color 0 0 1 }
Segment { rot -0.97077 0 0.24 0.91922 offset -0.22506 0.42118 31000.79365 length 0.00129 color 0 0 1 }
Segment { rot -0.96579 0 0.25931 0.93212 offset -0.22491 0.42069 31000.79427 length 0.00033 color 0 0 1 }
Segment { rot 0.93809 0 -0.34639 1.28597 offset -0.22496 0.42052 31000.79417 length 0.0005 color 0 0 1 }
Segment { rot 0.97111 0 -0.23861 1.22122 offset -0.22524 0.42014 31000.79312 length 0.00181 color 0 0 1 }
Segment { rot 0.99121 0 0.1323 1.87133 offset -0.22544 0.41984 31000.79226 length 0.00007 color 0 0 1 }
Segment { rot 0.99549 0 0.09489 1.79639 offset -0.22532 0.42013 31000.791 length 0.00254 color 0 0 1 }
Segment { rot 0.86915 0 -0.49454 1.57369 offset -0.22552 0.42042 31000.78922 length 0.00128 color 0 0 1 }
Segment { rot 0.68173 0 0.7316 1.49718 offset -0.22567 0.4204 31000.78851 length 0.00045 color 0 0 1 }
Segment { rot 0.7967 0 0.60437 1.3773 offset -0.22545 0.42037 31000.78829 length 0.00018 color 0 0 1 }
Segment { rot 0.66327 0 0.74838 1.87242 offset -0.22523 0.42042 31000.78806 length 0.00048 color 0 0 1 }
Segment { rot 0.67594 0 0.73696 1.5583 offset -0.22504 0.4205 31000.7879 length 0.00004 color 0 0 1 }
Segment { rot 0.57404 0 0.81883 1.69817 offset -0.22439 0.42059 31000.78744 length 0.00157 color 0 0 1 }
Segment { rot -0.46932 0 0.88303 1.75439 offset -0.22345 0.42076 31000.78715 length 0.00069 color 0 0 1 }
Segment { rot -0.5341 0 0.84542 1.82398 offset -0.22313 0.42083 31000.78733 length 0.00007 color 0 0 1 }
Segment { rot -0.46652 0 0.88451 1.96495 offset -0.22274 0.421 31000.78753 length 0.00086 color 0 0 1 }
Segment { rot -0.98305 0 0.18335 1.91579 offset -0.22239 0.42118 31000.78775 length 0.00007 color 0 0 1 }
Segment { rot -0.43856 0 0.8987 2.45058 offset -0.22235 0.42124 31000.7878 length 0.00012 color 0 0 1 }